#=================================================================================================================================================
#     Step |         Time |         State |                                     Energy |     Gradient |           Expectation Value |    Runtime |
#          |              |  diag |   MCH |          kin |          pot |          tot |          RMS |           DM |            S |            |
#          |         [fs] |       |       |         [eV] |         [eV] |         [eV] |     [eV/Ang] |      [Debye] |              |      [sec] |
#=================================================================================================================================================
         0        0.00000       2       2       0.612594      10.398832      11.011426       1.645109       0.529037       0.000000            8
         1        0.50000       2       2       0.495012      10.518256      11.013268       1.793210       0.509610       0.000000            7
         2        1.00000       2       2       0.402074      10.612713      11.014787       1.937984       0.496973       0.000000            6
         3        1.50000       2       2       0.354881      10.660635      11.015516       2.022569       0.491462       0.000000            6
         4        2.00000       2       2       0.363925      10.651527      11.015452       2.044740       0.493404       0.000000            6
         5        2.50000       2       2       0.427994      10.586699      11.014692       2.016025       0.502140       0.000000            6
         6        3.00000       2       2       0.534984      10.478154      11.013137       1.938304       0.516336       0.000000            6
         7        3.50000       2       2       0.661247      10.349436      11.010683       1.807972       0.534989       0.000000            6
         8        4.00000       2       2       0.771916      10.235833      11.007749       1.651069       0.557880       0.000000            7
         9        4.50000       2       2       0.828741      10.176924      11.005665       1.570677       0.584892       0.000000            6
        10        5.00000       2       2       0.810320      10.196067      11.006387       1.710244       0.614687       0.000000            6
        11        5.50000       2       2       0.738027      10.272783      11.010811       2.057182       0.643573       0.000000            6
        12        6.00000       2       2       0.683048      10.333539      11.016587       2.410881       0.666011       0.000000            6
        13        6.50000       2       2       0.730300      10.288852      11.019152       2.584023       0.677433       0.000000            6
        14        7.00000       2       2       0.918154      10.098485      11.016639       2.529874       0.677669       0.000000            6
        15        7.50000       2       2       1.214110       9.797745      11.011855       2.337893       0.671637       0.000000            5
        16        8.00000       2       2       1.548703       9.459390      11.008093       2.120129       0.666154       0.000000            6
        17        8.50000       2       2       1.860296       9.145722      11.006018       1.921085       0.665788       0.000000            6
        18        9.00000       2       2       2.110731       8.894422      11.005153       1.759894       0.670934       0.000000            6
        19        9.50000       2       2       2.282735       8.722693      11.005428       1.679215       0.678599       0.000000            5
        20       10.00000       2       2       2.377640       8.629020      11.006661       1.692805       0.684080       0.000000            6
        21       10.50000       2       2       2.412144       8.596162      11.008305       1.755152       0.682123       0.000000            6
        22       11.00000       2       2       2.410630       8.599204      11.009834       1.813158       0.667600       0.000000            5
        23       11.50000       2       2       2.397308       8.613723      11.011031       1.844264       0.635650       0.000000            6
        24       12.00000       2       2       2.392315       8.619603      11.011918       1.850484       0.581850       0.000000            5
        25       12.50000       2       2       2.411197       8.601376      11.012573       1.840901       0.505617       0.000000            6
        26       13.00000       2       2       2.465394       8.547644      11.013038       1.821894       0.449546       0.000000            5
        27       13.50000       2       2       2.562778       8.450674      11.013452       1.800304       0.694392       0.000000            6
        28       14.00000       2       2       2.705826       8.306512      11.012337       1.799716       1.502979       0.000000            5
        29       14.50000       2       2       2.872138       8.135900      11.008038       1.756367       1.883846       0.000000            6
        30       15.00000       2       2       3.031871       7.977368      11.009240       1.611367       1.404275       0.000000            5
        31       15.50000       2       2       3.171069       7.836377      11.007446       1.454760       0.910625       0.000000            6
        32       16.00000       2       2       3.266055       7.738889      11.004944       1.299538       0.661331       0.000000            5
        33       16.50000       2       2       3.279688       7.722961      11.002649       1.155928       0.536950       0.000000            6
        34       17.00000       2       2       3.177579       7.823579      11.001159       1.093275       0.465538       0.000000            5
        35       17.50000       2       2       2.939716       8.061783      11.001498       1.229504       0.418092       0.000000            6
        36       18.00000       2       2       2.576198       8.428646      11.004844       1.590367       0.382309       0.000000            5
        37       18.50000       2       2       2.141530       8.869491      11.011021       2.033490       0.353027       0.000000            6
        38       19.00000       2       2       1.726973       9.289902      11.016874       2.357020       0.328800       0.000000            6
        39       19.50000       2       2       1.414985       9.603155      11.018139       2.431214       0.309755       0.000000            5
        40       20.00000       2       2       1.224794       9.789701      11.014495       2.315981       0.296188       0.000000            6
        41       20.50000       2       2       1.108574       9.901609      11.010183       2.248434       0.288032       0.000000            6
        42       21.00000       2       2       1.004558      10.004225      11.008783       2.390446       0.284873       0.000000            6
        43       21.50000       2       2       0.886407      10.123785      11.010192       2.642296       0.286182       0.000000            6
        44       22.00000       2       2       0.767167      10.245226      11.012394       2.834473       0.291621       0.000000            6
        45       22.50000       2       2       0.674540      10.339397      11.013937       2.891007       0.301328       0.000000            6
        46       23.00000       2       2       0.629964      10.384652      11.014617       2.816121       0.315713       0.000000            6
        47       23.50000       2       2       0.642942      10.371768      11.014709       2.645053       0.334593       0.000000            6
        48       24.00000       2       2       0.713915      10.300542      11.014457       2.411905       0.356591       0.000000            6
        49       24.50000       2       2       0.837374      10.176492      11.013866       2.141938       0.379695       0.000000            6
        50       25.00000       2       2       1.002318      10.010528      11.012845       1.853455       0.402571       0.000000            6
        51       25.50000       2       2       1.191098       9.820204      11.011302       1.566153       0.425019       0.000000            6
        52       26.00000       2       2       1.378611       9.630697      11.009308       1.319568       0.447493       0.000000            6
        53       26.50000       2       2       1.534125       9.473125      11.007250       1.206271       0.470565       0.000000            5
        54       27.00000       2       2       1.628081       9.377894      11.005974       1.352844       0.494935       0.000000            6
        55       27.50000       2       2       1.645124       9.361504      11.006628       1.769018       0.521839       0.000000            6
        56       28.00000       2       2       1.600296       9.409657      11.009953       2.325094       0.553764       0.000000            6
        57       28.50000       2       2       1.546216       9.468648      11.014863       2.850909       0.595370       0.000000            5
        58       29.00000       2       2       1.554048       9.464032      11.018080       3.179230       0.654436       0.000000            6
        59       29.50000       2       2       1.668054       9.348691      11.016745       3.205841       0.741824       0.000000            6
        60       30.00000       2       2       1.868775       9.142905      11.011680       2.949333       0.869210       0.000000            5
        61       30.50000       2       2       2.084365       8.922302      11.006666       2.544097       1.045438       0.000000            6
        62       31.00000       2       2       2.240030       8.764463      11.004493       2.163087       1.273502       0.000000            6
        63       31.50000       2       2       2.298435       8.706854      11.005289       1.931510       1.547353       0.000000            6
        64       32.00000       2       2       2.265750       8.741926      11.007676       1.872377       1.838290       0.000000            6
        65       32.50000       2       2       2.174565       8.835713      11.010278       1.921852       2.048111       0.000000            5
        66       33.00000       2       2       2.064419       8.948180      11.012599       1.987868       1.899846       0.000000            6
        67       33.50000       2       2       1.972773       9.042295      11.015068       1.999833       1.046890       0.000000            5
        68       34.00000       2       2       1.929555       9.086008      11.015563       1.999896       1.260946       0.000000            6
        69       34.50000       2       2       1.946558       9.068205      11.014763       1.981232       2.011191       0.000000            6
        70       35.00000       2       2       2.018632       8.995280      11.013912       1.912257       2.313987       0.000000            5
        71       35.50000       2       2       2.134466       8.878413      11.012879       1.809196       2.410022       0.000000            6
        72       36.00000       2       2       2.278716       8.732844      11.011560       1.684048       2.422309       0.000000            6
        73       36.50000       2       2       2.431076       8.578838      11.009915       1.542663       2.397141       0.000000            5
        74       37.00000       2       2       2.566158       8.441882      11.008040       1.394003       2.353475       0.000000            6
        75       37.50000       2       2       2.655392       8.350852      11.006244       1.262128       2.300396       0.000000            6
        76       38.00000       2       2       2.672386       8.332738      11.005124       1.196039       2.243182       0.000000            5
        77       38.50000       2       2       2.602140       8.403286      11.005426       1.248230       2.185208       0.000000            6
        78       39.00000       2       2       2.450981       8.556475      11.007456       1.404310       2.128799       0.000000            6
        79       39.50000       2       2       2.249436       8.761016      11.010452       1.571807       2.075574       0.000000            6
        80       40.00000       2       2       2.040345       8.972410      11.012755       1.661955       2.026881       0.000000            5
        81       40.50000       2       2       1.856155       9.157063      11.013218       1.673800       1.984373       0.000000            6
        82       41.00000       2       2       1.703563       9.308691      11.012254       1.713759       1.950150       0.000000            6
        83       41.50000       2       2       1.568426       9.442724      11.011150       1.900507       1.926272       0.000000            6
        84       42.00000       2       2       1.433629       9.577293      11.010922       2.237759       1.913497       0.000000            6
        85       42.50000       2       2       1.294407       9.717472      11.011879       2.641241       1.910397       0.000000            6
        86       43.00000       2       2       1.163686       9.850007      11.013693       3.025863       1.913911       0.000000            5
        87       43.50000       2       2       1.067741       9.947924      11.015665       3.331899       1.921215       0.000000            6
        88       44.00000       2       2       1.035024       9.981862      11.016886       3.524393       1.931617       0.000000            6
        89       44.50000       2       2       1.083746       9.933182      11.016929       3.595356       1.946441       0.000000            6
        90       45.00000       2       2       1.215585       9.800478      11.016063       3.560328       1.967179       0.000000            6
        91       45.50000       2       2       1.418825       9.596078      11.014904       3.447366       1.992426       0.000000            6
        92       46.00000       2       2       1.676743       9.337124      11.013867       3.280603       2.014668       0.000000            6
        93       46.50000       2       2       1.973477       9.039317      11.012795       3.068678       2.017424       0.000000            5
        94       47.00000       2       2       2.292327       8.718680      11.011007       2.797713       1.974562       0.000000            7
        95       47.50000       2       2       2.609325       8.399360      11.008685       2.458631       1.862909       0.000000            5
        96       48.00000       2       2       2.898153       8.109720      11.007873       2.107335       1.698886       0.000000            6
        97       48.50000       2       2       3.142720       7.864716      11.007436       1.785638       1.529672       0.000000            6
        98       49.00000       2       2       3.333885       7.673034      11.006919       1.530432       1.378246       0.000000            6
        99       49.50000       2       2       3.464087       7.542783      11.006869       1.412596       1.247759       0.000000            6
       100       50.00000       2       2       3.531078       7.476247      11.007325       1.451351       1.140952       0.000000            5
       101       50.50000       2       2       3.538031       7.469761      11.007793       1.578048       1.063537       0.000000            6
       102       51.00000       2       2       3.487926       7.519813      11.007739       1.715256       1.017310       0.000000            6
       103       51.50000       2       2       3.378831       7.628388      11.007219       1.833854       0.993986       0.000000            5
       104       52.00000       2       2       3.205973       7.800860      11.006833       1.945286       0.982277       0.000000            6
       105       52.50000       2       2       2.969905       8.037357      11.007262       2.070740       0.977299       0.000000            6
       106       53.00000       2       2       2.685161       8.323722      11.008883       2.218997       0.979890       0.000000            5
       107       53.50000       2       2       2.385131       8.626723      11.011854       2.389072       0.992619       0.000000            6
       108       54.00000       2       2       2.123198       8.892882      11.016079       2.576750       1.018136       0.000000            5
       109       54.50000       2       2       1.968730       9.051837      11.020567       2.748534       1.057450       0.000000            6
       110       55.00000       2       2       1.988634       9.034001      11.022636       2.823699       1.106946       0.000000            5
       111       55.50000       2       2       2.211198       8.808774      11.019972       2.739552       1.156953       0.000000            6
       112       56.00000       2       2       2.599005       8.414623      11.013628       2.539581       1.193948       0.000000            5
       113       56.50000       2       2       3.064056       7.943028      11.007084       2.352598       1.205240       0.000000            6
       114       57.00000       2       2       3.512569       7.490107      11.002676       2.274584       1.183539       0.000000            5
       115       57.50000       2       2       3.878195       7.122456      11.000651       2.304518       1.128984       0.000000            6
# Surface Hop: new state=    1 old state=    2 randnum=  0.378195882
       116       58.00000       1       1       4.132524       6.868127      11.000651       2.392121       1.068188       0.000000            9
       117       58.50000       1       1       4.260251       6.739153      10.999405       2.499652       0.968001       0.000000            5
       118       59.00000       1       1       4.292939       6.708820      11.001758       2.563730       0.885758       0.000000            6
       119       59.50000       1       1       4.256053       6.747374      11.003426       2.554372       0.835942       0.000000            5
# Surface Hop: new state=    2 old state=    1 randnum=  0.167366587
       120       60.00000       2       2       4.130107       6.873319      11.003426       2.403388       0.748580       0.000000            9
       121       60.50000       2       2       3.982575       7.020776      11.003351       2.197570       0.727778       0.000000            6
       122       61.00000       2       2       3.790056       7.213293      11.003349       2.021700       0.738290       0.000000            5
       123       61.50000       2       2       3.552262       7.451895      11.004157       1.975091       0.774167       0.000000            6
       124       62.00000       2       2       3.279879       7.726045      11.005924       2.081394       0.828109       0.000000            5
       125       62.50000       2       2       2.997303       8.010981      11.008283       2.279724       0.894380       0.000000            6
       126       63.00000       2       2       2.737960       8.272679      11.010639       2.488085       0.969468       0.000000            5
       127       63.50000       2       2       2.535507       8.476793      11.012300       2.646473       1.051262       0.000000            6
       128       64.00000       2       2       2.414073       8.598718      11.012791       2.726643       1.137920       0.000000            5
       129       64.50000       2       2       2.380922       8.631017      11.011939       2.730387       1.226879       0.000000            6
       130       65.00000       2       2       2.423858       8.586003      11.009861       2.680430       1.314300       0.000000            5
       131       65.50000       2       2       2.512287       8.494308      11.006595       2.607393       1.395047       0.000000            6
       132       66.00000       2       2       2.598662       8.403438      11.002100       2.548625       1.463322       0.000000            5
       133       66.50000       2       2       2.620746       8.376156      10.996902       2.574375       1.513910       0.000000            6
       134       67.00000       2       2       2.514764       8.478719      10.993483       2.814046       1.543621       0.000000            5
       135       67.50000       2       2       2.256424       8.740353      10.996777       3.364105       1.552313       0.000000            6
       136       68.00000       2       2       1.925761       9.083728      11.009490       4.072172       1.543182       0.000000            5
       137       68.50000       2       2       1.722322       9.300775      11.023097       4.531318       1.522166       0.000000            6
       138       69.00000       2       2       1.839393       9.184425      11.023818       4.434315       1.496174       0.000000            6
       139       69.50000       2       2       2.295276       8.717410      11.012686       3.893870       1.469945       0.000000            5
       140       70.00000       2       2       2.934479       8.065633      11.000112       3.231331       1.443448       0.000000            5
       141       70.50000       2       2       3.557812       7.433483      10.991294       2.628255       1.413329       0.000000            6
       142       71.00000       2       2       4.013579       6.974096      10.987675       2.178676       1.376772       0.000000            5
       143       71.50000       2       2       4.228508       6.760529      10.989037       1.971376       1.333374       0.000000            6
       144       72.00000       2       2       4.205861       6.787664      10.993525       1.995810       1.284605       0.000000            5
       145       72.50000       2       2       4.000781       6.998312      10.999093       2.148968       1.233286       0.000000            6
       146       73.00000       2       2       3.690144       7.314174      11.004318       2.338812       1.183603       0.000000            5
       147       73.50000       2       2       3.349502       7.658811      11.008312       2.514904       1.140759       0.000000            6
       148       74.00000       2       2       3.037853       7.972716      11.010569       2.663897       1.109726       0.000000            5
       149       74.50000       2       2       2.789909       8.221366      11.011275       2.809876       1.093523       0.000000            6
       150       75.00000       2       2       2.618014       8.393155      11.011170       2.996916       1.091832       0.000000            5
       151       75.50000       2       2       2.522391       8.488677      11.011068       3.250520       1.100570       0.000000            6
       152       76.00000       2       2       2.502506       8.508817      11.011323       3.555144       1.112897       0.000000            5
       153       76.50000       2       2       2.562926       8.448977      11.011904       3.867854       1.123036       0.000000            6
       154       77.00000       2       2       2.713503       8.299264      11.012767       4.140919       1.137657       0.000000            5
       155       77.50000       2       2       2.968159       8.045849      11.014008       4.332449       1.200981       0.000000            6
       156       78.00000       2       2       3.340274       7.673591      11.013865       4.382929       1.372654       0.000000            5
# Surface Hop: new state=    1 old state=    2 randnum=  0.055786755
       157       78.50000       1       1       3.912333       7.101533      11.013865       4.087259       1.559292       0.000000            9
       158       79.00000       1       1       4.355948       6.630819      10.986767       4.032851       1.959150       0.000000            6
       159       79.50000       1       1       4.818431       6.157838      10.976269       3.519035       2.070509       0.000000            5
       160       80.00000       1       1       5.114766       5.858334      10.973099       3.216212       2.140528       0.000000            6
       161       80.50000       1       1       5.216549       5.763174      10.979724       3.380827       2.176532       0.000000            5
       162       81.00000       1       1       5.222318       5.768161      10.990479       3.718398       2.185987       0.000000            6
       163       81.50000       1       1       5.269114       5.723337      10.992451       3.683698       2.175136       0.000000            5
       164       82.00000       1       1       5.378024       5.606200      10.984225       3.150040       2.151347       0.000000            6
       165       82.50000       1       1       5.436384       5.540818      10.977203       2.452919       2.122438       0.000000            5
       166       83.00000       1       1       5.332608       5.645027      10.977636       2.006806       2.093923       0.000000            6
       167       83.50000       1       1       5.048866       5.934132      10.982998       1.936604       2.068612       0.000000            6
       168       84.00000       1       1       4.642963       6.346256      10.989219       2.060712       2.051536       0.000000            6
       169       84.50000       1       1       4.194841       6.799391      10.994231       2.209850       2.052425       0.000000            5
       170       85.00000       1       1       3.772860       7.224654      10.997513       2.329639       2.078681       0.000000            6
       171       85.50000       1       1       3.422715       7.576451      10.999166       2.422551       2.128466       0.000000            6
       172       86.00000       1       1       3.168012       7.831521      10.999533       2.504719       2.193549       0.000000            6
       173       86.50000       1       1       3.015372       7.983653      10.999025       2.587926       2.267618       0.000000            6
       174       87.00000       1       1       2.959721       8.038172      10.997893       2.674605       2.351256       0.000000            6
       175       87.50000       1       1       2.988130       8.008304      10.996435       2.760759       2.446998       0.000000            6
       176       88.00000       1       1       3.083321       7.911628      10.994949       2.840843       2.541811       0.000000            6
       177       88.50000       1       1       3.225184       7.767842      10.993026       2.906484       2.592143       0.000000            6
       178       89.00000       1       1       3.384424       7.604519      10.988943       2.953161       2.531475       0.000000            7
       179       89.50000       1       1       3.502087       7.479000      10.981087       3.129913       2.331698       0.000000            6
       180       90.00000       1       1       3.512745       7.470547      10.983292       3.720119       2.133235       0.000000            6
       181       90.50000       1       1       3.424298       7.564522      10.988820       4.270038       2.043234       0.000000            6
       182       91.00000       1       1       3.308770       7.684524      10.993294       4.608818       1.987173       0.000000            6
       183       91.50000       1       1       3.244486       7.753041      10.997527       4.807644       1.873100       0.000000            6
       184       92.00000       1       1       3.297934       7.701173      10.999107       4.837621       1.701621       0.000000            6
       185       92.50000       1       1       3.491325       7.504524      10.995849       4.653338       1.518469       0.000000            6
       186       93.00000       1       1       3.780162       7.209913      10.990075       4.324714       1.355967       0.000000            6
       187       93.50000       1       1       4.083509       6.902356      10.985865       3.991207       1.221435       0.000000            6
       188       94.00000       1       1       4.338429       6.646632      10.985060       3.750738       1.108667       0.000000            6
       189       94.50000       1       1       4.528151       6.458617      10.986768       3.615169       1.009418       0.000000            6
       190       95.00000       1       1       4.674673       6.314741      10.989415       3.544385       0.918215       0.000000            6
       191       95.50000       1       1       4.817584       6.174322      10.991906       3.495190       0.832151       0.000000            6
       192       96.00000       1       1       4.997635       5.996211      10.993846       3.441045       0.748826       0.000000            6
       193       96.50000       1       1       5.249864       5.745484      10.995348       3.373075       0.665457       0.000000            6
       194       97.00000       1       1       5.604227       5.392677      10.996904       3.297341       0.581134       0.000000            6
       195       97.50000       1       1       6.092799       4.906780      10.999579       3.236487       0.501816       0.000000            7
       196       98.00000       1       1       6.649183       4.270108      10.919291       3.340406       0.449833       0.000000            6
       197       98.50000       1       1       7.198870       3.760756      10.959626       3.215848       0.480454       0.000000            7
       198       99.00000       1       1       7.738744       3.214125      10.952869       2.944306       0.387976       0.000000            6
       199       99.50000       1       1       8.213169       2.735945      10.949114       2.822737       0.269271       0.000000            6
       200      100.00000       1       1       8.553646       2.391155      10.944801       2.832831       0.162209       0.000000            6
