           6
  t=         0.00000    2    2
C       3.398879011      0.787237331     -9.248747200
C       4.700124635      0.767030667     -8.869916971
H       2.878810702     -0.189079198     -9.607812194
H       2.805506826      1.667977274     -9.331752879
H       5.337897746     -0.056750409     -9.067502973
H       5.177635576      1.819980248     -8.817819453
           6
  t=         0.50000    2    2
C       3.397556632      0.783126885     -9.250623686
C       4.700958000      0.762608174     -8.866770333
H       2.869943568     -0.193119251     -9.604446885
H       2.823717490      1.696047590     -9.330652888
H       5.318272332     -0.039106937     -9.084282470
H       5.193740280      1.879907529     -8.820629843
           6
  t=         1.00000    2    2
C       3.394720608      0.778498487     -9.252877947
C       4.702840081      0.759216014     -8.863168473
H       2.864353321     -0.191291696     -9.600133338
H       2.842718952      1.723326422     -9.329674898
H       5.301775939     -0.024678989     -9.102001718
H       5.208184098      1.931873372     -8.824248873
           6
  t=         1.50000    2    2
C       3.390515842      0.773433789     -9.255512178
C       4.705498085      0.757076600     -8.859040988
H       2.861501433     -0.183746122     -9.594538049
H       2.862993117      1.748597289     -9.329007546
H       5.289948810     -0.015407907     -9.121987601
H       5.221006190      1.975564742     -8.828306663
           6
  t=         2.00000    2    2
C       3.385249872      0.768031339     -9.258514008
C       4.708554110      0.756191383     -8.854347750
H       2.860536426     -0.171066934     -9.587427269
H       2.884770200      1.770967775     -9.328635494
H       5.283675629     -0.012629058     -9.145407075
H       5.232780946      2.012603157     -8.832510434
           6
  t=         2.50000    2    2
C       3.379313198      0.762432355     -9.261835950
C       4.711641920      0.756363178     -8.849117692
H       2.860465125     -0.154296529     -9.578825964
H       2.908064036      1.789869742     -9.328375348
H       5.282995331     -0.016642386     -9.172774124
H       5.244159861      2.045565505     -8.836725571
           6
  t=         3.00000    2    2
C       3.373085306      0.756820463     -9.265388265
C       4.714510823      0.757296069     -8.843453066
H       2.860217567     -0.134936255     -9.569085101
H       2.932757650      1.804981096     -9.328042586
H       5.287129119     -0.026602462     -9.203811874
H       5.255575125      2.076766776     -8.840913485
           6
  t=         3.50000    2    2
C       3.366904214      0.751410698     -9.269047425
C       4.717037248      0.758677116     -8.837510035
H       2.858600815     -0.114929926     -9.558837873
H       2.958649061      1.816157092     -9.327548556
H       5.294736456     -0.040818049     -9.237613891
H       5.267208836      2.107770062     -8.845047497
           6
  t=         4.00000    2    2
C       3.361068549      0.746435507     -9.272670198
C       4.719185874      0.760224319     -8.831473337
H       2.854296298     -0.096542816     -9.548896490
H       2.985460201      1.823387918     -9.326914327
H       5.304284997     -0.057248581     -9.272906790
H       5.279054826      2.139399896     -8.849073520
           6
  t=         4.50000    2    2
C       3.355837200      0.742119044     -9.276111315
C       4.720969130      0.761711051     -8.825532157
H       2.845983108     -0.082063525     -9.540107741
H       3.012835016      1.826784467     -9.326241165
H       5.314351930     -0.073937480     -9.308300243
H       5.290982339      2.171906845     -8.852910903
           6
  t=         5.00000    2    2
C       3.351416520      0.738636543     -9.279243513
C       4.722420816      0.762972990     -8.819861060
H       2.832590684     -0.073333113     -9.533167672
H       3.040341000      1.826585642     -9.325681693
H       5.323786805     -0.089253970     -9.342477935
H       5.302785416      2.205132374     -8.856464110
           6
  t=         5.50000    2    2
C       3.347940995      0.736069921     -9.281974369
C       4.723581847      0.763901197     -8.814609664
H       2.813613727     -0.071243746     -9.528452830
H       3.067479703      1.823183093     -9.325414519
H       5.331747100     -0.101965011     -9.374299861
H       5.314221872      2.238665693     -8.859636947
           6
  t=         6.00000    2    2
C       3.345459780      0.734381794     -9.284254119
C       4.724493838      0.764429618     -8.809899092
H       2.789333498     -0.075459564     -9.525941262
H       3.093705704      1.817145804     -9.325628162
H       5.337665669     -0.111203936     -9.402836721
H       5.325042211      2.271966908     -8.862342500
           6
  t=         6.50000    2    2
C       3.343941356      0.733423759     -9.286070970
C       4.725195881      0.764521948     -8.805823247
H       2.760811543     -0.084531592     -9.525265628
H       3.118449063      1.809230342     -9.326509946
H       5.341195706     -0.116406445     -9.427361638
H       5.335011491      2.304465478     -8.864510009
           6
  t=         7.00000    2    2
C       3.343295832      0.732974466     -9.287437853
C       4.725722958      0.764161280     -8.802452555
H       2.729655512     -0.096336307     -9.525859730
H       3.141144303      1.800361072     -9.328239377
H       5.342157691     -0.117238296     -9.447322436
H       5.343920835      2.335616139     -8.866085802
           6
  t=         7.50000    2    2
C       3.343404217      0.732787234     -9.288378239
C       4.726104880      0.763343134     -8.799837880
H       2.697687370     -0.108593227     -9.527115838
H       3.161260438      1.791576967     -9.330981714
H       5.340499624     -0.113541878     -9.462312030
H       5.351593123      2.364932382     -8.867034341
           6
  t=         8.00000    2    2
C       3.344142847      0.732630634     -9.288915971
C       4.726364995      0.762071292     -8.798014536
H       2.666663299     -0.119250881     -9.528493124
H       3.178328742      1.783932554     -9.334880051
H       5.336272460     -0.105303832     -9.472043398
H       5.357884376      2.392005373     -8.867336033
           6
  t=         8.50000    2    2
C       3.345397456      0.732315395     -9.289070725
C       4.726519177      0.760356917     -8.797004448
H       2.638102739     -0.126683537     -9.529566549
H       3.191970422      1.778373032     -9.340046747
H       5.329621051     -0.092644379     -9.476339305
H       5.362680638      2.416505146     -8.866985431
           6
  t=         9.00000    2    2
C       3.347068411      0.731710094     -9.288857401
C       4.726574354      0.758219895     -8.796817146
H       2.613222509     -0.129737980     -9.530033361
H       3.201917247      1.775591643     -9.346552039
H       5.320789542     -0.075826586     -9.475135866
H       5.365893018      2.438176316     -8.865988059
           6
  t=         9.50000    2    2
C       3.349070971      0.730748163     -9.288287804
C       4.726526283      0.755692306     -8.797448484
H       2.592930006     -0.127704762     -9.529699329
H       3.208024208      1.775916611     -9.354411704
H       5.310144245     -0.055289520     -9.468507013
H       5.367452295      2.456830943     -8.864357251
           6
  t=        10.00000    2    2
C       3.351334079      0.729428015     -9.287372801
C       4.726356017      0.752824014     -8.798877474
H       2.577841985     -0.120263838     -9.528459305
H       3.210272867      1.779253342     -9.363575305
H       5.298213070     -0.031705813     -9.456710550
H       5.367303935      2.472341385     -8.862111298
           6
  t=        10.50000    2    2
C       3.353799360      0.727806851     -9.286124360
C       4.726025218      0.749690247     -8.801060755
H       2.568302296     -0.107436747     -9.526281385
H       3.208769118      1.785106254     -9.373918837
H       5.285742922     -0.006056982     -9.440255830
H       5.365402814      2.484629476     -8.859270534
           6
  t=        11.00000    2    2
C       3.356422239      0.725990141     -9.284556645
C       4.725470211      0.746399816     -8.803926313
H       2.564385861     -0.089557623     -9.523198214
H       3.203732294      1.792670895     -9.385242326
H       5.273767316      0.020278386     -9.419979299
H       5.361710086      2.493660976     -8.855854660
           6
  t=        11.50000    2    2
C       3.359174256      0.724119146     -9.282685942
C       4.724597313      0.743101985     -8.807368012
H       2.565883772     -0.067264197     -9.519305610
H       3.195482083      1.800966417     -9.397278755
H       5.263664774      0.045458424     -9.397104550
H       5.356190790      2.499437071     -8.851881124
           6
  t=        12.00000    2    2
C       3.362047084      0.722359383     -9.280529462
C       4.723283172      0.739985980     -8.811247095
H       2.572270216     -0.041507500     -9.514769552
H       3.184420965      1.808973501     -9.409709312
H       5.257158033      0.067198705     -9.373218272
H       5.348813405      2.501988719     -8.847363272
           6
  t=        12.50000    2    2
C       3.365057248      0.720891720     -9.278103395
C       4.721387048      0.737264874     -8.815407233
H       2.582659440     -0.013566807     -9.509838136
H       3.171014231      1.815749284     -9.422184950
H       5.256174133      0.082972624     -9.350081754
H       5.339550334      2.501374054     -8.842309385
           6
  t=        13.00000    2    2
C       3.368248160      0.719905005     -9.275421319
C       4.718782776      0.735138100     -8.819706566
H       2.595774053      0.014949458     -9.504852261
H       3.155771922      1.820508200     -9.434350682
H       5.262489377      0.090473926     -9.329233407
H       5.328377974      2.497670113     -8.836722589
           6
  t=        13.50000    2    2
C       3.371687629      0.719588466     -9.272493119
C       4.715407144      0.733737866     -8.824059689
H       2.609963029      0.042149501     -9.500245192
H       3.139227459      1.822668501     -9.445869134
H       5.277184208      0.088251819     -9.311478481
H       5.315278749      2.490973958     -8.830600944
           6
  t=        14.00000    2    2
C       3.375454789      0.720119127     -9.269327255
C       4.711305835      0.733086008     -8.828463012
H       2.623323898      0.065993532     -9.496510404
H       3.121920326      1.821868310     -9.456440917
H       5.300147100      0.076230244     -9.296570698
H       5.300240978      2.481395542     -8.823938620
           6
  t=        14.50000    2    2
C       3.379615959      0.721641740     -9.265936341
C       4.706647088      0.733089173     -8.832983841
H       2.633969227      0.084540700     -9.494126693
H       3.104377101      1.817969212     -9.465819421
H       5.329950515      0.055749112     -9.283335250
H       5.283260230      2.469062193     -8.816726684
           6
  t=        15.00000    2    2
C       3.384188880      0.724243154     -9.262346323
C       4.701695448      0.733576773     -8.837717360
H       2.640425048      0.096286415     -9.493439954
H       3.087095091      1.811037050     -9.473823769
H       5.364206503      0.029103164     -9.270175745
H       5.264339984      2.454114990     -8.808954214
           6
  t=        15.50000    2    2
C       3.389110629      0.727928606     -9.258606140
C       4.696762685      0.734353732     -8.842742023
H       2.642022571      0.100476436     -9.494537295
H       3.070524271      1.801326705     -9.480344894
H       5.400159061     -0.001108939     -9.255609452
H       5.243492078      2.436715017     -8.800609077
           6
  t=        16.00000    2    2
C       3.394223890      0.732612938     -9.254791933
C       4.692163392      0.735240630     -8.848094231
H       2.639093649      0.097253909     -9.497175374
H       3.055049513      1.789260147     -9.485351672
H       5.435198013     -0.032488378     -9.238583478
H       5.220737292      2.417048630     -8.791678591
           6
  t=        16.50000    2    2
C       3.399293217      0.738132457     -9.251002200
C       4.688186547      0.736091401     -8.853764842
H       2.632850197      0.087559837     -9.500806838
H       3.040970725      1.775408977     -9.488894407
H       5.467144468     -0.063081492     -9.218544128
H       5.196105294      2.395337797     -8.782149562
           6
  t=        17.00000    2    2
C       3.404045335      0.744271678     -9.247345309
C       4.685080492      0.736794003     -8.859708862
H       2.625021242      0.072849574     -9.504690453
H       3.028481942      1.760481951     -9.491103887
H       5.494334076     -0.091427710     -9.195361769
H       5.169634233      2.371857654     -8.772007478
           6
  t=        17.50000    2    2
C       3.408215348      0.750793569     -9.243924421
C       4.683045313      0.737262336     -8.865859516
H       2.617441831      0.054770725     -9.508027196
H       3.017655683      1.745307236     -9.492186494
H       5.515585268     -0.116505547     -9.169212298
H       5.141369827      2.346958423     -8.761235852
           6
  t=        18.00000    2    2
C       3.411585710      0.757462972     -9.240825352
C       4.682226850      0.737425454     -8.872142083
H       2.611747186      0.034914913     -9.510070043
H       3.008435500      1.730811440     -9.492407835
H       5.530120508     -0.137652044     -9.140464437
H       5.111364607      2.321103633     -8.749815279
           6
  t=        18.50000    2    2
C       3.414011191      0.764061389     -9.238109771
C       4.682711193      0.737216916     -8.878484473
H       2.609217939      0.014678948     -9.510188340
H       3.000644487      1.717985409     -9.492066350
H       5.537483664     -0.154489128     -9.109596057
H       5.079675125      2.294920275     -8.737724168
           6
  t=        19.00000    2    2
C       3.415430864      0.770396082     -9.235813953
C       4.684519550      0.736564698     -8.884824305
H       2.610745372     -0.004784931     -9.507891794
H       2.994016928      1.707822311     -9.491451836
H       5.537469213     -0.166865697     -9.077139745
H       5.046354330      2.269264341     -8.724941270
           6
  t=        19.50000    2    2
C       3.415867687      0.776307491     -9.233952146
C       4.687607464      0.735383425     -8.891110801
H       2.616861337     -0.022569738     -9.502832162
H       2.988251770      1.701229717     -9.490797492
H       5.530072321     -0.174818205     -9.043659726
H       5.011432179      2.245274084     -8.711452354
           6
  t=        20.00000    2    2
C       3.415418467      0.781677002     -9.232523370
C       4.691870485      0.733570482     -8.897303363
H       2.627787954     -0.037996443     -9.494791299
H       2.983082007      1.698920817     -9.490229254
H       5.515455744     -0.178542785     -9.009742785
H       4.974881839      2.224387591     -8.697257924
           6
  t=        20.50000    2    2
C       3.414232119      0.786434618     -9.231519340
C       4.697160470      0.731014281     -8.903367442
H       2.643481912     -0.050598495     -9.483660139
H       2.978341134      1.701305049     -9.489739865
H       5.493944094     -0.178380015     -8.975998750
H       4.936579309      2.208231534     -8.682374486
           6
  t=        21.00000    2    2
C       3.412481281      0.790561522     -9.230931302
C       4.703306602      0.727621429     -8.909273162
H       2.663655593     -0.060116066     -9.469403692
H       2.974007944      1.708407075     -9.489203766
H       5.466053012     -0.174825257     -8.943040501
H       4.896296086      2.198352856     -8.666809653
           6
  t=        21.50000    2    2
C       3.410337780      0.794082581     -9.230751905
C       4.710128929      0.723362269     -8.915000558
H       2.687764814     -0.066507979     -9.452026114
H       2.970214475      1.719849034     -9.488436794
H       5.432556037     -0.168605433     -8.911426930
H       4.853767535      2.195872194     -8.650509815
           6
  t=        22.00000    2    2
C       3.407958721      0.797050820     -9.230973814
C       4.717439077      0.718317579     -8.920547115
H       2.714980192     -0.069982847     -9.431563406
H       2.967222390      1.734910022     -9.487254937
H       5.394562081     -0.160841419     -8.881576646
H       4.808824781      2.201246778     -8.633321639
           6
  t=        22.50000    2    2
C       3.405486628      0.799533802     -9.231586150
C       4.725032429      0.712703373     -8.925931845
H       2.744170911     -0.071044008     -9.408114490
H       2.965376539      1.752632165     -9.485502264
H       5.353551777     -0.153248130     -8.853682954
H       4.761512476      2.214276226     -8.615011985
           6
  t=        23.00000    2    2
C       3.403045605      0.801610740     -9.232573606
C       4.732694590      0.706872234     -8.931189970
H       2.773921331     -0.070522214     -9.381865605
H       2.965039412      1.771913221     -9.483084237
H       5.311330843     -0.148222697     -8.827662777
H       4.712153129      2.234149334     -8.595335131
           6
  t=        23.50000    2    2
C       3.400727403      0.803381245     -9.233919943
C       4.740231754      0.701280219     -8.936358976
H       2.802605018     -0.069544111     -9.353074483
H       2.966514298      1.791542680     -9.480010633
H       5.269835745     -0.148659148     -8.803167091
H       4.661348572      2.259481049     -8.574119581
           6
  t=        24.00000    2    2
C       3.398570163      0.804984102     -9.235614249
C       4.747524922      0.696404044     -8.941454746
H       2.828528212     -0.069392613     -9.322022604
H       2.969956275      1.810182373     -9.476428284
H       5.230779159     -0.157361395     -8.779706404
H       4.609887577      2.288367722     -8.551367334
           6
  t=        24.50000    2    2
C       3.396567747      0.806604881     -9.237653529
C       4.754567015      0.692602522     -8.946453304
H       2.850130716     -0.071250883     -9.288922918
H       2.975317230      1.826416809     -9.472596204
H       5.195217815     -0.176178289     -8.756917713
H       4.558479100      2.318774948     -8.527290576
           6
  t=        25.00000    2    2
C       3.394719872      0.808436351     -9.240035110
C       4.761442258      0.690001945     -8.951301004
H       2.866193279     -0.075914890     -9.253804962
H       2.982378353      1.839000224     -9.468836014
H       5.163248500     -0.205316718     -8.734821459
H       4.507464930      2.349152360     -8.502188258
           6
  t=        25.50000    2    2
C       3.393060334      0.810611178     -9.242743510
C       4.768270319      0.688497920     -8.955938288
H       2.876013332     -0.083547899     -9.216506845
H       2.990819942      1.847088906     -9.465518085
H       5.134092376     -0.243255959     -8.713886705
H       4.456818898      2.378649567     -8.476276371
           6
  t=        26.00000    2    2
C       3.391641726      0.813166025     -9.245742250
C       4.775158179      0.687837605     -8.960310997
H       2.879490217     -0.093547007     -9.176796755
H       3.000249695      1.850286570     -9.463065750
H       5.106563626     -0.287251956     -8.694906612
H       4.406319780      2.406889914     -8.449649417
           6
  t=        26.50000    2    2
C       3.390518945      0.816044509     -9.248969265
C       4.782166087      0.687709264     -8.964376684
H       2.877085352     -0.104600673     -9.134535958
H       3.010201598      1.848608587     -9.461943366
H       5.079575896     -0.334110534     -8.678783799
H       4.355687475      2.433735418     -8.422323574
           6
  t=        27.00000    2    2
C       3.389748631      0.819120853     -9.252335751
C       4.789289887      0.687805273     -8.968110647
H       2.869680784     -0.114933116     -9.089793798
H       3.020134258      1.842448044     -9.462636267
H       5.052431495     -0.380821388     -8.666331518
H       4.304654122      2.459167360     -8.394282394
           6
  t=        27.50000    2    2
C       3.389398058      0.822228910     -9.255729714
C       4.796457235      0.687853430     -8.971507724
H       2.858405985     -0.122628289     -9.042887780
H       3.029437613      1.832549917     -9.465627303
H       5.024885022     -0.424883687     -8.658162288
H       4.253006075      2.483243229     -8.365507958
           6
  t=        28.00000    2    2
C       3.389556048      0.825187622     -9.259023239
C       4.803529749      0.687625421     -8.974580173
H       2.844490589     -0.125919071     -8.994360932
H       3.037449109      1.819968832     -9.471372219
H       4.997088210     -0.464374178     -8.654657314
H       4.200614636      2.506092340     -8.335997409
           6
  t=        28.50000    2    2
C       3.390342502      0.827820546     -9.262082048
C       4.810302679      0.686934004     -8.977354334
H       2.829169711     -0.123384440     -8.944933116
H       3.043485490      1.805984309     -9.480261753
H       4.969508089     -0.497879451     -8.655974736
H       4.147471158      2.527931085     -8.305767208
           6
  t=        29.00000    2    2
C       3.391916672      0.829972323     -9.264775493
C       4.816496504      0.685627209     -8.979870244
H       2.813640781     -0.114064177     -8.895464055
H       3.046895795      1.791952167     -9.492559664
H       4.942869134     -0.524377512     -8.662041423
H       4.093736758      2.549080728     -8.274845885
           6
  t=        29.50000    2    2
C       3.394481578      0.831528170     -9.266985196
C       4.821742649      0.683584310     -8.982188878
H       2.799051137     -0.097535673     -8.846962625
H       3.047144620      1.779089830     -9.508307528
H       4.918132234     -0.543103111     -8.672463137
H       4.039809840      2.569940181     -8.243260711
           6
  t=        30.00000    2    2
C       3.398259219      0.832442537     -9.268607159
C       4.825603726      0.680718734     -8.984409214
H       2.786453610     -0.073978902     -8.800660099
H       3.043926333      1.768250148     -9.527230609
H       4.896449515     -0.553419872     -8.686303771
H       3.986355670      2.590773315     -8.211051037
           6
  t=        30.50000    1    1
C       3.403387177      0.832771541     -9.269542315
C       4.827720228      0.676987650     -8.986675225
H       2.776631967     -0.044111584     -8.757991785
H       3.037282093      1.759791321     -9.548821818
H       4.878917904     -0.554792011     -8.701956235
H       3.934094826      2.611245727     -8.178361052
           6
  t=        31.00000    1    1
C       3.410168483      0.832723529     -9.269653955
C       4.829257747      0.671799408     -8.989491295
H       2.767378395     -0.002133040     -8.712847513
H       3.026163512      1.752628674     -9.578013224
H       4.861401894     -0.546761910     -8.720791463
H       3.872932422      2.630747799     -8.140620253
           6
  t=        31.50000    1    1
C       3.416920649      0.832411421     -9.268718357
C       4.830996585      0.665990596     -8.992327051
H       2.759516219      0.047094594     -8.671693189
H       3.012438402      1.747591308     -9.612069085
H       4.844653468     -0.531104248     -8.741319349
H       3.810167442      2.643781530     -8.104567282
           6
  t=        32.00000    1    1
C       3.423632496      0.832009583     -9.266769800
C       4.832801809      0.659580673     -8.995175581
H       2.753446584      0.102881194     -8.634564432
H       2.996897007      1.743384112     -9.650317210
H       4.829114935     -0.508797978     -8.763651749
H       3.745905954      2.651003228     -8.070400999
           6
  t=        32.50000    1    1
C       3.430261347      0.831737899     -9.263864892
C       4.834559710      0.652642439     -8.998060324
H       2.749395122      0.164232766     -8.601511371
H       2.980539497      1.738516082     -9.691816425
H       4.815208030     -0.481204756     -8.787478365
H       3.680362450      2.652774619     -8.038369630
           6
  t=        33.00000    1    1
C       3.436744742      0.831831622     -9.260082068
C       4.836186500      0.645307385     -9.001023271
H       2.747403631      0.229942528     -8.572482108
H       2.964440251      1.731563812     -9.735485014
H       4.803300619     -0.450273488     -8.812221169
H       3.613794248      2.649308056     -8.008750941
           6
  t=        33.50000    1    1
C       3.443015559      0.832519510     -9.255518014
C       4.837624875      0.637774069     -9.004119723
H       2.747332862      0.298656313     -8.547270987
H       2.949638091      1.721342107     -9.780201839
H       4.793689554     -0.418704055     -8.837109069
H       3.546486466      2.640754788     -7.981833130
           6
  t=        34.00000    1    1
C       3.449011026      0.834009843     -9.250282533
C       4.838842324      0.630310107     -9.007413257
H       2.748872678      0.368937982     -8.525503833
H       2.937064552      1.706980882     -9.824885389
H       4.786578381     -0.389995006     -8.861248715
H       3.478748659      2.627253180     -7.957900821
           6
  t=        34.50000    1    1
C       3.454675804      0.836481039     -9.244492569
C       4.839830053      0.623233081     -9.010967527
H       2.751569949      0.439346403     -8.506654197
H       2.927509190      1.687929780     -9.868549685
H       4.782061265     -0.368215310     -8.883732410
H       3.410913839      2.608957897     -7.937223815
           6
  t=        35.00000    1    1
C       3.459960071      0.840074949     -9.238265072
C       4.840599853      0.616855532     -9.014834236
H       2.754882358      0.508517012     -8.490095118
H       2.921611234      1.663921326     -9.910336739
H       4.780138919     -0.357334037     -8.903791675
H       3.343337243      2.586059681     -7.920047367
           6
  t=        35.50000    1    1
C       3.464813990      0.844892438     -9.231708931
C       4.841178368      0.611397032     -9.019040650
H       2.758254157      0.575231299     -8.475179658
H       2.919863133      1.634920004     -9.949532454
H       4.780775750     -0.360153882     -8.920953732
H       3.276393888      2.558799873     -7.906584156
           6
  t=        36.00000    1    1
C       3.469181567      0.850991515     -9.224916826
C       4.841600248      0.606901805     -9.023582964
H       2.761202304      0.638460946     -8.461333483
H       2.922618003      1.601071536     -9.985573130
H       4.783965271     -0.377312113     -8.935124384
H       3.210474354      2.527481052     -7.897008192
           6
  t=        36.50000    1    1
C       3.472996349      0.858388842     -9.217958740
C       4.841905872      0.603217709     -9.028429205
H       2.763389715      0.697378588     -8.448133704
H       2.930092860      1.562660142    -10.018047882
H       4.789738472     -0.407022543     -8.946551964
H       3.145978163      2.492473319     -7.891452326
           6
  t=        37.00000    1    1
C       3.476182172      0.867063608     -9.210878884
C       4.842143680      0.600052987     -9.033527948
H       2.764663838      0.751344896     -8.435346636
H       2.942363998      1.520075398    -10.046702593
H       4.798102942     -0.445753559     -8.955717574
H       3.083304087      2.454216540     -7.890009153
           6
  t=        37.50000    1    1
C       3.478659814      0.876962372     -9.203696808
C       4.842372708      0.597068841     -9.038815933
H       2.765050263      0.799889432     -8.422913144
H       2.959350231      1.473785881    -10.071448018
H       4.808969132     -0.489340901     -8.963233523
H       3.022837636      2.413218585     -7.892735193
           6
  t=        38.00000    1    1
C       3.480361602      0.888001321     -9.196412466
C       4.842658134      0.593955492     -9.044220955
H       2.764704931      0.842707376     -8.410886617
H       2.980786185      1.424319661    -10.092374584
H       4.822120431     -0.533895204     -8.969794593
H       2.964934535      2.370053294     -7.899652130
           6
  t=        38.50000    1    1
C       3.481250788      0.900066057     -9.189013675
C       4.843060724      0.590471229     -9.049661330
H       2.763843761      0.879671238     -8.399348386
H       3.006189131      1.372244343    -10.109768816
H       4.837228603     -0.576251594     -8.976164559
H       2.909903888      2.325355814     -7.910746008
           6
  t=        39.00000    1    1
C       3.481342352      0.913009064     -9.181483890
C       4.843622708      0.586452583     -9.055046025
H       2.762667036      0.910836095     -8.388337571
H       3.034834430      1.318156069    -10.124119271
H       4.853887498     -0.614050734     -8.983153326
H       2.857994977      2.279818437     -7.925960114
           6
  t=        39.50000    1    1
C       3.480713805      0.926650572     -9.173806855
C       4.844358061      0.581808847     -9.060279188
H       2.761301687      0.936388203     -8.377835879
H       3.065765665      1.262680160    -10.136094299
H       4.871644397     -0.645631104     -8.991549037
H       2.809400729      2.234188579     -7.945191145
           6
  t=        40.00000    1    1
C       3.479495463      0.940788167     -9.165966789
C       4.845254424      0.576509881     -9.065268637
H       2.759779960      0.956517966     -8.367815729
H       3.097861273      1.206466253    -10.146474448
H       4.890019800     -0.669867419     -9.002020459
H       2.764285426      2.189269892     -7.968302830
           6
  t=        40.50000    1    1
C       3.477841018      0.955215978     -9.157947656
C       4.846286170      0.570571767     -9.069933522
H       2.758062055      0.971255838     -8.358318087
H       3.129950807      1.150152042    -10.156026844
H       4.908519785     -0.686035937     -9.015047121
H       2.722828442      2.145930275     -7.995161185
           6
  t=        41.00000    1    1
C       3.475893995      0.969746036     -9.149737259
C       4.847429589      0.564043754     -9.074207899
H       2.756080889      0.980347573     -8.349498898
H       3.160939651      1.094302216    -10.165330426
H       4.926644644     -0.693728413     -9.030906754
H       2.685264515      2.105102762     -8.025683984
           6
  t=        41.50000    1    1
C       3.473762359      0.984225127     -9.141334283
C       4.848673266      0.556998561     -9.078041777
H       2.753788225      0.983186699     -8.341630288
H       3.189900609      1.039368578    -10.174599530
H       4.943896117     -0.692809458     -9.049695605
H       2.651917778      2.067765062     -8.059899423
           6
  t=        42.00000    1    1
C       3.471504556      0.998545914     -9.132751168
C       4.850022921      0.549526210     -9.081402351
H       2.751184732      0.978806012     -8.335059212
H       3.216110555      0.985697246    -10.183588717
H       4.959785031     -0.683414425     -9.071349849
H       2.623235822      2.034879792     -8.098012272
           6
  t=        42.50000    1    1
C       3.469126493      1.012652481     -9.124008475
C       4.851500635      0.541732015     -9.084276756
H       2.748325674      0.965938841     -8.330136331
H       3.239043515      0.933567599    -10.191628174
H       4.973841807     -0.665983667     -9.095654897
H       2.599825697      2.007286433     -8.140464650
           6
  t=        43.00000    1    1
C       3.466588412      1.026538843     -9.115124070
C       4.853137703      0.533739892     -9.086675110
H       2.745300388      0.943174627     -8.327129865
H       3.258348574      0.883233081    -10.197774306
H       4.985636278     -0.641333692     -9.122250957
H       2.582479899      1.985554382     -8.187958532
           6
  t=        43.50000    1    1
C       3.463819125      1.040236815     -9.106104448
C       4.854960971      0.525702374     -9.088630068
H       2.742208258      0.909206566     -8.326164479
H       3.273835086      0.834949887    -10.201005755
H       4.994813569     -0.610764945     -9.150661342
H       2.572172565      1.969839736     -8.241401143
           6
  t=        44.00000    1    1
C       3.460732058      1.053789676     -9.096942247
C       4.856976995      0.517817108     -9.090189347
H       2.739173629      0.863122022     -8.327239175
H       3.285461422      0.789003118    -10.200396047
H       5.001141771     -0.576192888     -9.180367649
H       2.570005630      1.959816809     -8.301757842
           6
  t=        44.50000    1    1
C       3.457235607      1.067218043     -9.087618530
C       4.859161596      0.510343560     -9.091400895
H       2.736418706      0.804659746     -8.330336629
H       3.293316836      0.745731690    -10.195227586
H       5.004556606     -0.540260269     -9.210936018
H       2.577110518      1.954715787     -8.369851998
           6
  t=        45.00000    1    1
C       3.453238033      1.080487741     -9.078108953
C       4.861460007      0.503607991     -9.092295147
H       2.734352099      0.734393570     -8.335561552
H       3.297590117      0.705543337    -10.185045030
H       5.005176716     -0.506332410     -9.242163443
H       2.594515630      1.953442604     -8.446164720
           6
  t=        45.50000    1    1
C       3.448655360      1.093486422     -9.068396059
C       4.863798207      0.497981106     -9.092871823
H       2.733604079      0.653825450     -8.343217722
H       3.298528043      0.668907185    -10.169663424
H       5.003257816     -0.478218902     -9.274180171
H       2.622969432      1.954759558     -8.530658126
           6
  t=        46.00000    1    1
C       3.443431623      1.106009751     -9.058489172
C       4.866102278      0.493817213     -9.093099450
H       2.734962514      0.565356456     -8.353769425
H       3.296395027      0.636319607    -10.149151075
H       4.999067568     -0.459482931     -9.307421790
H       2.662698464      1.957546673     -8.622627740
           6
  t=        46.50000    1    1
C       3.437574423      1.117753291     -9.048447235
C       4.868319691      0.491364910     -9.092933745
H       2.739220691      0.472104848     -8.367698526
H       3.291444804      0.608248094    -10.123802087
H       4.992715609     -0.452444197     -9.342401843
H       2.713081041      1.961202790     -8.720609539
           6
  t=        47.00000    1    1
C       3.431197000      1.128303746     -9.038390344
C       4.870431596      0.490691812     -9.092349634
H       2.747000087      0.377584236     -8.385325934
H       3.283910895      0.585066751    -10.094104869
H       4.984045094     -0.457355761     -9.379345220
H       2.772295106      1.966209211     -8.822437866
           6
  t=        47.50000    1    1
C       3.424540499      1.137137165     -9.028479344
C       4.872448764      0.491672730     -9.091367354
H       2.758613471      0.285316434     -8.406674989
H       3.274009345      0.566992832    -10.060714856
H       4.972687075     -0.472333943     -9.417907386
H       2.837181295      1.974672373     -8.925622388
           6
  t=        48.00000    1    1
C       3.417933431      1.143666377     -9.018854511
C       4.874394222      0.494046676     -9.090055135
H       2.774009120      0.198482699     -8.431422089
H       3.261943664      0.554031902    -10.024435945
H       4.958250080     -0.494095324     -9.457175269
H       2.903793554      1.990220948     -9.028113231
           6
  t=        48.50000    1    1
C       3.411666566      1.147403077     -9.009573254
C       4.876285009      0.497499132     -9.088510462
H       2.792800856      0.119681205     -8.458934980
H       3.247898484      0.545939761     -9.986218572
H       4.940513225     -0.518977242     -9.495913387
H       2.968889314      2.016397356     -9.128983401
           6
  t=        49.00000    1    1
C       3.405866655      1.148193722     -9.000630411
C       4.878122372      0.501725777     -9.086835584
H       2.814368299      0.050819261     -8.488369136
H       3.232017248      0.542211189     -9.947178261
H       4.919518118     -0.543700565     -9.532862743
H       3.031379843      2.053972082     -9.228064891
           6
  t=        49.50000    1    1
C       3.400512602      1.146305370     -8.992054928
C       4.879890308      0.506464881     -9.085119958
H       2.837987247     -0.006862176     -8.518777181
H       3.214369413      0.542105617     -9.908620124
H       4.895552164     -0.565706974     -9.566946034
H       3.092074222      2.099822985     -9.324667470
           6
  t=        50.00000    1    1
C       3.395564901      1.142253176     -8.983949722
C       4.881557778      0.511506572     -9.083433092
H       2.862940115     -0.052673117     -8.549192719
H       3.194923301      0.544707708     -9.872044975
H       4.869074773     -0.583183856     -9.597349599
H       3.152102244      2.148727845     -9.417017357
           6
  t=        50.50000    1    1
C       3.391051132      1.136566784     -8.976437319
C       4.883081275      0.516689578     -9.081825448
H       2.888580648     -0.086334232     -8.578676552
H       3.173539144      0.549008433     -9.839116343
H       4.840640860     -0.594944552     -9.623517405
H       3.211884688      2.195843554     -9.502886495
           6
  t=        51.00000    1    1
C       3.387065642      1.129671525     -8.969600183
C       4.884406978      0.521892692     -9.080333338
H       2.914357577     -0.107858161     -8.606335990
H       3.149989605      0.554004155     -9.811563468
H       4.810848514     -0.600278610     -9.645104271
H       3.271119523      2.237854815     -9.580369280
           6
  t=        51.50000    1    1
C       3.383735309      1.121872902     -8.963468723
C       4.885472919      0.527025283     -9.078984534
H       2.939811876     -0.117464802     -8.631333055
H       3.124012126      0.558827305     -9.790995757
H       4.780312903     -0.598825641     -9.661921439
H       3.329140288      2.272930207     -9.648190294
           6
  t=        52.00000    1    1
C       3.381187740      1.113378238     -8.958046475
C       4.886211847      0.532018985     -9.077802825
H       2.964556468     -0.115531333     -8.652888440
H       3.095395631      0.562900610     -9.778645106
H       4.749658783     -0.590484431     -9.673891238
H       3.385201730      2.300268497     -9.705649252
           6
  t=        52.50000    1    1
C       3.379529523      1.104321953     -8.953346383
C       4.886555056      0.536821390     -9.076810782
H       2.988241874     -0.102577043     -8.670281710
H       3.064090929      0.566066322     -9.775107458
H       4.719522107     -0.575355058     -9.681017765
H       3.438615527      2.319670234     -9.752443698
           6
  t=        53.00000    1    1
C       3.378833873      1.094791101     -8.949418794
C       4.886437017      0.541392002     -9.076030536
H       3.010508454     -0.079291894     -8.682840890
H       3.030311385      0.568619289     -9.780191612
H       4.690551885     -0.553708350     -9.683375429
H       3.488787423      2.331247042     -9.788499392
           6
  t=        53.50000    1    1
C       3.379137896      1.084856918     -8.946362401
C       4.885800420      0.545700346     -9.075482521
H       3.030925322     -0.046628087     -8.689910831
H       2.994579737      0.571204745     -9.792953049
H       4.663404879     -0.525977951     -9.681115811
H       3.535209355      2.335254184     -9.813846011
           6
  t=        54.00000    1    1
C       3.380449872      1.074613308     -8.944320712
C       4.884601051      0.549726551     -9.075182345
H       3.048915721     -0.005967348     -8.690789643
H       2.957699698      0.574621623     -9.811892313
H       4.638726733     -0.492777230     -9.674492745
H       3.577436597      2.332006330     -9.828536488
           6
  t=        54.50000    1    1
C       3.382764687      1.064217509     -8.943473104
C       4.882812367      0.553464697     -9.075135841
H       3.063669132      0.040644059     -8.684626169
H       2.920666827      0.579613783     -9.835225577
H       4.617115237     -0.454946066     -9.663906785
H       3.615063244      2.321844028     -9.832600006
           6
  t=        55.00000    1    1
C       3.386082820      1.053923562     -8.944029296
C       4.880429896      0.556929172     -9.075332374
H       3.074050709      0.090261964     -8.670282810
H       2.884554294      0.586715511     -9.861126794
H       4.599065578     -0.413628593     -9.649968466
H       3.647703332      2.305125181     -9.826019195
           6
  t=        55.50000    1    1
C       3.390425813      1.044090648     -8.946229145
C       4.877475157      0.560163529     -9.075736736
H       3.078555050      0.139024116     -8.646203719
H       2.850407449      0.596172807     -9.887883403
H       4.584901856     -0.370378010     -9.633578078
H       3.674980103      2.282223942     -9.808725491
           6
  t=        56.00000    1    1
C       3.395835465      1.035135916     -8.950336824
C       4.873999053      0.563250095     -9.076280631
H       3.075428791      0.182728317     -8.610418872
H       2.819162646      0.607929577     -9.913965356
H       4.574706214     -0.327268731     -9.616011568
H       3.696524627      2.253525832     -9.780610698
           6
  t=        56.50000    1    1
C       3.402340135      1.027407741     -8.956603375
C       4.870083086      0.566315734     -9.076856889
H       3.063149296      0.218308908     -8.560956574
H       2.791596698      0.621664211     -9.938041395
H       4.568269211     -0.286958414     -9.598977179
H       3.711984088      2.219417229     -9.741556489
           6
  t=        57.00000    1    1
C       3.409887439      1.021026901     -8.965178081
C       4.865836496      0.569525569     -9.077322175
H       3.041253747      0.245635800     -8.496853101
H       2.768306253      0.636865567     -9.958979639
H       4.565100755     -0.252599845     -9.584571766
H       3.721037740      2.180287928     -9.691490795
           6
  t=        57.50000    1    1
C       3.418287701      1.015831853     -8.976007040
C       4.861385332      0.573054600     -9.077515801
H       3.010986021      0.267985305     -8.419274021
H       2.749712424      0.652934154     -9.975851148
H       4.564555267     -0.227479730     -9.575043213
H       3.723423799      2.136587598     -9.630484203
           6
  t=        58.00000    1    1
C       3.427223076      1.011491211     -8.988808349
C       4.856851234      0.577032362     -9.077298114
H       2.975098258      0.290384589     -8.331682411
H       2.736085909      0.669286862     -9.987926850
H       4.566098508     -0.214327278     -9.572313549
H       3.718989834      2.089004802     -9.558900037
           6
  t=        58.50000    1    1
C       3.436311938      1.007653871     -9.003142238
C       4.852326537      0.581477101     -9.076597179
H       2.936936766      0.317321320     -8.238820058
H       2.727575469      0.685438008     -9.994670437
H       4.569625832     -0.214494299     -9.577405094
H       3.707789952      2.038852660     -9.477603322
           6
  t=        59.00000    1    1
C       3.445166625      1.003987091     -9.018502082
C       4.847861698      0.586258514     -9.075438865
H       2.899565365      0.351513495     -8.145414702
H       2.724229685      0.701051120     -9.995729720
H       4.575614005     -0.227459255     -9.590077404
H       3.690250041      1.988741468     -9.388183195
           6
  t=        59.50000    1    1
C       3.453414769      1.000096831     -9.034375266
C       4.843476327      0.591118852     -9.073939729
H       2.865344542      0.393870291     -8.055396487
H       2.726006622      0.715960027     -9.990935347
H       4.584958526     -0.251010348     -9.608925154
H       3.667356281      1.943477221     -9.293000020
           6
  t=        60.00000    1    1
C       3.460709799      0.995442975     -9.050301604
C       4.839184650      0.595740469     -9.072268870
H       2.835888945      0.443970131     -7.971690061
H       2.732758024      0.730155880     -9.980325293
H       4.598605921     -0.281971134     -9.631861996
H       3.640652920      1.910527080     -9.194643404
           6
  t=        60.50000    1    1
C       3.466780419      0.989447739     -9.065970365
C       4.835017187      0.599817305     -9.070602789
H       2.812187049      0.500568915     -7.896307267
H       2.744163511      0.743720815     -9.964217228
H       4.617229140     -0.316989659     -9.656683885
H       3.611665789      1.898224841     -9.094586153
           6
  t=        61.00000    1    1
C       3.471517651      0.981908278     -9.081260891
C       4.831029245      0.603099165     -9.069092075
H       2.794741272      0.561992525     -7.830510445
H       2.759590694      0.756705430     -9.943346339
H       4.641082508     -0.353052719     -9.681465887
H       3.580909592      1.910575103     -8.992399305
           6
  t=        61.50000    1    1
C       3.474989629      0.973313767     -9.096068334
C       4.827296419      0.605405719     -9.067844593
H       2.783692057      0.626437434     -7.774965580
H       2.777900453      0.768997711     -9.919040049
H       4.670014828     -0.387682528     -9.704732751
H       3.547822848      1.943338253     -8.887528768
           6
  t=        62.00000    1    1
C       3.477356307      0.964566991     -9.110097359
C       4.823900999      0.606623550     -9.066921340
H       2.778940133      0.692203034     -7.729911117
H       2.797255271      0.780260941     -9.893359683
H       4.703557397     -0.418930345     -9.725471572
H       3.511926679      1.987204006     -8.781477894
           6
  t=        62.50000    1    1
C       3.478818558      0.956478952     -9.122886211
C       4.820915404      0.606696956     -9.066339844
H       2.780263271      0.757843650     -7.695344702
H       2.815010774      0.789969673     -9.869117795
H       4.741028268     -0.445283211     -9.743073804
H       3.473515611      2.033637284     -8.677334365
           6
  t=        63.00000    1    1
C       3.479628390      0.949543052     -9.133952666
C       4.818387666      0.605617087     -9.066081399
H       2.787407880      0.822259047     -7.671183549
H       2.827837270      0.797530153     -9.849625540
H       4.781625982     -0.465556493     -9.757258372
H       3.433401854      2.077377989     -8.578115397
           6
  t=        63.50000    1    1
C       3.480083206      0.943948967     -9.142921356
C       4.816329537      0.603412562     -9.066100502
H       2.800145688      0.884767318     -7.657365708
H       2.832266549      0.802475846     -9.838008734
H       4.824500311     -0.478806908     -9.767987705
H       3.392451067      2.116032049     -8.485805900
           6
  t=        64.00000    1    1
C       3.480471002      0.939655401     -9.149623710
C       4.814707598      0.600143582     -9.066336572
H       2.818290988      0.945179650     -7.653873671
H       2.825678092      0.804707902     -9.836161475
H       4.868796821     -0.484284271     -9.775371902
H       3.351292695      2.148911870     -8.401147680
           6
  t=        64.50000    1    1
C       3.481001067      0.936455279     -9.154159134
C       4.813439233      0.595898407     -9.066728380
H       2.841676619      1.003855955     -7.660673562
H       2.807281529      0.804664733     -9.843878617
H       4.913682114     -0.481424092     -9.779558561
H       3.310209375      2.176069337     -8.323777589
           6
  t=        65.00000    1    1
C       3.481775459      0.934037836     -9.156874023
C       4.812399024      0.590788781     -9.067227850
H       2.870098873      1.061694692     -7.677597493
H       2.778400264      0.803285863     -9.858852607
H       4.958360683     -0.469869046     -9.780641259
H       3.269155105      2.197678849     -8.252525455
           6
  t=        65.50000    1    1
C       3.482819657      0.932051288     -9.158259837
C       4.811433618      0.584943339     -9.067807120
H       2.903246788      1.120030131     -7.704218562
H       2.741863163      0.801775525     -9.877568797
H       5.002096960     -0.449497153     -9.778634299
H       3.227870108      2.213736923     -8.185798528
           6
  t=        66.00000    1    1
C       3.484139884      0.930153966     -9.158834514
C       4.810375218      0.578502053     -9.068456993
H       2.940618286      1.180441922     -7.739728732
H       2.701035384      0.801321284     -9.896412988
H       5.044252793     -0.420450826     -9.773521187
H       3.186053273      2.224020325     -8.121978084
           6
  t=        66.50000    1    1
C       3.485769219      0.928044463     -9.159066335
C       4.809045860      0.571615986     -9.069179715
H       2.981422904      1.244478615     -7.782785665
H       2.659082588      0.802905735     -9.912384268
H       5.084341359     -0.383189264     -9.765344612
H       3.143541347      2.228247233     -8.059762184
           6
  t=        67.00000    1    1
C       3.487796030      0.925477642     -9.159362851
C       4.807251308      0.564457019     -9.069981319
H       3.024479841      1.313316892     -7.831247357
H       2.618632652      0.807218142     -9.923299461
H       5.122090169     -0.338636659     -9.754272477
H       3.100420318      2.226348148     -7.998383601
           6
  t=        67.50000    1    1
C       3.490379845      0.922328794     -9.160139795
C       4.804793132      0.557250140     -9.070884141
H       3.068037975      1.387314513     -7.881523591
H       2.581666452      0.814622361     -9.927444218
H       5.157403287     -0.288697536     -9.740321931
H       3.057019554      2.218311940     -7.937913777
           6
  t=        68.00000    1    1
C       3.493508012      0.918659386     -9.161665082
C       4.801657401      0.550285060     -9.071972280
H       3.110141310      1.463495397     -7.929891953
H       2.549646875      0.826060024     -9.922761440
H       5.190178080     -0.236293226     -9.722674932
H       3.014251311      2.204913028     -7.880758879
           6
  t=        68.50000    1    1
C       3.496034475      0.914367637     -9.162512294
C       4.798333047      0.544257593     -9.073886089
H       3.151743881      1.525008609     -7.981168559
H       2.525681586      0.848413176     -9.909493289
H       5.221139118     -0.185405732     -9.697333968
H       2.975153589      2.193029207     -7.835217700
           6
  t=        69.00000    1    1
C       3.499501900      0.909022830     -9.164398651
C       4.793559214      0.538898833     -9.075642939
H       3.192733480      1.583765728     -8.029430786
H       2.508720297      0.873879968     -9.888020223
H       5.253205044     -0.136123448     -9.673682856
H       2.934614777      2.186969452     -7.788701913
           6
  t=        69.50000    1    1
C       3.504013007      0.902603780     -9.167363387
C       4.787007546      0.534477128     -9.077131439
H       3.233705022      1.640402661     -8.074593444
H       2.499264811      0.901969493     -9.858530418
H       5.288790136     -0.091526862     -9.653616457
H       2.891810494      2.186726334     -7.740072839
           6
  t=        70.00000    1    1
C       3.509643949      0.895128552     -9.171387538
C       4.778385732      0.531168597     -9.078296863
H       3.273840371      1.698434771     -8.115506503
H       2.497530427      0.932039396     -9.821444690
H       5.330312225     -0.053815797     -9.638369130
H       2.847499482      2.189314527     -7.689702759
           6
  t=        70.50000    1    1
C       3.516437291      0.886676121     -9.176377525
C       4.767526619      0.529017785     -9.079224743
H       3.311365325      1.761127627     -8.150401207
H       2.503408177      0.963339877     -9.777416831
H       5.379230628     -0.023793452     -9.627563433
H       2.803589055      2.191550749     -7.639179889
           6
  t=        71.00000    1    1
C       3.524405738      0.877410630     -9.182133408
C       4.754430208      0.527888632     -9.080150141
H       3.344809503      1.829590990     -8.178327152
H       2.516372157      0.995035994     -9.727351953
H       5.435513316     -0.000383556     -9.619141134
H       2.761956249      2.191749526     -7.590189555
           6
  t=        71.50000    1    1
C       3.533394772      0.867473329     -9.188534440
C       4.739475278      0.527364243     -9.081219517
H       3.372513672      1.904164820     -8.197823316
H       2.535352398      1.026460074     -9.672386268
H       5.497317645      0.019939007     -9.611278340
H       2.724502671      2.189995513     -7.544574310
           6
  t=        72.00000    1    1
C       3.543193693      0.857037147     -9.195442059
C       4.723252451      0.527094689     -9.082627806
H       3.393411924      1.984134316     -8.208117523
H       2.558760691      1.057181278     -9.613802654
H       5.561419284      0.039978838     -9.601485114
H       2.692583085      2.186737238     -7.503642152
           6
  t=        72.50000    1    1
C       3.553522129      0.846263559     -9.202741015
C       4.706496506      0.526774050     -9.084523238
H       3.406688006      2.068490061     -8.208586561
H       2.584515300      1.087084341     -9.552927283
H       5.624263381      0.061836197     -9.587656835
H       2.667239789      2.182719037     -7.468402071
           6
  t=        73.00000    1    1
C       3.564021883      0.835313048     -9.210333658
C       4.690022759      0.526138736     -9.087001667
H       3.411775690      2.156100457     -8.198871504
H       2.610208500      1.116360513     -9.490972328
H       5.682621664      0.086830598     -9.568234663
H       2.649232177      2.178789410     -7.439581024
           6
  t=        73.50000    1    1
C       3.574222118      0.824305283     -9.218223673
C       4.674741171      0.524953761     -9.090021307
H       3.407908628      2.246045946     -8.178105829
H       2.633424070      1.145417966     -9.428997418
H       5.733771575      0.115595700     -9.542838752
H       2.639236819      2.176199140     -7.417819429
           6
  t=        74.00000    1    1
C       3.583550767      0.813415973     -9.226402664
C       4.661544127      0.523011835     -9.093547990
H       3.394847196      2.337120744     -8.146263270
H       2.652319911      1.174672606     -9.367580646
H       5.775646805      0.148279955     -9.511123758
H       2.637587738      2.175965681     -7.403417609
           6
  t=        74.50000    1    1
C       3.591332531      0.802854414     -9.234892324
C       4.651298055      0.520127546     -9.097509406
H       3.372566711      2.428055007     -8.103605375
H       2.666047143      1.204286336     -9.306961357
H       5.806729100      0.184695844     -9.473118927
H       2.644401034      2.179100113     -7.396448092
           6
  t=        75.00000    1    1
C       3.596857087      0.792841361     -9.243736216
C       4.644767237      0.516165823     -9.101797716
H       3.341207659      2.517526570     -8.050582294
H       2.674913510      1.233997035     -9.247225326
H       5.826005620      0.224352742     -9.429213205
H       2.659598848      2.186657126     -7.396751353
           6
  t=        75.50000    1    1
C       3.599514583      0.783575098     -9.252969428
C       4.642495260      0.511062756     -9.106294212
H       3.301200248      2.604294550     -7.987926372
H       2.680137580      1.263131021     -9.188468625
H       5.832980622      0.266573498     -9.380032382
H       2.682817113      2.199628463     -7.403868810
           6
  t=        76.00000    1    1
C       3.598937704      0.775189130     -9.262584397
C       4.644695850      0.504853497     -9.110897211
H       3.253472114      2.687367278     -7.916852249
H       2.683383920      1.290780047     -9.130940518
H       5.827744757      0.310517734     -9.326355260
H       2.713201780      2.218746248     -7.416858558
           6
  t=        76.50000    1    1
C       3.595085027      0.767721991     -9.272499838
C       4.651188593      0.497675245     -9.115547904
H       3.199678195      2.766395215     -7.839255348
H       2.686359215      1.316057688     -9.075164035
H       5.811154178      0.355264810     -9.269055164
H       2.749176415      2.244074657     -7.434096873
           6
  t=        77.00000    1    1
C       3.588249927      0.761176280     -9.282528193
C       4.661383847      0.489691130     -9.120228784
H       3.142319521      2.842369519     -7.757791563
H       2.690536164      1.338029136     -9.022172884
H       5.785185155      0.400113708     -9.209225854
H       2.788318624      2.274285062     -7.453242075
           6
  t=        77.50000    1    1
C       3.578994083      0.755523243     -9.292524130
C       4.674379585      0.481129097     -9.124870672
H       3.084261541      2.918209674     -7.675261059
H       2.696911588      1.355489204     -8.972772156
H       5.752809603      0.444178263     -9.148313095
H       2.827846701      2.306177587     -7.471797295
           6
  t=        78.00000    1    1
C       3.568001186      0.750608459     -9.302346269
C       4.689088337      0.472275567     -9.129481986
H       3.027263814      2.997569300     -7.593219723
H       2.706095408      1.367867874     -8.927518571
H       5.718150981      0.486641333     -9.087163515
H       2.866075426      2.335914081     -7.488386443
           6
  t=        78.50000    1    1
C       3.556003778      0.746254957     -9.311858205
C       4.704298801      0.463371620     -9.134117728
H       2.971033333      3.081254412     -7.511392595
H       2.718284897      1.374882104     -8.886901004
H       5.686645258      0.527156633     -9.026127897
H       2.903365090      2.362554530     -7.503414088
           6
  t=        79.00000    1    1
C       3.543698865      0.742288963     -9.320954619
C       4.718843729      0.454587664     -9.138872755
H       2.914671459      3.165702610     -7.429239513
H       2.733339753      1.376443358     -8.851247877
H       5.663970559      0.565944169     -8.964905359
H       2.940675570      2.389569917     -7.517517396
           6
  t=        79.50000    1    1
C       3.531695917      0.738552008     -9.329566276
C       4.731813757      0.446025679     -9.143862271
H       2.858306832      3.245951036     -7.347322752
H       2.750852776      1.372651941     -8.820692154
H       5.654050338      0.603647592     -8.902727899
H       2.977932791      2.421851764     -7.530221807
           6
  t=        80.00000    1    1
C       3.520498760      0.734905462     -9.337658268
C       4.742718827      0.437761632     -9.149160244
H       2.802980984      3.318371354     -7.266970972
H       2.770205997      1.363796273     -8.795153297
H       5.657292688      0.640797310     -8.839112034
H       3.014141147      2.462955691     -7.540297593
           6
  t=        80.50000    1    1
C       3.510510955      0.731230056     -9.345226685
C       4.751474261      0.429893442     -9.154740069
H       2.749983810      3.381105427     -7.189595711
H       2.790614434      1.350339634     -8.774322174
H       5.670650676      0.677270250     -8.774611188
H       3.048045763      2.514653839     -7.546452258
           6
  t=        81.00000    1    1
C       3.502051890      0.727421984     -9.352293804
C       4.758231208      0.422548635     -9.160476099
H       2.700497549      3.433526522     -7.116391020
H       2.811167771      1.332906000     -8.757668422
H       5.689409221      0.712261189     -8.710850229
H       3.078487222      2.577471770     -7.547628067
           6
  t=        81.50000    1    1
C       3.495372804      0.723390127     -9.358904208
C       4.763201762      0.415858146     -9.166194823
H       2.655514470      3.475704800     -7.048299808
H       2.830871511      1.312245801     -8.744455985
H       5.709035005      0.744658683     -8.649955441
H       3.104484230      2.651226237     -7.543026986
           6
  t=        82.00000    1    1
C       3.490668089      0.719055666     -9.365119981
C       4.766567593      0.409929218     -9.171725972
H       2.615858566      3.508083270     -6.986063556
H       2.848698583      1.289180758     -8.733786077
H       5.726076063      0.773421596     -8.593970913
H       3.125214109      2.735355209     -7.532050386
           6
  t=        82.50000    1    1
C       3.488080593      0.714354767     -9.371013054
C       4.768461315      0.404833861     -9.176929070
H       2.582223598      3.531320057     -6.930273845
H       2.863656204      1.264522643     -8.724680279
H       5.738250418      0.797758450     -8.544560099
H       3.139977995      2.829082934     -7.514237811
           6
  t=        83.00000    1    1
C       3.487701394      0.709243100     -9.376654921
C       4.768980083      0.400610330     -9.181698530
H       2.555194248      3.546233703     -6.881398644
H       2.874872545      1.238977197     -8.716201371
H       5.744196972      0.817144841     -8.502953666
H       3.148182873      2.931481861     -7.489233768
           6
  t=        83.50000    1    1
C       3.489566338      0.703701495     -9.382103284
C       4.768205086      0.397269977     -9.185959270
H       2.535233352      3.553810723     -6.839771190
H       2.881695253      1.213043271     -8.707608760
H       5.743183759      0.831270029     -8.470008598
H       3.149356704      3.041470430     -7.456795576
           6
  t=        84.00000    1    1
C       3.493651926      0.697739614     -9.387389190
C       4.766217483      0.394804770     -9.189660129
H       2.522614828      3.555250803     -6.805524822
H       2.883773348      1.186943725     -8.698505843
H       5.734884003      0.839969892     -8.446292529
H       3.143216787      3.157770834     -7.416858365
           6
  t=        84.50000    1    1
C       3.499871369      0.691395422     -9.392509699
C       4.763109813      0.393193210     -9.192767383
H       2.517268756      3.552020487     -6.778445942
H       2.881106113      1.160614023     -8.688932676
H       5.719237856      0.843173699     -8.432153380
H       3.129825135      3.278855714     -7.369684303
           6
  t=        85.00000    1    1
C       3.508073551      0.684730478     -9.397427768
C       4.758993267      0.392403376     -9.195260564
H       2.518500072      3.545845870     -6.757717057
H       2.874035551      1.133752413     -8.679376001
H       5.696385662      0.840875097     -8.427757188
H       3.109869868      3.402954215     -7.316122859
           6
  t=        85.50000    1    1
C       3.518043806      0.677821945     -9.402081022
C       4.754002208      0.392393111     -9.197130262
H       2.524610912      3.538484994     -6.741593814
H       2.863186486      1.105917963     -8.670685780
H       5.666664661      0.833129033     -8.433089696
H       3.085042903      3.528277446     -7.257937446
           6
  t=        86.00000    1    1
C       3.529506101      0.670754321     -9.406395983
C       4.748295084      0.393107251     -9.198378985
H       2.532757283      3.531085563     -6.727340086
H       2.849374432      1.076639095     -8.663934553
H       5.630664243      0.820077130     -8.447913774
H       3.058183409      3.653658400     -7.197873805
           6
  t=        86.50000    1    1
C       3.542125570      0.663613056     -9.410303066
C       4.742050088      0.394471663     -9.199027074
H       2.539859402      3.523447353     -6.712141402
H       2.833504005      1.045504201     -8.660267377
H       5.589348843      0.802006778     -8.471667280
H       3.032367605      3.779286761     -7.138749817
           6
  t=        87.00000    1    1
C       3.555510906      0.656480622     -9.413750030
C       4.735452387      0.396384360     -9.199124775
H       2.544724286      3.514657545     -6.694991667
H       2.816481339      1.012220426     -8.660772067
H       5.544269088      0.779448000     -8.503286132
H       3.008786183      3.906070539     -7.081571590
           6
  t=        87.50000    1    1
C       3.569218054      0.649434806     -9.416711106
C       4.728669665      0.398703709     -9.198772762
H       2.548925286      3.505323025     -6.677273051
H       2.799146093      0.976639442     -8.666390329
H       5.497877139      0.753311142     -8.540938069
H       2.985864665      4.033401039     -7.024955647
           6
  t=        88.00000    1    1
C       3.582756078      0.642548106     -9.419191937
C       4.721816875      0.401236514     -9.198148544
H       2.554974529      3.498240945     -6.661007313
H       2.782222059      0.938759009     -8.677864445
H       5.453926214      0.725036040     -8.581701472
H       2.961090695      4.158480639     -6.966878795
           6
  t=        88.50000    1    1
C       3.595597752      0.635887587     -9.421230979
C       4.714922744      0.403734036     -9.197523795
H       2.564521458      3.496865560     -6.647356932
H       2.766280344      0.898713297     -8.695710649
H       5.417780282      0.696651524     -8.621368434
H       2.932815272      4.277855242     -6.906177576
           6
  t=        89.00000    1    1
C       3.607193400      0.629514369     -9.422897707
C       4.707943799      0.405916243     -9.197235214
H       2.578078858      3.504014134     -6.636505838
H       2.751707531      0.856754646     -8.720208153
H       5.396114392      0.670511320     -8.654823762
H       2.900526527      4.388708070     -6.842667785
           6
  t=        89.50000    1    1
C       3.616988218      0.623483908     -9.424289271
C       4.700891532      0.407541326     -9.197561531
H       2.595427085      3.521578798     -6.628060435
H       2.738669176      0.813231114     -8.751395120
H       5.395230871      0.648485731     -8.677553226
H       2.864445342      4.489147520     -6.776743548
           6
  t=        90.00000    1    1
C       3.624446497      0.617845190     -9.425525152
C       4.694061498      0.408494959     -9.198538669
H       2.615989694      3.550711542     -6.621375864
H       2.727070078      0.768560717     -8.789068278
H       5.418083026      0.630934356     -8.687908511
H       2.825149516      4.578021958     -6.709050946
           6
  t=        90.50000    1    1
C       3.629094191      0.612636682     -9.426738201
C       4.688158292      0.408814062     -9.199885019
H       2.639042377      3.592068291     -6.615722911
H       2.716508485      0.723201151     -8.832787036
H       5.462326239      0.616501928     -8.688099662
H       2.783364635      4.654675411     -6.640320962
           6
  t=        91.00000    1    1
C       3.630588244      0.607878990     -9.428060865
C       4.684123975      0.408618192     -9.201139840
H       2.663804447      3.645982349     -6.610354042
H       2.706237416      0.677601020     -8.881885504
H       5.521574166      0.603071495     -8.682699469
H       2.739872448      4.718774031     -6.571303198
           6
  t=        91.50000    1    1
C       3.628797830      0.603564158     -9.429605632
C       4.682805760      0.408033331     -9.201871943
H       2.689469683      3.712554261     -6.604522241
H       2.695158843      0.632155003     -8.935518377
H       5.588394183      0.588843967     -8.676345865
H       2.695479919      4.770216372     -6.502746732
           6
  t=        92.00000    1    1
C       3.623860883      0.599650081     -9.431446837
C       4.684716820      0.407167972     -9.201793876
H       2.715212801      3.791666605     -6.597485087
H       2.681893924      0.587145545     -8.992748008
H       5.656412121      0.572747539     -8.672512221
H       2.651012751      4.809118734     -6.435395822
           6
  t=        92.50000    1    1
C       3.616184111      0.596064274     -9.433607065
C       4.689967424      0.406120535     -9.200774318
H       2.740196389      3.882924676     -6.588516917
H       2.664979337      0.542697686     -9.052685534
H       5.720935622      0.554349526     -8.673380635
H       2.607308464      4.835874684     -6.369977597
           6
  t=        93.00000    1    1
C       3.606377121      0.592714736     -9.436050556
C       4.698316578      0.404986778     -9.198804808
H       2.763606542      3.985511805     -6.576956125
H       2.643214577      0.498775108     -9.114660119
H       5.778776332      0.533642504     -8.680147453
H       2.565180806      4.851299900     -6.307154686
           6
  t=        93.50000    1    1
C       3.595143789      0.589501916     -9.438684718
C       4.709275807      0.403855381     -9.195960204
H       2.784764304      4.097950013     -6.562331641
H       2.616089621      0.455250406     -9.178347222
H       5.827879927      0.510884057     -8.693347744
H       2.525308356      4.856871583     -6.247398783
           6
  t=        94.00000    1    1
C       3.583171120      0.586322963     -9.441369378
C       4.722218567      0.402797173     -9.192372383
H       2.803385086      4.217819770     -6.544629303
H       2.584114420      0.412061835     -9.243776183
H       5.867017073      0.486517795     -8.713050643
H       2.487975169      4.855008705     -6.190724352
           6
  t=        94.50000    1    1
C       3.571049306      0.583056874     -9.443938854
C       4.736477295      0.401869142     -9.188221325
H       2.820013954      4.341716356     -6.524695270
H       2.548853494      0.369434959     -9.311133349
H       5.895545113      0.461080724     -8.738899614
H       2.452635565      4.849115642     -6.136285173
           6
  t=        95.00000    1    1
C       3.559241688      0.579561106     -9.446253095
C       4.751414879      0.401130989     -9.183701804
H       2.836313372      4.466065525     -6.504417064
H       2.512626407      0.327906729     -9.380410803
H       5.913214210      0.435022216     -8.770251561
H       2.417626418      4.842766679     -6.082193181
           6
  t=        95.50000    1    1
C       3.548099807      0.575705718     -9.448221639
C       4.766447228      0.400623743     -9.178989403
H       2.854230960      4.588953398     -6.485775189
H       2.478070096      0.288132396     -9.451308037
H       5.920156985      0.408745321     -8.806394197
H       2.380999466      4.837876076     -6.026467121
           6
  t=        96.00000    1    1
C       3.537893385      0.571382847     -9.449797007
C       4.781041050      0.400361365     -9.174246633
H       2.873898414      4.710914132     -6.468836290
H       2.447717086      0.250813518     -9.523252418
H       5.916979775      0.382666011     -8.846531290
H       2.342622452      4.833910218     -5.969039582
           6
  t=        96.50000    1    1
C       3.528836453      0.566507162     -9.450967283
C       4.794701691      0.400338266     -9.169629658
H       2.892915279      4.833018624     -6.451289839
H       2.423709668      0.216630883     -9.595445359
H       5.904882065      0.357185455     -8.889744536
H       2.304895391      4.829798792     -5.912220398
           6
  t=        97.00000    1    1
C       3.521104560      0.561016453     -9.451747472
C       4.806953442      0.400538253     -9.165289947
H       2.908064650      4.955095690     -6.430202048
H       2.407681183      0.186182162     -9.666943151
H       5.885804755      0.332638936     -8.934996100
H       2.271034882      4.825713592     -5.858942750
           6
  t=        97.50000    1    1
C       3.514844294      0.554871001     -9.452170819
C       4.817319457      0.400943869     -9.161371752
H       2.916890309      5.075883262     -6.403447210
H       2.400754805      0.159946506     -9.736740723
H       5.862557164      0.309227481     -8.981178125
H       2.243496996      4.822917272     -5.811331867
           6
  t=        98.00000    1    1
C       3.510176668      0.548051212     -9.452281056
C       4.825316127      0.401545846     -9.158003938
H       2.918018202      5.193775351     -6.369926934
H       2.403601861      0.138274083     -9.803843563
H       5.838785309      0.286944049     -9.027230354
H       2.223655786      4.823016362     -5.770485798
           6
  t=        98.50000    1    1
C       3.507198764      0.540554513     -9.452127681
C       4.830477091      0.402348700     -9.155286251
H       2.910881570      5.307252294     -6.329274520
H       2.416509368      0.121392259     -9.867312134
H       5.818599019      0.265537688     -9.072315491
H       2.212078129      4.827530978     -5.736771048
           6
  t=        99.00000    1    1
C       3.505984158      0.532391634     -9.451762167
C       4.832419569      0.403367536     -9.153276639
H       2.895403416      5.415002104     -6.281551448
H       2.439437793      0.109420974     -9.926297745
H       5.805719250      0.244580492     -9.115979459
H       2.208841224      4.837773450     -5.710126075
           6
  t=        99.50000    1    1
C       3.506581818      0.523583363     -9.451235861
C       4.830937479      0.404612847     -9.151990276
H       2.871787003      5.515910275     -6.227056268
H       2.472059652      0.102387005     -9.980067998
H       5.802343990      0.223672997     -9.158162535
H       2.213742045      4.854858521     -5.690252370
           6
  t=       100.00000    1    1
C       3.509015394      0.514158943     -9.450598333
C       4.826067250      0.406069893     -9.151416182
H       2.840406939      5.609021206     -6.166228627
H       2.513774797      0.100229287    -10.028035179
H       5.808357785      0.202703460     -9.198992831
H       2.226406230      4.879741903     -5.676710411
