! 1 Hamiltonian Matrix (2x2, complex)
2 2
-7.770189347E+001  0.000000000E+000  0.000000000E+000  0.000000000E+000 
 0.000000000E+000  0.000000000E+000 -7.766265266E+001  0.000000000E+000 

! 2 Dipole Moment Matrices (3x2x2, complex)
2 2
 1.544645870E-001  0.000000000E+000  2.960953040E-001  0.000000000E+000 
 2.960953040E-001  0.000000000E+000  1.202242200E-001  0.000000000E+000 
2 2
 3.481227280E-001  0.000000000E+000 -2.113821570E-002  0.000000000E+000 
-2.113821570E-002  0.000000000E+000  2.273226320E-001  0.000000000E+000 
2 2
 1.392104730E+000  0.000000000E+000 -1.192880850E-002  0.000000000E+000 
-1.192880850E-002  0.000000000E+000  1.020525160E+000  0.000000000E+000 
! 3 Gradient Vectors (2x6x3, real)
6 3 ! 1 1 0
 8.951408248E-003  9.115749713E-002  3.957871050E-002 
-2.072926173E-002  1.789010655E-003 -1.256562330E-001 
-6.887404894E-003 -7.451178789E-002 -3.656698874E-002 
-1.822260686E-003 -1.662180715E-002 -2.685762333E-003 
 1.103983672E-002 -9.167460796E-003  6.930903423E-002 
 9.447682350E-003  7.354548053E-003  5.602123937E-002 
6 3 ! 1 2 0
 0.000000000E+000  0.000000000E+000  0.000000000E+000 
 0.000000000E+000  0.000000000E+000  0.000000000E+000 
 0.000000000E+000  0.000000000E+000  0.000000000E+000 
 0.000000000E+000  0.000000000E+000  0.000000000E+000 
 0.000000000E+000  0.000000000E+000  0.000000000E+000 
 0.000000000E+000  0.000000000E+000  0.000000000E+000 
! 6 Overlap matrix (2x2, complex)
2 2
 1.008475670E+000  0.000000000E+000  9.550750000E-003  0.000000000E+000 
-1.014578000E-002  0.000000000E+000  1.010828700E+000  0.000000000E+000 

! 7 Phases
2 ! for all nmstates
 1.000000000E+000  0.000000000E+000
 1.000000000E+000  0.000000000E+000
! 8 Runtime
 5.826177000E+000
