#                    1                    2                    3                    4                    5                    6
#               Time |           Sum c**2 |  === coeff_diab ===>
#               [fs] |                 [] |                 [] |
   0.000000000000E+000  1.000000000000E+000  0.000000000000E+000  0.000000000000E+000  1.000000000000E+000  0.000000000000E+000
   5.000000000000E-001  1.000000000000E+000  3.053835897934E-004  7.594132318111E-004 -3.181797542682E-001 -9.480300491052E-001
   1.000000000000E+000  1.000000000000E+000  1.112382244808E-003 -9.436501786760E-004 -7.899215085101E-001  6.132062316409E-001
   1.500000000000E+000  9.999999999999E-001 -1.341892491851E-003 -8.815492186194E-004  8.272487167003E-001  5.618335900542E-001
   2.000000000000E+000  1.000000000000E+000 -3.874876025120E-004  9.321035210060E-004  3.586634364871E-001 -9.334664002329E-001
   2.500000000000E+000  9.999999999999E-001 -4.635549936591E-004 -6.667624539343E-005 -9.611597285568E-001 -2.759923130661E-001
   3.000000000000E+000  1.000000000000E+000 -9.005207715025E-004  2.674909619428E-003 -3.466122985191E-001  9.380042368967E-001
   3.500000000000E+000  1.000000000000E+000  5.075251704912E-003  3.082798091414E-003  8.469116828279E-001  5.317004228565E-001
   4.000000000000E+000  1.000000000000E+000  7.187250667070E-003 -6.340442902997E-003  7.553846677868E-001 -6.552115275882E-001
   4.500000000000E+000  1.000000000000E+000 -4.438527252559E-003 -1.273165117491E-002 -3.248571793873E-001 -9.456669696752E-001
   5.000000000000E+000  1.000000000000E+000 -1.700614273732E-002 -3.467107976974E-003 -9.792223091238E-001 -2.020456373837E-001
   5.500000000000E+000  9.999999999999E-001 -1.718791052933E-002  1.192862153167E-002 -8.223324634916E-001  5.686225489793E-001
   6.000000000000E+000  9.999999999998E-001 -9.296813307895E-003  2.193752255066E-002 -3.921565509758E-001  9.195898835314E-001
   6.500000000000E+000  9.999999999999E-001 -5.937519208307E-004  2.554526560337E-002 -2.612771278068E-002  9.993319916267E-001
   7.000000000000E+000  1.000000000000E+000  6.467853894843E-003  2.458265182752E-002  2.534879492530E-001  9.670045086134E-001
   7.500000000000E+000  9.999999999999E-001  1.089896523818E-002  1.994756140547E-002  4.881376074317E-001  8.724706204575E-001
   8.000000000000E+000  1.000000000000E+000  1.103048815339E-002  1.290533438226E-002  6.831827675395E-001  7.300500577444E-001
   8.500000000000E+000  9.999999999998E-001  5.580029952592E-003  5.689741042864E-003  8.238537943398E-001  5.667463415536E-001
   9.000000000000E+000  1.000000000000E+000 -5.154971481637E-003  2.778136233683E-004  9.101700358787E-001  4.142026736723E-001
   9.500000000000E+000  9.999999999998E-001 -1.893556658465E-002 -2.439809707745E-003  9.589546941495E-001  2.829158641984E-001
   1.000000000000E+001  9.999999999998E-001 -2.865946945326E-002 -2.873222680935E-003  9.867031361308E-001  1.599603093001E-001
   1.050000000000E+001  9.999999999998E-001 -1.277605139237E-002 -7.185967555444E-003  9.993803822719E-001  3.199977985993E-002
   1.100000000000E+001  9.999999999998E-001  4.238071387832E-002 -2.293307762275E-002  9.934223552280E-001 -1.038747956670E-001
   1.150000000000E+001  9.999999999998E-001  1.067864678534E-001 -4.647113762602E-002  9.580577130026E-001 -2.618444236702E-001
   1.200000000000E+001  9.999999999998E-001  1.436905210865E-001 -8.503801256836E-002  8.769420395857E-001 -4.506597716408E-001
   1.250000000000E+001  9.999999999997E-001  1.474600901679E-001 -1.375653821253E-001  7.364486090936E-001 -6.457358079061E-001
   1.300000000000E+001  9.999999999999E-001  1.230466531375E-001 -1.881580211604E-001  5.457769827399E-001 -8.072072629356E-001
   1.350000000000E+001  1.000000000000E+000  8.155250177817E-002 -2.260472950121E-001  3.369991810366E-001 -9.103204720603E-001
   1.400000000000E+001  9.999999999999E-001  3.384215026694E-002 -2.480881677606E-001  1.349468247248E-001 -9.586951154455E-001
   1.450000000000E+001  9.999999999997E-001 -1.965351305081E-002 -2.558276980465E-001 -7.203987684530E-002 -9.638341063071E-001
   1.500000000000E+001  9.999999999999E-001 -8.976715982792E-002 -2.438251979211E-001 -3.328109479655E-001 -9.064921416038E-001
   1.550000000000E+001  9.999999999997E-001 -1.840674029081E-001 -1.848441096861E-001 -6.809704643658E-001 -6.842741212132E-001
   1.600000000000E+001  9.999999999998E-001 -2.587603257329E-001 -2.878874463418E-002 -9.595839541427E-001 -1.068313482113E-001
   1.650000000000E+001  9.999999999998E-001 -1.685099723979E-001  1.966710793702E-001 -6.284561235739E-001  7.334628664657E-001
   1.700000000000E+001  9.999999999997E-001  1.312668189319E-001  2.214364820395E-001  4.927283627228E-001  8.312362282995E-001
   1.750000000000E+001  9.999999999998E-001  2.369440557133E-001 -9.748087553493E-002  8.939369199628E-001 -3.677387340140E-001
   1.800000000000E+001  9.999999999998E-001 -8.660250073828E-002 -2.406612604983E-001 -3.273131393437E-001 -9.096418379638E-001
   1.850000000000E+001  1.000000000000E+000 -2.384939976253E-001  9.401793293626E-002 -8.992360020568E-001  3.544796947470E-001
   1.900000000000E+001  1.000000000000E+000  1.220730536773E-001  2.274398991021E-001  4.568606620800E-001  8.512623551563E-001
   1.950000000000E+001  1.000000000000E+000  2.023918010776E-001 -1.649646119684E-001  7.483006819525E-001 -6.098117127804E-001
   2.000000000000E+001  1.000000000000E+000 -2.049823995771E-001 -1.681130531816E-001 -7.454615332210E-001 -6.115613785234E-001
   2.050000000000E+001  1.000000000000E+000 -1.439537848337E-001  2.280819014955E-001 -5.140839182026E-001  8.142319565626E-001
   2.100000000000E+001  1.000000000000E+000  2.310277946152E-001  1.479523126001E-001  8.097363209302E-001  5.187131788166E-001
   2.150000000000E+001  1.000000000000E+000  1.822350662457E-001 -2.104434240792E-001  6.288254699948E-001 -7.260044587867E-001
   2.200000000000E+001  1.000000000000E+000 -1.584007900777E-001 -2.324495160701E-001 -5.402972126472E-001 -7.930670426813E-001
   2.250000000000E+001  1.000000000000E+000 -2.736909853333E-001  7.050738629274E-002 -9.289311474811E-001  2.391837709066E-001
   2.300000000000E+001  1.000000000000E+000 -4.564243021365E-002  2.783198430952E-001 -1.553006840944E-001  9.467505114990E-001
   2.350000000000E+001  1.000000000000E+000  2.236243408532E-001  1.671926753487E-001  7.692416215850E-001  5.747226210174E-001
   2.400000000000E+001  1.000000000000E+000  2.550366648801E-001 -9.976774464261E-002  8.952369583235E-001 -3.515017569622E-001
   2.450000000000E+001  1.000000000000E+000  7.480872712302E-002 -2.548202011144E-001  2.688617884237E-001 -9.258421345866E-001
   2.500000000000E+001  1.000000000000E+000 -1.190856793041E-001 -2.240994484949E-001 -4.586182146139E-001 -8.516263097119E-001
   2.550000000000E+001  1.000000000000E+000 -2.102948668597E-001 -1.104501299154E-001 -8.642522205901E-001 -4.434466562954E-001
   2.600000000000E+001  1.000000000000E+000 -2.147351231638E-001 -1.871706357921E-002 -9.740478134845E-001 -6.906052024895E-002
   2.650000000000E+001  1.000000000000E+000 -1.851010604348E-001  1.887747599427E-002 -9.742833557220E-001  1.270951654826E-001
   2.700000000000E+001  1.000000000000E+000 -1.460873690312E-001  1.508093918578E-002 -9.772988511624E-001  1.527023293851E-001
   2.750000000000E+001  1.000000000000E+000 -9.591911863880E-002 -4.261804088966E-003 -9.931155854998E-001  6.710285793465E-002
   2.800000000000E+001  1.000000000000E+000 -3.182770750784E-002 -1.489646520179E-002 -9.986102107036E-001 -3.927772190534E-002
   2.850000000000E+001  1.000000000000E+000  3.735185546286E-002 -1.253739711328E-002 -9.976292077499E-001 -5.642354483307E-002
   2.900000000000E+001  1.000000000000E+000  9.818005494615E-002 -2.325115995079E-002 -9.891031717423E-001  1.072146259671E-001
   2.950000000000E+001  1.000000000000E+000  1.270737115799E-001 -7.796084768052E-002 -8.718058673213E-001  4.666143029939E-001
   3.000000000000E+001  1.000000000000E+000  8.346979807517E-002 -1.618862589016E-001 -4.770987688654E-001  8.597688042348E-001
   3.050000000000E+001  1.000000000000E+000 -4.193507235166E-002 -2.004108585025E-001  1.833860188865E-001  9.614814119774E-001
   3.100000000000E+001  1.000000000000E+000 -1.813848042783E-001 -1.274279356757E-001  7.911190272223E-001  5.700810106934E-001
   3.150000000000E+001  1.000000000000E+000 -2.320521810130E-001  4.195673043537E-002  9.578308395574E-001 -1.641691227093E-001
   3.200000000000E+001  1.000000000000E+000 -1.318081922778E-001  2.108110260713E-001  5.196597843222E-001 -8.173977124348E-001
   3.250000000000E+001  1.000000000000E+000  8.545344636305E-002  2.463282057150E-001 -3.105181352428E-001 -9.141108309496E-001
   3.300000000000E+001  1.000000000000E+000  2.625967139982E-001  7.220639090082E-002 -9.263157807776E-001 -2.603234088456E-001
   3.350000000000E+001  1.000000000000E+000  2.008295210054E-001 -2.000765274622E-001 -6.826746255409E-001  6.734925703333E-001
   3.400000000000E+001  1.000000000000E+000 -1.000475598896E-001 -2.765438944520E-001  3.213789665882E-001  9.001275020997E-001
   3.450000000000E+001  1.000000000000E+000 -3.040297694221E-001 -3.560607844686E-003  9.525452110616E-001  1.452040841496E-002
   3.500000000000E+001  1.000000000000E+000 -9.234800698113E-002  2.993539547005E-001  2.825708491899E-001 -9.066491993048E-001
   3.550000000000E+001  1.000000000000E+000  2.785350336447E-001  1.608662006482E-001 -8.188442758653E-001 -4.754307020001E-001
   3.600000000000E+001  9.999999999998E-001  2.121342225726E-001 -2.515761486251E-001 -6.099880408273E-001  7.208488767447E-001
   3.650000000000E+001  9.999999999998E-001 -2.195182664847E-001 -2.536754538379E-001  6.155567122778E-001  7.131272178014E-001
   3.700000000000E+001  9.999999999998E-001 -2.930536129991E-001  1.739883159785E-001  8.087847013723E-001 -4.792858777776E-001
   3.750000000000E+001  9.999999999998E-001  1.001783416514E-001  3.303375546454E-001 -2.719203321740E-001 -8.982765347069E-001
   3.800000000000E+001  9.999999999999E-001  3.485712604833E-001  1.322617669868E-002 -9.365044453902E-001 -3.581296384377E-002
   3.850000000000E+001  9.999999999999E-001  1.550893010395E-001 -3.159991024634E-001 -4.125476503575E-001  8.401763577546E-001
   3.900000000000E+001  1.000000000000E+000 -2.147535140221E-001 -2.828369463066E-001  5.651900625015E-001  7.446102223772E-001
   3.950000000000E+001  1.000000000000E+000 -3.520216185934E-001  6.854585542259E-002  9.163021840408E-001 -1.782485715777E-001
   4.000000000000E+001  1.000000000000E+000 -7.796537470466E-002  3.545231998210E-001  2.004139961707E-001 -9.099829291117E-001
   4.050000000000E+001  1.000000000000E+000  3.097325626290E-001  1.998786690115E-001 -7.807554128123E-001 -5.045148587364E-001
   4.100000000000E+001  1.000000000000E+000  2.958502164381E-001 -2.316413125806E-001 -7.303494141960E-001  5.704425342864E-001
   4.150000000000E+001  1.000000000000E+000 -1.196620023995E-001 -3.651985571537E-001  2.856292815129E-001  8.779105493028E-001
   4.200000000000E+001  1.000000000000E+000 -3.930970440242E-001 -2.744552078237E-002  9.166461146422E-001  6.694294496005E-002
   4.250000000000E+001  1.000000000000E+000 -1.962867166725E-001  3.538937094273E-001  4.469538591994E-001 -7.977863216630E-001
   4.300000000000E+001  1.000000000000E+000  2.217666461667E-001  3.516554683095E-001 -4.812195833755E-001 -7.717419898075E-001
   4.350000000000E+001  1.000000000000E+000  4.260130204031E-001  1.599046347528E-002 -9.037436273897E-001 -3.879004353365E-002
   4.400000000000E+001  1.000000000000E+000  3.097318222212E-001 -3.047794219760E-001 -6.447114437630E-001  6.289060792555E-001
   4.450000000000E+001  9.999999999998E-001  9.132998105740E-002 -4.271961568647E-001 -1.879639553667E-001  8.796771166757E-001
   4.500000000000E+001  1.000000000000E+000 -2.371503602225E-002 -4.255149373410E-001  6.337505108589E-002  9.024179952029E-001
   4.550000000000E+001  1.000000000000E+000  3.065869894796E-002 -3.870492073806E-001 -1.580877122711E-002  9.214136085370E-001
   4.600000000000E+001  9.999999999999E-001  1.990069760576E-001 -2.223629074905E-001 -4.429324043268E-001  8.454358911532E-001
   4.650000000000E+001  9.999999999999E-001  1.269631817296E-001  1.400980814016E-001 -9.250018316207E-001  3.295822955969E-001
   4.700000000000E+001  9.999999999999E-001 -3.502000397981E-001  1.010942660949E-001 -8.491032032097E-001 -3.823135255089E-001
   4.750000000000E+001  9.999999999999E-001 -3.446012085872E-001 -3.705016167181E-001 -5.392057858536E-001 -6.732278065793E-001
   4.800000000000E+001  1.000000000000E+000 -1.403382946694E-001 -3.975469886312E-001 -3.848013102923E-001 -8.210904374531E-001
   4.850000000000E+001  9.999999999999E-001 -2.008283425187E-001 -4.033604037358E-001 -3.546226338620E-001 -8.192747702035E-001
   4.900000000000E+001  9.999999999998E-001 -2.538608834570E-001 -3.583730769185E-001 -5.382263904872E-001 -7.193300648335E-001
   4.950000000000E+001  9.999999999998E-001 -3.724078228922E-001 -2.251825582714E-001 -7.688962438980E-001 -4.684055881587E-001
   5.000000000000E+001  9.999999999998E-001 -4.219806093104E-001 -8.628276244519E-003 -9.064398486854E-001 -1.499062807318E-002
   5.050000000000E+001  9.999999999999E-001 -3.303330799958E-001  2.499350075766E-001 -7.232759506607E-001  5.525255174595E-001
   5.100000000000E+001  1.000000000000E+000 -4.370619676731E-002  4.020960931067E-001 -9.626901570842E-002  9.094728016203E-001
   5.150000000000E+001  1.000000000000E+000  2.949580977711E-001  2.615853292528E-001  6.898207495109E-001  6.072233276343E-001
   5.200000000000E+001  1.000000000000E+000  3.594553315811E-001 -1.324805069721E-001  8.652156313626E-001 -3.234852254993E-001
   5.250000000000E+001  1.000000000000E+000  1.263712284645E-002 -3.697311891396E-001  2.616857996378E-002 -9.286842069974E-001
   5.300000000000E+001  1.000000000000E+000 -3.350324415862E-001 -1.157773543415E-001 -8.862648477273E-001 -2.981333376016E-001
   5.350000000000E+001  9.999999999999E-001 -1.784630419435E-001  2.855177861637E-001 -4.902797962648E-001  8.039006517095E-001
   5.400000000000E+001  1.000000000000E+000  2.328740760917E-001  2.149645012140E-001  7.057471273457E-001  6.336252205725E-001
   5.450000000000E+001  1.000000000000E+000  2.410883529592E-001 -1.712306249216E-001  7.695646580034E-001 -5.659741304234E-001
   5.500000000000E+001  1.000000000000E+000 -8.600044283049E-002 -2.598705561249E-001 -3.196917732278E-001 -9.071209335159E-001
   5.550000000000E+001  1.000000000000E+000 -2.499267351969E-001 -2.820944249485E-002 -9.639255544277E-001 -8.711130758627E-002
   5.600000000000E+001  1.000000000000E+000 -1.431750546331E-001  1.792014338941E-001 -5.875688417365E-001  7.759836377410E-001
   5.650000000000E+001  1.000000000000E+000  5.216279347236E-002  2.008518123778E-001  2.748949560500E-001  9.388132698146E-001
   5.700000000000E+001  1.000000000000E+000  1.716924518306E-001  7.206095426319E-002  9.191911645559E-001  3.470108411241E-001
   5.750000000000E+001  1.000000000000E+000  1.386763683851E-001 -9.095452662504E-002  8.009020679682E-001 -5.753711988468E-001
   5.800000000000E+001  1.000000000000E+000 -1.213220090052E-002 -1.464731873628E-001 -1.287354839286E-001 -9.807270722597E-001
   5.850000000000E+001  1.000000000000E+000 -1.232226765631E-001 -4.191224488189E-002 -9.538180321471E-001 -2.707225466433E-001
   5.900000000000E+001  1.000000000000E+000 -7.363785777516E-002  8.935339669055E-002 -5.909435874784E-001  7.983602650563E-001
   5.950000000000E+001  1.000000000000E+000  5.294598254704E-002  8.946136367036E-002  5.493399209930E-001  8.291073745578E-001
   6.000000000000E+001  1.000000000001E+000  9.265894078524E-002 -1.825448065428E-002  9.663073262345E-001 -2.394394409758E-001
   6.050000000000E+001  1.000000000001E+000  1.072997093461E-002 -8.623939476291E-002  7.806358884114E-002 -9.931534174600E-001
   6.100000000000E+001  1.000000000001E+000 -7.437450775325E-002 -3.225511377921E-002 -9.299851525882E-001 -3.585465886013E-001
   6.150000000000E+001  1.000000000001E+000 -4.764947294474E-002  6.021240514084E-002 -5.911010609125E-001  8.029343247015E-001
   6.200000000000E+001  1.000000000001E+000  4.432811652266E-002  5.929447459409E-002  6.167829852963E-001  7.836440087296E-001
   6.250000000000E+001  1.000000000001E+000  6.828256235607E-002 -2.525606202896E-002  9.317405443620E-001 -3.557515720297E-001
   6.300000000000E+001  1.000000000001E+000 -9.161797530196E-004 -7.293378956039E-002 -5.466840693714E-003 -9.973213808038E-001
   6.350000000000E+001  1.000000000000E+000 -6.785032289171E-002 -2.915849359351E-002 -9.074833470881E-001 -4.135457540504E-001
   6.400000000000E+001  1.000000000000E+000 -5.945020123433E-002  4.435188462943E-002 -8.080427092847E-001  5.844361076074E-001
   6.450000000000E+001  1.000000000001E+000 -3.572479264867E-003  7.197359790041E-002  2.007313692923E-002  9.971981286443E-001
   6.500000000000E+001  1.000000000001E+000  4.686034948959E-002  6.773606852130E-002  7.777325595568E-001  6.231757364282E-001
   6.550000000000E+001  1.000000000001E+000  1.084393926598E-001  4.730089061094E-002  9.872046437609E-001 -1.069135875577E-001
   6.600000000000E+001  1.000000000000E+000  1.857363082787E-001 -4.172207769576E-002  6.984316763737E-001 -6.898945466215E-001
   6.650000000000E+001  1.000000000001E+000  1.827497204365E-001 -2.157654311935E-001  2.684484365722E-001 -9.208600628134E-001
   6.700000000000E+001  1.000000000001E+000  7.153800451847E-002 -3.493782040603E-001  7.486056473554E-003 -9.342168610104E-001
   6.750000000000E+001  1.000000000000E+000  5.214175502926E-003 -3.794807363847E-001  4.119423212342E-003 -9.251757743475E-001
   6.800000000000E+001  1.000000000001E+000  9.793143673830E-002 -3.654210269409E-001  2.435191580311E-001 -8.930707286885E-001
   6.850000000000E+001  1.000000000001E+000  3.102770302474E-001 -2.738708542526E-001  6.415804796934E-001 -6.458307888051E-001
   6.900000000000E+001  1.000000000001E+000  4.626745767887E-001  8.555459660102E-004  8.854513035543E-001 -4.367485625806E-002
   6.950000000000E+001  1.000000000001E+000  3.272087817399E-001  3.584947602049E-001  5.985564894275E-001  6.372958881263E-001
   7.000000000000E+001  1.000000000001E+000 -6.483277060208E-002  4.922023514124E-001 -1.037847850729E-001  8.618365712292E-001
   7.050000000000E+001  1.000000000000E+000 -4.037974890300E-001  3.055170577436E-001 -6.827276572103E-001  5.267730643848E-001
   7.100000000000E+001  1.000000000000E+000 -5.081657990069E-001 -2.163251475371E-003 -8.612420851064E-001 -4.991182700721E-003
   7.150000000000E+001  1.000000000000E+000 -4.327473752068E-001 -2.559976138869E-001 -7.407788848406E-001 -4.454678155722E-001
   7.200000000000E+001  1.000000000000E+000 -2.685046456777E-001 -4.168788844348E-001 -4.649160159656E-001 -7.334646201834E-001
   7.250000000000E+001  1.000000000000E+000 -5.417978525009E-002 -4.858495440948E-001 -9.024752335672E-002 -8.676809067286E-001
   7.300000000000E+001  1.000000000000E+000  1.836991647964E-001 -4.454714448189E-001  3.398762474708E-001 -8.076471662239E-001
   7.350000000000E+001  1.000000000000E+000  3.878945247040E-001 -2.762352146080E-001  7.189326675585E-001 -5.063277233501E-001
   7.400000000000E+001  1.000000000000E+000  4.733104744344E-001  1.411078809403E-003  8.808837112687E-001  4.369309900313E-003
   7.450000000000E+001  1.000000000000E+000  3.673017782837E-001  3.003444879435E-001  6.829152621143E-001  5.554361682525E-001
   7.500000000000E+001  1.000000000000E+000  6.895688269128E-002  4.761071188134E-001  1.332808365160E-001  8.664889949461E-001
   7.550000000000E+001  1.000000000000E+000 -2.994947544002E-001  3.931110107899E-001 -5.157293610781E-001  6.998498777629E-001
   7.600000000000E+001  1.000000000000E+000 -5.125414382569E-001  4.052624331500E-002 -8.532177338146E-001  8.762645934217E-002
   7.650000000000E+001  1.000000000000E+000 -3.730043654584E-001 -3.910508485026E-001 -5.990203216651E-001 -5.908651550625E-001
   7.700000000000E+001  1.000000000000E+000  1.120864014534E-001 -5.607299872833E-001  1.314432433644E-001 -8.097784843676E-001
   7.750000000000E+001  1.000000000000E+000  5.813699678772E-001 -1.730784878440E-001  7.521168879246E-001 -2.576295487611E-001
   7.800000000000E+001  1.000000000000E+000  3.527436814531E-001  5.373106070813E-001  4.476922998084E-001  6.216436369862E-001
   7.850000000000E+001  1.000000000000E+000 -5.508837240579E-001  3.963179930929E-001 -5.766004753504E-001  4.549627047848E-001
   7.900000000000E+001  1.000000000000E+000 -2.844898066154E-001 -6.539421530328E-001 -3.081865788083E-001 -6.296397724584E-001
   7.950000000000E+001  1.000000000000E+000  7.458307012242E-001  7.036510596280E-003  6.656709971583E-001 -2.385741337148E-002
   8.000000000000E+001  1.000000000000E+000 -3.984705031314E-001  6.667793456863E-001 -2.978435561061E-001  5.549015934260E-001
   8.050000000000E+001  1.000000000000E+000 -4.029492474285E-001 -6.979104120784E-001 -3.198993654743E-001 -4.982141674809E-001
   8.100000000000E+001  1.000000000000E+000  8.184428209088E-001 -1.546843466305E-001  5.381634345551E-001 -1.288573611339E-001
   8.150000000000E+001  1.000000000000E+000  1.477047334727E-001  8.444799168202E-001  1.131557939778E-001  5.022277850603E-001
   8.200000000000E+001  1.000000000000E+000 -7.317686384208E-001  4.857274686456E-001 -3.853340701062E-001  2.830214487325E-001
   8.250000000000E+001  1.000000000000E+000 -8.844707511245E-001 -1.418482304745E-001 -4.416863039164E-001 -5.003777422566E-002
   8.300000000000E+001  1.000000000000E+000 -7.312822941671E-001 -5.425197763349E-001 -3.434057451068E-001 -2.301542803235E-001
   8.350000000000E+001  1.000000000000E+000 -4.706852369246E-001 -7.956393364918E-001 -2.129692930775E-001 -3.163187224533E-001
   8.400000000000E+001  1.000000000000E+000 -1.151905974224E-001 -9.323648201683E-001 -7.122881772153E-002 -3.351916226641E-001
   8.450000000000E+001  1.000000000000E+000  2.609808360824E-001 -9.202291890941E-001  3.844571096840E-002 -2.891179171990E-001
   8.500000000000E+001  1.000000000000E+000  5.436863302352E-001 -8.083924481772E-001  7.626315923507E-002 -2.123458372307E-001
   8.550000000000E+001  1.000000000000E+000  7.011540119686E-001 -6.972820655078E-001  5.463897092703E-002 -1.385473041167E-001
   8.600000000000E+001  1.000000000000E+000  7.819115322657E-001 -6.188458612027E-001  1.897089608687E-002 -7.269292183005E-002
   8.650000000000E+001  1.000000000001E+000  8.543582097134E-001 -5.191869098061E-001  2.027956555547E-003 -2.264706546307E-002
   8.700000000000E+001  1.000000000001E+000  9.493532915312E-001 -3.141678997318E-001 -4.322586648591E-003 -2.859000219544E-003
   8.750000000000E+001  1.000000000001E+000  9.989594011752E-001  4.027747747431E-002 -1.945669103895E-002 -8.903751245445E-003
   8.800000000000E+001  1.000000000001E+000  8.828714329175E-001  4.671323653281E-001 -3.681241673677E-002 -3.114855014084E-002
   8.850000000000E+001  1.000000000001E+000  5.752780238167E-001  8.142843603713E-001 -3.615461031735E-002 -6.847641872822E-002
   8.900000000000E+001  1.000000000001E+000  9.953305352799E-002  9.882355010567E-001  2.402670804686E-003 -1.160947581948E-001
   8.950000000000E+001  1.000000000001E+000 -5.555909431688E-001  8.144870437748E-001  1.084459570950E-001 -1.271575156344E-001
   9.000000000000E+001  1.000000000001E+000 -9.729745885434E-001 -4.853562850047E-002  2.234748991470E-001  3.199550385714E-002
   9.050000000000E+001  1.000000000001E+000 -1.613503314389E-001 -9.437111529830E-001  2.511415203198E-002  2.876536279080E-001
   9.100000000000E+001  1.000000000001E+000  9.190535167021E-001 -1.761577261764E-001 -3.502495209256E-001  4.042724376073E-002
   9.150000000000E+001  1.000000000001E+000  1.781443757210E-001  8.923833518639E-001 -5.275953907470E-002 -4.112577850357E-001
   9.200000000000E+001  1.000000000001E+000 -8.200135988837E-001  3.202123630107E-001  4.525722397153E-001 -1.421974263500E-001
   9.250000000000E+001  1.000000000000E+000 -6.471671371952E-001 -5.458855741549E-001  3.821063634958E-001  3.703759757875E-001
   9.300000000000E+001  1.000000000001E+000 -1.937745630801E-001 -7.854114160370E-001  9.943766070782E-002  5.793897461083E-001
   9.350000000000E+001  1.000000000001E+000 -8.333194469632E-002 -7.632487966005E-001  2.203061145226E-002  6.403293790235E-001
   9.400000000000E+001  1.000000000001E+000 -2.688260332677E-001 -6.728537351047E-001  2.080098790469E-001  6.570633951246E-001
   9.450000000000E+001  1.000000000001E+000 -4.945186513287E-001 -4.695774563533E-001  4.955338275742E-001  5.379540330763E-001
   9.500000000000E+001  1.000000000001E+000 -5.789556236298E-001 -2.801886786565E-001  6.696229475919E-001  3.713620851393E-001
   9.550000000000E+001  1.000000000001E+000 -5.538147298909E-001 -2.567152209653E-001  7.034084571271E-001  3.641470619452E-001
   9.600000000000E+001  1.000000000000E+000 -4.333334912968E-001 -3.914879018995E-001  5.839517212385E-001  5.638791495081E-001
   9.650000000000E+001  1.000000000001E+000 -1.483275050485E-001 -5.436093069960E-001  1.979438478958E-001  8.020636543781E-001
   9.700000000000E+001  1.000000000000E+000  2.732403721740E-001 -4.750891937587E-001 -4.297010009030E-001  7.176259518798E-001
   9.750000000000E+001  1.000000000001E+000  5.351121217355E-001 -3.483571724988E-002 -8.429338657780E-001  4.363470981449E-002
   9.800000000000E+001  1.000000000001E+000  2.312340730679E-001  4.730036058553E-001 -3.649421154609E-001 -7.678643400132E-001
   9.850000000000E+001  1.000000000001E+000 -4.137470798305E-001  3.115748389491E-001  6.882872993844E-001 -5.079321481972E-001
   9.900000000000E+001  1.000000000001E+000 -3.200156911709E-001 -3.974990777492E-001  5.334900117702E-001  6.745167514118E-001
   9.950000000000E+001  1.000000000001E+000  3.916016563112E-001 -3.165435021585E-001 -6.760942102728E-001  5.379079594613E-001
   1.000000000000E+002  1.000000000001E+000  3.812331524372E-001  3.196838954024E-001 -6.607190557674E-001 -5.620621138715E-001
