#                    1                    2                    3                    4                    5                    6
#               Time |           Sum c**2 |  === coeff_diab ===>
#               [fs] |                 [] |                 [] |
   0.000000000000E+000  1.000000000000E+000  0.000000000000E+000  1.000000000000E+000
   5.000000000000E-001  1.000000000000E+000  6.654263280223E-007  9.999993071288E-001
   1.000000000000E+000  1.000000000000E+000  2.123519769185E-006  9.999978494273E-001
   1.500000000000E+000  1.000000000000E+000  2.576841887710E-006  9.999974368712E-001
   2.000000000000E+000  1.000000000000E+000  1.016562278367E-006  9.999989676301E-001
   2.500000000000E+000  1.000000000000E+000  2.121800265555E-007  9.999997595503E-001
   3.000000000000E+000  1.000000000000E+000  7.954385295549E-006  9.999920598556E-001
   3.500000000000E+000  1.000000000000E+000  3.524756582099E-005  9.999647363543E-001
   4.000000000000E+000  1.000000000000E+000  9.184480505260E-005  9.999081621435E-001
   4.500000000000E+000  1.000000000000E+000  1.817880940550E-004  9.998182223542E-001
   5.000000000000E+000  1.000000000000E+000  3.012277414025E-004  9.996987629163E-001
   5.500000000000E+000  1.000000000000E+000  4.377137450248E-004  9.995622819476E-001
   6.000000000000E+000  1.000000000000E+000  5.676771003433E-004  9.994323208624E-001
   6.500000000000E+000  1.000000000000E+000  6.529028643396E-004  9.993470783928E-001
   7.000000000000E+000  1.000000000000E+000  6.461390221934E-004  9.993538458438E-001
   7.500000000000E+000  1.000000000000E+000  5.166109254567E-004  9.994833780151E-001
   8.000000000000E+000  1.000000000000E+000  2.875584740567E-004  9.997124212988E-001
   8.500000000000E+000  1.000000000000E+000  6.112438970571E-005  9.999388640925E-001
   9.000000000000E+000  1.000000000000E+000  2.093838530678E-005  9.999790823675E-001
   9.500000000000E+000  1.000000000000E+000  3.554019473255E-004  9.996445814635E-001
   1.000000000000E+001  1.000000000000E+000  8.265653246336E-004  9.991734329873E-001
   1.050000000000E+001  1.000000000000E+000  1.670328551750E-004  9.998329506866E-001
   1.100000000000E+001  1.000000000000E+000  1.980960797103E-003  9.980190210421E-001
   1.150000000000E+001  1.000000000000E+000  1.329430561138E-002  9.867057083585E-001
   1.200000000000E+001  1.000000000000E+000  2.778624170105E-002  9.722137769254E-001
   1.250000000000E+001  1.000000000000E+000  4.063386224693E-002  9.593661563795E-001
   1.300000000000E+001  1.000000000000E+000  5.053329223962E-002  9.494667077604E-001
   1.350000000000E+001  1.000000000000E+000  5.774460498473E-002  9.422553652130E-001
   1.400000000000E+001  1.000000000000E+000  6.269197521316E-002  9.373080322374E-001
   1.450000000000E+001  1.000000000000E+000  6.583379131154E-002  9.341661937873E-001
   1.500000000000E+001  1.000000000000E+000  6.750881563605E-002  9.324911620122E-001
   1.550000000000E+001  1.000000000000E+000  6.804814561355E-002  9.319518469359E-001
   1.600000000000E+001  1.000000000000E+000  6.778569328001E-002  9.322142918188E-001
   1.650000000000E+001  1.000000000000E+000  6.707512248697E-002  9.329248775130E-001
   1.700000000000E+001  1.000000000000E+000  6.626508825764E-002  9.337349042918E-001
   1.750000000000E+001  1.000000000000E+000  6.564500223691E-002  9.343550126643E-001
   1.800000000000E+001  1.000000000000E+000  6.541783437380E-002  9.345821656262E-001
   1.850000000000E+001  1.000000000000E+000  6.571875626058E-002  9.342812511900E-001
   1.900000000000E+001  1.000000000000E+000  6.663074056695E-002  9.333692892354E-001
   1.950000000000E+001  1.000000000000E+000  6.817576190422E-002  9.318242306452E-001
   2.000000000000E+001  1.000000000000E+000  7.027977787616E-002  9.297202221238E-001
   2.050000000000E+001  1.000000000000E+000  7.274404135571E-002  9.272559362925E-001
   2.100000000000E+001  1.000000000000E+000  7.526372435216E-002  9.247362979996E-001
   2.150000000000E+001  1.000000000000E+000  7.749605611706E-002  9.225039513335E-001
   2.200000000000E+001  1.000000000000E+000  7.912358731978E-002  9.208763977791E-001
   2.250000000000E+001  1.000000000000E+000  7.987804485170E-002  9.201219551483E-001
   2.300000000000E+001  1.000000000000E+000  7.954516495688E-002  9.204548275925E-001
   2.350000000000E+001  1.000000000000E+000  7.796120794596E-002  9.220387995046E-001
   2.400000000000E+001  1.000000000000E+000  7.499711253949E-002  9.250028725594E-001
   2.450000000000E+001  1.000000000000E+000  7.052896528209E-002  9.294710123662E-001
   2.500000000000E+001  1.000000000000E+000  6.440000490447E-002  9.355999801944E-001
   2.550000000000E+001  1.000000000000E+000  5.641843138634E-002  9.435815760642E-001
   2.600000000000E+001  1.000000000000E+000  4.645056723183E-002  9.535494253176E-001
   2.650000000000E+001  1.000000000000E+000  3.459389769859E-002  9.654061209279E-001
   2.700000000000E+001  1.000000000000E+000  2.151398111448E-002  9.784860393746E-001
   2.750000000000E+001  1.000000000000E+000  9.106863158520E-003  9.908931228716E-001
   2.800000000000E+001  1.000000000000E+000  1.049600778500E-003  9.989503968932E-001
   2.850000000000E+001  1.000000000000E+000  1.338978338073E-003  9.986610140949E-001
   2.900000000000E+001  1.000000000000E+000  1.002631393507E-002  9.899736767517E-001
   2.950000000000E+001  1.000000000000E+000  2.215266972422E-002  9.778473023361E-001
   3.000000000000E+001  1.000000000000E+000  3.314588126062E-002  9.668540889371E-001
   3.050000000000E+001  1.000000000000E+000  4.191108678981E-002  9.580888983090E-001
   3.100000000000E+001  1.000000000000E+000  4.913200462342E-002  9.508679730248E-001
   3.150000000000E+001  1.000000000000E+000  5.560444717755E-002  9.443955416466E-001
   3.200000000000E+001  1.000000000000E+000  6.181155564835E-002  9.381884369011E-001
   3.250000000000E+001  1.000000000000E+000  6.797731183315E-002  9.320226658151E-001
   3.300000000000E+001  1.000000000000E+000  7.416864907359E-002  9.258313732782E-001
   3.350000000000E+001  1.000000000000E+000  8.036132501473E-002  9.196386973370E-001
   3.400000000000E+001  1.000000000000E+000  8.648458735105E-002  9.135154126489E-001
   3.450000000000E+001  1.000000000000E+000  9.244563922637E-002  9.075543607736E-001
   3.500000000000E+001  1.000000000000E+000  9.814008608249E-002  9.018599064669E-001
   3.550000000000E+001  1.000000000000E+000  1.034590845853E-001  8.965409154147E-001
   3.600000000000E+001  1.000000000000E+000  1.082910823318E-001  8.917088953164E-001
   3.650000000000E+001  1.000000000000E+000  1.125392637083E-001  8.874607362917E-001
   3.700000000000E+001  1.000000000000E+000  1.161522265650E-001  8.838477734350E-001
   3.750000000000E+001  1.000000000000E+000  1.191585448714E-001  8.808414551286E-001
   3.800000000000E+001  1.000000000000E+000  1.216768317032E-001  8.783231906485E-001
   3.850000000000E+001  1.000000000000E+000  1.239081105965E-001  8.760918894035E-001
   3.900000000000E+001  1.000000000000E+000  1.261157993992E-001  8.738841856996E-001
   3.950000000000E+001  1.000000000000E+000  1.286177395726E-001  8.713822604274E-001
   4.000000000000E+001  1.000000000000E+000  1.317652609518E-001  8.682347390482E-001
   4.050000000000E+001  1.000000000000E+000  1.358856416903E-001  8.641143583097E-001
   4.100000000000E+001  1.000000000000E+000  1.411847663764E-001  8.588152485247E-001
   4.150000000000E+001  1.000000000000E+000  1.476883520970E-001  8.523116330018E-001
   4.200000000000E+001  1.000000000000E+000  1.552773644259E-001  8.447226355741E-001
   4.250000000000E+001  1.000000000000E+000  1.637673827234E-001  8.362326023754E-001
   4.300000000000E+001  1.000000000000E+000  1.728395201349E-001  8.271604947663E-001
   4.350000000000E+001  1.000000000000E+000  1.817400509234E-001  8.182599788789E-001
   4.400000000000E+001  1.000000000000E+000  1.888224770050E-001  8.111775229950E-001
   4.450000000000E+001  1.000000000000E+000  1.908377204074E-001  8.091623093949E-001
   4.500000000000E+001  1.000000000000E+000  1.816015445402E-001  8.183984852622E-001
   4.550000000000E+001  1.000000000000E+000  1.502357475165E-001  8.497642673846E-001
   4.600000000000E+001  1.000000000000E+000  8.071997958456E-002  9.192800241407E-001
   4.650000000000E+001  1.000000000000E+000 -1.669049994386E-002  1.016690490165E+000
   4.700000000000E+001  1.000000000000E+000  9.222402138585E-002  9.077759637130E-001
   4.750000000000E+001  1.000000000000E+000  2.482861341704E-001  7.517138956319E-001
   4.800000000000E+001  1.000000000000E+000  1.765273576111E-001  8.234726274877E-001
   4.850000000000E+001  1.000000000000E+000  2.027434654946E-001  7.972565494066E-001
   4.900000000000E+001  1.000000000000E+000  1.928069446180E-001  8.071930702832E-001
   4.950000000000E+001  1.000000000000E+000  1.893909831856E-001  8.106090019132E-001
   5.000000000000E+001  1.000000000000E+000  1.781381437714E-001  8.218618711298E-001
   5.050000000000E+001  1.000000000000E+000  1.715854414561E-001  8.284145585439E-001
   5.100000000000E+001  1.000000000000E+000  1.635906661654E-001  8.364093189334E-001
   5.150000000000E+001  1.000000000000E+000  1.554256332630E-001  8.445743518358E-001
   5.200000000000E+001  1.000000000000E+000  1.467570107850E-001  8.532430041161E-001
   5.250000000000E+001  1.000000000000E+000  1.368574301193E-001  8.631425698807E-001
   5.300000000000E+001  1.000000000000E+000  1.256451805764E-001  8.743548343247E-001
   5.350000000000E+001  1.000000000000E+000  1.133597954020E-001  8.866402045980E-001
   5.400000000000E+001  1.000000000000E+000  1.004261180435E-001  8.995738894070E-001
   5.450000000000E+001  1.000000000000E+000  8.742541861388E-002  9.125745739355E-001
   5.500000000000E+001  1.000000000000E+000  7.490695699716E-002  9.250930281017E-001
   5.550000000000E+001  1.000000000000E+000  6.323346745635E-002  9.367665250931E-001
   5.600000000000E+001  1.000000000000E+000  5.258197483614E-002  9.474180512409E-001
   5.650000000000E+001  1.000000000000E+000  4.302656438403E-002  9.569734132642E-001
   5.700000000000E+001  1.000000000000E+000  3.462940816701E-002  9.653705881077E-001
   5.750000000000E+001  1.000000000000E+000  2.745776913412E-002  9.725422029262E-001
   5.800000000000E+001  1.000000000000E+000  2.155479599319E-002  9.784451965562E-001
   5.850000000000E+001  1.000000000000E+000  1.689783878314E-002  9.831021332772E-001
   5.900000000000E+001  1.000000000000E+000  1.337149872184E-002  9.866284798577E-001
   5.950000000000E+001  1.000000000000E+000  1.077956273242E-002  9.892204447182E-001
   6.000000000000E+001  1.000000000000E+000  8.898520015929E-003  9.911014781214E-001
   6.050000000000E+001  1.000000000000E+000  7.537146664158E-003  9.924628393660E-001
   6.100000000000E+001  1.000000000000E+000  6.561001656430E-003  9.934390179013E-001
   6.150000000000E+001  1.000000000000E+000  5.888964652130E-003  9.941110525773E-001
   6.200000000000E+001  1.000000000000E+000  5.477271596809E-003  9.945227204869E-001
   6.250000000000E+001  1.000000000000E+000  5.298642989529E-003  9.947013463003E-001
   6.300000000000E+001  1.000000000000E+000  5.316411028591E-003  9.946835861774E-001
   6.350000000000E+001  1.000000000000E+000  5.447519803894E-003  9.945524774021E-001
   6.400000000000E+001  1.000000000000E+000  5.472167915888E-003  9.945278567642E-001
   6.450000000000E+001  1.000000000000E+000 -1.439809290632E-002  1.014398078936E+000
   6.500000000000E+001  1.000000000000E+000 -1.325304696686E-002  1.013253020890E+000
   6.550000000000E+001  1.000000000000E+000 -2.075283244409E-004  1.000207513423E+000
   6.600000000000E+001  1.000000000000E+000  2.252732639383E-002  9.774726736062E-001
   6.650000000000E+001  1.000000000000E+000  6.937660486771E-002  9.306234025829E-001
   6.700000000000E+001  1.000000000000E+000  1.222817508079E-001  8.777182566427E-001
   6.750000000000E+001  1.000000000000E+000  1.433037137276E-001  8.566962713712E-001
   6.800000000000E+001  1.000000000000E+000  1.430051068399E-001  8.569948931601E-001
   6.850000000000E+001  1.000000000000E+000  1.707485526631E-001  8.292514175346E-001
   6.900000000000E+001  1.000000000000E+000  2.138016298638E-001  7.861983999385E-001
   6.950000000000E+001  1.000000000000E+000  2.355594025699E-001  7.644406123313E-001
   7.000000000000E+001  1.000000000000E+000  2.464521329112E-001  7.535478670888E-001
   7.050000000000E+001  1.000000000000E+000  2.563846490989E-001  7.436153509011E-001
   7.100000000000E+001  1.000000000000E+000  2.582347717230E-001  7.417652282770E-001
   7.150000000000E+001  1.000000000000E+000  2.527999108765E-001  7.472001189258E-001
   7.200000000000E+001  1.000000000000E+000  2.458777222476E-001  7.541222777524E-001
   7.250000000000E+001  1.000000000000E+000  2.389798026538E-001  7.610202271485E-001
   7.300000000000E+001  1.000000000000E+000  2.321851630571E-001  7.678148220417E-001
   7.350000000000E+001  1.000000000000E+000  2.267654243574E-001  7.732345905438E-001
   7.400000000000E+001  1.000000000000E+000  2.240243454409E-001  7.759756396579E-001
   7.450000000000E+001  1.000000000000E+000  2.251162750166E-001  7.748837100823E-001
   7.500000000000E+001  1.000000000000E+000  2.314242240104E-001  7.685758057920E-001
   7.550000000000E+001  1.000000000000E+000  2.442063642701E-001  7.557936506311E-001
   7.600000000000E+001  1.000000000000E+000  2.642861797043E-001  7.357138202957E-001
   7.650000000000E+001  1.000000000000E+000  2.919675494600E-001  7.080324505400E-001
   7.700000000000E+001  1.000000000000E+000  3.268754776348E-001  6.731244925629E-001
   7.750000000000E+001  1.000000000000E+000  3.678425366664E-001  6.321574931359E-001
   7.800000000000E+001  1.000000000000E+000  4.130521655538E-001  5.869478642485E-001
   7.850000000000E+001  1.000000000000E+000  4.605054635617E-001  5.394945066360E-001
   7.900000000000E+001  1.000000000000E+000  5.085896369821E-001  4.914103332156E-001
   7.950000000000E+001  1.000000000000E+000  5.563789752578E-001  4.436209949398E-001
   8.000000000000E+001  1.000000000000E+000  6.034901346570E-001  3.965098951453E-001
   8.050000000000E+001  1.000000000000E+000  6.496122261584E-001  3.503877738416E-001
   8.100000000000E+001  1.000000000000E+000  6.939809016616E-001  3.060190685361E-001
   8.150000000000E+001  1.000000000000E+000  7.351892319368E-001  2.648107978655E-001
   8.200000000000E+001  1.000000000000E+000  7.716408102362E-001  2.283591748627E-001
   8.250000000000E+001  1.000000000000E+000  8.026217330768E-001  1.973782967255E-001
   8.300000000000E+001  1.000000000000E+000  8.293279395629E-001  1.706720455359E-001
   8.350000000000E+001  1.000000000000E+000  8.549285717197E-001  1.450714431815E-001
   8.400000000000E+001  1.000000000000E+000  8.833119817015E-001  1.166880033973E-001
   8.450000000000E+001  1.000000000000E+000  9.166521816639E-001  8.334784068783E-002
   8.500000000000E+001  1.000000000000E+000  9.522199286351E-001  4.778007509021E-002
   8.550000000000E+001  1.000000000000E+000  9.813348823025E-001  1.866512701074E-002
   8.600000000000E+001  1.000000000000E+000  9.964200330272E-001  3.579956728278E-003
   8.650000000000E+001  1.000000000000E+000  9.999695940752E-001  3.038817151054E-005
   8.700000000000E+001  1.000000000000E+000  9.999915390224E-001  8.468845880043E-006
   8.750000000000E+001  1.000000000000E+000  9.996255469605E-001  3.744745763707E-004
   8.800000000000E+001  1.000000000000E+000  9.977805855628E-001  2.219391386924E-003
   8.850000000000E+001  1.000000000000E+000  9.941033677998E-001  5.896654551920E-003
   8.900000000000E+001  1.000000000000E+000  9.867148444843E-001  1.328517414215E-002
   8.950000000000E+001  1.000000000000E+000  9.723753771943E-001  2.762460604187E-002
   9.000000000000E+001  1.000000000000E+000  9.494187636884E-001  5.058121023458E-002
   9.050000000000E+001  1.000000000000E+000  9.170727855411E-001  8.292723681064E-002
   9.100000000000E+001  1.000000000000E+000  8.761625892017E-001  1.238374107983E-001
   9.150000000000E+001  1.000000000000E+000  8.285528873509E-001  1.714471275502E-001
   9.200000000000E+001  1.000000000000E+000  7.754185080120E-001  2.245814770868E-001
   9.250000000000E+001  1.000000000000E+000  7.172507888640E-001  2.827492111360E-001
   9.300000000000E+001  1.000000000000E+000  6.547838743641E-001  3.452161256359E-001
   9.350000000000E+001  1.000000000000E+000  5.897223460189E-001  4.102776539811E-001
   9.400000000000E+001  1.000000000000E+000  5.250531309608E-001  4.749468690392E-001
   9.450000000000E+001  1.000000000000E+000  4.649663981853E-001  5.350336316170E-001
   9.500000000000E+001  1.000000000000E+000  4.135633988764E-001  5.864366309260E-001
   9.550000000000E+001  1.000000000000E+000  3.724991067251E-001  6.275008634726E-001
   9.600000000000E+001  1.000000000000E+000  3.409615429688E-001  6.590384570312E-001
   9.650000000000E+001  1.000000000000E+000  3.174648856811E-001  6.825350845166E-001
   9.700000000000E+001  1.000000000000E+000  3.003440481542E-001  6.996559518458E-001
   9.750000000000E+001  1.000000000000E+000  2.875429873164E-001  7.124570126836E-001
   9.800000000000E+001  1.000000000000E+000  2.771905203353E-001  7.228094796647E-001
   9.850000000000E+001  1.000000000000E+000  2.682567226622E-001  7.317432773378E-001
   9.900000000000E+001  1.000000000000E+000  2.604084658625E-001  7.395915341375E-001
   9.950000000000E+001  1.000000000000E+000  2.535458969412E-001  7.464540732564E-001
   1.000000000000E+002  1.000000000000E+000  2.475316457044E-001  7.524683542956E-001
