#                    1                    2                    3                    4                    5                    6
#               Time |               Ekin |               Epot |               Etot |      === Energy ===>
#               [fs] |               [eV] |               [eV] |               [eV] |               [eV] |
   0.000000000000E+000  6.494868440876E-001  1.075162647807E+001  1.140111332216E+001  7.957947440753E-001  1.075162647807E+001
   5.000000000000E-001  6.258745545502E-001  1.077818941465E+001  1.140406396920E+001  8.413006134179E-001  1.077818941465E+001
   1.000000000000E+000  6.219866322291E-001  1.078530355885E+001  1.140729019108E+001  9.009185785445E-001  1.078530355885E+001
   1.500000000000E+000  6.862394915861E-001  1.072247301775E+001  1.140871250933E+001  9.233777663274E-001  1.072247301775E+001
   2.000000000000E+000  8.394707451623E-001  1.056702036826E+001  1.140649111342E+001  8.861498720683E-001  1.056702036826E+001
   2.500000000000E+000  1.051743495642E+000  1.034963869081E+001  1.140138218645E+001  8.232390573808E-001  1.034963869081E+001
   3.000000000000E+000  1.255725745869E+000  1.014132956086E+001  1.139705530673E+001  8.101321501170E-001  1.014132956086E+001
   3.500000000000E+000  1.399048019612E+000  9.998638778288E+000  1.139768679790E+001  9.064174549952E-001  9.998638778288E+000
   4.000000000000E+000  1.498805060718E+000  9.905009032361E+000  1.140381409308E+001  1.096879454615E+000  9.905009032361E+000
   4.500000000000E+000  1.640470207110E+000  9.768824491671E+000  1.140929469878E+001  1.290052796524E+000  9.768824491671E+000
   5.000000000000E+000  1.893943065928E+000  9.512871493945E+000  1.140681455987E+001  1.407209777050E+000  9.512871493945E+000
   5.500000000000E+000  2.226529483904E+000  9.172008366137E+000  1.139853785004E+001  1.479457633881E+000  9.172008366137E+000
   6.000000000000E+000  2.528271969135E+000  8.864530340959E+000  1.139280231009E+001  1.619453128881E+000  8.864530340959E+000
   6.500000000000E+000  2.715339431123E+000  8.678073312815E+000  1.139341274394E+001  1.907669303880E+000  8.678073312815E+000
   7.000000000000E+000  2.787095810000E+000  8.611073443475E+000  1.139816925347E+001  2.333459977057E+000  8.611073443475E+000
   7.500000000000E+000  2.802684807575E+000  8.600062084882E+000  1.140274689246E+001  2.821796832378E+000  8.600062084882E+000
   8.000000000000E+000  2.823216914166E+000  8.580926767638E+000  1.140414368180E+001  3.294559796374E+000  8.580926767638E+000
   8.500000000000E+000  2.870174545352E+000  8.532398257776E+000  1.140257280313E+001  3.714582200401E+000  8.532398257776E+000
   9.000000000000E+000  2.925560238558E+000  8.474821690666E+000  1.140038192922E+001  4.084842058307E+000  8.474821690666E+000
   9.500000000000E+000  2.960850876390E+000  8.438628645335E+000  1.139947952173E+001  4.416266373396E+000  8.438628645335E+000
   1.000000000000E+001  2.965031812161E+000  8.436335269904E+000  1.140136708206E+001  4.700496624887E+000  8.436335269904E+000
   1.050000000000E+001  2.958341569857E+000  8.444658143771E+000  1.140299971363E+001  4.905827196763E+000  8.444658143771E+000
   1.100000000000E+001  2.939205236077E+000  8.459294602922E+000  1.139849983900E+001  4.994542294651E+000  8.459294602922E+000
   1.150000000000E+001  2.888773515940E+000  8.512719529196E+000  1.140149304514E+001  4.944822198289E+000  8.512719529196E+000
   1.200000000000E+001  2.829104416640E+000  8.574956045791E+000  1.140406046243E+001  4.757941761012E+000  8.574956045791E+000
   1.250000000000E+001  2.793938391345E+000  8.611238616575E+000  1.140517700792E+001  4.445648681460E+000  8.611238616575E+000
   1.300000000000E+001  2.798619781965E+000  8.605859198099E+000  1.140447898006E+001  4.026964261178E+000  8.605859198099E+000
   1.350000000000E+001  2.832461493205E+000  8.569515129588E+000  1.140197662279E+001  3.537531331315E+000  8.569515129588E+000
   1.400000000000E+001  2.859230808134E+000  8.539232941060E+000  1.139846374919E+001  3.033418948316E+000  8.539232941060E+000
   1.450000000000E+001  2.828403709056E+000  8.566654124689E+000  1.139505783375E+001  2.581870795519E+000  8.566654124689E+000
   1.500000000000E+001  2.692495581537E+000  8.700463111569E+000  1.139295869311E+001  2.245089103175E+000  8.700463111569E+000
   1.550000000000E+001  2.427258029610E+000  8.966522689374E+000  1.139378071898E+001  2.061324913578E+000  8.966522689374E+000
   1.600000000000E+001  2.055592655949E+000  9.343321170707E+000  1.139891382666E+001  2.021033561724E+000  9.343321170707E+000
   1.650000000000E+001  1.660831851092E+000  9.745596038067E+000  1.140642788916E+001  2.051007717387E+000  9.745596038067E+000
   1.700000000000E+001  1.351107171432E+000  1.005858981075E+001  1.140969698219E+001  2.048056098580E+000  1.005858981075E+001
   1.750000000000E+001  1.173567275745E+000  1.023156060494E+001  1.140512788069E+001  1.970751550286E+000  1.023156060494E+001
   1.800000000000E+001  1.073823458624E+000  1.032491116207E+001  1.139873462069E+001  1.884589424432E+000  1.032491116207E+001
   1.850000000000E+001  9.697884982086E-001  1.042851660132E+001  1.139830509953E+001  1.879772193147E+000  1.042851660132E+001
   1.900000000000E+001  8.508461814642E-001  1.055306854753E+001  1.140391472899E+001  1.963582166981E+000  1.055306854753E+001
   1.950000000000E+001  7.831413896108E-001  1.062582852260E+001  1.140896991221E+001  2.057762671317E+000  1.062582852260E+001
   2.000000000000E+001  8.276032444273E-001  1.058086143866E+001  1.140846468309E+001  2.089786116299E+000  1.058086143866E+001
   2.050000000000E+001  9.745509241379E-001  1.042972424254E+001  1.140427516667E+001  2.064264287262E+000  1.042972424254E+001
   2.100000000000E+001  1.161893172403E+000  1.023900155786E+001  1.140089473026E+001  2.041268218876E+000  1.023900155786E+001
   2.150000000000E+001  1.333073558890E+000  1.006696901219E+001  1.140004257108E+001  2.073651398353E+000  1.006696901219E+001
   2.200000000000E+001  1.465973158612E+000  9.934883050132E+000  1.140085620874E+001  2.178700401516E+000  9.934883050132E+000
   2.250000000000E+001  1.565869163543E+000  9.836332669662E+000  1.140220183320E+001  2.347391389252E+000  9.836332669662E+000
   2.300000000000E+001  1.649877654558E+000  9.753722173629E+000  1.140359982819E+001  2.560449722030E+000  9.753722173629E+000
   2.350000000000E+001  1.738277334918E+000  9.666703977638E+000  1.140498131256E+001  2.796075271784E+000  9.666703977638E+000
   2.400000000000E+001  1.851426945333E+000  9.554764507853E+000  1.140619145319E+001  3.031643677633E+000  9.554764507853E+000
   2.450000000000E+001  2.006439769472E+000  9.400393238760E+000  1.140683300823E+001  3.245863120160E+000  9.400393238760E+000
   2.500000000000E+001  2.211510034452E+000  9.194989468262E+000  1.140649950271E+001  3.423863938656E+000  9.194989468262E+000
   2.550000000000E+001  2.460607479044E+000  8.944467046413E+000  1.140507452546E+001  3.562146477041E+000  8.944467046413E+000
   2.600000000000E+001  2.731793157511E+000  8.670904473737E+000  1.140269763125E+001  3.669887774524E+000  8.670904473737E+000
   2.650000000000E+001  2.989350118533E+000  8.410278192947E+000  1.139962831148E+001  3.766423152020E+000  8.410278192947E+000
   2.700000000000E+001  3.188530530430E+000  8.207791754913E+000  1.139632228534E+001  3.876035504257E+000  8.207791754913E+000
   2.750000000000E+001  3.283368829271E+000  8.110158398078E+000  1.139352722735E+001  4.019256636700E+000  8.110158398078E+000
   2.800000000000E+001  3.239519311987E+000  8.153124356852E+000  1.139264366884E+001  4.201382428875E+000  8.153124356852E+000
   2.850000000000E+001  3.054282053124E+000  8.341360193159E+000  1.139564224628E+001  4.403424777125E+000  8.341360193159E+000
   2.900000000000E+001  2.775868606335E+000  8.626602163902E+000  1.140247077024E+001  4.582884670023E+000  8.626602163902E+000
   2.950000000000E+001  2.493128536300E+000  8.915516038783E+000  1.140864457508E+001  4.687948911562E+000  8.915516038783E+000
   3.000000000000E+001  2.283334054756E+000  9.126668758349E+000  1.141000281310E+001  4.684137140910E+000  9.126668758349E+000
   3.050000000000E+001  2.166285171093E+000  9.241162288623E+000  1.140744745972E+001  4.578602958772E+000  9.241162288623E+000
   3.100000000000E+001  2.109338824646E+000  9.294670753846E+000  1.140400957849E+001  4.416683523910E+000  9.294670753846E+000
   3.150000000000E+001  2.064714553247E+000  9.337199969908E+000  1.140191452316E+001  4.250845921886E+000  9.337199969908E+000
   3.200000000000E+001  2.000866831509E+000  9.400782361549E+000  1.140164919306E+001  4.111941331265E+000  9.400782361549E+000
   3.250000000000E+001  1.910958324537E+000  9.491489332736E+000  1.140244765727E+001  4.002790756212E+000  9.491489332736E+000
   3.300000000000E+001  1.804220852073E+000  9.599187908346E+000  1.140340876042E+001  3.909160193944E+000  9.599187908346E+000
   3.350000000000E+001  1.693533446425E+000  9.710456617519E+000  1.140399006394E+001  3.813715720827E+000  9.710456617519E+000
   3.400000000000E+001  1.587541427049E+000  9.816600878883E+000  1.140414230593E+001  3.705045970927E+000  9.816600878883E+000
   3.450000000000E+001  1.489247853835E+000  9.914857104294E+000  1.140410495813E+001  3.579728568495E+000  9.914857104294E+000
   3.500000000000E+001  1.399707082169E+000  1.000461249339E+001  1.140431957556E+001  3.439402455181E+000  1.000461249339E+001
   3.550000000000E+001  1.323978219615E+000  1.008113253748E+001  1.140511075710E+001  3.284791998024E+000  1.008113253748E+001
   3.600000000000E+001  1.275212789031E+000  1.013115413598E+001  1.140636692501E+001  3.111079693625E+000  1.013115413598E+001
   3.650000000000E+001  1.272141690768E+000  1.013517135258E+001  1.140731304335E+001  2.909265648885E+000  1.013517135258E+001
   3.700000000000E+001  1.327892688265E+000  1.007898936889E+001  1.140688205716E+001  2.676387632559E+000  1.007898936889E+001
   3.750000000000E+001  1.435405783254E+000  9.969133746883E+000  1.140453953014E+001  2.429633443148E+000  9.969133746883E+000
   3.800000000000E+001  1.561233238756E+000  9.839801032648E+000  1.140103427140E+001  2.212445510755E+000  9.839801032648E+000
   3.850000000000E+001  1.656808212633E+000  9.741356232347E+000  1.139816444498E+001  2.082947351307E+000  9.741356232347E+000
   3.900000000000E+001  1.684160551100E+000  9.713587559346E+000  1.139774811045E+001  2.087106339216E+000  9.713587559346E+000
   3.950000000000E+001  1.640867066672E+000  9.759397379847E+000  1.140026444652E+001  2.231792260452E+000  9.759397379847E+000
   4.000000000000E+001  1.564728790211E+000  9.839236396433E+000  1.140396518664E+001  2.477900995838E+000  9.839236396433E+000
   4.050000000000E+001  1.508740517725E+000  9.897260318693E+000  1.140600083642E+001  2.765646958124E+000  9.897260318693E+000
   4.100000000000E+001  1.503499707727E+000  9.901784755488E+000  1.140528446321E+001  3.055946708786E+000  9.901784755488E+000
   4.150000000000E+001  1.542432246916E+000  9.861056933037E+000  1.140348917995E+001  3.349155356382E+000  9.861056933037E+000
   4.200000000000E+001  1.602619424768E+000  9.800274592795E+000  1.140289401756E+001  3.665144013976E+000  9.800274592795E+000
   4.250000000000E+001  1.675055884615E+000  9.729042809037E+000  1.140409869365E+001  4.011768063862E+000  9.729042809037E+000
   4.300000000000E+001  1.775550705027E+000  9.630697058173E+000  1.140624776320E+001  4.373097145585E+000  9.630697058173E+000
   4.350000000000E+001  1.934820947774E+000  9.473431314179E+000  1.140825226195E+001  4.719568539607E+000  9.473431314179E+000
   4.400000000000E+001  2.182514294919E+000  9.226853998762E+000  1.140936829368E+001  5.025225034750E+000  9.226853998762E+000
   4.450000000000E+001  2.535144408096E+000  8.873982215142E+000  1.140912662324E+001  5.280057467688E+000  8.873982215142E+000
   4.500000000000E+001  2.987817136042E+000  8.418963794561E+000  1.140678093060E+001  5.492501367418E+000  8.418963794561E+000
   4.550000000000E+001  3.502266858573E+000  7.897833956323E+000  1.140010081490E+001  5.678544782527E+000  7.897833956323E+000
   4.600000000000E+001  3.971695756374E+000  7.410341742358E+000  1.138203749873E+001  5.821732717082E+000  7.410341742358E+000
   4.650000000000E+001  4.180568818994E+000  7.185682652413E+000  1.136625147141E+001  5.784330397852E+000  7.185682652413E+000
   4.700000000000E+001  4.030757460895E+000  7.358514940658E+000  1.138927240155E+001  5.483796717835E+000  7.358514940658E+000
   4.750000000000E+001  3.683046898121E+000  7.718292157160E+000  1.140133905528E+001  5.111738187456E+000  7.718292157160E+000
   4.800000000000E+001  3.306773249575E+000  8.100128826215E+000  1.140690207579E+001  4.766062998525E+000  8.100128826215E+000
   4.850000000000E+001  2.980807112459E+000  8.427825181715E+000  1.140863229417E+001  4.449622631959E+000  8.427825181715E+000
   4.900000000000E+001  2.728201840338E+000  8.678930199292E+000  1.140713203963E+001  4.159673908150E+000  8.678930199292E+000
   4.950000000000E+001  2.529585502600E+000  8.874804543163E+000  1.140439004576E+001  3.918638191056E+000  8.874804543163E+000
   5.000000000000E+001  2.348435999372E+000  9.054298722405E+000  1.140273472178E+001  3.761552314309E+000  9.054298722405E+000
   5.050000000000E+001  2.161181922172E+000  9.241837403057E+000  1.140301932523E+001  3.709029989638E+000  9.241837403057E+000
   5.100000000000E+001  1.969818549458E+000  9.434601485752E+000  1.140442003521E+001  3.755644722873E+000  9.434601485752E+000
   5.150000000000E+001  1.791735813931E+000  9.613674432772E+000  1.140541024670E+001  3.880456265679E+000  9.613674432772E+000
   5.200000000000E+001  1.639936570647E+000  9.765223065017E+000  1.140515963566E+001  4.066853428779E+000  9.765223065017E+000
   5.250000000000E+001  1.512600085784E+000  9.891775047935E+000  1.140437513372E+001  4.311442952604E+000  9.891775047935E+000
   5.300000000000E+001  1.403070449201E+000  1.000172863093E+001  1.140479908013E+001  4.610874027347E+000  1.000172863093E+001
   5.350000000000E+001  1.321572255216E+000  1.008557261899E+001  1.140714487421E+001  4.937886016543E+000  1.008557261899E+001
   5.400000000000E+001  1.301884988080E+000  1.010761792162E+001  1.140950290970E+001  5.236748917592E+000  1.010761792162E+001
   5.450000000000E+001  1.374864748590E+000  1.003400922348E+001  1.140887397207E+001  5.456102876139E+000  1.003400922348E+001
   5.500000000000E+001  1.531267351184E+000  9.873678933440E+000  1.140494628462E+001  5.592112447631E+000  9.873678933440E+000
   5.550000000000E+001  1.716994348139E+000  9.683272445043E+000  1.140026679318E+001  5.692862596373E+000  9.683272445043E+000
   5.600000000000E+001  1.864751290695E+000  9.532389131133E+000  1.139714042183E+001  5.821901155548E+000  9.532389131133E+000
   5.650000000000E+001  1.927001997465E+000  9.469328925948E+000  1.139633092341E+001  6.022795183399E+000  9.469328925948E+000
   5.700000000000E+001  1.890661384216E+000  9.507339963834E+000  1.139800134805E+001  6.304923083373E+000  9.507339963834E+000
   5.750000000000E+001  1.780298217921E+000  9.621563829294E+000  1.140186204721E+001  6.640955918433E+000  9.621563829294E+000
   5.800000000000E+001  1.650892241926E+000  9.755148322257E+000  1.140604056418E+001  6.973677672304E+000  9.755148322257E+000
   5.850000000000E+001  1.559399207293E+000  9.848026489762E+000  1.140742569705E+001  7.245487015518E+000  9.848026489762E+000
   5.900000000000E+001  1.525285184063E+000  9.879862176195E+000  1.140514736026E+001  7.441348842152E+000  9.879862176195E+000
   5.950000000000E+001  1.520730744846E+000  9.881324515963E+000  1.140205526081E+001  7.599042349101E+000  9.881324515963E+000
   6.000000000000E+001  1.505663827612E+000  9.895546001510E+000  1.140120982912E+001  7.769018258382E+000  9.895546001510E+000
   6.050000000000E+001  1.467457745786E+000  9.935345099430E+000  1.140280284522E+001  7.970377056669E+000  9.935345099430E+000
   6.100000000000E+001  1.425850440296E+000  9.979076514431E+000  1.140492695473E+001  8.186200610275E+000  9.979076514431E+000
   6.150000000000E+001  1.409224458153E+000  9.996738607353E+000  1.140596306551E+001  8.389844620579E+000  9.996738607353E+000
   6.200000000000E+001  1.432349777235E+000  9.973424437890E+000  1.140577421513E+001  8.568687359291E+000  9.973424437890E+000
   6.250000000000E+001  1.492851601548E+000  9.912249437379E+000  1.140510103893E+001  8.727583065179E+000  9.912249437379E+000
   6.300000000000E+001  1.580464399730E+000  9.824017069440E+000  1.140448146917E+001  8.878950741721E+000  9.824017069440E+000
   6.350000000000E+001  1.685403115182E+000  9.718544929257E+000  1.140394804444E+001  9.034532101055E+000  9.718544929257E+000
   6.400000000000E+001  1.800297900670E+000  9.603061720953E+000  1.140335962162E+001  9.203273157737E+000  9.603061720953E+000
   6.450000000000E+001  1.914019295476E+000  9.485192074283E+000  1.139921136976E+001  9.388554381984E+000  9.485192074283E+000
   6.500000000000E+001  2.039818067289E+000  9.359393302471E+000  1.139921136976E+001  9.359393302471E+000  9.600127245317E+000
   6.550000000000E+001  2.169666461472E+000  9.230722641206E+000  1.140038910268E+001  9.230722641206E+000  9.788130424292E+000
   6.600000000000E+001  2.340905581665E+000  9.061231638784E+000  1.140213722045E+001  9.061231638784E+000  9.939808582724E+000
   6.650000000000E+001  2.582509047996E+000  8.819807615243E+000  1.140231666324E+001  8.819807615243E+000  1.001324720971E+001
   6.700000000000E+001  2.901591535569E+000  8.498640087073E+000  1.140023162264E+001  8.498640087073E+000  9.992732275308E+000
   6.750000000000E+001  3.272126220771E+000  8.124821252271E+000  1.139694747304E+001  8.124821252271E+000  9.895746549409E+000
   6.800000000000E+001  3.646490423877E+000  7.747007242092E+000  1.139349766597E+001  7.747007242092E+000  9.756369024937E+000
   6.850000000000E+001  3.971375664569E+000  7.418920947461E+000  1.139029661203E+001  7.418920947461E+000  9.612680673033E+000
   6.900000000000E+001  4.197680967304E+000  7.190215252622E+000  1.138789621993E+001  7.190215252622E+000  9.505767690075E+000
   6.950000000000E+001  4.290775020745E+000  7.096440742133E+000  1.138721576288E+001  7.096440742133E+000  9.475385907881E+000
   7.000000000000E+001  4.244206522116E+000  7.144993470127E+000  1.138919999224E+001  7.144993470127E+000  9.544795617376E+000
   7.050000000000E+001  4.091679607105E+000  7.302421121855E+000  1.139410072896E+001  7.302421121855E+000  9.701513324100E+000
   7.100000000000E+001  3.905446872049E+000  7.494508729547E+000  1.139995560160E+001  7.494508729547E+000  9.889517863644E+000
   7.150000000000E+001  3.766880646875E+000  7.636076770420E+000  1.140295741730E+001  7.636076770420E+000  1.003382037648E+001
   7.200000000000E+001  3.719600331509E+000  7.681902101410E+000  1.140150243292E+001  7.681902101410E+000  1.009081189884E+001
   7.250000000000E+001  3.750684991234E+000  7.647583376199E+000  1.139826836743E+001  7.647583376199E+000  1.007214842699E+001
   7.300000000000E+001  3.820171317139E+000  7.576121112020E+000  1.139629242916E+001  7.576121112020E+000  1.001497622104E+001
   7.350000000000E+001  3.898929481164E+000  7.497021972961E+000  1.139595145412E+001  7.497021972961E+000  9.943368103847E+000
   7.400000000000E+001  3.977825055450E+000  7.418295629860E+000  1.139612068531E+001  7.418295629860E+000  9.861258025163E+000
   7.450000000000E+001  4.055898414679E+000  7.340079500206E+000  1.139597791488E+001  7.340079500206E+000  9.766326214519E+000
   7.500000000000E+001  4.129913692843E+000  7.265686569985E+000  1.139560026283E+001  7.265686569985E+000  9.661192856065E+000
   7.550000000000E+001  4.194785553608E+000  7.200853543142E+000  1.139563909675E+001  7.200853543142E+000  9.552718483901E+000
   7.600000000000E+001  4.252823212460E+000  7.144122977957E+000  1.139694619042E+001  7.144122977957E+000  9.442225571282E+000
   7.650000000000E+001  4.324187878216E+000  7.075462669974E+000  1.139965054819E+001  7.075462669974E+000  9.313643347014E+000
   7.700000000000E+001  4.446910743928E+000  6.955489039104E+000  1.140239978303E+001  6.955489039104E+000  9.132083823738E+000
   7.750000000000E+001  4.657059045892E+000  6.745725188570E+000  1.140278423446E+001  6.745725188570E+000  8.863369231209E+000
   7.800000000000E+001  4.957687386719E+000  6.441941925092E+000  1.139962931181E+001  6.441941925092E+000  8.506864455731E+000
   7.850000000000E+001  5.304483218027E+000  6.089864985995E+000  1.139434820402E+001  6.089864985995E+000  8.111010114393E+000
   7.900000000000E+001  5.623711250214E+000  5.765624748359E+000  1.138933599857E+001  5.765624748359E+000  7.754031316608E+000
   7.950000000000E+001  5.843623807511E+000  5.542128400847E+000  1.138575220836E+001  5.542128400847E+000  7.510603990987E+000
   8.000000000000E+001  5.911475635056E+000  5.471723026816E+000  1.138319866187E+001  5.471723026816E+000  7.434416742114E+000
   8.050000000000E+001  5.791871515938E+000  5.589351308511E+000  1.138122282445E+001  5.589351308511E+000  7.560246807018E+000
   8.100000000000E+001  5.465843368124E+000  5.915313210404E+000  1.138115657853E+001  5.915313210404E+000  7.904397069996E+000
   8.150000000000E+001  4.954576577950E+000  6.432068274459E+000  1.138664485241E+001  6.432068274459E+000  8.438391362068E+000
   8.200000000000E+001  4.364747138055E+000  7.034343819937E+000  1.139909095799E+001  7.034343819937E+000  9.037786854678E+000
   8.250000000000E+001  3.885408526672E+000  7.524132674700E+000  1.140954120137E+001  7.524132674700E+000  9.483556670113E+000
   8.300000000000E+001  3.659397998352E+000  7.746537029379E+000  1.140593502773E+001  7.746537029379E+000  9.612560670830E+000
   8.350000000000E+001  3.643726872026E+000  7.749402115985E+000  1.139312898801E+001  7.749402115985E+000  9.486548017541E+000
   8.400000000000E+001  3.667266143570E+000  7.717806978185E+000  1.138507312176E+001  7.717806978185E+000  9.322190986913E+000
   8.450000000000E+001  3.606152218673E+000  7.779867709241E+000  1.138601992791E+001  7.779867709241E+000  9.287159323445E+000
   8.500000000000E+001  3.459606707927E+000  7.932586975220E+000  1.139219368315E+001  7.932586975220E+000  9.416096656272E+000
   8.550000000000E+001  3.309994963794E+000  8.088849707605E+000  1.139884467140E+001  8.088849707605E+000  9.644337036447E+000
   8.600000000000E+001  3.252254355219E+000  8.149772458588E+000  1.140202681381E+001  8.149772458588E+000  9.869862536854E+000
   8.650000000000E+001  3.331353957278E+000  8.067593807217E+000  1.139894776449E+001  8.067593807217E+000  1.001952324329E+001
   8.700000000000E+001  3.505561967620E+000  7.885161886974E+000  1.139072385459E+001  7.885161886974E+000  1.009772794416E+001
   8.750000000000E+001  3.667335824205E+000  7.716293753129E+000  1.138362957733E+001  7.716293753129E+000  1.017397424173E+001
   8.800000000000E+001  3.732538907046E+000  7.653271643882E+000  1.138581055093E+001  7.653271643882E+000  1.029994498949E+001
   8.850000000000E+001  3.744818842681E+000  7.653883355791E+000  1.139870219847E+001  7.653883355791E+000  1.040980169996E+001
   8.900000000000E+001  3.871897043824E+000  7.536344871663E+000  1.140824191549E+001  7.536344871663E+000  1.032142783282E+001
   8.950000000000E+001  4.223183404428E+000  7.177299913501E+000  1.140048331793E+001  7.177299913501E+000  9.927521554456E+000
   9.000000000000E+001  4.694564221189E+000  6.690512202263E+000  1.138507642345E+001  6.690512202263E+000  9.362082059310E+000
   9.050000000000E+001  5.072382965553E+000  6.304736141166E+000  1.137711910672E+001  6.304736141166E+000  8.870255616123E+000
   9.100000000000E+001  5.220814675677E+000  6.156615871173E+000  1.137743054685E+001  6.156615871173E+000  8.599524387937E+000
   9.150000000000E+001  5.118515981979E+000  6.261732630683E+000  1.138024861266E+001  6.261732630683E+000  8.573612347656E+000
   9.200000000000E+001  4.794452374083E+000  6.587767186971E+000  1.138221956105E+001  6.587767186971E+000  8.769007771170E+000
   9.250000000000E+001  4.283012180124E+000  7.101475936602E+000  1.138448811673E+001  7.101475936602E+000  9.162838129776E+000
   9.300000000000E+001  3.640355296569E+000  7.751451949531E+000  1.139180724610E+001  7.751451949531E+000  9.713984301323E+000
   9.350000000000E+001  3.002172900203E+000  8.404374411105E+000  1.140654731131E+001  8.404374411105E+000  1.029643036715E+001
   9.400000000000E+001  2.589446118938E+000  8.829166154380E+000  1.141861227332E+001  8.829166154380E+000  1.068145240080E+001
   9.450000000000E+001  2.564079423117E+000  8.850127627595E+000  1.141420705071E+001  8.850127627595E+000  1.069107352980E+001
   9.500000000000E+001  2.869320296776E+000  8.530135631208E+000  1.139945592798E+001  8.530135631208E+000  1.038331114566E+001
   9.550000000000E+001  3.299810911022E+000  8.089996123207E+000  1.138980703423E+001  8.089996123207E+000  9.973368654553E+000
   9.600000000000E+001  3.695911037579E+000  7.692755633976E+000  1.138866667155E+001  7.692755633976E+000  9.618390709822E+000
   9.650000000000E+001  4.014479663090E+000  7.377016232658E+000  1.139149589575E+001  7.377016232658E+000  9.350411913114E+000
   9.700000000000E+001  4.281980746695E+000  7.112573011054E+000  1.139455375775E+001  7.112573011054E+000  9.132302875378E+000
   9.750000000000E+001  4.538403350995E+000  6.857620575913E+000  1.139602392691E+001  6.857620575913E+000  8.916248841351E+000
   9.800000000000E+001  4.804276555338E+000  6.590131039886E+000  1.139440759522E+001  6.590131039886E+000  8.676373961893E+000
   9.850000000000E+001  5.056260213884E+000  6.331826706482E+000  1.138808692037E+001  6.331826706482E+000  8.433084597988E+000
   9.900000000000E+001  5.208296516834E+000  6.168847388218E+000  1.137714390505E+001  6.168847388218E+000  8.273111865527E+000
   9.950000000000E+001  5.124806978297E+000  6.242096079748E+000  1.136690305805E+001  6.242096079748E+000  8.338746539739E+000
   1.000000000000E+002  4.712287816296E+000  6.658124124737E+000  1.137041194103E+001  6.658124124737E+000  8.737962575438E+000
