#                    1                    2                    3                    4
#               Time |      Random Number |   === cumu Prob ===>
#               [fs] |                 [] |                 [] |
   0.000000000000E+000  0.000000000000E+000  0.000000000000E+000  0.000000000000E+000
   5.000000000000E-001  2.958331150682E-001  1.862896827549E-008  1.862896827549E-008
   1.000000000000E+000  6.830706727044E-001  1.304621533907E-008  1.304621533907E-008
   1.500000000000E+000  9.002461603474E-001  0.000000000000E+000  0.000000000000E+000
   2.000000000000E+000  3.100483242209E-001  1.263413875895E-008  1.263413875895E-008
   2.500000000000E+000  4.024796114353E-002  5.134420840052E-008  5.134420840052E-008
   3.000000000000E+000  7.371696488277E-001  1.024986224854E-007  1.024986224854E-007
   3.500000000000E+000  2.994656034068E-001  1.370989319009E-007  1.370989319009E-007
   4.000000000000E+000  3.552958663554E-001  1.255411045542E-007  1.255411045542E-007
   4.500000000000E+000  5.782665899734E-001  7.014403279268E-008  7.014403279268E-008
   5.000000000000E+000  5.570626707516E-001  1.735166302632E-008  1.735166302632E-008
   5.500000000000E+000  3.948807900608E-001  3.307997954288E-008  3.307997954288E-008
   6.000000000000E+000  6.447223940871E-001  1.188306930835E-007  1.188306930835E-007
   6.500000000000E+000  2.859785148446E-001  1.256635640134E-007  1.256635640134E-007
   7.000000000000E+000  7.925256664700E-001  0.000000000000E+000  0.000000000000E+000
   7.500000000000E+000  3.338202956946E-001  7.575823637600E-007  7.575823637600E-007
   8.000000000000E+000  1.599114437553E-001  5.028192079173E-006  5.028192079173E-006
   8.500000000000E+000  8.303947516640E-002  1.495327699366E-005  1.495327699366E-005
   9.000000000000E+000  4.870046672390E-001  2.976555281957E-005  2.976555281957E-005
   9.500000000000E+000  8.488588981112E-001  3.907407232559E-005  3.907407232559E-005
   1.000000000000E+001  6.482337215449E-001  4.328162331629E-006  4.328162331629E-006
   1.050000000000E+001  5.912778788519E-001  1.910113000756E-004  1.910113000756E-004
   1.100000000000E+001  8.164813571614E-001  1.295927293076E-003  1.295927293076E-003
   1.150000000000E+001  5.492194842937E-001  7.712094300622E-004  7.712094300622E-004
   1.200000000000E+001  2.830933998632E-001  1.518681416082E-004  1.518681416082E-004
   1.250000000000E+001  3.378053832396E-001  9.078544274397E-005  9.078544274397E-005
   1.300000000000E+001  4.109029373744E-001  3.101543071094E-005  3.101543071094E-005
   1.350000000000E+001  5.130062734734E-002  1.663395519675E-005  1.663395519675E-005
   1.400000000000E+001  4.047395807704E-001  6.208903825449E-006  6.208903825449E-006
   1.450000000000E+001  5.105464679172E-001  2.032075454396E-006  2.032075454396E-006
   1.500000000000E+001  9.071908109408E-001  4.220933241154E-007  4.220933241154E-007
   1.550000000000E+001  1.837423656220E-001  1.663898609969E-008  1.663898609969E-008
   1.600000000000E+001  1.133908474065E-001  1.097888100934E-008  1.097888100934E-008
   1.650000000000E+001  4.184991650155E-001  3.205299054700E-008  3.205299054700E-008
   1.700000000000E+001  1.435651398278E-001  1.779199686632E-008  1.779199686632E-008
   1.750000000000E+001  3.003766832557E-002  2.890806568516E-009  2.890806568516E-009
   1.800000000000E+001  5.656433245538E-001  0.000000000000E+000  0.000000000000E+000
   1.850000000000E+001  5.436728490573E-001  5.312574107097E-010  5.312574107097E-010
   1.900000000000E+001  1.625723782082E-001  5.515508057108E-009  5.515508057108E-009
   1.950000000000E+001  1.226592382537E-001  2.005895694648E-008  2.005895694648E-008
   2.000000000000E+001  7.994927428462E-001  3.395077041219E-008  3.395077041219E-008
   2.050000000000E+001  7.507546133428E-001  2.671655871906E-008  2.671655871906E-008
   2.100000000000E+001  7.108814215404E-001  6.147793722780E-009  6.147793722780E-009
   2.150000000000E+001  8.708863915062E-001  7.675712861355E-009  7.675712861355E-009
   2.200000000000E+001  1.916635675781E-001  3.178710603130E-008  3.178710603130E-008
   2.250000000000E+001  4.250657680121E-002  2.714446057655E-008  2.714446057655E-008
   2.300000000000E+001  6.109365024276E-001  0.000000000000E+000  0.000000000000E+000
   2.350000000000E+001  5.910068029703E-001  2.492520371254E-007  2.492520371254E-007
   2.400000000000E+001  8.445064671259E-001  1.653049687505E-006  1.653049687505E-006
   2.450000000000E+001  3.434256744530E-001  5.805373627489E-006  5.805373627489E-006
   2.500000000000E+001  7.555463478069E-001  1.524350246450E-005  1.524350246450E-005
   2.550000000000E+001  4.734055340474E-001  3.492909001352E-005  3.492909001352E-005
   2.600000000000E+001  9.068055753962E-001  7.555637665907E-005  7.555637665907E-005
   2.650000000000E+001  5.239967203418E-001  1.573305469906E-004  1.573305469906E-004
   2.700000000000E+001  9.134365462894E-001  3.124396283896E-004  3.124396283896E-004
   2.750000000000E+001  7.796647969035E-001  5.653737789849E-004  5.653737789849E-004
   2.800000000000E+001  5.210739147343E-001  8.354149774151E-004  8.354149774151E-004
   2.850000000000E+001  6.962407087816E-001  8.551091459281E-004  8.551091459281E-004
   2.900000000000E+001  2.020890015073E-001  5.253417216847E-004  5.253417216847E-004
   2.950000000000E+001  1.365280414954E-001  1.975652368764E-004  1.975652368764E-004
   3.000000000000E+001  8.470461666579E-002  6.591138255304E-005  6.591138255304E-005
   3.050000000000E+001  7.511413436602E-001  3.230703285993E-005  3.230703285993E-005
   3.100000000000E+001  2.178589168554E-001  2.226425259419E-005  2.226425259419E-005
   3.150000000000E+001  1.364797458988E-001  1.762821730028E-005  1.762821730028E-005
   3.200000000000E+001  7.778484621631E-001  1.495941542628E-005  1.495941542628E-005
   3.250000000000E+001  1.225671961057E-001  1.297378786887E-005  1.297378786887E-005
   3.300000000000E+001  4.102736343039E-001  1.116418097665E-005  1.116418097665E-005
   3.350000000000E+001  1.436551805635E-001  9.367527673047E-006  9.367527673047E-006
   3.400000000000E+001  1.575136680103E-001  7.598010253839E-006  7.598010253839E-006
   3.450000000000E+001  2.206138818302E-001  5.924479582218E-006  5.924479582218E-006
   3.500000000000E+001  8.881414665338E-001  4.410139437013E-006  4.410139437013E-006
   3.550000000000E+001  5.998791814734E-001  3.107965679882E-006  3.107965679882E-006
   3.600000000000E+001  1.332538786002E-001  2.051677999974E-006  2.051677999974E-006
   3.650000000000E+001  9.125676106514E-001  1.258386187876E-006  1.258386187876E-006
   3.700000000000E+001  4.070515458469E-001  7.183816929568E-007  7.183816929568E-007
   3.750000000000E+001  2.810080591057E-001  3.918650271047E-007  3.918650271047E-007
   3.800000000000E+001  5.519764823457E-001  2.189757772684E-007  2.189757772684E-007
   3.850000000000E+001  1.578275241960E-001  1.429784584384E-007  1.429784584384E-007
   3.900000000000E+001  7.047160295308E-002  1.291380952576E-007  1.291380952576E-007
   3.950000000000E+001  2.922679315520E-001  1.807996584524E-007  1.807996584524E-007
   4.000000000000E+001  4.824098548874E-001  3.722584110895E-007  3.722584110895E-007
   4.050000000000E+001  7.075530952504E-001  9.295516198853E-007  9.295516198853E-007
   4.100000000000E+001  4.401325622626E-001  2.297945310170E-006  2.297945310170E-006
   4.150000000000E+001  3.826908592734E-001  4.929999306872E-006  4.929999306872E-006
   4.200000000000E+001  3.773193816059E-002  8.694109229706E-006  8.694109229706E-006
   4.250000000000E+001  2.960761022598E-001  1.266953423226E-005  1.266953423226E-005
   4.300000000000E+001  8.101255329608E-001  1.564396648579E-005  1.564396648579E-005
   4.350000000000E+001  9.811615461478E-001  1.551777040107E-005  1.551777040107E-005
   4.400000000000E+001  2.305196922245E-002  7.760443442251E-006  7.760443442251E-006
   4.450000000000E+001  4.934201035372E-001  0.000000000000E+000  0.000000000000E+000
   4.500000000000E+001  4.284190011283E-001  1.190173052566E-004  1.190173052566E-004
   4.550000000000E+001  2.592016477287E-001  1.796457642627E-003  1.796457642627E-003
   4.600000000000E+001  7.973478733443E-001  1.830937717235E-002  1.830937717235E-002
   4.650000000000E+001  6.664868824423E-001  9.280387262026E-002  9.280387262026E-002
   4.700000000000E+001  1.523927366144E-001  7.056051100714E-002  7.056051100714E-002
   4.750000000000E+001  1.067897533426E-001  0.000000000000E+000  0.000000000000E+000
   4.800000000000E+001  1.251682786454E-001  0.000000000000E+000  0.000000000000E+000
   4.850000000000E+001  3.969915778117E-001  3.405045911746E-004  3.405045911746E-004
   4.900000000000E+001  3.730431905522E-001  1.578921568851E-004  1.578921568851E-004
   4.950000000000E+001  5.494999185705E-001  0.000000000000E+000  0.000000000000E+000
   5.000000000000E+001  8.834867668787E-001  3.346440758605E-005  3.346440758605E-005
   5.050000000000E+001  3.298164499152E-001  1.355593480509E-005  1.355593480509E-005
   5.100000000000E+001  3.112073445006E-001  4.580709880444E-006  4.580709880444E-006
   5.150000000000E+001  9.079935621375E-001  1.134576592969E-005  1.134576592969E-005
   5.200000000000E+001  1.371680836469E-001  1.367026538965E-005  1.367026538965E-005
   5.250000000000E+001  7.263281581634E-001  1.834552708783E-005  1.834552708783E-005
   5.300000000000E+001  5.879956344048E-002  2.730723150614E-005  2.730723150614E-005
   5.350000000000E+001  3.945120426517E-001  3.698838456654E-005  3.698838456654E-005
   5.400000000000E+001  5.507946660824E-001  4.534492119125E-005  4.534492119125E-005
   5.450000000000E+001  1.388001310630E-003  5.304448514883E-005  5.304448514883E-005
   5.500000000000E+001  5.294630159644E-001  6.086235041280E-005  6.086235041280E-005
   5.550000000000E+001  8.009641436310E-001  6.928194006163E-005  6.928194006163E-005
   5.600000000000E+001  1.389045099760E-001  7.701580519530E-005  7.701580519530E-005
   5.650000000000E+001  6.580528462932E-001  8.223514778574E-005  8.223514778574E-005
   5.700000000000E+001  3.956013515713E-003  8.212224832918E-005  8.212224832918E-005
   5.750000000000E+001  2.903141564115E-001  7.460510464267E-005  7.460510464267E-005
   5.800000000000E+001  2.132696961648E-001  5.979897208772E-005  5.979897208772E-005
   5.850000000000E+001  4.684636671186E-001  4.175256241636E-005  4.175256241636E-005
   5.900000000000E+001  3.017367537355E-001  2.596527177723E-005  2.596527177723E-005
   5.950000000000E+001  9.130695735155E-001  1.544325201062E-005  1.544325201062E-005
   6.000000000000E+001  9.950578872021E-001  9.253465614145E-006  9.253465614145E-006
   6.050000000000E+001  9.456231563249E-001  5.312480259637E-006  5.312480259637E-006
   6.100000000000E+001  2.770096936942E-001  2.284133135671E-006  2.284133135671E-006
   6.150000000000E+001  2.713319193866E-001  0.000000000000E+000  0.000000000000E+000
   6.200000000000E+001  9.023284947956E-001  0.000000000000E+000  0.000000000000E+000
   6.250000000000E+001  1.748583912211E-001  0.000000000000E+000  0.000000000000E+000
   6.300000000000E+001  5.414006989538E-001  3.205237827356E-006  3.205237827356E-006
   6.350000000000E+001  6.454299822736E-001  4.045094528585E-006  4.045094528585E-006
   6.400000000000E+001  6.721703927659E-002  2.688524774873E-005  2.688524774873E-005
   6.450000000000E+001  8.920146430941E-001  2.035930451525E-002  2.035930451525E-002
   6.500000000000E+001  3.035402571787E-001  9.753966735202E-001  9.753966735202E-001
   6.550000000000E+001  2.884743672425E-001  0.000000000000E+000  0.000000000000E+000
   6.600000000000E+001  6.342073375860E-001  0.000000000000E+000  5.514836363714E-003
   6.650000000000E+001  9.557625815458E-001  0.000000000000E+000  3.903658238671E-003
   6.700000000000E+001  2.106182449043E-001  0.000000000000E+000  0.000000000000E+000
   6.750000000000E+001  2.638908119084E-001  0.000000000000E+000  0.000000000000E+000
   6.800000000000E+001  2.053007816200E-001  0.000000000000E+000  0.000000000000E+000
   6.850000000000E+001  8.059258994198E-001  0.000000000000E+000  2.066431748974E-003
   6.900000000000E+001  9.942288261417E-001  0.000000000000E+000  5.068729077862E-004
   6.950000000000E+001  6.017315062448E-001  0.000000000000E+000  0.000000000000E+000
   7.000000000000E+001  7.588351906748E-001  0.000000000000E+000  4.021315439736E-005
   7.050000000000E+001  9.257588375777E-001  0.000000000000E+000  2.313823306435E-005
   7.100000000000E+001  9.225333688852E-001  0.000000000000E+000  0.000000000000E+000
   7.150000000000E+001  1.984794069411E-001  0.000000000000E+000  2.511811345954E-005
   7.200000000000E+001  3.545842422823E-001  0.000000000000E+000  1.800391115295E-005
   7.250000000000E+001  7.749518667678E-001  0.000000000000E+000  2.029137942928E-005
   7.300000000000E+001  3.780018804270E-001  0.000000000000E+000  1.728907458035E-005
   7.350000000000E+001  7.835895091319E-001  0.000000000000E+000  4.990745920478E-006
   7.400000000000E+001  6.802036277099E-002  0.000000000000E+000  0.000000000000E+000
   7.450000000000E+001  9.615479482951E-001  0.000000000000E+000  5.405826696110E-006
   7.500000000000E+001  8.670750324155E-002  0.000000000000E+000  4.736692307747E-005
   7.550000000000E+001  9.326618100872E-001  0.000000000000E+000  1.408322241439E-004
   7.600000000000E+001  1.372880850311E-001  0.000000000000E+000  2.887923778544E-004
   7.650000000000E+001  8.547441855321E-001  0.000000000000E+000  4.761215188410E-004
   7.700000000000E+001  9.006300408177E-001  0.000000000000E+000  6.677289487678E-004
   7.750000000000E+001  8.793279117639E-001  0.000000000000E+000  8.224198256740E-004
   7.800000000000E+001  6.677703036743E-001  0.000000000000E+000  9.146642088664E-004
   7.850000000000E+001  5.308365109941E-001  0.000000000000E+000  9.494538698857E-004
   7.900000000000E+001  5.356686364542E-001  0.000000000000E+000  9.531941206605E-004
   7.950000000000E+001  6.529642397081E-001  0.000000000000E+000  9.523339075566E-004
   8.000000000000E+001  1.492266509143E-001  0.000000000000E+000  9.546984689739E-004
   8.050000000000E+001  5.480899557414E-001  0.000000000000E+000  9.435469014868E-004
   8.100000000000E+001  4.108177292717E-001  0.000000000000E+000  8.833063680525E-004
   8.150000000000E+001  4.985171544244E-001  0.000000000000E+000  7.504862949529E-004
   8.200000000000E+001  5.848284846686E-001  0.000000000000E+000  5.702437424804E-004
   8.250000000000E+001  9.994100271491E-001  0.000000000000E+000  4.264086392379E-004
   8.300000000000E+001  5.738032910848E-001  0.000000000000E+000  4.202464316363E-004
   8.350000000000E+001  6.652395504272E-001  0.000000000000E+000  6.708131920001E-004
   8.400000000000E+001  1.502087990603E-001  0.000000000000E+000  1.425724915274E-003
   8.450000000000E+001  4.230896890921E-001  0.000000000000E+000  2.924605715285E-003
   8.500000000000E+001  7.953228259470E-001  0.000000000000E+000  4.371291192571E-003
   8.550000000000E+001  7.144891502017E-001  0.000000000000E+000  3.562963178036E-003
   8.600000000000E+001  2.645278109633E-001  0.000000000000E+000  6.142032620482E-004
   8.650000000000E+001  7.336151610861E-002  0.000000000000E+000  0.000000000000E+000
   8.700000000000E+001  1.582040313852E-001  0.000000000000E+000  0.000000000000E+000
   8.750000000000E+001  6.222290284417E-001  0.000000000000E+000  2.253553181052E-004
   8.800000000000E+001  8.845161531045E-003  0.000000000000E+000  2.571689390159E-004
   8.850000000000E+001  4.342143940312E-001  0.000000000000E+000  2.322437167128E-004
   8.900000000000E+001  7.616444610710E-001  0.000000000000E+000  6.071256592299E-004
   8.950000000000E+001  7.348934935713E-001  0.000000000000E+000  9.485443833487E-004
   9.000000000000E+001  9.128398148303E-001  0.000000000000E+000  1.225120113803E-003
   9.050000000000E+001  8.440325058730E-001  0.000000000000E+000  1.494797371118E-003
   9.100000000000E+001  4.849862890429E-001  0.000000000000E+000  1.604431592437E-003
   9.150000000000E+001  3.200633578028E-002  0.000000000000E+000  1.649332954675E-003
   9.200000000000E+001  6.585627170176E-002  0.000000000000E+000  1.735179877191E-003
   9.250000000000E+001  8.447774293861E-001  0.000000000000E+000  1.843554666240E-003
   9.300000000000E+001  6.069348173167E-001  0.000000000000E+000  1.881574317913E-003
   9.350000000000E+001  2.853156054634E-001  0.000000000000E+000  1.731371552928E-003
   9.400000000000E+001  4.939583148744E-001  0.000000000000E+000  1.342224333099E-003
   9.450000000000E+001  2.820396851624E-001  0.000000000000E+000  8.327064583300E-004
   9.500000000000E+001  3.521016970876E-001  0.000000000000E+000  4.277359363183E-004
   9.550000000000E+001  8.978156239327E-001  0.000000000000E+000  2.246026575756E-004
   9.600000000000E+001  7.856071357506E-001  0.000000000000E+000  1.302075892361E-004
   9.650000000000E+001  7.751284832535E-001  0.000000000000E+000  6.774947328725E-005
   9.700000000000E+001  3.073383928853E-001  0.000000000000E+000  3.702500325675E-005
   9.750000000000E+001  9.562260849770E-002  0.000000000000E+000  3.178187120028E-005
   9.800000000000E+001  9.266075062387E-001  0.000000000000E+000  3.186384668742E-005
   9.850000000000E+001  2.657702297859E-003  0.000000000000E+000  2.857494161759E-005
   9.900000000000E+001  3.927499839960E-001  0.000000000000E+000  2.327625127124E-005
   9.950000000000E+001  8.768379606918E-001  0.000000000000E+000  1.817427981419E-005
   1.000000000000E+002  8.709439877561E-001  0.000000000000E+000  1.450847348126E-005
