! 1 Hamiltonian Matrix (2x2, complex)
2 2
-7.796096399E+001  0.000000000E+000  0.000000000E+000  0.000000000E+000 
 0.000000000E+000  0.000000000E+000 -7.765473212E+001  0.000000000E+000 

! 2 Dipole Moment Matrices (3x2x2, complex)
2 2
 4.392143170E-002  0.000000000E+000  8.410329280E-001  0.000000000E+000 
 8.410329280E-001  0.000000000E+000  1.539842470E-001  0.000000000E+000 
2 2
-4.628374910E-002  0.000000000E+000 -2.325172460E-001  0.000000000E+000 
-2.325172460E-001  0.000000000E+000 -7.039714520E-002  0.000000000E+000 
2 2
 1.201215790E-003  0.000000000E+000  5.858761250E-001  0.000000000E+000 
 5.858761250E-001  0.000000000E+000 -8.448499090E-002  0.000000000E+000 
! 3 Gradient Vectors (2x6x3, real)
6 3 ! 1 1 0
-7.694851720E-003  4.530774590E-002 -8.461467955E-003 
-1.641886003E-001 -7.629951877E-002 -2.011222595E-002 
 3.300109892E-003 -3.983075696E-002 -4.269412525E-002 
 2.720248680E-002 -3.982909299E-003  3.317087542E-002 
 7.927975464E-002  4.900853335E-002  1.409020945E-002 
 6.210110073E-002  2.579690578E-002  2.400673429E-002 
6 3 ! 1 2 0
 0.000000000E+000  0.000000000E+000  0.000000000E+000 
 0.000000000E+000  0.000000000E+000  0.000000000E+000 
 0.000000000E+000  0.000000000E+000  0.000000000E+000 
 0.000000000E+000  0.000000000E+000  0.000000000E+000 
 0.000000000E+000  0.000000000E+000  0.000000000E+000 
 0.000000000E+000  0.000000000E+000  0.000000000E+000 
! 6 Overlap matrix (2x2, complex)
2 2
 1.032791800E+000  0.000000000E+000  1.889700000E-003  0.000000000E+000 
-5.383820000E-003  0.000000000E+000  1.032126410E+000  0.000000000E+000 

! 7 Phases
2 ! for all nmstates
 1.000000000E+000  0.000000000E+000
 1.000000000E+000  0.000000000E+000
! 8 Runtime
 5.923759000E+000
