           6
  t=         0.00000    2    2
C       3.382998958      0.770195417     -9.234858446
C       4.723296691      0.802194117     -8.922896394
H       2.846661890     -0.193835691     -9.673242109
H       2.838418282      1.608060528     -9.291241839
H       5.163870433     -0.184998411     -8.816105316
H       5.264075530      1.797131429     -8.578852317
           6
  t=         0.50000    2    2
C       3.380509174      0.768568116     -9.235347768
C       4.724024385      0.798719118     -8.917824414
H       2.873892785     -0.165161884     -9.657024723
H       2.833325755      1.614577629     -9.311088720
H       5.162162534     -0.160469760     -8.850360157
H       5.264625749      1.798163300     -8.595532577
           6
  t=         1.00000    2    2
C       3.377385419      0.766241331     -9.236157939
C       4.725527225      0.795711645     -8.912435257
H       2.904259444     -0.132116163     -9.640777509
H       2.823477410      1.626836414     -9.329478696
H       5.162973785     -0.136525491     -8.882114357
H       5.262595910      1.792427841     -8.616156496
           6
  t=         1.50000    2    2
C       3.373654958      0.763594059     -9.237179640
C       4.727667669      0.793376009     -8.906726992
H       2.936031794     -0.097638163     -9.625283653
H       2.810422420      1.643078497     -9.346939946
H       5.167703241     -0.115692318     -8.912013005
H       5.258080924      1.780204430     -8.640092226
           6
  t=         2.00000    2    2
C       3.369417037      0.761128673     -9.238246992
C       4.730265804      0.791860594     -8.900701623
H       2.966878471     -0.065918032     -9.612055576
H       2.795838794      1.661224869     -9.363815088
H       5.177573319     -0.100225055     -8.940820964
H       5.251472232      1.762268599     -8.666671131
           6
  t=         2.50000    2    2
C       3.364830003      0.759421765     -9.239144057
C       4.733139991      0.791196232     -8.894366139
H       2.994086767     -0.042170749     -9.603239681
H       2.781283275      1.679264916     -9.380323241
H       5.193309527     -0.091494003     -8.969365159
H       5.243477590      1.739983741     -8.695188672
           6
  t=         3.00000    2    2
C       3.360058606      0.759018882     -9.239643730
C       4.736139546      0.791251028     -8.887737565
H       3.015170756     -0.031596744     -9.601139726
H       2.768052273      1.695502059     -9.396623040
H       5.214886985     -0.089554687     -8.998401979
H       5.235143948      1.715377098     -8.724927451
           6
  t=         3.50000    2    2
C       3.355192757      0.760268752     -9.239583562
C       4.739159355      0.791728010     -8.880846497
H       3.028766374     -0.037480029     -9.607331347
H       2.757133125      1.708661474     -9.412844468
H       5.241482393     -0.093155862     -9.028455204
H       5.227852323      1.691140034     -8.755228020
           6
  t=         4.00000    2    2
C       3.350192499      0.763185600     -9.238935729
C       4.742138436      0.792214493     -8.873733109
H       3.035210263     -0.059524444     -9.621849230
H       2.749206031      1.717908676     -9.429100099
H       5.271668280     -0.100176364     -9.059714487
H       5.223215218      1.670434080     -8.785606421
           6
  t=         4.50000    2    2
C       3.344909894      0.767464217     -9.237810823
C       4.745056542      0.792270343     -8.866434549
H       3.036240107     -0.093950179     -9.643154728
H       2.744664856      1.722815989     -9.445485073
H       5.303740579     -0.108226506     -9.092037736
H       5.222807718      1.656392095     -8.815889143
           6
  t=         5.00000    2    2
C       3.339163665      0.772636553     -9.236395204
C       4.747942341      0.791530198     -8.858972473
H       3.034108244     -0.135259649     -9.668882750
H       2.743640587      1.723307581     -9.462073950
H       5.336025757     -0.115137110     -9.125030579
H       5.227737092      1.651346462     -8.846284265
           6
  t=         5.50000    2    2
C       3.332803164      0.778234876     -9.234880367
C       4.750889008      0.789785081     -8.851352024
H       3.030846380     -0.178108348     -9.696674630
H       2.746020653      1.719611247     -9.478921934
H       5.367076505     -0.119219065     -9.158148200
H       5.238215856      1.656093192     -8.877298733
           6
  t=         6.00000    2    2
C       3.325735900      0.783875534     -9.233424151
C       4.754056449      0.787008278     -8.843574930
H       3.027977839     -0.218272431     -9.724622000
H       2.751465135      1.712225322     -9.496072141
H       5.395747860     -0.119325249     -9.190782356
H       5.253402849      1.669649174     -8.909506107
           6
  t=         6.50000    2    2
C       3.317930127      0.789270827     -9.232141532
C       4.757647443      0.783317814     -8.835656411
H       3.026531855     -0.252805745     -9.751343054
H       2.759423689      1.701904151     -9.513576032
H       5.421189261     -0.114794157     -9.222322349
H       5.271633313      1.689672677     -8.943297217
           6
  t=         7.00000    2    2
C       3.309407348      0.794207143     -9.231108685
C       4.761868782      0.778906707     -8.827633717
H       3.027157587     -0.279824234     -9.775885796
H       2.769161195      1.689652156     -9.531527496
H       5.442795846     -0.105349749     -9.252197688
H       5.290879778      1.713244393     -8.978750120
           6
  t=         7.50000    2    2
C       3.300232081      0.798517883     -9.230370862
C       4.766897747      0.773981776     -8.819563239
H       3.030233375     -0.298214743     -9.797593446
H       2.779802173      1.676697381     -9.550094927
H       5.460151853     -0.091007028     -9.279909693
H       5.309176085      1.737559248     -9.015641630
           6
  t=         8.00000    2    2
C       3.290499443      0.802064864     -9.229950861
C       4.772865074      0.768730262     -8.811510799
H       3.035940837     -0.307390998     -9.815989716
H       2.790403534      1.664419803     -9.569537628
H       5.472991108     -0.072007562     -9.305062570
H       5.324860698      1.760308403     -9.053529371
           6
  t=         8.50000    2    2
C       3.280320635      0.804733301     -9.229858473
C       4.779852471      0.763311194     -8.803540590
H       3.044310629     -0.307127236     -9.830706521
H       2.800058293      1.654209688     -9.590177055
H       5.481175960     -0.048784360     -9.327388887
H       5.336650653      1.779782071     -9.091846438
           6
  t=         9.00000    2    2
C       3.269807895      0.806439998     -9.230101524
C       4.787897465      0.757860191     -8.795705747
H       3.055245989     -0.297464770     -9.841448038
H       2.808017829      1.647261817     -9.612316207
H       5.484698270     -0.021954699     -9.346776875
H       5.343616258      1.794819836     -9.129971619
           6
  t=         9.50000    2    2
C       3.259062146      0.807149502     -9.230696968
C       4.796999344      0.752498745     -8.788041170
H       3.068533218     -0.278682667     -9.847991232
H       2.813800984      1.644352507     -9.636118212
H       5.483694697      0.007672453     -9.363298246
H       5.345122485      1.804708988     -9.167275673
           6
  t=        10.00000    2    2
C       3.248166600      0.806890769     -9.231678569
C       4.807123621      0.747342899     -8.780557911
H       3.083844229     -0.251325909     -9.850218308
H       2.817248068      1.645678875     -9.661488043
H       5.478470906      0.039082925     -9.377243238
H       5.340771322      1.809085068     -9.203147581
           6
  t=        10.50000    2    2
C       3.237189008      0.805767964     -9.233095801
C       4.818204094      0.742509347     -8.773239881
H       3.100737984     -0.216288490     -9.848188324
H       2.818491946      1.650826667     -9.688005453
H       5.469523705      0.071049283     -9.389150989
H       5.330355685      1.807854036     -9.237011858
           6
  t=        11.00000    2    2
C       3.226189358      0.803964224     -9.235001821
C       4.830145262      0.738117547     -8.766041498
H       3.118664755     -0.174954530     -9.842250110
H       2.817858298      1.658883110     -9.714944702
H       5.457547269      0.102143392     -9.399835267
H       5.313828270      1.801137984     -9.268341472
           6
  t=        11.50000    2    2
C       3.215228865      0.801742141     -9.237430394
C       4.842827192      0.734286860     -8.758888624
H       3.136983459     -0.129389314     -9.833202343
H       2.815738554      1.668639883     -9.741372825
H       5.443400950      0.130787083     -9.410379117
H       5.291278553      1.789240817     -9.296668380
           6
  t=        12.00000    2    2
C       3.204374498      0.799444577     -9.240367373
C       4.856115643      0.731127596     -8.751684300
H       3.155006170     -0.082547027     -9.822486074
H       2.812479439      1.678807860     -9.766282059
H       5.428016638      0.155360982     -9.422064776
H       5.262916817      1.772629387     -9.321599969
           6
  t=        12.50000    2    2
C       3.193695610      0.797490906     -9.243726144
C       4.869878170      0.728725986     -8.744321666
H       3.172084868     -0.038378437     -9.812338397
H       2.808316133      1.688184793     -9.788716946
H       5.412240615      0.174374763     -9.436209234
H       5.229060866      1.751926888     -9.342841283
           6
  t=        13.00000    2    2
C       3.183252881      0.796350158     -9.247343341
C       4.884003547      0.727125667     -8.736704719
H       3.187740467     -0.001603971     -9.805735382
H       2.803348676      1.695760265     -9.807871059
H       5.396642965      0.186677798     -9.453900832
H       5.190121482      1.727910543     -9.360222598
           6
  t=        13.50000    2    2
C       3.173085286      0.796464962     -9.251016053
C       4.898417772      0.726311495     -8.728771815
H       3.201778377      0.023144832     -9.805873766
H       2.797551753      1.700769361     -9.823149843
H       5.381374435      0.191648337     -9.475700902
H       5.146584893      1.701508576     -9.373730404
           6
  t=        14.00000    2    2
C       3.163206332      0.798125866     -9.254584566
C       4.913088819      0.726202865     -8.720513190
H       3.214275556      0.032795979     -9.815129587
H       2.790805272      1.702718558     -9.834206853
H       5.366159368      0.189287427     -9.501428693
H       5.098990420      1.673785708     -9.383533797
           6
  t=        14.50000    2    2
C       3.153615102      0.801359743     -9.258016070
C       4.928017543      0.726660601     -8.711974971
H       3.225383749      0.027148498     -9.834009849
H       2.782937983      1.701397959     -9.840962616
H       5.350452721      0.180181226     -9.530135985
H       5.047903306      1.645903789     -9.389994943
           6
  t=        15.00000    1    1
C       3.144298714      0.805922073     -9.261413203
C       4.943221164      0.727504620     -8.703250577
H       3.235136929      0.008956265     -9.860960741
H       2.773806224      1.696891333     -9.843626455
H       5.333728616      0.165381461     -9.560278119
H       4.993907482      1.619029147     -9.393668531
           6
  t=        15.50000    1    1
C       3.135260580      0.811429725     -9.264963146
C       4.958590128      0.728804281     -8.694695860
H       3.243560829     -0.019088037     -9.893488138
H       2.763769388      1.690251920     -9.841565490
H       5.316036646      0.144768320     -9.589833651
H       4.937832038      1.593271674     -9.393237197
           6
  t=        16.00000    1    1
C       3.126657499      0.817388914     -9.268879340
C       4.974229755      0.730125440     -8.686196850
H       3.249616331     -0.050534417     -9.928029893
H       2.751799190      1.681396457     -9.836389394
H       5.296371065      0.120871511     -9.617094772
H       4.879629133      1.570783656     -9.391176880
           6
  t=        16.50000    1    1
C       3.118521194      0.823374644     -9.273267759
C       4.990119080      0.731315118     -8.677886533
H       3.252900739     -0.081363727     -9.962007797
H       2.737683386      1.671214758     -9.828979075
H       5.274823981      0.095013803     -9.640341410
H       4.819693478      1.552215192     -9.388059675
           6
  t=        17.00000    1    1
C       3.110887331      0.829028797     -9.278158358
C       5.006210791      0.732271423     -8.669903411
H       3.253100364     -0.108588984     -9.993567979
H       2.721171748      1.660800291     -9.820330562
H       5.251686091      0.068394336     -9.658129433
H       4.758437007      1.537763960     -9.384181783
           6
  t=        17.50000    1    1
C       3.103787685      0.834059991     -9.283521765
C       5.022430493      0.732944168     -8.662390488
H       3.250030909     -0.130136425    -10.021492507
H       2.701996913      1.651349309     -9.811467416
H       5.227388360      0.042075965     -9.669315114
H       4.696387832      1.527164108     -9.379528290
           6
  t=        18.00000    1    1
C       3.097247012      0.838240822     -9.289296298
C       5.038677934      0.733324634     -8.655488483
H       3.243631065     -0.144635975    -10.045035285
H       2.679913705      1.643998837     -9.803313104
H       5.202434384      0.016981725     -9.673043526
H       4.634247794      1.519796968     -9.373835672
           6
  t=        18.50000    1    1
C       3.091278937      0.841410252     -9.295414183
C       5.054832374      0.733429286     -8.649324701
H       3.233944531     -0.151234052    -10.063776060
H       2.654771367      1.639625483     -9.796549154
H       5.177345915     -0.006102932     -9.668723868
H       4.572877604      1.514868300     -9.366724648
           6
  t=        19.00000    1    1
C       3.085880425      0.843479397     -9.301821506
C       5.070761985      0.733284201     -8.644001714
H       3.221105043     -0.149463128    -10.077518204
H       2.626600754      1.638660694     -9.791499165
H       5.152625602     -0.026529373     -9.656007490
H       4.513215794      1.511578336     -9.357837528
           6
  t=        19.50000    1    1
C       3.081026934      0.844434925     -9.308488097
C       5.086334736      0.732914660     -8.639589385
H       3.205326905     -0.139167467    -10.086229593
H       2.595684151      1.640991255     -9.788083838
H       5.128735175     -0.043791192     -9.634776823
H       4.456168318      1.509235860     -9.346930669
           6
  t=        20.00000    1    1
C       3.076671219      0.844335973     -9.315405571
C       5.101427712      0.732341255     -8.636121338
H       3.186902265     -0.120481485    -10.090024139
H       2.562572877      1.645989402     -9.785869236
H       5.106085446     -0.057539059     -9.605148201
H       4.402506998      1.507304426     -9.333907247
           6
  t=        20.50000    1    1
C       3.072746712      0.843305453     -9.322575272
C       5.115933704      0.731581596     -8.633594230
H       3.166202273     -0.093857068    -10.089183662
H       2.528043516      1.652656889     -9.784188052
H       5.085032127     -0.067610028     -9.567492223
H       4.352797494      1.505398013     -9.318805983
           6
  t=        21.00000    1    1
C       3.069173922      0.841520381     -9.329989555
C       5.129765021      0.730656464     -8.631967960
H       3.143678762     -0.060141340    -10.084225971
H       2.493013048      1.659824325     -9.782286297
H       5.065870824     -0.074075508     -9.522471606
H       4.307366016      1.503249448     -9.301768813
           6
  t=        21.50000    1    1
C       3.065867676      0.839206375     -9.337609467
C       5.142855053      0.729599439     -8.631165076
H       3.119862007     -0.020702769    -10.076026884
H       2.458446811      1.666339676     -9.779449558
H       5.048824689     -0.077314361     -9.471095774
H       4.266301032      1.500671852     -9.283010948
           6
  t=        22.00000    1    1
C       3.062742651      0.836637600     -9.345341640
C       5.155159153      0.728469548     -8.631069203
H       3.095344343      0.022410369    -10.065992006
H       2.425285521      1.671209167     -9.775083346
H       5.034017622     -0.078110899     -9.414781879
H       4.229493132      1.497524311     -9.262801460
           6
  t=        22.50000    1    1
C       3.059718153      0.834138216     -9.353017709
C       5.166654972      0.727364648     -8.631523839
H       3.070740196      0.066338930    -10.056238956
H       2.394400483      1.673682250     -9.768746356
H       5.021433353     -0.077763013     -9.355396843
H       4.196699778      1.493689556     -9.241465272
           6
  t=        23.00000    1    1
C       3.056721695      0.832072742     -9.360386406
C       5.177342957      0.726431806     -8.632335954
H       3.046615244      0.107445516    -10.049670060
H       2.366569742      1.673291508     -9.760146728
H       5.010869573     -0.078154617     -9.295226943
H       4.167637321      1.489064931     -9.219395819
           6
  t=        23.50000    1    1
C       3.053690736      0.830806230     -9.367136916
C       5.187245195      0.725865238     -8.633290189
H       3.023404450      0.141728507    -10.049709704
H       2.342465444      1.669862586     -9.749113606
H       5.001915143     -0.081689661     -9.236800518
H       4.142091471      1.483571267     -9.197076289
           6
  t=        24.00000    1    1
C       3.050568573      0.830622431     -9.372971122
C       5.196399323      0.725880784     -8.634178682
H       3.001386968      0.165754191    -10.059495826
H       2.322636248      1.663504642     -9.735552981
H       4.993995895     -0.090952846     -9.182508423
H       4.120035580      1.477169246     -9.175096509
           6
  t=        24.50000    1    1
C       3.047291460      0.831624839     -9.377710255
C       5.204842857      0.726661025     -8.634839184
H       2.980798361      0.177826794    -10.080678008
H       2.307474295      1.654586344     -9.719392511
H       4.986534531     -0.108044134     -9.134105381
H       4.101731573      1.469879714     -9.154184957
           6
  t=        25.00000    1    1
C       3.043774439      0.833689758     -9.381372793
C       5.212593951      0.728288266     -8.635181241
H       2.962030744      0.178606988    -10.112572061
H       2.297140939      1.643696259     -9.700523851
H       4.979181665     -0.133795159     -9.092339039
H       4.087770793      1.461777883     -9.135243530
           6
  t=        25.50000    1    1
C       3.039915578      0.836519206     -9.384164005
C       5.219641716      0.730703224     -8.635179714
H       2.945724162      0.170639935    -10.152369068
H       2.291451686      1.631584834     -9.678764933
H       4.971979985     -0.167326880     -9.056969048
H       4.078998338      1.452943019     -9.119358774
           6
  t=        26.00000    1    1
C       3.035631601      0.839756022     -9.386392307
C       5.225958670      0.733719581     -8.634847662
H       2.932611126      0.157211596    -10.196191740
H       2.289762033      1.619099228     -9.653913830
H       4.965323302     -0.206284253     -9.027125399
H       4.076251161      1.443358046     -9.107652190
           6
  t=        26.50000    1    1
C       3.030905048      0.843071062     -9.388367422
C       5.231521037      0.737084111     -8.634223390
H       2.923234960      0.141408148    -10.240227695
H       2.290998338      1.607172421     -9.625956345
H       4.959778770     -0.247586191     -9.001683112
H       4.079983420      1.432856928     -9.100931410
           6
  t=        27.00000    1    1
C       3.025772790      0.846167456     -9.390318702
C       5.236315309      0.740546604     -8.633368840
H       2.917841932      0.125781923    -10.281444984
H       2.293928002      1.596925400     -9.595290235
H       4.955944375     -0.288177053     -8.979526865
H       4.090305284      1.421224663     -9.099477545
           6
  t=        27.50000    1    1
C       3.020240723      0.848747753     -9.392369734
C       5.240345000      0.743907935     -8.632346529
H       2.916511379      0.112384384    -10.317796590
H       2.297422563      1.589763775     -9.562710007
H       4.954380126     -0.325436051     -8.959772169
H       4.107593817      1.408296052     -9.103211704
           6
  t=        28.00000    1    1
C       3.014303713      0.850538564     -9.394564402
C       5.243657371      0.747033227     -8.631227170
H       2.919065330      0.102856849    -10.348126794
H       2.300434297      1.587170710     -9.529380916
H       4.955472793     -0.357398280     -8.941651594
H       4.132186360      1.393842866     -9.111527307
           6
  t=        28.50000    1    1
C       3.008039035      0.851348460     -9.396914593
C       5.246326237      0.749830479     -8.630086084
H       2.924984175      0.098407268    -10.371849266
H       2.301943755      1.590293898     -9.496492081
H       4.959370968     -0.382747242     -8.924479975
H       4.163674363      1.377567700     -9.123468326
           6
  t=        29.00000    1    1
C       3.001545904      0.851060537     -9.399426667
C       5.248403678      0.752237669     -8.628981981
H       2.933656330      0.099841607    -10.388686168
H       2.301316861      1.599755933     -9.464863589
H       4.966078300     -0.400627040     -8.907787886
H       4.201498404      1.359316563     -9.138187197
           6
  t=        29.50000    1    1
C       2.994865325      0.849622422     -9.402104171
C       5.249917647      0.754219419     -8.627955001
H       2.944527685      0.107658266    -10.398591148
H       2.298607872      1.615543774     -9.434960381
H       4.975527463     -0.410538352     -8.891307928
H       4.245404569      1.339149571     -9.155012528
           6
  t=        30.00000    1    1
C       2.987966761      0.847053908     -9.404941964
C       5.250894412      0.755759605     -8.627027620
H       2.957111140      0.122099594    -10.401730617
H       2.294549423      1.636954170     -9.407049136
H       4.987604794     -0.412307576     -8.874910271
H       4.295311862      1.317310378     -9.173434656
           6
  t=        30.50000    1    1
C       2.980772183      0.843447610     -9.407917241
C       5.251378868      0.756852774     -8.626200020
H       2.970963152      0.143157532    -10.398496918
H       2.290320923      1.662691867     -9.381332889
H       5.002161349     -0.406082951     -8.858560565
H       4.351027818      1.294212695     -9.193161929
           6
  t=        31.00000    1    1
C       2.973190843      0.838958734     -9.410980141
C       5.251449050      0.757497747     -8.625441867
H       2.985657789      0.170545726    -10.389564301
H       2.287233624      1.691086399     -9.358026634
H       5.019014702     -0.392351521     -8.842296858
H       4.412000961      1.270466413     -9.214221940
           6
  t=        31.50000    1    1
C       2.965148869      0.833791010     -9.414045221
C       5.251224185      0.757695207     -8.624681440
H       3.000776502      0.203649988    -10.375986267
H       2.286466230      1.720331041     -9.337369508
H       5.037945526     -0.371986133     -8.826217043
H       4.477150427      1.246931395     -9.237095456
           6
  t=        32.00000    1    1
C       2.956606178      0.828184169     -9.416982688
C       5.250863106      0.757451562     -8.623795145
H       3.015925060      0.241473550    -10.359329203
H       2.288914159      1.748677352     -9.319597691
H       5.058688957     -0.346318975     -8.810471558
H       4.544825942      1.224754269     -9.262846516
           6
  t=        32.50000    1    1
C       2.947558572      0.822402723     -9.419610612
C       5.250546608      0.756794439     -8.622606246
H       3.030786178      0.282611384    -10.341806183
H       2.295147402      1.774565859     -9.304905843
H       5.080923995     -0.317235917     -8.795257807
H       4.612993097      1.205306998     -9.293140554
           6
  t=        33.00000    1    1
C       2.938027821      0.816721014     -9.421693637
C       5.250438001      0.755803700     -8.620907537
H       3.045198134      0.325315025    -10.326327572
H       2.305434748      1.796703331     -9.293417628
H       5.104268977     -0.287257465     -8.780817499
H       4.679722765      1.189934302     -9.329971371
           6
  t=        33.50000    1    1
C       2.928046740      0.811397635     -9.422960932
C       5.250631612      0.754650243     -8.618517984
H       3.059222133      0.367721871    -10.316311233
H       2.319791013      1.814106240     -9.285170921
H       5.128297783     -0.259530577     -8.767433615
H       4.743851190      1.179515419     -9.374980486
           6
  t=        34.00000    1    1
C       2.917649440      0.806636885     -9.423157118
C       5.251120375      0.753613940     -8.615357274
H       3.073131195      0.408267649    -10.315089363
H       2.338020403      1.826127810     -9.280112597
H       5.152596587     -0.237600134     -8.755411971
H       4.805392949      1.174041326     -9.428580049
           6
  t=        34.50000    1    1
C       2.906875271      0.802547611     -9.422123250
C       5.251810462      0.753043816     -8.611490767
H       3.087259580      0.446145380    -10.324946594
H       2.359748199      1.832481158     -9.278096757
H       5.176859661     -0.224840283     -8.745034826
H       4.865342902      1.172528222     -9.489463388
           6
  t=        35.00000    1    1
C       2.895784518      0.799123537     -9.419870864
C       5.252572145      0.753257439     -8.607112183
H       3.101751236      0.481514226    -10.346230544
H       2.384442763      1.833263791     -9.278883999
H       5.200982132     -0.223591768     -8.736483595
H       4.925020433      1.173353701     -9.554896893
           6
  t=        35.50000    1    1
C       2.884471587      0.796261057     -9.416597184
C       5.253289956      0.754432091     -8.602482986
H       3.116373361      0.515263694    -10.377155091
H       2.411431669      1.828983035     -9.282142497
H       5.225074149     -0.234372605     -8.729759432
H       4.985471437      1.174761683     -9.621535880
           6
  t=        36.00000    1    1
C       2.873062698      0.793800541     -9.412628491
C       5.253889371      0.756554673     -8.597871419
H       3.130537289      0.548498195    -10.414451997
H       2.439919554      1.820580022     -9.287454436
H       5.249368429     -0.255661184     -8.724658167
H       5.047231666      1.175241678     -9.686191630
           6
  t=        36.50000    1    1
C       2.861699843      0.791562637     -9.408333253
C       5.254342517      0.759452651     -8.593514945
H       3.143484452      0.582094847    -10.454381196
H       2.469016448      1.809438794     -9.294329262
H       5.274079336     -0.284421350     -8.720817210
H       5.110376504      1.173686202     -9.746242670
           6
  t=        37.00000    1    1
C       2.850521533      0.789366443     -9.404053352
C       5.254661952      0.762870140     -8.589605838
H       3.154489120      0.616516667    -10.493526359
H       2.497786456      1.797355599     -9.302224270
H       5.299303518     -0.317005873     -8.717801037
H       5.174672173      1.169389535     -9.799723438
           6
  t=        37.50000    1    1
C       2.839647727      0.787037528     -9.400070219
C       5.254888753      0.766539092     -8.586291692
H       3.162981285      0.651831386    -10.529170747
H       2.525326312      1.786423799     -9.310574248
H       5.325000895     -0.349931608     -8.715175419
H       5.239714613      1.161975936     -9.845241796
           6
  t=        38.00000    1    1
C       2.829169378      0.784419473     -9.396597784
C       5.255081189      0.770221949     -8.583682557
H       3.168583221      0.687814398    -10.559352111
H       2.550868005      1.778794294     -9.318826721
H       5.351023731     -0.380303471     -8.712547638
H       5.305020513      1.151315059     -9.881847614
           6
  t=        38.50000    1    1
C       2.819141918      0.781395464     -9.393788569
C       5.255306207      0.773727266     -8.581859376
H       3.171094705      0.724055199    -10.582763880
H       2.573881485      1.776313831     -9.326475440
H       5.377157445     -0.405930286     -8.709578859
H       5.370077606      1.137449863     -9.908912707
           6
  t=        39.00000    1    1
C       2.809583760      0.777915377     -9.391744174
C       5.255633779      0.776909246     -8.580881437
H       3.170458547      0.760039053    -10.598616338
H       2.594136223      1.780123343     -9.333080661
H       5.403154605     -0.425267675     -8.705980597
H       5.434368646      1.120542582     -9.926039354
           6
  t=        39.50000    1    1
C       2.800481132      0.774014627     -9.390525915
C       5.256133588      0.779660966     -8.580791919
H       3.166726120      0.795200782    -10.606515489
H       2.611684650      1.790382316     -9.338269303
H       5.428757578     -0.437304169     -8.701505264
H       5.497381725      1.100838857     -9.932998022
           6
  t=        40.00000    1    1
C       2.791798441      0.769812915     -9.390164053
C       5.256873367      0.781906912     -8.581621340
H       3.160029944      0.828961583    -10.606372960
H       2.626770760      1.806249730     -9.341719855
H       5.453710315     -0.441453710     -8.695935805
H       5.558613719      1.078646324     -9.929691960
           6
  t=        40.50000    1    1
C       2.783490203      0.765491661     -9.390663966
C       5.257917756      0.783597019     -8.583389621
H       3.150566313      0.860752535    -10.598352945
H       2.639708064      1.826131670     -9.343145962
H       5.477766509     -0.437476686     -8.689075041
H       5.617573011      1.054324205     -9.916139281
           6
  t=        41.00000    1    1
C       2.775510015      0.761260407     -9.392008819
C       5.259327286      0.784703233     -8.586106477
H       3.138588545      0.890035400    -10.582851478
H       2.650779859      1.848063006     -9.342288770
H       5.500696792     -0.425439961     -8.680736149
H       5.673784169      1.028281783     -9.892474408
           6
  t=        41.50000    1    1
C       2.767814725      0.757325313     -9.394158651
C       5.261156682      0.785218690     -8.589770667
H       3.124408785      0.916323418    -10.560508122
H       2.660186843      1.870063658     -9.338918588
H       5.522298871     -0.405713121     -8.670731711
H       5.726798833      1.000982473     -9.858965479
           6
  t=        42.00000    1    1
C       2.760363820      0.753866938     -9.397046510
C       5.263452053      0.785159511     -8.594367884
H       3.108411399      0.939207583    -10.532248080
H       2.668038141      1.890378643     -9.332840580
H       5.542412862     -0.379000498     -8.658861852
H       5.776216745      0.972952789     -9.816049519
           6
  t=        42.50000    1    1
C       2.753115904      0.751027846     -9.400572038
C       5.266245930      0.784569106     -8.599867211
H       3.091075980      0.958392314    -10.499353817
H       2.674367275      1.907591110     -9.323900359
H       5.560945474     -0.346404745     -8.644898982
H       5.821723657      0.944793460     -9.764389109
           6
  t=        43.00000    1    1
C       2.746023777      0.748906866     -9.404593410
C       5.269549271      0.783524351     -8.606216117
H       3.073008178      0.973743549    -10.463557307
H       2.679156932      1.920642998     -9.311987574
H       5.577904025     -0.309510929     -8.628567034
H       5.863155440      0.917189567     -9.704952873
           6
  t=        43.50000    1    1
C       2.739029592      0.747556800     -9.408919554
C       5.273339712      0.782141789     -8.613334364
H       3.054971023      0.985345406    -10.427129496
H       2.682363406      1.928805400     -9.297038364
H       5.593437096     -0.270464153     -8.609512480
H       5.900599257      0.890914636     -9.639117705
           6
  t=        44.00000    1    1
C       2.732061736      0.746984086     -9.413307276
C       5.277546471      0.780579629     -8.621108264
H       3.037900479      0.993551039    -10.392910904
H       2.683937629      1.931630559     -9.279038244
H       5.607868025     -0.231982980     -8.587265937
H       5.934540313      0.866821435     -9.568776254
           6
  t=        44.50000    1    1
C       2.725036202      0.747151792     -9.417471484
C       5.282035451      0.779028342     -8.629388128
H       3.022873014      0.998992354    -10.364186276
H       2.683842182      1.928904931     -9.258025835
H       5.621687834     -0.197214727     -8.561203128
H       5.966045506      0.845810739     -9.496406309
           6
  t=        45.00000    1    1
C       2.717865508      0.747988953     -9.421118092
C       5.286603359      0.777681734     -8.637993726
H       3.010987722      1.002501149    -10.344290148
H       2.682065060      1.920615350     -9.234097199
H       5.635459194     -0.169328741     -8.530537534
H       5.996927241      0.828770607     -9.425011400
           6
  t=        45.50000    1    1
C       2.710476370      0.749408130     -9.424002374
C       5.290995364      0.776687236     -8.646733350
H       3.003147904      1.004914417    -10.335912962
H       2.678629699      1.906934069     -9.207408773
H       5.649603835     -0.150834509     -8.494404673
H       6.029743896      0.816486992     -9.357805658
           6
  t=        46.00000    1    1
C       2.702831187      0.751325965     -9.425995886
C       5.294959530      0.776092037     -8.655438309
H       2.999800398      1.006823451    -10.340311739
H       2.673601420      1.888225531     -9.178175435
H       5.664133864     -0.142840242     -8.452088684
H       6.067418657      0.809543002     -9.297571001
           6
  t=        46.50000    1    1
C       2.694941961      0.753674659     -9.427126650
C       5.298332890      0.775816792     -8.664002209
H       3.000767812      1.008415087    -10.356848697
H       2.667089494      1.865070650     -9.146659672
H       5.678491815     -0.144663381     -8.403340045
H       6.112374624      0.808240376     -9.245865387
           6
  t=        47.00000    1    1
C       2.686867365      0.756395679     -9.427566194
C       5.301119950      0.775678298     -8.672399403
H       3.005284127      1.009518868    -10.383173583
H       2.659244235      1.838297350     -9.113148781
H       5.691640449     -0.154073492     -8.348608395
H       6.165512485      0.812569477     -9.202565158
           6
  t=        47.50000    1    1
C       2.678694754      0.759421315     -9.427573877
C       5.303509278      0.775448232     -8.680662771
H       3.012210834      1.009812240    -10.415924612
H       2.650249745      1.808997861     -9.077919665
H       5.702355639     -0.168009097     -8.289038071
H       6.225725400      0.822224007     -9.166131241
           6
  t=        48.00000    1    1
C       2.670518467      0.762659015     -9.427433640
C       5.305813195      0.774913094     -8.688835580
H       3.020300022      1.009032345    -10.451521118
H       2.640312907      1.778505159     -9.041198332
H       5.709537312     -0.183337369     -8.226249269
H       6.290312447      0.836645116     -9.134402050
           6
  t=        48.50000    1    1
C       2.662423730      0.765989717     -9.427409657
C       5.308374757      0.773909802     -8.696933126
H       3.028391511      1.007089499    -10.486716516
H       2.629651282      1.748300404     -9.003131086
H       5.712395707     -0.197348323     -8.162051396
H       6.355906525      0.855090773     -9.105340892
           6
  t=        49.00000    1    1
C       2.654478819      0.769281446     -9.427724194
C       5.311495694      0.772334481     -8.704931301
H       3.035512732      1.004079875    -10.518847238
H       2.618482069      1.719838228     -8.963793113
H       5.710495770     -0.207943867     -8.098211991
H       6.419292451      0.876720319     -9.077409163
           6
  t=        49.50000    1    1
C       2.646733269      0.772412248     -9.428548498
C       5.315404581      0.770134914     -8.712774730
H       3.040904364      1.000242953    -10.545869820
H       2.607015910      1.694315718     -8.923253382
H       5.703711734     -0.213627552     -8.036322772
H       6.477833264      0.900674552     -9.049609952
           6
  t=        50.00000    1    1
C       2.639218949      0.775293060     -9.429998116
C       5.320255379      0.767297544     -8.720390729
H       3.044007623      0.995905523    -10.566297752
H       2.595457082      1.672455203     -8.881687708
H       5.692149488     -0.213406810     -7.977746947
H       6.529564947      0.926133679     -9.021380418
           6
  t=        50.50000    1    1
C       2.631952118      0.777881404     -9.432130160
C       5.326139969      0.763835276     -8.727701118
H       3.044438161      0.991434159    -10.579112166
H       2.584007292      1.654387646     -8.839495944
H       5.676071902     -0.206678313     -7.923616615
H       6.573119655      0.952348948     -8.992458324
           6
  t=        51.00000    1    1
C       2.624935454      0.780181026     -9.434944244
C       5.333103552      0.759778285     -8.734629796
H       3.041962059      0.987203457    -10.583685335
H       2.572868726      1.639687463     -8.797364029
H       5.655840880     -0.193127912     -7.874854168
H       6.607597125      0.978653313     -8.962773768
           6
  t=        51.50000    1    1
C       2.618159867      0.782229773     -9.438388621
C       5.341157651      0.755167957     -8.741106956
H       3.036480112      0.983578488    -10.579731473
H       2.562242175      1.627533179     -8.756237929
H       5.631878062     -0.172655649     -7.832199080
H       6.632445178      1.004459785     -8.932374421
           6
  t=        52.00000    1    1
C       2.611605531      0.784081863     -9.442369463
C       5.350289509      0.750053314     -8.747071192
H       3.028026128      0.980911103    -10.567297444
H       2.552320002      1.616920909     -8.717221561
H       5.604640284     -0.145324989     -7.796230433
H       6.647368775      1.029254606     -8.901378782
           6
  t=        52.50000    1    1
C       2.605241725      0.785791522     -9.446759055
C       5.360467803      0.744489241     -8.752470802
H       3.016781211      0.979547071    -10.546796276
H       2.543277094      1.606850956     -8.681445699
H       5.574605131     -0.111334065     -7.767378647
H       6.652273058      1.052590697     -8.869948892
           6
  t=        53.00000    1    1
C       2.599024936      0.787401086     -9.451398778
C       5.371645334      0.738535840     -8.757265200
H       3.003107107      0.979844565    -10.519089496
H       2.535262836      1.596449852     -8.649951116
H       5.542261854     -0.071004699     -7.745922551
H       6.647237750      1.074085446     -8.838275522
           6
  t=        53.50000    1    1
C       2.592895039      0.788933359     -9.456095398
C       5.383759119      0.732258360     -8.761427191
H       2.987598500      0.982205776    -10.485615200
H       2.528395952      1.585028938     -8.623606458
H       5.508103239     -0.024786290     -7.731968128
H       6.632522492      1.093426299     -8.806570594
           6
  t=        54.00000    1    1
C       2.586770090      0.790386373     -9.460612722
C       5.396728148      0.725727007     -8.764946767
H       2.971147234      0.987122373    -10.448538740
H       2.522762672      1.572100537     -8.603059455
H       5.472613652      0.026728879     -7.725405184
H       6.608605092      1.110389031     -8.775062661
           6
  t=        54.50000    1    1
C       2.580542014      0.791729062     -9.464665621
C       5.410448997      0.719015844     -8.767836898
H       2.954992352      0.995229118    -10.410855199
H       2.518416919      1.557375328     -8.588708880
H       5.436247216      0.082783821     -7.725841102
H       6.576256762      1.124873216     -8.743991028
           6
  t=        55.00000    1    1
C       2.574077991      0.792898495     -9.467930124
C       5.424789541      0.712199014     -8.770141799
H       2.940698921      1.007340261    -10.376295296
H       2.515381962      1.540758710     -8.580681936
H       5.399389663      0.142439480     -7.732513906
H       6.536658078      1.136964809     -8.713590792
           6
  t=        55.50000    1    1
C       2.567235126      0.793802791     -9.470087571
C       5.439581488      0.705342408     -8.771946941
H       2.929977120      1.024410094    -10.348830487
H       2.513652164      1.522355784     -8.578806287
H       5.362298877      0.204577469     -7.744202124
H       6.491551851      1.147032231     -8.684060822
           6
  t=        56.00000    1    1
C       2.559892917      0.794335927     -9.470910572
C       5.454614072      0.698488738     -8.773388256
H       2.924288254      1.047341093    -10.331689688
H       2.513195009      1.502487928     -8.582571593
H       5.325025609      0.267947539     -7.759172862
H       6.443402929      1.155855722     -8.655504394
           6
  t=        56.50000    1    1
C       2.551994595      0.794405231     -9.470362614
C       5.469634268      0.691636254     -8.774654643
H       2.924344859      1.076634204    -10.326217028
H       2.513954007      1.481717109     -8.591085421
H       5.287333456      0.331283698     -7.775241328
H       6.395480309      1.164762604     -8.627840196
           6
  t=        57.00000    1    1
C       2.543571744      0.793958233     -9.468647222
C       5.484363196      0.684718407     -8.775974154
H       2.929808768      1.112051791    -10.331316050
H       2.515854927      1.460866426     -8.603041361
H       5.248665925      0.393489391     -7.790029675
H       6.351697392      1.175681133     -8.600710230
           6
  t=        57.50000    1    1
C       2.534732136      0.792989106     -9.466164967
C       5.498539376      0.677602814     -8.777574439
H       2.939424963      1.152547149    -10.343948970
H       2.518817584      1.441017691     -8.616727784
H       5.208229009      0.453836646     -7.801455592
H       6.316013575      1.190949827     -8.573466083
           6
  t=        58.00000    1    1
C       2.525620072      0.791522328     -9.463408399
C       5.511986244      0.670131194     -8.779618594
H       2.951480300      1.196517550    -10.360294503
H       2.522773905      1.423456588     -8.630116773
H       5.165226731      0.512068156     -7.808322492
H       6.291390181      1.212736161     -8.545346897
           6
  t=        58.50000    1    1
C       2.516376476      0.789592775     -9.460857391
C       5.524670278      0.662197254     -8.782140251
H       2.964266051      1.242183414    -10.376783042
H       2.527687365      1.409532725     -8.641071833
H       5.119182618      0.568311677     -7.810716941
H       6.278770144      1.242192756     -8.515857970
           6
  t=        59.00000    1    1
C       2.507116094      0.787240849     -9.458907019
C       5.536700797      0.653815488     -8.785018147
H       2.976347636      1.287882157    -10.390621707
H       2.533561510      1.400423846     -8.647680445
H       5.070181443      0.622843549     -7.809960801
H       6.276831795      1.278874432     -8.485122611
           6
  t=        59.50000    1    1
C       2.497922831      0.784524882     -9.457827203
C       5.548264061      0.645129939     -8.788011512
H       2.986641981      1.332207451    -10.399883404
H       2.540422590      1.396847331     -8.648646671
H       5.018900277      0.675848117     -7.808152590
H       6.282738110      1.320876166     -8.453918255
           6
  t=        60.00000    1    1
C       2.488856491      0.781538277     -9.457748165
C       5.559542367      0.636365758     -8.790832836
H       2.994386032      1.374031820    -10.403381176
H       2.548272128      1.398831278     -8.643592626
H       4.966444234      0.727295596     -7.807579299
H       6.293262834      1.365534144     -8.423395540
           6
  t=        60.50000    1    1
C       2.479963298      0.778416576     -9.458670906
C       5.570666564      0.627767712     -8.793214150
H       2.999068177      1.412472262    -10.400488946
H       2.557028597      1.405662561     -8.633116320
H       4.914110742      0.776947932     -7.810270607
H       6.305593285      1.410154278     -8.394731612
           6
  t=        61.00000    1    1
C       2.471284444      0.775328096     -9.460499082
C       5.581707859      0.619558421     -8.794943012
H       3.000361650      1.446842180    -10.390984585
H       2.566488938      1.416044797     -8.618572000
H       4.863192926      0.824430438     -7.817786172
H       6.317627867      1.452439429     -8.368911331
           6
  t=        61.50000    1    1
C       2.462859932      0.772453625     -9.463080248
C       5.592690453      0.611921171     -8.795870519
H       2.998074302      1.476610789    -10.374936420
H       2.576329237      1.428379534     -8.601694650
H       4.814863485      0.869309719     -7.831187366
H       6.327945474      1.490617244     -8.346658137
           6
  t=        62.00000    1    1
C       2.454728078      0.769965167     -9.466242199
C       5.603608216      0.604998738     -8.795903939
H       2.992117934      1.501379112    -10.352633014
H       2.586138392      1.441042399     -8.584238300
H       4.770129173      0.911149794     -7.851104991
H       6.335655428      1.523399041     -8.328453186
           6
  t=        62.50000    1    1
C       2.446922599      0.768010330     -9.469816378
C       5.614438058      0.598898946     -8.794994438
H       2.982495895      1.520874994    -10.324548659
H       2.595463671      1.452573079     -8.567731613
H       4.729827943      0.949543835     -7.877835517
H       6.340242596      1.549882701     -8.314585484
           6
  t=        63.00000    1    1
C       2.439468815      0.766703284     -9.473647992
C       5.625148613      0.593701594     -8.793125558
H       2.969307273      1.534968870    -10.291337845
H       2.603852119      1.461766184     -8.553361900
H       4.694644540      0.984128349     -7.911430010
H       6.341448115      1.569457147     -8.305201232
           6
  t=        63.50000    1    1
C       2.432379730      0.766119875     -9.477596431
C       5.635705034      0.589464277     -8.790304406
H       2.952766132      1.543712204    -10.253852754
H       2.610879996      1.467689688     -8.541951259
H       4.665130607      1.014587604     -7.951763710
H       6.339190117      1.581729792     -8.300340495
           6
  t=        64.00000    1    1
C       2.425651895      0.766293896     -9.481530251
C       5.646071260      0.586226057     -8.786555943
H       2.933235237      1.547400819    -10.213178818
H       2.616171396      1.469664684     -8.533979455
H       4.641720239      1.040654645     -7.998583872
H       6.333518029      1.586483204     -8.299958706
           6
  t=        64.50000    1    1
C       2.419260958      0.767212291     -9.485319951
C       5.656210580      0.584008678     -8.781919939
H       2.911271699      1.546664051    -10.170681192
H       2.619409399      1.467232040     -8.529622678
H       4.624738490      1.062112558     -8.051539992
H       6.324593716      1.583660662     -8.303933451
           6
  t=        65.00000    1    1
C       2.413157082      0.768808742     -9.488831272
C       5.666085109      0.582814924     -8.776450336
H       2.887677263      1.542572066    -10.128047754
H       2.620343717      1.460120289     -8.528790112
H       4.614399880      1.078798555     -8.110199277
H       6.312695683      1.573382735     -8.312056749
           6
  t=        65.50000    1    1
C       2.407261745      0.770957634     -9.491921868
C       5.675654293      0.582623688     -8.770216536
H       2.863532854      1.536731520    -10.087299324
H       2.618797437      1.448221275     -8.531153756
H       4.610796538      1.090612536     -8.174053818
H       6.298245612      1.555998017     -8.324012236
           6
  t=        66.00000    1    1
C       2.401468881      0.773473622     -9.494445502
C       5.684872484      0.583380807     -8.763306595
H       2.840179665      1.531304418    -10.050720729
H       2.614674453      1.431576468     -8.536167942
H       4.613873145      1.097531781     -8.242521524
H       6.281860165      1.532177538     -8.339335602
           6
  t=        66.50000    1    1
C       2.395654790      0.776125683     -9.496268387
C       5.693685449      0.584984951     -8.755831856
H       2.819093254      1.528844100    -10.020654860
H       2.607968441      1.410374538     -8.543081264
H       4.623387305      1.099633100     -8.314947346
H       6.264431112      1.503059739     -8.357357629
           6
  t=        67.00000    1    1
C       2.389699944      0.778673632     -9.497299510
C       5.702026038      0.587268729     -8.747932043
H       2.801614212      1.531855342     -9.999135079
H       2.598772216      1.384958169     -8.550943533
H       4.638855804      1.097122715     -8.390610100
H       6.247231002      1.470443873     -8.377136364
           6
  t=        67.50000    1    1
C       2.383518468      0.780923507     -9.497528091
C       5.709810584      0.589978544     -8.739778124
H       2.788587389      1.542126361     -9.987430803
H       2.587285668      1.355834961     -8.558614089
H       4.659491179      1.090372364     -8.468743858
H       6.232021285      1.436991423     -8.397401612
           6
  t=        68.00000    1    1
C       2.377081314      0.782778062     -9.497050547
C       5.716940736      0.592764296     -8.731567337
H       2.780081484      1.560125353     -9.985704878
H       2.573816495      1.323682162     -8.564783293
H       4.684145016      1.079954943     -8.548584401
H       6.221090877      1.406310489     -8.416567912
           6
  t=        68.50000    1    1
C       2.370418043      0.784251935     -9.496068555
C       5.723320279      0.595200693     -8.723502120
H       2.775375417      1.584841793     -9.992981374
H       2.558767880      1.289326860     -8.568027065
H       4.711287897      1.066666145     -8.629449254
H       6.217080747      1.382678415     -8.432906023
           6
  t=        69.00000    1    1
C       2.363596821      0.785444393     -9.494855149
C       5.728896146      0.596864104     -8.715747855
H       2.773224745      1.614174753    -10.007438195
H       2.542605071      1.253683299     -8.566917222
H       4.739080150      1.051505641     -8.710846563
H       6.222429964      1.370144346     -8.444937903
           6
  t=        69.50000    1    1
C       2.356697868      0.786494074     -9.493702335
C       5.733714716      0.597456954     -8.708381444
H       2.772229780      1.645584545    -10.026840542
H       2.525799658      1.217640229     -8.560210892
H       4.765591711      1.035589551     -8.792580635
H       6.238489306      1.371135553     -8.451944434
           6
  t=        70.00000    1    1
C       2.349795138      0.787543936     -9.492867804
C       5.737949837      0.596910931     -8.701365091
H       2.771119615      1.676648319    -10.048918534
H       2.508761856      1.181921741     -8.547106862
H       4.789196066      1.019979200     -8.874782104
H       6.264795445      1.385400674     -8.454247785
           6
  t=        70.50000    1    1
C       2.342949728      0.788725040     -9.492533850
C       5.741859001      0.595390105     -8.694573168
H       2.768887680      1.705360435    -10.071602080
H       2.491783875      1.146978571     -8.527499925
H       4.809045614      1.005463687     -8.957783057
H       6.299116966      1.410191428     -8.453016470
           6
  t=        71.00000    1    1
C       2.336209953      0.790151187     -9.492787035
C       5.745688653      0.593200656     -8.687857770
H       2.764813007      1.730214474    -10.093126555
H       2.475019645      1.112968616     -8.502117627
H       4.825398682      0.992394928     -9.041836444
H       6.338252897      1.441503788     -8.449765019
           6
  t=        71.50000    1    1
C       2.329612528      0.791915143     -9.493621866
C       5.749599728      0.590683882     -8.681110499
H       2.758425090      1.750165770    -10.112055521
H       2.458509001      1.079838351     -8.472454121
H       4.839577640      0.980671096     -9.126814923
H       6.378958179      1.475369441     -8.445919149
           6
  t=        72.00000    1    1
C       2.323182776      0.794084028     -9.494963594
C       5.753653468      0.588146252     -8.674291504
H       2.749453153      1.764553024    -10.127262512
H       2.442229040      1.047455654     -8.440517438
H       4.853565052      0.969870041     -9.212068399
H       6.418513185      1.508555701     -8.442611894
           6
  t=        72.50000    1    1
C       2.316934399      0.796695893     -9.496698719
C       5.757841355      0.585831261     -8.667425400
H       2.737780554      1.773021963    -10.137898103
H       2.426145227      1.015726782     -8.408499827
H       4.869473255      0.959440074     -9.296500085
H       6.454895070      1.538709948     -8.440655581
           6
  t=        73.00000    1    1
C       2.310869622      0.799759224     -9.498701792
C       5.762124309      0.583917487     -8.660580060
H       2.723412275      1.775469788    -10.143358618
H       2.410244018      0.984657786     -8.378490397
H       4.889132856      0.948852307     -9.378772812
H       6.486720570      1.564230496     -8.440587461
           6
  t=        73.50000    1    1
C       2.304979742      0.803254533     -9.500852455
C       5.766460733      0.582528970     -8.653843871
H       2.706457211      1.772017742    -10.143267164
H       2.394543788      0.954362462     -8.352291832
H       4.913899601      0.937676561     -9.457515909
H       6.513105619      1.584067572     -8.442733108
           6
  t=        74.00000    1    1
C       2.299245705      0.807136000     -9.503042152
C       5.770819847      0.581747944     -8.647309599
H       2.687124411      1.763014873    -10.137472136
H       2.379091513      0.925038553     -8.331342094
H       4.944630534      0.925598852     -9.531466583
H       6.533530502      1.597554815     -8.447256959
           6
  t=        74.50000    1    1
C       2.293637888      0.811331189     -9.505173068
C       5.775184850      0.581626297     -8.641065570
H       2.665733632      1.749076028    -10.126068412
H       2.363952877      0.896932462     -8.316706143
H       4.981755179      0.912406088     -9.599534409
H       6.547733006      1.604288736     -8.454202597
           6
  t=        75.00000    1    1
C       2.288114998      0.815737568     -9.507152246
C       5.779550745      0.582193467     -8.635192467
H       2.642737560      1.731156317    -10.109442443
H       2.349201636      0.870305872     -8.309100910
H       5.025370485      0.897961844     -9.660814193
H       6.555640918      1.604059260     -8.463517961
           6
  t=        75.50000    1    1
C       2.282622124      0.820215817     -9.508883769
C       5.783919965      0.583460820     -8.629763231
H       2.618752204      1.710658055    -10.088336582
H       2.334910592      0.845408626     -8.308924214
H       5.075328044      0.882182560     -9.714572452
H       6.557338683      1.596821333     -8.475069954
           6
  t=        76.00000    1    1
C       2.277088743      0.824581724     -9.510262200
C       5.788297053      0.585422653     -8.624844365
H       2.594585046      1.689548548    -10.063913430
H       2.321145386      0.822457821     -8.316268509
H       5.131300934      0.865017669     -9.760226226
H       6.553065701      1.582702392     -8.488650031
           6
  t=        76.50000    1    1
C       2.271428660      0.828601776     -9.511172152
C       5.792682577      0.588053654     -8.620497585
H       2.571237793      1.670429696    -10.037774522
H       2.307960927      0.801621566     -8.330907226
H       5.192827621      0.846434246     -9.797326292
H       6.543246438      1.562047141     -8.503971537
           6
  t=        77.00000    1    1
C       2.265545207      0.832002624     -9.511501018
C       5.797065630      0.591302906     -8.616781122
H       2.549844300      1.656439928    -10.011854048
H       2.295400306      0.783005146     -8.352248975
H       5.259339650      0.826404335     -9.825549038
H       6.528553302      1.535500823     -8.520662708
           6
  t=        77.50000    1    1
C       2.259345099      0.834506981     -9.511172075
C       5.801414456      0.595083876     -8.613750093
H       2.531503999      1.650842124     -9.988107664
H       2.283495767      0.766636487     -8.379253895
H       5.330174990      0.804895323     -9.844701356
H       6.510005465      1.504137163     -8.538258119
           6
  t=        78.00000    1    1
C       2.252760737      0.835900494     -9.510196287
C       5.805664995      0.599261031     -8.611455271
H       2.517014325      1.656244431     -9.968004470
H       2.272270982      0.752449627     -8.410324003
H       5.404583835      0.781862111     -9.854739549
H       6.489099262      1.469625119     -8.556195252
           6
  t=        78.50000    1    1
C       2.245772013      0.836107836     -9.508722464
C       5.809709252      0.603636099     -8.609939394
H       2.506608873      1.673711765     -9.952033581
H       2.261744091      0.740267665     -8.443198635
H       5.481732550      0.757240848     -9.855802587
H       6.467941926      1.434398218     -8.573825963
           6
  t=        79.00000    1    1
C       2.238413280      0.835231956     -9.507052423
C       5.813389764      0.607942781     -8.609230200
H       2.499872692      1.702309370     -9.939555400
H       2.251930636      0.729792065     -8.474922073
H       5.560712601      0.730944019     -9.848258916
H       6.449307229      1.401722235     -8.590453181
           6
  t=        79.50000    1    1
C       2.230759594      0.833526329     -9.505600584
C       5.816512699      0.611866151     -8.609330518
H       2.495904994      1.739419811     -9.929118228
H       2.242846035      0.720616359     -8.502007796
H       5.640562278      0.702856380     -9.832763967
H       6.436456482      1.375468036     -8.605391550
           6
  t=        80.00000    1    1
C       2.222901969      0.831318697     -9.504807833
C       5.818893918      0.615104185     -8.610208267
H       2.493614453      1.781593385     -9.919003734
H       2.234505896      0.712283885     -8.520918856
H       5.720309474      0.672830759     -9.810320181
H       6.432546362      1.359382920     -8.618026367
           6
  t=        80.50000    1    1
C       2.214926457      0.828931264     -9.505036600
C       5.820434521      0.617465099     -8.611791320
H       2.491972545      1.825388720     -9.907673525
H       2.226922281      0.704397469     -8.528871018
H       5.799042650      0.640682631     -9.782321653
H       6.439657839      1.355937063     -8.627829566
           6
  t=        81.00000    1    1
C       2.206903999      0.826627822     -9.506481401
C       5.821184663      0.618948347     -8.613970093
H       2.490143287      1.867873509     -9.893980930
H       2.220094895      0.696748261     -8.524686812
H       5.876011441      0.606183469     -9.750548066
H       6.457935669      1.365365727     -8.634334339
           6
  t=        81.50000    1    1
C       2.198889265      0.824594314     -9.509131608
C       5.821341874      0.619745063     -8.616605935
H       2.487508341      1.906783067     -9.877197850
H       2.213999342      0.689388498     -8.509212597
H       5.950737770      0.569058242     -9.717060454
H       6.485497792      1.385666621     -8.637138820
           6
  t=        82.00000    1    1
C       2.190923734      0.822945338     -9.512802873
C       5.821180626      0.620159139     -8.619545374
H       2.483638815      1.940479484     -9.856954681
H       2.208578138      0.682594669     -8.485005073
H       6.023097409      0.528992947     -9.683957698
H       6.519192812      1.413532241     -8.635979387
           6
  t=        82.50000    1    1
C       2.183039301      0.821744142     -9.517212480
C       5.820969920      0.620510763     -8.622643982
H       2.478251961      1.967834912     -9.833159457
H       2.203740599      0.676745944     -8.455515385
H       6.093306113      0.485670677     -9.653008309
H       6.555595698      1.445462698     -8.630814307
           6
  t=        83.00000    1    1
C       2.175260910      0.821023241     -9.522054909
C       5.820928612      0.621071952     -8.625797475
H       2.471172477      1.988114682     -9.805927801
H       2.199369918      0.672194973     -8.424259640
H       6.161771353      0.438851913     -9.625257465
H       6.591688204      1.478453497     -8.621846123
           6
  t=        83.50000    1    1
C       2.167607860      0.820798436     -9.527050567
C       5.821224007      0.622040028     -8.628966595
H       2.462305760      2.000891645     -9.775530635
H       2.195334456      0.669186118     -8.394291095
H       6.228848323      0.388489964     -9.600774467
H       6.625119516      1.510196523     -8.609477867
           6
  t=        84.00000    1    1
C       2.160094368      0.821075347     -9.531965510
C       5.821992259      0.623533557     -8.632180028
H       2.451622396      2.005996753     -9.742358474
H       2.191496993      0.667826346     -8.368000820
H       6.294607162      0.334844305     -9.578690733
H       6.654195690      1.539015693     -8.594240519
           6
  t=        84.50000    1    1
C       2.152729513      0.821850072     -9.536612880
C       5.823356563      0.625601050     -8.635514348
H       2.439152786      2.003505997     -9.706897232
H       2.187721338      0.668090026     -8.347124582
H       6.358731569      0.278527102     -9.557507793
H       6.677763848      1.563717353     -8.576723967
           6
  t=        85.00000    1    1
C       2.145516776      0.823106071     -9.540846619
C       5.825433315      0.628236444     -8.639062950
H       2.424989833      1.993759857     -9.669711003
H       2.183875952      0.669836115     -8.332834669
H       6.420574739      0.220457562     -9.535518280
H       6.695082074      1.583451959     -8.557526256
           6
  t=        85.50000    1    1
C       2.138453217      0.824808754     -9.544554138
C       5.828328623      0.631396954     -8.642909155
H       2.409297864      1.977410912     -9.631426653
H       2.179835567      0.672824886     -8.325842437
H       6.479308044      0.161750463     -9.511157523
H       6.705711543      1.597613219     -8.537222354
           6
  t=        86.00000    1    1
C       2.131528398      0.826898735     -9.547651235
C       5.832131596      0.635018917     -8.647111018
H       2.392325360      1.955492942     -9.592714304
H       2.175481973      0.676728996     -8.326478306
H       6.534076252      0.103590135     -9.483200907
H       6.709440470      1.605775431     -8.516347634
           6
  t=        86.50000    1    1
C       2.124723260      0.829284977     -9.550080643
C       5.836908936      0.639028929     -8.651697362
H       2.374418021      1.929498287     -9.554257854
H       2.170704934      0.681137973     -8.334738637
H       6.584107358      0.047129513     -9.450819003
H       6.706238154      1.607661803     -8.495389941
           6
  t=        87.00000    1    1
C       2.118009454      0.831839994     -9.551814691
C       5.842701930      0.643349508     -8.656670918
H       2.356025200      1.901435774     -9.516710816
H       2.165404011      0.685557589     -8.350298569
H       6.628767216     -0.006571435     -9.413544770
H       6.696235756      1.603138294     -8.474784650
           6
  t=        87.50000    1    1
C       2.111349974      0.834401163     -9.552861710
C       5.849524790      0.647899807     -8.662014706
H       2.337688860      1.873818420     -9.480638490
H       2.159492243      0.689406840     -8.372493846
H       6.667572949     -0.056573279     -9.371205061
H       6.679732556      1.592232380     -8.454906796
           6
  t=        88.00000    1    1
C       2.104702186      0.836783765     -9.553274606
C       5.857362730      0.652592050     -8.667699449
H       2.320001328      1.849511075     -9.446460547
H       2.152902088      0.692015530     -8.400276722
H       6.700183611     -0.102062359     -9.323848956
H       6.657228414      1.575180320     -8.436054086
           6
  t=        88.50000    1    1
C       2.098023995      0.838810372     -9.553158253
C       5.866168460      0.657324117     -8.673691461
H       2.303523029      1.831378962     -9.414423364
H       2.145593700      0.692626370     -8.432155911
H       6.726381891     -0.142345195     -9.271687290
H       6.629484338      1.552509249     -8.418412926
           6
  t=        89.00000    1    1
C       2.091282246      0.840354332     -9.552671314
C       5.875856438      0.661968529     -8.679961452
H       2.288672032      1.821760081     -9.384633896
H       2.137564466      0.690405401     -8.466141442
H       6.746055473     -0.176840499     -9.215047743
H       6.597610506      1.525159677     -8.401998243
           6
  t=        89.50000    1    1
C       2.084460274      0.841383276     -9.552018592
C       5.886295459      0.666358811     -8.686495186
H       2.275624915      1.821923210     -9.357155261
H       2.128856884      0.684466749     -8.499740202
H       6.759182614     -0.205074498     -9.154343647
H       6.563170231      1.494642591     -8.386557668
           6
  t=        90.00000    1    1
C       2.077560762      0.841980792     -9.551432299
C       5.897302717      0.670276793     -8.693305982
H       2.264280178      1.831764584     -9.332110034
H       2.119559596      0.673918398     -8.530075455
H       6.765824592     -0.226683961     -9.090054613
H       6.528259817      1.463192945     -8.371442234
           6
  t=        90.50000    1    1
C       2.070602590      0.842332304     -9.551140977
C       5.908646815      0.673450292     -8.700446233
H       2.254305785      1.849900360     -9.309718687
H       2.109795566      0.657938368     -8.554218088
H       6.766127370     -0.241431036     -9.022715121
H       6.495472761      1.433811745     -8.355481059
           6
  t=        91.00000    1    1
C       2.063614247      0.842680311     -9.551325358
C       5.920071302      0.675577730     -8.708009127
H       2.245242255      1.874081240     -9.290253022
H       2.099695788      0.635893085     -8.569758009
H       6.760334873     -0.249234419     -8.952907763
H       6.467607914      1.410004016     -8.336968335
           6
  t=        91.50000    1    1
C       2.056627434      0.843268324     -9.552069683
C       5.931346392      0.676395265     -8.716106293
H       2.236609066      1.901702839     -9.273950367
H       2.089367823      0.607494135     -8.575468802
H       6.748815538     -0.250220467     -8.881255610
H       6.447028386      1.395030974     -8.313937881
           6
  t=        92.00000    1    1
C       2.049672412      0.844293251     -9.553331188
C       5.942333997      0.675775426     -8.724815035
H       2.227978326      1.930216645     -9.260945721
H       2.078876810      0.572953369     -8.571738045
H       6.732100602     -0.244793034     -8.808405471
H       6.434849573      1.390806353     -8.284809049
           6
  t=        92.50000    1    1
C       2.042774660      0.845878929     -9.554950143
C       5.953022646      0.673801450     -8.734119068
H       2.219009439      1.957374174     -9.251246741
H       2.068250794      0.533052873     -8.560472001
H       6.710925048     -0.233709527     -8.734990987
H       6.430482214      1.397088395     -8.249130054
           6
  t=        93.00000    1    1
C       2.035952603      0.848073799     -9.556697575
C       5.963499559      0.670758388     -8.743889322
H       2.209455147      1.981327674     -9.244742416
H       2.057502761      0.489070981     -8.544518068
H       6.686251559     -0.218135555     -8.661566602
H       6.431940047      1.411641276     -8.207873241
           6
  t=        93.50000    1    1
C       2.029216685      0.850865863     -9.558333672
C       5.973882876      0.667048932     -8.753922451
H       2.199152912      2.000643650     -9.241227252
H       2.046651760      0.442590050     -8.526944851
H       6.659246937     -0.199637814     -8.588516741
H       6.436668723      1.431230885     -8.163067657
           6
  t=        94.00000    1    1
C       2.022569826      0.854203239     -9.559651123
C       5.984267296      0.663094678     -8.764004470
H       2.188011584      2.014278186     -9.240426118
H       2.035732626      0.395276292     -8.510501341
H       6.631177037     -0.180069051     -8.515970562
H       6.442296335      1.452685595     -8.117126588
           6
  t=        94.50000    1    1
C       2.016008707      0.858011294     -9.560495107
C       5.994710534      0.659264315     -8.773956909
H       2.175998657      2.021543994     -9.242012504
H       2.024795114      0.348708848     -8.497360913
H       6.603204610     -0.161314247     -8.443783768
H       6.446995233      1.473497224     -8.072315906
           6
  t=        95.00000    1    1
C       2.009525166      0.862202679     -9.560765626
C       6.005251299      0.655831785     -8.783647541
H       2.163130532      2.022086956     -9.245617459
H       2.013898263      0.304284213     -8.489085093
H       6.576132175     -0.144931433     -8.371654110
H       6.449523747      1.491959696     -8.030510354
           6
  t=        95.50000    1    1
C       2.003107301      0.866680560     -9.560411022
C       6.015934597      0.652957374     -8.792971721
H       2.149466432      2.015881651     -9.250829801
H       2.003104156      0.263182631     -8.486700897
H       6.550202572     -0.131816229     -8.299375487
H       6.449123527      1.507058325     -7.993161282
           6
  t=        96.00000    1    1
C       1.996740111      0.871336773     -9.559419350
C       6.026823995      0.650691373     -8.801823231
H       2.135105937      2.003250774     -9.257188758
H       1.992473195      0.226370959     -8.490811247
H       6.525080912     -0.122062033     -8.227121689
H       6.445391253      1.518286009     -7.961359673
           6
  t=        96.50000    1    1
C       1.990405723      0.876046549     -9.557811134
C       6.037995115      0.648999351     -8.810074779
H       2.120189510      1.984911684     -9.264170279
H       1.982060889      0.194619139     -8.501695198
H       6.500039475     -0.115090119     -8.155594717
H       6.438171045      1.525472299     -7.935919808
           6
  t=        97.00000    1    1
C       1.984083419      0.880661622     -9.555634483
C       6.049518531      0.647798855     -8.817577671
H       2.104900253      1.962042691     -9.271170276
H       1.971915684      0.168515971     -8.519382939
H       6.474239031     -0.109957757     -8.085957291
H       6.427476975      1.528654491     -7.917450512
           6
  t=        97.50000    1    1
C       1.977749732      0.885004045     -9.552962713
C       6.061444387      0.646992925     -8.824175887
H       2.089464158      1.936352328     -9.277489227
H       1.962077370      0.148473437     -8.543699606
H       6.446964225     -0.105672194     -8.019615554
H       6.413440944      1.527992598     -7.906404752
           6
  t=        98.00000    1    1
C       1.971379091      0.888864963     -9.549893654
C       6.073795029      0.646491315     -8.829723778
H       2.074143841      1.910106878     -9.282328214
H       1.952575610      0.134713643     -8.574277620
H       6.417743909     -0.101396846     -7.957981066
H       6.396280254      1.523722964     -7.903106859
           6
  t=        98.50000    1    1
C       1.964945599      0.892015163     -9.546549468
C       6.086565314      0.646218620     -8.834099674
H       2.059219245      1.886043657     -9.284812490
H       1.943427852      0.127229810     -8.610535271
H       6.386366652     -0.096532287     -7.902301825
H       6.376278508      1.516142669     -7.907759426
           6
  t=        99.00000    1    1
C       1.958426349      0.894235701     -9.543075233
C       6.099726778      0.646113060     -8.837213729
H       2.044950882      1.867075064     -9.284063629
H       1.934636729      0.125717408     -8.651621528
H       6.352839887     -0.090711797     -7.853582516
H       6.353776827      1.505619680     -7.920429604
           6
  t=        99.50000    1    1
C       1.951806168      0.895372250     -9.539635595
C       6.113232800      0.646119768     -8.839012274
H       2.031527587      1.855748906     -9.279329614
H       1.926185660      0.129466690     -8.696325805
H       6.317331794     -0.083758182     -7.812570103
H       6.329170508      1.492629544     -7.941011614
           6
  t=       100.00000    1    1
C       1.945082128      0.895402870     -9.536410967
C       6.127023102      0.646180939     -8.839481345
H       2.019018834      1.853585732     -9.270146406
H       1.918032914      0.137218421     -8.742961727
H       6.280119140     -0.075630489     -7.779776258
H       6.302907654      1.477819544     -7.969162354
