
                                ,._gz,                                        ,._\
                               .g@@@p                                       ._Q@$+
                            ,.Q@@@@@f                                    ._Q@@@+  
                           .g@@@@@@@I                                 ._g@@@@F!   
                       ,,_zQ@@@@@@@@Q_,                            ,_zQ@@@@$+     
                .__ggQ@@@@@@@@@@@@@@@@@L_.              ,         _Q@@@@@@v       
       , __zg@@@@@@@@@@@@@@@@@@@@@@@@@@@@@@@@@QQz_z_zzQ@@L,    .zQ@@@@@@F`        
   .__gQ@@@@@@@@@@@@@@@@@@@@@@@@@@@@@@@@@@@@@@@@@@@@@@@@@@Q\__zQ@@@@@@$+          
  G@@@@@@@@@@@@@@@@@@@@@@@@@@@@@@@@@@@@@@@@@@@@@@@@@@@@@@@@@@@@@@@@@@D            
    =4A@@@@@@@@@@@@@@@@@@@@@@@@@@@@@@@@@@@@@@@@@@@@@@@@@@@@@@A@$@@@@@L,           
        =vVAA@$@@@@@@@@@@@@@@@@@@@@@@@@@@@@@@@@@@@@p=VX@@@B*   <V@$@@@Q_,         
                   @@@@@@@@@@P^^^^^^--`     -q@@$=`     =4V`       =X@@@@_        
                   1@@@@@@@$!                  ^`                       -`        
                   -q@@@@@@]                                                      
                    ($@@@@$`                                                      
                     4@@@@p                                                       
                      d@@@p                                                       
                       d@@b                                                       
                        =4!                                                       

 
 EXECUTION INFORMATION:
 Start date: Mon Aug 22 17:47:31 2022
 Run host: studio3
 Run directory: 
 /userTMP/leamibele/ethylene/initial_conditions/Singlet_1/test_diffe
 rent/TRAJ_00010
 
 BUILD INFORMATION:
 Build date: Wed Apr 28 15:58:24 CEST 2021
 Build host: manganese.itc.univie.ac.at
 Build directory: /user/mai/SHARC/REPOSITORY/DEVELOPMENT/source
 Compiler: /usr/license/intel/composer_xe_2015.6.233/bin/intel64/ifort
 PYSHARC activated: false
 
<<<<<<<<<<<<<<<<<<<<<<<<<<<<<<<<============================>>>>>>>>>>>>>>>>>>>>>>>>>>>>>>>>
<<<<<<<<<<<<<<<<<<<<<<<<<<<<<<<<   Program SHARC started    >>>>>>>>>>>>>>>>>>>>>>>>>>>>>>>>
<<<<<<<<<<<<<<<<<<<<<<<<<<<<<<<<============================>>>>>>>>>>>>>>>>>>>>>>>>>>>>>>>>
 
 Version: 2.1 (Septemper 1, 2019)
 
 Print level:            2
 
 =============================================================
                          Input File
 =============================================================
 printlevel 2
 geomfile "geom"
 veloc external
 velocfile "veloc"
 nstates 2 0 0
 actstates 2 0 0
 state 2 mch
 coeff auto
 rngseed 32088
 ezero -78.0488373400
 tmax 100.000000
 stepsize 0.500000
 nsubsteps 25
 surf diagonal
 coupling overlap
 nogradcorrect 
 ekincorrect parallel_vel
 reflect_frustrated none
 decoherence_scheme edc
 decoherence_param 0.1
 hopping_procedure sharc
 grad_select 
 eselect 0.001000
 select_directly 
 nospinorbit 
 write_overlap 
 output_format ascii
 output_dat_steps 1
 
 =============================================================
                             Restart
 =============================================================
 NO RESTART requested. Setting up the initial data from input files...
 
<<<<<<<<<<<<<<<<<<<<<<<<<<<<<<<<============================>>>>>>>>>>>>>>>>>>>>>>>>>>>>>>>>
<<<<<<<<<<<<<<<<<<<<<<<<<<<<<<<<   Initializing Dynamics    >>>>>>>>>>>>>>>>>>>>>>>>>>>>>>>>
<<<<<<<<<<<<<<<<<<<<<<<<<<<<<<<<============================>>>>>>>>>>>>>>>>>>>>>>>>>>>>>>>>
                                                                    Mon Aug 22 17:47:31 2022
 
Saving output data in ASCII format (output.dat)
Use data_extractor.x
 
 =============================================================
                  Number of States and Atoms
 =============================================================
 Keyword NSTATES found.
   2 Singlet
   0 Doublet
   0 Triplet
Total number of states:     2
 
 Dynamics is constrained to a subset of active states.
 States (T=active, F=frozen): T T
 
Total number of atoms from "geom":    6
 
 =============================================================
                           Allocation
 =============================================================
Allocation with nstates=    2 and natom=    6 successful.
 
 =============================================================
                        Simulation Time
 =============================================================
Found nsteps=    200 and stepsize=  0.500 fs.
This makes a total simulation time of    100.000 fs.
The electronic wavefunction will be propagated using a   0.0200 fs step.
 
 =============================================================
                        Dynamics options
 =============================================================
Doing SHARC dynamics (on diagonal surfaces).
Doing LOCAL DIABATISATION propagation.
Correction to the kinetic energy after surface hop parallel to velocity vector.
 
Gradients are included for Delta E <     0.001 eV.
Gradients are calculated in the first QM calculation.
Calculating wavefunction overlaps.
Calculating wavefunction phases.
Not calculating spin-orbit couplings.
 
Writing overlap matrix.
Not writing gradients.
Not writing nonadiabatic couplings.
Not writing property vectors.
Not writing property matrices.
 
First,   writing to output.dat every      1 steps if step is >=      0
Then,    writing to output.dat every      1 steps if step is >=      0
Finally, writing to output.dat every      1 steps if step is >=      0
 
Current working directory is
        /userTMP/leamibele/ethylene/initial_conditions/Singlet_1/test_different/TRAJ_00010
 
Shift to the diagonal energies is   -78.048837340
Scaling factor to the Hamiltonian and gradients is  1.000
 
Random number seed is      32088
 
Damping factor for kinetic energy is  1.000
 
Decoherence is 1 (EDC by Granucci, Persico, Zoccante)
Decoherence constant is  0.100 Hartree
 
Surface Hopping procedure is SHARC (Mai, Marquetand, Gonzalez)
 
 =============================================================
                             Geometry
 =============================================================
Reading from geometry file: "geom"
 Geometry (Bohr):
El         x         y         z      #         mass
C   6.392942  1.455458 *********      6.    12.000000
C   8.925737  1.515927 *********      6.    12.000000
H   5.379411 -0.366296 *********      1.     1.007825
H   5.363833  3.038794 *********      1.     1.007825
H   9.758301 -0.349596 *********      1.     1.007825
H   9.947661  3.396086 *********      1.     1.007825
 
Reading velocities from file "veloc"
 Velocities (Bohr/atu):
El     dx/dt     dy/dt     dz/dt
C  -0.000200 -0.000106 -0.000027
C   0.000028 -0.000330  0.000450
H   0.002295  0.002337  0.001473
H  -0.000198  0.000289 -0.001914
H  -0.000211  0.002165 -0.003269
H   0.000160  0.000398 -0.001318
 
 Atom mask (only active):
           1 C  T
           2 C  T
           3 H  T
           4 H  T
           5 H  T
           6 H  T
 Atom mask will be used for kinetic energy adjustment.
 Atom mask will be used for kinetic energy in EDC decoherence.
 =============================================================
                Initial State and Coefficients
 =============================================================
 
Setting state and coefficients for SHARC dynamics.
 
Initial state is    2 in the MCH basis. 
Initial coefficients will be set automatically.
 
 Coefficients (MCH):
  #      Real(c)      Imag(c)
  1  0.000000000  0.000000000
  2  1.000000000  0.000000000
 
 Coefficients will be transformed after the initial energy calculation.
 
 =============================================================
                        Laser Field
 =============================================================
No laser field will be applied.
 
 =============================================================
                      Finalizing Input
 =============================================================
Trajectory input checksum is  1632820696
 
<<<<<<<<<<<<<<<<<<<<<<<<<<<<<<<<============================>>>>>>>>>>>>>>>>>>>>>>>>>>>>>>>>
<<<<<<<<<<<<<<<<<<<<<<<<<<<<<<<<  Entering timestep      0  >>>>>>>>>>>>>>>>>>>>>>>>>>>>>>>>
<<<<<<<<<<<<<<<<<<<<<<<<<<<<<<<<============================>>>>>>>>>>>>>>>>>>>>>>>>>>>>>>>>
                                                        Start time: Mon Aug 22 17:47:31 2022
 
 =============================================================
              Initializing states and coefficients
 =============================================================
Initial state is    2 in the MCH basis. 
Initial state is    2 in the DIAG basis. 
 Coefficients (MCH):
  #      Real(c)      Imag(c)
  1  0.000000000  0.000000000
  2  1.000000000  0.000000000
 Coefficients (diag):
  #      Real(c)      Imag(c)
  1  0.000000000  0.000000000
  2  1.000000000  0.000000000
 
<<<<<<<<<<<<<<<<<<<<<<<<<<<<<<<<============================>>>>>>>>>>>>>>>>>>>>>>>>>>>>>>>>
<<<<<<<<<<<<<<<<<<<<<<<<<<<<<<<<  Entering timestep      1  >>>>>>>>>>>>>>>>>>>>>>>>>>>>>>>>
<<<<<<<<<<<<<<<<<<<<<<<<<<<<<<<<============================>>>>>>>>>>>>>>>>>>>>>>>>>>>>>>>>
                                                        Start time: Mon Aug 22 17:47:39 2022
 
<<<<<<<<<<<<<<<<<<<<<<<<<<<<<<<<============================>>>>>>>>>>>>>>>>>>>>>>>>>>>>>>>>
<<<<<<<<<<<<<<<<<<<<<<<<<<<<<<<<  Entering timestep      2  >>>>>>>>>>>>>>>>>>>>>>>>>>>>>>>>
<<<<<<<<<<<<<<<<<<<<<<<<<<<<<<<<============================>>>>>>>>>>>>>>>>>>>>>>>>>>>>>>>>
                                                        Start time: Mon Aug 22 17:47:45 2022
 
<<<<<<<<<<<<<<<<<<<<<<<<<<<<<<<<============================>>>>>>>>>>>>>>>>>>>>>>>>>>>>>>>>
<<<<<<<<<<<<<<<<<<<<<<<<<<<<<<<<  Entering timestep      3  >>>>>>>>>>>>>>>>>>>>>>>>>>>>>>>>
<<<<<<<<<<<<<<<<<<<<<<<<<<<<<<<<============================>>>>>>>>>>>>>>>>>>>>>>>>>>>>>>>>
                                                        Start time: Mon Aug 22 17:47:51 2022
 
<<<<<<<<<<<<<<<<<<<<<<<<<<<<<<<<============================>>>>>>>>>>>>>>>>>>>>>>>>>>>>>>>>
<<<<<<<<<<<<<<<<<<<<<<<<<<<<<<<<  Entering timestep      4  >>>>>>>>>>>>>>>>>>>>>>>>>>>>>>>>
<<<<<<<<<<<<<<<<<<<<<<<<<<<<<<<<============================>>>>>>>>>>>>>>>>>>>>>>>>>>>>>>>>
                                                        Start time: Mon Aug 22 17:47:58 2022
 
<<<<<<<<<<<<<<<<<<<<<<<<<<<<<<<<============================>>>>>>>>>>>>>>>>>>>>>>>>>>>>>>>>
<<<<<<<<<<<<<<<<<<<<<<<<<<<<<<<<  Entering timestep      5  >>>>>>>>>>>>>>>>>>>>>>>>>>>>>>>>
<<<<<<<<<<<<<<<<<<<<<<<<<<<<<<<<============================>>>>>>>>>>>>>>>>>>>>>>>>>>>>>>>>
                                                        Start time: Mon Aug 22 17:48:04 2022
 
<<<<<<<<<<<<<<<<<<<<<<<<<<<<<<<<============================>>>>>>>>>>>>>>>>>>>>>>>>>>>>>>>>
<<<<<<<<<<<<<<<<<<<<<<<<<<<<<<<<  Entering timestep      6  >>>>>>>>>>>>>>>>>>>>>>>>>>>>>>>>
<<<<<<<<<<<<<<<<<<<<<<<<<<<<<<<<============================>>>>>>>>>>>>>>>>>>>>>>>>>>>>>>>>
                                                        Start time: Mon Aug 22 17:48:10 2022
 
<<<<<<<<<<<<<<<<<<<<<<<<<<<<<<<<============================>>>>>>>>>>>>>>>>>>>>>>>>>>>>>>>>
<<<<<<<<<<<<<<<<<<<<<<<<<<<<<<<<  Entering timestep      7  >>>>>>>>>>>>>>>>>>>>>>>>>>>>>>>>
<<<<<<<<<<<<<<<<<<<<<<<<<<<<<<<<============================>>>>>>>>>>>>>>>>>>>>>>>>>>>>>>>>
                                                        Start time: Mon Aug 22 17:48:16 2022
 
<<<<<<<<<<<<<<<<<<<<<<<<<<<<<<<<============================>>>>>>>>>>>>>>>>>>>>>>>>>>>>>>>>
<<<<<<<<<<<<<<<<<<<<<<<<<<<<<<<<  Entering timestep      8  >>>>>>>>>>>>>>>>>>>>>>>>>>>>>>>>
<<<<<<<<<<<<<<<<<<<<<<<<<<<<<<<<============================>>>>>>>>>>>>>>>>>>>>>>>>>>>>>>>>
                                                        Start time: Mon Aug 22 17:48:22 2022
 
<<<<<<<<<<<<<<<<<<<<<<<<<<<<<<<<============================>>>>>>>>>>>>>>>>>>>>>>>>>>>>>>>>
<<<<<<<<<<<<<<<<<<<<<<<<<<<<<<<<  Entering timestep      9  >>>>>>>>>>>>>>>>>>>>>>>>>>>>>>>>
<<<<<<<<<<<<<<<<<<<<<<<<<<<<<<<<============================>>>>>>>>>>>>>>>>>>>>>>>>>>>>>>>>
                                                        Start time: Mon Aug 22 17:48:28 2022
 
<<<<<<<<<<<<<<<<<<<<<<<<<<<<<<<<============================>>>>>>>>>>>>>>>>>>>>>>>>>>>>>>>>
<<<<<<<<<<<<<<<<<<<<<<<<<<<<<<<<  Entering timestep     10  >>>>>>>>>>>>>>>>>>>>>>>>>>>>>>>>
<<<<<<<<<<<<<<<<<<<<<<<<<<<<<<<<============================>>>>>>>>>>>>>>>>>>>>>>>>>>>>>>>>
                                                        Start time: Mon Aug 22 17:48:34 2022
 
<<<<<<<<<<<<<<<<<<<<<<<<<<<<<<<<============================>>>>>>>>>>>>>>>>>>>>>>>>>>>>>>>>
<<<<<<<<<<<<<<<<<<<<<<<<<<<<<<<<  Entering timestep     11  >>>>>>>>>>>>>>>>>>>>>>>>>>>>>>>>
<<<<<<<<<<<<<<<<<<<<<<<<<<<<<<<<============================>>>>>>>>>>>>>>>>>>>>>>>>>>>>>>>>
                                                        Start time: Mon Aug 22 17:48:40 2022
 
<<<<<<<<<<<<<<<<<<<<<<<<<<<<<<<<============================>>>>>>>>>>>>>>>>>>>>>>>>>>>>>>>>
<<<<<<<<<<<<<<<<<<<<<<<<<<<<<<<<  Entering timestep     12  >>>>>>>>>>>>>>>>>>>>>>>>>>>>>>>>
<<<<<<<<<<<<<<<<<<<<<<<<<<<<<<<<============================>>>>>>>>>>>>>>>>>>>>>>>>>>>>>>>>
                                                        Start time: Mon Aug 22 17:48:46 2022
 
<<<<<<<<<<<<<<<<<<<<<<<<<<<<<<<<============================>>>>>>>>>>>>>>>>>>>>>>>>>>>>>>>>
<<<<<<<<<<<<<<<<<<<<<<<<<<<<<<<<  Entering timestep     13  >>>>>>>>>>>>>>>>>>>>>>>>>>>>>>>>
<<<<<<<<<<<<<<<<<<<<<<<<<<<<<<<<============================>>>>>>>>>>>>>>>>>>>>>>>>>>>>>>>>
                                                        Start time: Mon Aug 22 17:48:52 2022
 
<<<<<<<<<<<<<<<<<<<<<<<<<<<<<<<<============================>>>>>>>>>>>>>>>>>>>>>>>>>>>>>>>>
<<<<<<<<<<<<<<<<<<<<<<<<<<<<<<<<  Entering timestep     14  >>>>>>>>>>>>>>>>>>>>>>>>>>>>>>>>
<<<<<<<<<<<<<<<<<<<<<<<<<<<<<<<<============================>>>>>>>>>>>>>>>>>>>>>>>>>>>>>>>>
                                                        Start time: Mon Aug 22 17:48:58 2022
 
<<<<<<<<<<<<<<<<<<<<<<<<<<<<<<<<============================>>>>>>>>>>>>>>>>>>>>>>>>>>>>>>>>
<<<<<<<<<<<<<<<<<<<<<<<<<<<<<<<<  Entering timestep     15  >>>>>>>>>>>>>>>>>>>>>>>>>>>>>>>>
<<<<<<<<<<<<<<<<<<<<<<<<<<<<<<<<============================>>>>>>>>>>>>>>>>>>>>>>>>>>>>>>>>
                                                        Start time: Mon Aug 22 17:49:04 2022
 
<<<<<<<<<<<<<<<<<<<<<<<<<<<<<<<<============================>>>>>>>>>>>>>>>>>>>>>>>>>>>>>>>>
<<<<<<<<<<<<<<<<<<<<<<<<<<<<<<<<  Entering timestep     16  >>>>>>>>>>>>>>>>>>>>>>>>>>>>>>>>
<<<<<<<<<<<<<<<<<<<<<<<<<<<<<<<<============================>>>>>>>>>>>>>>>>>>>>>>>>>>>>>>>>
                                                        Start time: Mon Aug 22 17:49:10 2022
 
<<<<<<<<<<<<<<<<<<<<<<<<<<<<<<<<============================>>>>>>>>>>>>>>>>>>>>>>>>>>>>>>>>
<<<<<<<<<<<<<<<<<<<<<<<<<<<<<<<<  Entering timestep     17  >>>>>>>>>>>>>>>>>>>>>>>>>>>>>>>>
<<<<<<<<<<<<<<<<<<<<<<<<<<<<<<<<============================>>>>>>>>>>>>>>>>>>>>>>>>>>>>>>>>
                                                        Start time: Mon Aug 22 17:49:16 2022
 
<<<<<<<<<<<<<<<<<<<<<<<<<<<<<<<<============================>>>>>>>>>>>>>>>>>>>>>>>>>>>>>>>>
<<<<<<<<<<<<<<<<<<<<<<<<<<<<<<<<  Entering timestep     18  >>>>>>>>>>>>>>>>>>>>>>>>>>>>>>>>
<<<<<<<<<<<<<<<<<<<<<<<<<<<<<<<<============================>>>>>>>>>>>>>>>>>>>>>>>>>>>>>>>>
                                                        Start time: Mon Aug 22 17:49:22 2022
 
<<<<<<<<<<<<<<<<<<<<<<<<<<<<<<<<============================>>>>>>>>>>>>>>>>>>>>>>>>>>>>>>>>
<<<<<<<<<<<<<<<<<<<<<<<<<<<<<<<<  Entering timestep     19  >>>>>>>>>>>>>>>>>>>>>>>>>>>>>>>>
<<<<<<<<<<<<<<<<<<<<<<<<<<<<<<<<============================>>>>>>>>>>>>>>>>>>>>>>>>>>>>>>>>
                                                        Start time: Mon Aug 22 17:49:28 2022
 
<<<<<<<<<<<<<<<<<<<<<<<<<<<<<<<<============================>>>>>>>>>>>>>>>>>>>>>>>>>>>>>>>>
<<<<<<<<<<<<<<<<<<<<<<<<<<<<<<<<  Entering timestep     20  >>>>>>>>>>>>>>>>>>>>>>>>>>>>>>>>
<<<<<<<<<<<<<<<<<<<<<<<<<<<<<<<<============================>>>>>>>>>>>>>>>>>>>>>>>>>>>>>>>>
                                                        Start time: Mon Aug 22 17:49:33 2022
 
<<<<<<<<<<<<<<<<<<<<<<<<<<<<<<<<============================>>>>>>>>>>>>>>>>>>>>>>>>>>>>>>>>
<<<<<<<<<<<<<<<<<<<<<<<<<<<<<<<<  Entering timestep     21  >>>>>>>>>>>>>>>>>>>>>>>>>>>>>>>>
<<<<<<<<<<<<<<<<<<<<<<<<<<<<<<<<============================>>>>>>>>>>>>>>>>>>>>>>>>>>>>>>>>
                                                        Start time: Mon Aug 22 17:49:39 2022
 
<<<<<<<<<<<<<<<<<<<<<<<<<<<<<<<<============================>>>>>>>>>>>>>>>>>>>>>>>>>>>>>>>>
<<<<<<<<<<<<<<<<<<<<<<<<<<<<<<<<  Entering timestep     22  >>>>>>>>>>>>>>>>>>>>>>>>>>>>>>>>
<<<<<<<<<<<<<<<<<<<<<<<<<<<<<<<<============================>>>>>>>>>>>>>>>>>>>>>>>>>>>>>>>>
                                                        Start time: Mon Aug 22 17:49:45 2022
 
<<<<<<<<<<<<<<<<<<<<<<<<<<<<<<<<============================>>>>>>>>>>>>>>>>>>>>>>>>>>>>>>>>
<<<<<<<<<<<<<<<<<<<<<<<<<<<<<<<<  Entering timestep     23  >>>>>>>>>>>>>>>>>>>>>>>>>>>>>>>>
<<<<<<<<<<<<<<<<<<<<<<<<<<<<<<<<============================>>>>>>>>>>>>>>>>>>>>>>>>>>>>>>>>
                                                        Start time: Mon Aug 22 17:49:51 2022
 
<<<<<<<<<<<<<<<<<<<<<<<<<<<<<<<<============================>>>>>>>>>>>>>>>>>>>>>>>>>>>>>>>>
<<<<<<<<<<<<<<<<<<<<<<<<<<<<<<<<  Entering timestep     24  >>>>>>>>>>>>>>>>>>>>>>>>>>>>>>>>
<<<<<<<<<<<<<<<<<<<<<<<<<<<<<<<<============================>>>>>>>>>>>>>>>>>>>>>>>>>>>>>>>>
                                                        Start time: Mon Aug 22 17:49:57 2022
 
<<<<<<<<<<<<<<<<<<<<<<<<<<<<<<<<============================>>>>>>>>>>>>>>>>>>>>>>>>>>>>>>>>
<<<<<<<<<<<<<<<<<<<<<<<<<<<<<<<<  Entering timestep     25  >>>>>>>>>>>>>>>>>>>>>>>>>>>>>>>>
<<<<<<<<<<<<<<<<<<<<<<<<<<<<<<<<============================>>>>>>>>>>>>>>>>>>>>>>>>>>>>>>>>
                                                        Start time: Mon Aug 22 17:50:03 2022
 
<<<<<<<<<<<<<<<<<<<<<<<<<<<<<<<<============================>>>>>>>>>>>>>>>>>>>>>>>>>>>>>>>>
<<<<<<<<<<<<<<<<<<<<<<<<<<<<<<<<  Entering timestep     26  >>>>>>>>>>>>>>>>>>>>>>>>>>>>>>>>
<<<<<<<<<<<<<<<<<<<<<<<<<<<<<<<<============================>>>>>>>>>>>>>>>>>>>>>>>>>>>>>>>>
                                                        Start time: Mon Aug 22 17:50:09 2022
 
<<<<<<<<<<<<<<<<<<<<<<<<<<<<<<<<============================>>>>>>>>>>>>>>>>>>>>>>>>>>>>>>>>
<<<<<<<<<<<<<<<<<<<<<<<<<<<<<<<<  Entering timestep     27  >>>>>>>>>>>>>>>>>>>>>>>>>>>>>>>>
<<<<<<<<<<<<<<<<<<<<<<<<<<<<<<<<============================>>>>>>>>>>>>>>>>>>>>>>>>>>>>>>>>
                                                        Start time: Mon Aug 22 17:50:15 2022
 
<<<<<<<<<<<<<<<<<<<<<<<<<<<<<<<<============================>>>>>>>>>>>>>>>>>>>>>>>>>>>>>>>>
<<<<<<<<<<<<<<<<<<<<<<<<<<<<<<<<  Entering timestep     28  >>>>>>>>>>>>>>>>>>>>>>>>>>>>>>>>
<<<<<<<<<<<<<<<<<<<<<<<<<<<<<<<<============================>>>>>>>>>>>>>>>>>>>>>>>>>>>>>>>>
                                                        Start time: Mon Aug 22 17:50:21 2022
 
<<<<<<<<<<<<<<<<<<<<<<<<<<<<<<<<============================>>>>>>>>>>>>>>>>>>>>>>>>>>>>>>>>
<<<<<<<<<<<<<<<<<<<<<<<<<<<<<<<<  Entering timestep     29  >>>>>>>>>>>>>>>>>>>>>>>>>>>>>>>>
<<<<<<<<<<<<<<<<<<<<<<<<<<<<<<<<============================>>>>>>>>>>>>>>>>>>>>>>>>>>>>>>>>
                                                        Start time: Mon Aug 22 17:50:26 2022
 
<<<<<<<<<<<<<<<<<<<<<<<<<<<<<<<<============================>>>>>>>>>>>>>>>>>>>>>>>>>>>>>>>>
<<<<<<<<<<<<<<<<<<<<<<<<<<<<<<<<  Entering timestep     30  >>>>>>>>>>>>>>>>>>>>>>>>>>>>>>>>
<<<<<<<<<<<<<<<<<<<<<<<<<<<<<<<<============================>>>>>>>>>>>>>>>>>>>>>>>>>>>>>>>>
                                                        Start time: Mon Aug 22 17:50:32 2022
 
<<<<<<<<<<<<<<<<<<<<<<<<<<<<<<<<============================>>>>>>>>>>>>>>>>>>>>>>>>>>>>>>>>
<<<<<<<<<<<<<<<<<<<<<<<<<<<<<<<<  Entering timestep     31  >>>>>>>>>>>>>>>>>>>>>>>>>>>>>>>>
<<<<<<<<<<<<<<<<<<<<<<<<<<<<<<<<============================>>>>>>>>>>>>>>>>>>>>>>>>>>>>>>>>
                                                        Start time: Mon Aug 22 17:50:42 2022
 
<<<<<<<<<<<<<<<<<<<<<<<<<<<<<<<<============================>>>>>>>>>>>>>>>>>>>>>>>>>>>>>>>>
<<<<<<<<<<<<<<<<<<<<<<<<<<<<<<<<  Entering timestep     32  >>>>>>>>>>>>>>>>>>>>>>>>>>>>>>>>
<<<<<<<<<<<<<<<<<<<<<<<<<<<<<<<<============================>>>>>>>>>>>>>>>>>>>>>>>>>>>>>>>>
                                                        Start time: Mon Aug 22 17:50:48 2022
 
<<<<<<<<<<<<<<<<<<<<<<<<<<<<<<<<============================>>>>>>>>>>>>>>>>>>>>>>>>>>>>>>>>
<<<<<<<<<<<<<<<<<<<<<<<<<<<<<<<<  Entering timestep     33  >>>>>>>>>>>>>>>>>>>>>>>>>>>>>>>>
<<<<<<<<<<<<<<<<<<<<<<<<<<<<<<<<============================>>>>>>>>>>>>>>>>>>>>>>>>>>>>>>>>
                                                        Start time: Mon Aug 22 17:50:54 2022
 
<<<<<<<<<<<<<<<<<<<<<<<<<<<<<<<<============================>>>>>>>>>>>>>>>>>>>>>>>>>>>>>>>>
<<<<<<<<<<<<<<<<<<<<<<<<<<<<<<<<  Entering timestep     34  >>>>>>>>>>>>>>>>>>>>>>>>>>>>>>>>
<<<<<<<<<<<<<<<<<<<<<<<<<<<<<<<<============================>>>>>>>>>>>>>>>>>>>>>>>>>>>>>>>>
                                                        Start time: Mon Aug 22 17:51:00 2022
 
<<<<<<<<<<<<<<<<<<<<<<<<<<<<<<<<============================>>>>>>>>>>>>>>>>>>>>>>>>>>>>>>>>
<<<<<<<<<<<<<<<<<<<<<<<<<<<<<<<<  Entering timestep     35  >>>>>>>>>>>>>>>>>>>>>>>>>>>>>>>>
<<<<<<<<<<<<<<<<<<<<<<<<<<<<<<<<============================>>>>>>>>>>>>>>>>>>>>>>>>>>>>>>>>
                                                        Start time: Mon Aug 22 17:51:06 2022
 
<<<<<<<<<<<<<<<<<<<<<<<<<<<<<<<<============================>>>>>>>>>>>>>>>>>>>>>>>>>>>>>>>>
<<<<<<<<<<<<<<<<<<<<<<<<<<<<<<<<  Entering timestep     36  >>>>>>>>>>>>>>>>>>>>>>>>>>>>>>>>
<<<<<<<<<<<<<<<<<<<<<<<<<<<<<<<<============================>>>>>>>>>>>>>>>>>>>>>>>>>>>>>>>>
                                                        Start time: Mon Aug 22 17:51:11 2022
 
<<<<<<<<<<<<<<<<<<<<<<<<<<<<<<<<============================>>>>>>>>>>>>>>>>>>>>>>>>>>>>>>>>
<<<<<<<<<<<<<<<<<<<<<<<<<<<<<<<<  Entering timestep     37  >>>>>>>>>>>>>>>>>>>>>>>>>>>>>>>>
<<<<<<<<<<<<<<<<<<<<<<<<<<<<<<<<============================>>>>>>>>>>>>>>>>>>>>>>>>>>>>>>>>
                                                        Start time: Mon Aug 22 17:51:17 2022
 
<<<<<<<<<<<<<<<<<<<<<<<<<<<<<<<<============================>>>>>>>>>>>>>>>>>>>>>>>>>>>>>>>>
<<<<<<<<<<<<<<<<<<<<<<<<<<<<<<<<  Entering timestep     38  >>>>>>>>>>>>>>>>>>>>>>>>>>>>>>>>
<<<<<<<<<<<<<<<<<<<<<<<<<<<<<<<<============================>>>>>>>>>>>>>>>>>>>>>>>>>>>>>>>>
                                                        Start time: Mon Aug 22 17:51:23 2022
 
<<<<<<<<<<<<<<<<<<<<<<<<<<<<<<<<============================>>>>>>>>>>>>>>>>>>>>>>>>>>>>>>>>
<<<<<<<<<<<<<<<<<<<<<<<<<<<<<<<<  Entering timestep     39  >>>>>>>>>>>>>>>>>>>>>>>>>>>>>>>>
<<<<<<<<<<<<<<<<<<<<<<<<<<<<<<<<============================>>>>>>>>>>>>>>>>>>>>>>>>>>>>>>>>
                                                        Start time: Mon Aug 22 17:51:29 2022
 
<<<<<<<<<<<<<<<<<<<<<<<<<<<<<<<<============================>>>>>>>>>>>>>>>>>>>>>>>>>>>>>>>>
<<<<<<<<<<<<<<<<<<<<<<<<<<<<<<<<  Entering timestep     40  >>>>>>>>>>>>>>>>>>>>>>>>>>>>>>>>
<<<<<<<<<<<<<<<<<<<<<<<<<<<<<<<<============================>>>>>>>>>>>>>>>>>>>>>>>>>>>>>>>>
                                                        Start time: Mon Aug 22 17:51:35 2022
 
<<<<<<<<<<<<<<<<<<<<<<<<<<<<<<<<============================>>>>>>>>>>>>>>>>>>>>>>>>>>>>>>>>
<<<<<<<<<<<<<<<<<<<<<<<<<<<<<<<<  Entering timestep     41  >>>>>>>>>>>>>>>>>>>>>>>>>>>>>>>>
<<<<<<<<<<<<<<<<<<<<<<<<<<<<<<<<============================>>>>>>>>>>>>>>>>>>>>>>>>>>>>>>>>
                                                        Start time: Mon Aug 22 17:51:41 2022
 
<<<<<<<<<<<<<<<<<<<<<<<<<<<<<<<<============================>>>>>>>>>>>>>>>>>>>>>>>>>>>>>>>>
<<<<<<<<<<<<<<<<<<<<<<<<<<<<<<<<  Entering timestep     42  >>>>>>>>>>>>>>>>>>>>>>>>>>>>>>>>
<<<<<<<<<<<<<<<<<<<<<<<<<<<<<<<<============================>>>>>>>>>>>>>>>>>>>>>>>>>>>>>>>>
                                                        Start time: Mon Aug 22 17:51:47 2022
 
<<<<<<<<<<<<<<<<<<<<<<<<<<<<<<<<============================>>>>>>>>>>>>>>>>>>>>>>>>>>>>>>>>
<<<<<<<<<<<<<<<<<<<<<<<<<<<<<<<<  Entering timestep     43  >>>>>>>>>>>>>>>>>>>>>>>>>>>>>>>>
<<<<<<<<<<<<<<<<<<<<<<<<<<<<<<<<============================>>>>>>>>>>>>>>>>>>>>>>>>>>>>>>>>
                                                        Start time: Mon Aug 22 17:51:53 2022
 
<<<<<<<<<<<<<<<<<<<<<<<<<<<<<<<<============================>>>>>>>>>>>>>>>>>>>>>>>>>>>>>>>>
<<<<<<<<<<<<<<<<<<<<<<<<<<<<<<<<  Entering timestep     44  >>>>>>>>>>>>>>>>>>>>>>>>>>>>>>>>
<<<<<<<<<<<<<<<<<<<<<<<<<<<<<<<<============================>>>>>>>>>>>>>>>>>>>>>>>>>>>>>>>>
                                                        Start time: Mon Aug 22 17:51:59 2022
 
<<<<<<<<<<<<<<<<<<<<<<<<<<<<<<<<============================>>>>>>>>>>>>>>>>>>>>>>>>>>>>>>>>
<<<<<<<<<<<<<<<<<<<<<<<<<<<<<<<<  Entering timestep     45  >>>>>>>>>>>>>>>>>>>>>>>>>>>>>>>>
<<<<<<<<<<<<<<<<<<<<<<<<<<<<<<<<============================>>>>>>>>>>>>>>>>>>>>>>>>>>>>>>>>
                                                        Start time: Mon Aug 22 17:52:06 2022
 
<<<<<<<<<<<<<<<<<<<<<<<<<<<<<<<<============================>>>>>>>>>>>>>>>>>>>>>>>>>>>>>>>>
<<<<<<<<<<<<<<<<<<<<<<<<<<<<<<<<  Entering timestep     46  >>>>>>>>>>>>>>>>>>>>>>>>>>>>>>>>
<<<<<<<<<<<<<<<<<<<<<<<<<<<<<<<<============================>>>>>>>>>>>>>>>>>>>>>>>>>>>>>>>>
                                                        Start time: Mon Aug 22 17:52:11 2022
 
<<<<<<<<<<<<<<<<<<<<<<<<<<<<<<<<============================>>>>>>>>>>>>>>>>>>>>>>>>>>>>>>>>
<<<<<<<<<<<<<<<<<<<<<<<<<<<<<<<<  Entering timestep     47  >>>>>>>>>>>>>>>>>>>>>>>>>>>>>>>>
<<<<<<<<<<<<<<<<<<<<<<<<<<<<<<<<============================>>>>>>>>>>>>>>>>>>>>>>>>>>>>>>>>
                                                        Start time: Mon Aug 22 17:52:17 2022
 
<<<<<<<<<<<<<<<<<<<<<<<<<<<<<<<<============================>>>>>>>>>>>>>>>>>>>>>>>>>>>>>>>>
<<<<<<<<<<<<<<<<<<<<<<<<<<<<<<<<  Entering timestep     48  >>>>>>>>>>>>>>>>>>>>>>>>>>>>>>>>
<<<<<<<<<<<<<<<<<<<<<<<<<<<<<<<<============================>>>>>>>>>>>>>>>>>>>>>>>>>>>>>>>>
                                                        Start time: Mon Aug 22 17:52:23 2022
 
<<<<<<<<<<<<<<<<<<<<<<<<<<<<<<<<============================>>>>>>>>>>>>>>>>>>>>>>>>>>>>>>>>
<<<<<<<<<<<<<<<<<<<<<<<<<<<<<<<<  Entering timestep     49  >>>>>>>>>>>>>>>>>>>>>>>>>>>>>>>>
<<<<<<<<<<<<<<<<<<<<<<<<<<<<<<<<============================>>>>>>>>>>>>>>>>>>>>>>>>>>>>>>>>
                                                        Start time: Mon Aug 22 17:52:30 2022
 
<<<<<<<<<<<<<<<<<<<<<<<<<<<<<<<<============================>>>>>>>>>>>>>>>>>>>>>>>>>>>>>>>>
<<<<<<<<<<<<<<<<<<<<<<<<<<<<<<<<  Entering timestep     50  >>>>>>>>>>>>>>>>>>>>>>>>>>>>>>>>
<<<<<<<<<<<<<<<<<<<<<<<<<<<<<<<<============================>>>>>>>>>>>>>>>>>>>>>>>>>>>>>>>>
                                                        Start time: Mon Aug 22 17:52:36 2022
 
<<<<<<<<<<<<<<<<<<<<<<<<<<<<<<<<============================>>>>>>>>>>>>>>>>>>>>>>>>>>>>>>>>
<<<<<<<<<<<<<<<<<<<<<<<<<<<<<<<<  Entering timestep     51  >>>>>>>>>>>>>>>>>>>>>>>>>>>>>>>>
<<<<<<<<<<<<<<<<<<<<<<<<<<<<<<<<============================>>>>>>>>>>>>>>>>>>>>>>>>>>>>>>>>
                                                        Start time: Mon Aug 22 17:52:42 2022
 
<<<<<<<<<<<<<<<<<<<<<<<<<<<<<<<<============================>>>>>>>>>>>>>>>>>>>>>>>>>>>>>>>>
<<<<<<<<<<<<<<<<<<<<<<<<<<<<<<<<  Entering timestep     52  >>>>>>>>>>>>>>>>>>>>>>>>>>>>>>>>
<<<<<<<<<<<<<<<<<<<<<<<<<<<<<<<<============================>>>>>>>>>>>>>>>>>>>>>>>>>>>>>>>>
                                                        Start time: Mon Aug 22 17:52:48 2022
 
<<<<<<<<<<<<<<<<<<<<<<<<<<<<<<<<============================>>>>>>>>>>>>>>>>>>>>>>>>>>>>>>>>
<<<<<<<<<<<<<<<<<<<<<<<<<<<<<<<<  Entering timestep     53  >>>>>>>>>>>>>>>>>>>>>>>>>>>>>>>>
<<<<<<<<<<<<<<<<<<<<<<<<<<<<<<<<============================>>>>>>>>>>>>>>>>>>>>>>>>>>>>>>>>
                                                        Start time: Mon Aug 22 17:52:55 2022
 
<<<<<<<<<<<<<<<<<<<<<<<<<<<<<<<<============================>>>>>>>>>>>>>>>>>>>>>>>>>>>>>>>>
<<<<<<<<<<<<<<<<<<<<<<<<<<<<<<<<  Entering timestep     54  >>>>>>>>>>>>>>>>>>>>>>>>>>>>>>>>
<<<<<<<<<<<<<<<<<<<<<<<<<<<<<<<<============================>>>>>>>>>>>>>>>>>>>>>>>>>>>>>>>>
                                                        Start time: Mon Aug 22 17:53:01 2022
 
<<<<<<<<<<<<<<<<<<<<<<<<<<<<<<<<============================>>>>>>>>>>>>>>>>>>>>>>>>>>>>>>>>
<<<<<<<<<<<<<<<<<<<<<<<<<<<<<<<<  Entering timestep     55  >>>>>>>>>>>>>>>>>>>>>>>>>>>>>>>>
<<<<<<<<<<<<<<<<<<<<<<<<<<<<<<<<============================>>>>>>>>>>>>>>>>>>>>>>>>>>>>>>>>
                                                        Start time: Mon Aug 22 17:53:07 2022
 
<<<<<<<<<<<<<<<<<<<<<<<<<<<<<<<<============================>>>>>>>>>>>>>>>>>>>>>>>>>>>>>>>>
<<<<<<<<<<<<<<<<<<<<<<<<<<<<<<<<  Entering timestep     56  >>>>>>>>>>>>>>>>>>>>>>>>>>>>>>>>
<<<<<<<<<<<<<<<<<<<<<<<<<<<<<<<<============================>>>>>>>>>>>>>>>>>>>>>>>>>>>>>>>>
                                                        Start time: Mon Aug 22 17:53:13 2022
 
<<<<<<<<<<<<<<<<<<<<<<<<<<<<<<<<============================>>>>>>>>>>>>>>>>>>>>>>>>>>>>>>>>
<<<<<<<<<<<<<<<<<<<<<<<<<<<<<<<<  Entering timestep     57  >>>>>>>>>>>>>>>>>>>>>>>>>>>>>>>>
<<<<<<<<<<<<<<<<<<<<<<<<<<<<<<<<============================>>>>>>>>>>>>>>>>>>>>>>>>>>>>>>>>
                                                        Start time: Mon Aug 22 17:53:20 2022
 
<<<<<<<<<<<<<<<<<<<<<<<<<<<<<<<<============================>>>>>>>>>>>>>>>>>>>>>>>>>>>>>>>>
<<<<<<<<<<<<<<<<<<<<<<<<<<<<<<<<  Entering timestep     58  >>>>>>>>>>>>>>>>>>>>>>>>>>>>>>>>
<<<<<<<<<<<<<<<<<<<<<<<<<<<<<<<<============================>>>>>>>>>>>>>>>>>>>>>>>>>>>>>>>>
                                                        Start time: Mon Aug 22 17:53:26 2022
 
<<<<<<<<<<<<<<<<<<<<<<<<<<<<<<<<============================>>>>>>>>>>>>>>>>>>>>>>>>>>>>>>>>
<<<<<<<<<<<<<<<<<<<<<<<<<<<<<<<<  Entering timestep     59  >>>>>>>>>>>>>>>>>>>>>>>>>>>>>>>>
<<<<<<<<<<<<<<<<<<<<<<<<<<<<<<<<============================>>>>>>>>>>>>>>>>>>>>>>>>>>>>>>>>
                                                        Start time: Mon Aug 22 17:53:32 2022
 
<<<<<<<<<<<<<<<<<<<<<<<<<<<<<<<<============================>>>>>>>>>>>>>>>>>>>>>>>>>>>>>>>>
<<<<<<<<<<<<<<<<<<<<<<<<<<<<<<<<  Entering timestep     60  >>>>>>>>>>>>>>>>>>>>>>>>>>>>>>>>
<<<<<<<<<<<<<<<<<<<<<<<<<<<<<<<<============================>>>>>>>>>>>>>>>>>>>>>>>>>>>>>>>>
                                                        Start time: Mon Aug 22 17:53:38 2022
 
<<<<<<<<<<<<<<<<<<<<<<<<<<<<<<<<============================>>>>>>>>>>>>>>>>>>>>>>>>>>>>>>>>
<<<<<<<<<<<<<<<<<<<<<<<<<<<<<<<<  Entering timestep     61  >>>>>>>>>>>>>>>>>>>>>>>>>>>>>>>>
<<<<<<<<<<<<<<<<<<<<<<<<<<<<<<<<============================>>>>>>>>>>>>>>>>>>>>>>>>>>>>>>>>
                                                        Start time: Mon Aug 22 17:53:44 2022
 
<<<<<<<<<<<<<<<<<<<<<<<<<<<<<<<<============================>>>>>>>>>>>>>>>>>>>>>>>>>>>>>>>>
<<<<<<<<<<<<<<<<<<<<<<<<<<<<<<<<  Entering timestep     62  >>>>>>>>>>>>>>>>>>>>>>>>>>>>>>>>
<<<<<<<<<<<<<<<<<<<<<<<<<<<<<<<<============================>>>>>>>>>>>>>>>>>>>>>>>>>>>>>>>>
                                                        Start time: Mon Aug 22 17:53:50 2022
 
<<<<<<<<<<<<<<<<<<<<<<<<<<<<<<<<============================>>>>>>>>>>>>>>>>>>>>>>>>>>>>>>>>
<<<<<<<<<<<<<<<<<<<<<<<<<<<<<<<<  Entering timestep     63  >>>>>>>>>>>>>>>>>>>>>>>>>>>>>>>>
<<<<<<<<<<<<<<<<<<<<<<<<<<<<<<<<============================>>>>>>>>>>>>>>>>>>>>>>>>>>>>>>>>
                                                        Start time: Mon Aug 22 17:53:56 2022
 
<<<<<<<<<<<<<<<<<<<<<<<<<<<<<<<<============================>>>>>>>>>>>>>>>>>>>>>>>>>>>>>>>>
<<<<<<<<<<<<<<<<<<<<<<<<<<<<<<<<  Entering timestep     64  >>>>>>>>>>>>>>>>>>>>>>>>>>>>>>>>
<<<<<<<<<<<<<<<<<<<<<<<<<<<<<<<<============================>>>>>>>>>>>>>>>>>>>>>>>>>>>>>>>>
                                                        Start time: Mon Aug 22 17:54:02 2022
 
<<<<<<<<<<<<<<<<<<<<<<<<<<<<<<<<============================>>>>>>>>>>>>>>>>>>>>>>>>>>>>>>>>
<<<<<<<<<<<<<<<<<<<<<<<<<<<<<<<<  Entering timestep     65  >>>>>>>>>>>>>>>>>>>>>>>>>>>>>>>>
<<<<<<<<<<<<<<<<<<<<<<<<<<<<<<<<============================>>>>>>>>>>>>>>>>>>>>>>>>>>>>>>>>
                                                        Start time: Mon Aug 22 17:54:08 2022
 
<<<<<<<<<<<<<<<<<<<<<<<<<<<<<<<<============================>>>>>>>>>>>>>>>>>>>>>>>>>>>>>>>>
<<<<<<<<<<<<<<<<<<<<<<<<<<<<<<<<  Entering timestep     66  >>>>>>>>>>>>>>>>>>>>>>>>>>>>>>>>
<<<<<<<<<<<<<<<<<<<<<<<<<<<<<<<<============================>>>>>>>>>>>>>>>>>>>>>>>>>>>>>>>>
                                                        Start time: Mon Aug 22 17:54:14 2022
 
<<<<<<<<<<<<<<<<<<<<<<<<<<<<<<<<============================>>>>>>>>>>>>>>>>>>>>>>>>>>>>>>>>
<<<<<<<<<<<<<<<<<<<<<<<<<<<<<<<<  Entering timestep     67  >>>>>>>>>>>>>>>>>>>>>>>>>>>>>>>>
<<<<<<<<<<<<<<<<<<<<<<<<<<<<<<<<============================>>>>>>>>>>>>>>>>>>>>>>>>>>>>>>>>
                                                        Start time: Mon Aug 22 17:54:19 2022
 
<<<<<<<<<<<<<<<<<<<<<<<<<<<<<<<<============================>>>>>>>>>>>>>>>>>>>>>>>>>>>>>>>>
<<<<<<<<<<<<<<<<<<<<<<<<<<<<<<<<  Entering timestep     68  >>>>>>>>>>>>>>>>>>>>>>>>>>>>>>>>
<<<<<<<<<<<<<<<<<<<<<<<<<<<<<<<<============================>>>>>>>>>>>>>>>>>>>>>>>>>>>>>>>>
                                                        Start time: Mon Aug 22 17:54:25 2022
 
<<<<<<<<<<<<<<<<<<<<<<<<<<<<<<<<============================>>>>>>>>>>>>>>>>>>>>>>>>>>>>>>>>
<<<<<<<<<<<<<<<<<<<<<<<<<<<<<<<<  Entering timestep     69  >>>>>>>>>>>>>>>>>>>>>>>>>>>>>>>>
<<<<<<<<<<<<<<<<<<<<<<<<<<<<<<<<============================>>>>>>>>>>>>>>>>>>>>>>>>>>>>>>>>
                                                        Start time: Mon Aug 22 17:54:31 2022
 
<<<<<<<<<<<<<<<<<<<<<<<<<<<<<<<<============================>>>>>>>>>>>>>>>>>>>>>>>>>>>>>>>>
<<<<<<<<<<<<<<<<<<<<<<<<<<<<<<<<  Entering timestep     70  >>>>>>>>>>>>>>>>>>>>>>>>>>>>>>>>
<<<<<<<<<<<<<<<<<<<<<<<<<<<<<<<<============================>>>>>>>>>>>>>>>>>>>>>>>>>>>>>>>>
                                                        Start time: Mon Aug 22 17:54:37 2022
 
<<<<<<<<<<<<<<<<<<<<<<<<<<<<<<<<============================>>>>>>>>>>>>>>>>>>>>>>>>>>>>>>>>
<<<<<<<<<<<<<<<<<<<<<<<<<<<<<<<<  Entering timestep     71  >>>>>>>>>>>>>>>>>>>>>>>>>>>>>>>>
<<<<<<<<<<<<<<<<<<<<<<<<<<<<<<<<============================>>>>>>>>>>>>>>>>>>>>>>>>>>>>>>>>
                                                        Start time: Mon Aug 22 17:54:43 2022
 
<<<<<<<<<<<<<<<<<<<<<<<<<<<<<<<<============================>>>>>>>>>>>>>>>>>>>>>>>>>>>>>>>>
<<<<<<<<<<<<<<<<<<<<<<<<<<<<<<<<  Entering timestep     72  >>>>>>>>>>>>>>>>>>>>>>>>>>>>>>>>
<<<<<<<<<<<<<<<<<<<<<<<<<<<<<<<<============================>>>>>>>>>>>>>>>>>>>>>>>>>>>>>>>>
                                                        Start time: Mon Aug 22 17:54:49 2022
 
<<<<<<<<<<<<<<<<<<<<<<<<<<<<<<<<============================>>>>>>>>>>>>>>>>>>>>>>>>>>>>>>>>
<<<<<<<<<<<<<<<<<<<<<<<<<<<<<<<<  Entering timestep     73  >>>>>>>>>>>>>>>>>>>>>>>>>>>>>>>>
<<<<<<<<<<<<<<<<<<<<<<<<<<<<<<<<============================>>>>>>>>>>>>>>>>>>>>>>>>>>>>>>>>
                                                        Start time: Mon Aug 22 17:54:54 2022
 
<<<<<<<<<<<<<<<<<<<<<<<<<<<<<<<<============================>>>>>>>>>>>>>>>>>>>>>>>>>>>>>>>>
<<<<<<<<<<<<<<<<<<<<<<<<<<<<<<<<  Entering timestep     74  >>>>>>>>>>>>>>>>>>>>>>>>>>>>>>>>
<<<<<<<<<<<<<<<<<<<<<<<<<<<<<<<<============================>>>>>>>>>>>>>>>>>>>>>>>>>>>>>>>>
                                                        Start time: Mon Aug 22 17:55:01 2022
 
<<<<<<<<<<<<<<<<<<<<<<<<<<<<<<<<============================>>>>>>>>>>>>>>>>>>>>>>>>>>>>>>>>
<<<<<<<<<<<<<<<<<<<<<<<<<<<<<<<<  Entering timestep     75  >>>>>>>>>>>>>>>>>>>>>>>>>>>>>>>>
<<<<<<<<<<<<<<<<<<<<<<<<<<<<<<<<============================>>>>>>>>>>>>>>>>>>>>>>>>>>>>>>>>
                                                        Start time: Mon Aug 22 17:55:06 2022
 
<<<<<<<<<<<<<<<<<<<<<<<<<<<<<<<<============================>>>>>>>>>>>>>>>>>>>>>>>>>>>>>>>>
<<<<<<<<<<<<<<<<<<<<<<<<<<<<<<<<  Entering timestep     76  >>>>>>>>>>>>>>>>>>>>>>>>>>>>>>>>
<<<<<<<<<<<<<<<<<<<<<<<<<<<<<<<<============================>>>>>>>>>>>>>>>>>>>>>>>>>>>>>>>>
                                                        Start time: Mon Aug 22 17:55:12 2022
 
<<<<<<<<<<<<<<<<<<<<<<<<<<<<<<<<============================>>>>>>>>>>>>>>>>>>>>>>>>>>>>>>>>
<<<<<<<<<<<<<<<<<<<<<<<<<<<<<<<<  Entering timestep     77  >>>>>>>>>>>>>>>>>>>>>>>>>>>>>>>>
<<<<<<<<<<<<<<<<<<<<<<<<<<<<<<<<============================>>>>>>>>>>>>>>>>>>>>>>>>>>>>>>>>
                                                        Start time: Mon Aug 22 17:55:18 2022
 
<<<<<<<<<<<<<<<<<<<<<<<<<<<<<<<<============================>>>>>>>>>>>>>>>>>>>>>>>>>>>>>>>>
<<<<<<<<<<<<<<<<<<<<<<<<<<<<<<<<  Entering timestep     78  >>>>>>>>>>>>>>>>>>>>>>>>>>>>>>>>
<<<<<<<<<<<<<<<<<<<<<<<<<<<<<<<<============================>>>>>>>>>>>>>>>>>>>>>>>>>>>>>>>>
                                                        Start time: Mon Aug 22 17:55:24 2022
 
<<<<<<<<<<<<<<<<<<<<<<<<<<<<<<<<============================>>>>>>>>>>>>>>>>>>>>>>>>>>>>>>>>
<<<<<<<<<<<<<<<<<<<<<<<<<<<<<<<<  Entering timestep     79  >>>>>>>>>>>>>>>>>>>>>>>>>>>>>>>>
<<<<<<<<<<<<<<<<<<<<<<<<<<<<<<<<============================>>>>>>>>>>>>>>>>>>>>>>>>>>>>>>>>
                                                        Start time: Mon Aug 22 17:55:30 2022
 
<<<<<<<<<<<<<<<<<<<<<<<<<<<<<<<<============================>>>>>>>>>>>>>>>>>>>>>>>>>>>>>>>>
<<<<<<<<<<<<<<<<<<<<<<<<<<<<<<<<  Entering timestep     80  >>>>>>>>>>>>>>>>>>>>>>>>>>>>>>>>
<<<<<<<<<<<<<<<<<<<<<<<<<<<<<<<<============================>>>>>>>>>>>>>>>>>>>>>>>>>>>>>>>>
                                                        Start time: Mon Aug 22 17:55:36 2022
 
<<<<<<<<<<<<<<<<<<<<<<<<<<<<<<<<============================>>>>>>>>>>>>>>>>>>>>>>>>>>>>>>>>
<<<<<<<<<<<<<<<<<<<<<<<<<<<<<<<<  Entering timestep     81  >>>>>>>>>>>>>>>>>>>>>>>>>>>>>>>>
<<<<<<<<<<<<<<<<<<<<<<<<<<<<<<<<============================>>>>>>>>>>>>>>>>>>>>>>>>>>>>>>>>
                                                        Start time: Mon Aug 22 17:55:42 2022
 
<<<<<<<<<<<<<<<<<<<<<<<<<<<<<<<<============================>>>>>>>>>>>>>>>>>>>>>>>>>>>>>>>>
<<<<<<<<<<<<<<<<<<<<<<<<<<<<<<<<  Entering timestep     82  >>>>>>>>>>>>>>>>>>>>>>>>>>>>>>>>
<<<<<<<<<<<<<<<<<<<<<<<<<<<<<<<<============================>>>>>>>>>>>>>>>>>>>>>>>>>>>>>>>>
                                                        Start time: Mon Aug 22 17:55:48 2022
 
<<<<<<<<<<<<<<<<<<<<<<<<<<<<<<<<============================>>>>>>>>>>>>>>>>>>>>>>>>>>>>>>>>
<<<<<<<<<<<<<<<<<<<<<<<<<<<<<<<<  Entering timestep     83  >>>>>>>>>>>>>>>>>>>>>>>>>>>>>>>>
<<<<<<<<<<<<<<<<<<<<<<<<<<<<<<<<============================>>>>>>>>>>>>>>>>>>>>>>>>>>>>>>>>
                                                        Start time: Mon Aug 22 17:55:54 2022
 
<<<<<<<<<<<<<<<<<<<<<<<<<<<<<<<<============================>>>>>>>>>>>>>>>>>>>>>>>>>>>>>>>>
<<<<<<<<<<<<<<<<<<<<<<<<<<<<<<<<  Entering timestep     84  >>>>>>>>>>>>>>>>>>>>>>>>>>>>>>>>
<<<<<<<<<<<<<<<<<<<<<<<<<<<<<<<<============================>>>>>>>>>>>>>>>>>>>>>>>>>>>>>>>>
                                                        Start time: Mon Aug 22 17:56:00 2022
 
<<<<<<<<<<<<<<<<<<<<<<<<<<<<<<<<============================>>>>>>>>>>>>>>>>>>>>>>>>>>>>>>>>
<<<<<<<<<<<<<<<<<<<<<<<<<<<<<<<<  Entering timestep     85  >>>>>>>>>>>>>>>>>>>>>>>>>>>>>>>>
<<<<<<<<<<<<<<<<<<<<<<<<<<<<<<<<============================>>>>>>>>>>>>>>>>>>>>>>>>>>>>>>>>
                                                        Start time: Mon Aug 22 17:56:06 2022
 
<<<<<<<<<<<<<<<<<<<<<<<<<<<<<<<<============================>>>>>>>>>>>>>>>>>>>>>>>>>>>>>>>>
<<<<<<<<<<<<<<<<<<<<<<<<<<<<<<<<  Entering timestep     86  >>>>>>>>>>>>>>>>>>>>>>>>>>>>>>>>
<<<<<<<<<<<<<<<<<<<<<<<<<<<<<<<<============================>>>>>>>>>>>>>>>>>>>>>>>>>>>>>>>>
                                                        Start time: Mon Aug 22 17:56:12 2022
 
<<<<<<<<<<<<<<<<<<<<<<<<<<<<<<<<============================>>>>>>>>>>>>>>>>>>>>>>>>>>>>>>>>
<<<<<<<<<<<<<<<<<<<<<<<<<<<<<<<<  Entering timestep     87  >>>>>>>>>>>>>>>>>>>>>>>>>>>>>>>>
<<<<<<<<<<<<<<<<<<<<<<<<<<<<<<<<============================>>>>>>>>>>>>>>>>>>>>>>>>>>>>>>>>
                                                        Start time: Mon Aug 22 17:56:18 2022
 
<<<<<<<<<<<<<<<<<<<<<<<<<<<<<<<<============================>>>>>>>>>>>>>>>>>>>>>>>>>>>>>>>>
<<<<<<<<<<<<<<<<<<<<<<<<<<<<<<<<  Entering timestep     88  >>>>>>>>>>>>>>>>>>>>>>>>>>>>>>>>
<<<<<<<<<<<<<<<<<<<<<<<<<<<<<<<<============================>>>>>>>>>>>>>>>>>>>>>>>>>>>>>>>>
                                                        Start time: Mon Aug 22 17:56:24 2022
 
<<<<<<<<<<<<<<<<<<<<<<<<<<<<<<<<============================>>>>>>>>>>>>>>>>>>>>>>>>>>>>>>>>
<<<<<<<<<<<<<<<<<<<<<<<<<<<<<<<<  Entering timestep     89  >>>>>>>>>>>>>>>>>>>>>>>>>>>>>>>>
<<<<<<<<<<<<<<<<<<<<<<<<<<<<<<<<============================>>>>>>>>>>>>>>>>>>>>>>>>>>>>>>>>
                                                        Start time: Mon Aug 22 17:56:30 2022
 
<<<<<<<<<<<<<<<<<<<<<<<<<<<<<<<<============================>>>>>>>>>>>>>>>>>>>>>>>>>>>>>>>>
<<<<<<<<<<<<<<<<<<<<<<<<<<<<<<<<  Entering timestep     90  >>>>>>>>>>>>>>>>>>>>>>>>>>>>>>>>
<<<<<<<<<<<<<<<<<<<<<<<<<<<<<<<<============================>>>>>>>>>>>>>>>>>>>>>>>>>>>>>>>>
                                                        Start time: Mon Aug 22 17:56:36 2022
 
<<<<<<<<<<<<<<<<<<<<<<<<<<<<<<<<============================>>>>>>>>>>>>>>>>>>>>>>>>>>>>>>>>
<<<<<<<<<<<<<<<<<<<<<<<<<<<<<<<<  Entering timestep     91  >>>>>>>>>>>>>>>>>>>>>>>>>>>>>>>>
<<<<<<<<<<<<<<<<<<<<<<<<<<<<<<<<============================>>>>>>>>>>>>>>>>>>>>>>>>>>>>>>>>
                                                        Start time: Mon Aug 22 17:56:42 2022
 
<<<<<<<<<<<<<<<<<<<<<<<<<<<<<<<<============================>>>>>>>>>>>>>>>>>>>>>>>>>>>>>>>>
<<<<<<<<<<<<<<<<<<<<<<<<<<<<<<<<  Entering timestep     92  >>>>>>>>>>>>>>>>>>>>>>>>>>>>>>>>
<<<<<<<<<<<<<<<<<<<<<<<<<<<<<<<<============================>>>>>>>>>>>>>>>>>>>>>>>>>>>>>>>>
                                                        Start time: Mon Aug 22 17:56:47 2022
 
<<<<<<<<<<<<<<<<<<<<<<<<<<<<<<<<============================>>>>>>>>>>>>>>>>>>>>>>>>>>>>>>>>
<<<<<<<<<<<<<<<<<<<<<<<<<<<<<<<<  Entering timestep     93  >>>>>>>>>>>>>>>>>>>>>>>>>>>>>>>>
<<<<<<<<<<<<<<<<<<<<<<<<<<<<<<<<============================>>>>>>>>>>>>>>>>>>>>>>>>>>>>>>>>
                                                        Start time: Mon Aug 22 17:56:53 2022
 
<<<<<<<<<<<<<<<<<<<<<<<<<<<<<<<<============================>>>>>>>>>>>>>>>>>>>>>>>>>>>>>>>>
<<<<<<<<<<<<<<<<<<<<<<<<<<<<<<<<  Entering timestep     94  >>>>>>>>>>>>>>>>>>>>>>>>>>>>>>>>
<<<<<<<<<<<<<<<<<<<<<<<<<<<<<<<<============================>>>>>>>>>>>>>>>>>>>>>>>>>>>>>>>>
                                                        Start time: Mon Aug 22 17:56:59 2022
 
<<<<<<<<<<<<<<<<<<<<<<<<<<<<<<<<============================>>>>>>>>>>>>>>>>>>>>>>>>>>>>>>>>
<<<<<<<<<<<<<<<<<<<<<<<<<<<<<<<<  Entering timestep     95  >>>>>>>>>>>>>>>>>>>>>>>>>>>>>>>>
<<<<<<<<<<<<<<<<<<<<<<<<<<<<<<<<============================>>>>>>>>>>>>>>>>>>>>>>>>>>>>>>>>
                                                        Start time: Mon Aug 22 17:57:05 2022
 
<<<<<<<<<<<<<<<<<<<<<<<<<<<<<<<<============================>>>>>>>>>>>>>>>>>>>>>>>>>>>>>>>>
<<<<<<<<<<<<<<<<<<<<<<<<<<<<<<<<  Entering timestep     96  >>>>>>>>>>>>>>>>>>>>>>>>>>>>>>>>
<<<<<<<<<<<<<<<<<<<<<<<<<<<<<<<<============================>>>>>>>>>>>>>>>>>>>>>>>>>>>>>>>>
                                                        Start time: Mon Aug 22 17:57:11 2022
 
<<<<<<<<<<<<<<<<<<<<<<<<<<<<<<<<============================>>>>>>>>>>>>>>>>>>>>>>>>>>>>>>>>
<<<<<<<<<<<<<<<<<<<<<<<<<<<<<<<<  Entering timestep     97  >>>>>>>>>>>>>>>>>>>>>>>>>>>>>>>>
<<<<<<<<<<<<<<<<<<<<<<<<<<<<<<<<============================>>>>>>>>>>>>>>>>>>>>>>>>>>>>>>>>
                                                        Start time: Mon Aug 22 17:57:17 2022
 
<<<<<<<<<<<<<<<<<<<<<<<<<<<<<<<<============================>>>>>>>>>>>>>>>>>>>>>>>>>>>>>>>>
<<<<<<<<<<<<<<<<<<<<<<<<<<<<<<<<  Entering timestep     98  >>>>>>>>>>>>>>>>>>>>>>>>>>>>>>>>
<<<<<<<<<<<<<<<<<<<<<<<<<<<<<<<<============================>>>>>>>>>>>>>>>>>>>>>>>>>>>>>>>>
                                                        Start time: Mon Aug 22 17:57:23 2022
 
<<<<<<<<<<<<<<<<<<<<<<<<<<<<<<<<============================>>>>>>>>>>>>>>>>>>>>>>>>>>>>>>>>
<<<<<<<<<<<<<<<<<<<<<<<<<<<<<<<<  Entering timestep     99  >>>>>>>>>>>>>>>>>>>>>>>>>>>>>>>>
<<<<<<<<<<<<<<<<<<<<<<<<<<<<<<<<============================>>>>>>>>>>>>>>>>>>>>>>>>>>>>>>>>
                                                        Start time: Mon Aug 22 17:57:28 2022
 
<<<<<<<<<<<<<<<<<<<<<<<<<<<<<<<<============================>>>>>>>>>>>>>>>>>>>>>>>>>>>>>>>>
<<<<<<<<<<<<<<<<<<<<<<<<<<<<<<<<  Entering timestep    100  >>>>>>>>>>>>>>>>>>>>>>>>>>>>>>>>
<<<<<<<<<<<<<<<<<<<<<<<<<<<<<<<<============================>>>>>>>>>>>>>>>>>>>>>>>>>>>>>>>>
                                                        Start time: Mon Aug 22 17:57:34 2022
 
<<<<<<<<<<<<<<<<<<<<<<<<<<<<<<<<============================>>>>>>>>>>>>>>>>>>>>>>>>>>>>>>>>
<<<<<<<<<<<<<<<<<<<<<<<<<<<<<<<<  Entering timestep    101  >>>>>>>>>>>>>>>>>>>>>>>>>>>>>>>>
<<<<<<<<<<<<<<<<<<<<<<<<<<<<<<<<============================>>>>>>>>>>>>>>>>>>>>>>>>>>>>>>>>
                                                        Start time: Mon Aug 22 17:57:40 2022
 
<<<<<<<<<<<<<<<<<<<<<<<<<<<<<<<<============================>>>>>>>>>>>>>>>>>>>>>>>>>>>>>>>>
<<<<<<<<<<<<<<<<<<<<<<<<<<<<<<<<  Entering timestep    102  >>>>>>>>>>>>>>>>>>>>>>>>>>>>>>>>
<<<<<<<<<<<<<<<<<<<<<<<<<<<<<<<<============================>>>>>>>>>>>>>>>>>>>>>>>>>>>>>>>>
                                                        Start time: Mon Aug 22 17:57:46 2022
 
<<<<<<<<<<<<<<<<<<<<<<<<<<<<<<<<============================>>>>>>>>>>>>>>>>>>>>>>>>>>>>>>>>
<<<<<<<<<<<<<<<<<<<<<<<<<<<<<<<<  Entering timestep    103  >>>>>>>>>>>>>>>>>>>>>>>>>>>>>>>>
<<<<<<<<<<<<<<<<<<<<<<<<<<<<<<<<============================>>>>>>>>>>>>>>>>>>>>>>>>>>>>>>>>
                                                        Start time: Mon Aug 22 17:57:52 2022
 
<<<<<<<<<<<<<<<<<<<<<<<<<<<<<<<<============================>>>>>>>>>>>>>>>>>>>>>>>>>>>>>>>>
<<<<<<<<<<<<<<<<<<<<<<<<<<<<<<<<  Entering timestep    104  >>>>>>>>>>>>>>>>>>>>>>>>>>>>>>>>
<<<<<<<<<<<<<<<<<<<<<<<<<<<<<<<<============================>>>>>>>>>>>>>>>>>>>>>>>>>>>>>>>>
                                                        Start time: Mon Aug 22 17:57:57 2022
 
<<<<<<<<<<<<<<<<<<<<<<<<<<<<<<<<============================>>>>>>>>>>>>>>>>>>>>>>>>>>>>>>>>
<<<<<<<<<<<<<<<<<<<<<<<<<<<<<<<<  Entering timestep    105  >>>>>>>>>>>>>>>>>>>>>>>>>>>>>>>>
<<<<<<<<<<<<<<<<<<<<<<<<<<<<<<<<============================>>>>>>>>>>>>>>>>>>>>>>>>>>>>>>>>
                                                        Start time: Mon Aug 22 17:58:03 2022
 
<<<<<<<<<<<<<<<<<<<<<<<<<<<<<<<<============================>>>>>>>>>>>>>>>>>>>>>>>>>>>>>>>>
<<<<<<<<<<<<<<<<<<<<<<<<<<<<<<<<  Entering timestep    106  >>>>>>>>>>>>>>>>>>>>>>>>>>>>>>>>
<<<<<<<<<<<<<<<<<<<<<<<<<<<<<<<<============================>>>>>>>>>>>>>>>>>>>>>>>>>>>>>>>>
                                                        Start time: Mon Aug 22 17:58:09 2022
 
<<<<<<<<<<<<<<<<<<<<<<<<<<<<<<<<============================>>>>>>>>>>>>>>>>>>>>>>>>>>>>>>>>
<<<<<<<<<<<<<<<<<<<<<<<<<<<<<<<<  Entering timestep    107  >>>>>>>>>>>>>>>>>>>>>>>>>>>>>>>>
<<<<<<<<<<<<<<<<<<<<<<<<<<<<<<<<============================>>>>>>>>>>>>>>>>>>>>>>>>>>>>>>>>
                                                        Start time: Mon Aug 22 17:58:15 2022
 
<<<<<<<<<<<<<<<<<<<<<<<<<<<<<<<<============================>>>>>>>>>>>>>>>>>>>>>>>>>>>>>>>>
<<<<<<<<<<<<<<<<<<<<<<<<<<<<<<<<  Entering timestep    108  >>>>>>>>>>>>>>>>>>>>>>>>>>>>>>>>
<<<<<<<<<<<<<<<<<<<<<<<<<<<<<<<<============================>>>>>>>>>>>>>>>>>>>>>>>>>>>>>>>>
                                                        Start time: Mon Aug 22 17:58:21 2022
 
<<<<<<<<<<<<<<<<<<<<<<<<<<<<<<<<============================>>>>>>>>>>>>>>>>>>>>>>>>>>>>>>>>
<<<<<<<<<<<<<<<<<<<<<<<<<<<<<<<<  Entering timestep    109  >>>>>>>>>>>>>>>>>>>>>>>>>>>>>>>>
<<<<<<<<<<<<<<<<<<<<<<<<<<<<<<<<============================>>>>>>>>>>>>>>>>>>>>>>>>>>>>>>>>
                                                        Start time: Mon Aug 22 17:58:26 2022
 
<<<<<<<<<<<<<<<<<<<<<<<<<<<<<<<<============================>>>>>>>>>>>>>>>>>>>>>>>>>>>>>>>>
<<<<<<<<<<<<<<<<<<<<<<<<<<<<<<<<  Entering timestep    110  >>>>>>>>>>>>>>>>>>>>>>>>>>>>>>>>
<<<<<<<<<<<<<<<<<<<<<<<<<<<<<<<<============================>>>>>>>>>>>>>>>>>>>>>>>>>>>>>>>>
                                                        Start time: Mon Aug 22 17:58:32 2022
 
<<<<<<<<<<<<<<<<<<<<<<<<<<<<<<<<============================>>>>>>>>>>>>>>>>>>>>>>>>>>>>>>>>
<<<<<<<<<<<<<<<<<<<<<<<<<<<<<<<<  Entering timestep    111  >>>>>>>>>>>>>>>>>>>>>>>>>>>>>>>>
<<<<<<<<<<<<<<<<<<<<<<<<<<<<<<<<============================>>>>>>>>>>>>>>>>>>>>>>>>>>>>>>>>
                                                        Start time: Mon Aug 22 17:58:38 2022
 
<<<<<<<<<<<<<<<<<<<<<<<<<<<<<<<<============================>>>>>>>>>>>>>>>>>>>>>>>>>>>>>>>>
<<<<<<<<<<<<<<<<<<<<<<<<<<<<<<<<  Entering timestep    112  >>>>>>>>>>>>>>>>>>>>>>>>>>>>>>>>
<<<<<<<<<<<<<<<<<<<<<<<<<<<<<<<<============================>>>>>>>>>>>>>>>>>>>>>>>>>>>>>>>>
                                                        Start time: Mon Aug 22 17:58:44 2022
 
<<<<<<<<<<<<<<<<<<<<<<<<<<<<<<<<============================>>>>>>>>>>>>>>>>>>>>>>>>>>>>>>>>
<<<<<<<<<<<<<<<<<<<<<<<<<<<<<<<<  Entering timestep    113  >>>>>>>>>>>>>>>>>>>>>>>>>>>>>>>>
<<<<<<<<<<<<<<<<<<<<<<<<<<<<<<<<============================>>>>>>>>>>>>>>>>>>>>>>>>>>>>>>>>
                                                        Start time: Mon Aug 22 17:58:50 2022
 
<<<<<<<<<<<<<<<<<<<<<<<<<<<<<<<<============================>>>>>>>>>>>>>>>>>>>>>>>>>>>>>>>>
<<<<<<<<<<<<<<<<<<<<<<<<<<<<<<<<  Entering timestep    114  >>>>>>>>>>>>>>>>>>>>>>>>>>>>>>>>
<<<<<<<<<<<<<<<<<<<<<<<<<<<<<<<<============================>>>>>>>>>>>>>>>>>>>>>>>>>>>>>>>>
                                                        Start time: Mon Aug 22 17:58:56 2022
 
<<<<<<<<<<<<<<<<<<<<<<<<<<<<<<<<============================>>>>>>>>>>>>>>>>>>>>>>>>>>>>>>>>
<<<<<<<<<<<<<<<<<<<<<<<<<<<<<<<<  Entering timestep    115  >>>>>>>>>>>>>>>>>>>>>>>>>>>>>>>>
<<<<<<<<<<<<<<<<<<<<<<<<<<<<<<<<============================>>>>>>>>>>>>>>>>>>>>>>>>>>>>>>>>
                                                        Start time: Mon Aug 22 17:59:02 2022
 
<<<<<<<<<<<<<<<<<<<<<<<<<<<<<<<<============================>>>>>>>>>>>>>>>>>>>>>>>>>>>>>>>>
<<<<<<<<<<<<<<<<<<<<<<<<<<<<<<<<  Entering timestep    116  >>>>>>>>>>>>>>>>>>>>>>>>>>>>>>>>
<<<<<<<<<<<<<<<<<<<<<<<<<<<<<<<<============================>>>>>>>>>>>>>>>>>>>>>>>>>>>>>>>>
                                                        Start time: Mon Aug 22 17:59:07 2022
 
<<<<<<<<<<<<<<<<<<<<<<<<<<<<<<<<============================>>>>>>>>>>>>>>>>>>>>>>>>>>>>>>>>
<<<<<<<<<<<<<<<<<<<<<<<<<<<<<<<<  Entering timestep    117  >>>>>>>>>>>>>>>>>>>>>>>>>>>>>>>>
<<<<<<<<<<<<<<<<<<<<<<<<<<<<<<<<============================>>>>>>>>>>>>>>>>>>>>>>>>>>>>>>>>
                                                        Start time: Mon Aug 22 17:59:13 2022
 
<<<<<<<<<<<<<<<<<<<<<<<<<<<<<<<<============================>>>>>>>>>>>>>>>>>>>>>>>>>>>>>>>>
<<<<<<<<<<<<<<<<<<<<<<<<<<<<<<<<  Entering timestep    118  >>>>>>>>>>>>>>>>>>>>>>>>>>>>>>>>
<<<<<<<<<<<<<<<<<<<<<<<<<<<<<<<<============================>>>>>>>>>>>>>>>>>>>>>>>>>>>>>>>>
                                                        Start time: Mon Aug 22 17:59:19 2022
 
<<<<<<<<<<<<<<<<<<<<<<<<<<<<<<<<============================>>>>>>>>>>>>>>>>>>>>>>>>>>>>>>>>
<<<<<<<<<<<<<<<<<<<<<<<<<<<<<<<<  Entering timestep    119  >>>>>>>>>>>>>>>>>>>>>>>>>>>>>>>>
<<<<<<<<<<<<<<<<<<<<<<<<<<<<<<<<============================>>>>>>>>>>>>>>>>>>>>>>>>>>>>>>>>
                                                        Start time: Mon Aug 22 17:59:24 2022
 
<<<<<<<<<<<<<<<<<<<<<<<<<<<<<<<<============================>>>>>>>>>>>>>>>>>>>>>>>>>>>>>>>>
<<<<<<<<<<<<<<<<<<<<<<<<<<<<<<<<  Entering timestep    120  >>>>>>>>>>>>>>>>>>>>>>>>>>>>>>>>
<<<<<<<<<<<<<<<<<<<<<<<<<<<<<<<<============================>>>>>>>>>>>>>>>>>>>>>>>>>>>>>>>>
                                                        Start time: Mon Aug 22 17:59:30 2022
 
<<<<<<<<<<<<<<<<<<<<<<<<<<<<<<<<============================>>>>>>>>>>>>>>>>>>>>>>>>>>>>>>>>
<<<<<<<<<<<<<<<<<<<<<<<<<<<<<<<<  Entering timestep    121  >>>>>>>>>>>>>>>>>>>>>>>>>>>>>>>>
<<<<<<<<<<<<<<<<<<<<<<<<<<<<<<<<============================>>>>>>>>>>>>>>>>>>>>>>>>>>>>>>>>
                                                        Start time: Mon Aug 22 17:59:36 2022
 
<<<<<<<<<<<<<<<<<<<<<<<<<<<<<<<<============================>>>>>>>>>>>>>>>>>>>>>>>>>>>>>>>>
<<<<<<<<<<<<<<<<<<<<<<<<<<<<<<<<  Entering timestep    122  >>>>>>>>>>>>>>>>>>>>>>>>>>>>>>>>
<<<<<<<<<<<<<<<<<<<<<<<<<<<<<<<<============================>>>>>>>>>>>>>>>>>>>>>>>>>>>>>>>>
                                                        Start time: Mon Aug 22 17:59:42 2022
 
<<<<<<<<<<<<<<<<<<<<<<<<<<<<<<<<============================>>>>>>>>>>>>>>>>>>>>>>>>>>>>>>>>
<<<<<<<<<<<<<<<<<<<<<<<<<<<<<<<<  Entering timestep    123  >>>>>>>>>>>>>>>>>>>>>>>>>>>>>>>>
<<<<<<<<<<<<<<<<<<<<<<<<<<<<<<<<============================>>>>>>>>>>>>>>>>>>>>>>>>>>>>>>>>
                                                        Start time: Mon Aug 22 17:59:47 2022
 
<<<<<<<<<<<<<<<<<<<<<<<<<<<<<<<<============================>>>>>>>>>>>>>>>>>>>>>>>>>>>>>>>>
<<<<<<<<<<<<<<<<<<<<<<<<<<<<<<<<  Entering timestep    124  >>>>>>>>>>>>>>>>>>>>>>>>>>>>>>>>
<<<<<<<<<<<<<<<<<<<<<<<<<<<<<<<<============================>>>>>>>>>>>>>>>>>>>>>>>>>>>>>>>>
                                                        Start time: Mon Aug 22 17:59:53 2022
 
<<<<<<<<<<<<<<<<<<<<<<<<<<<<<<<<============================>>>>>>>>>>>>>>>>>>>>>>>>>>>>>>>>
<<<<<<<<<<<<<<<<<<<<<<<<<<<<<<<<  Entering timestep    125  >>>>>>>>>>>>>>>>>>>>>>>>>>>>>>>>
<<<<<<<<<<<<<<<<<<<<<<<<<<<<<<<<============================>>>>>>>>>>>>>>>>>>>>>>>>>>>>>>>>
                                                        Start time: Mon Aug 22 17:59:59 2022
 
<<<<<<<<<<<<<<<<<<<<<<<<<<<<<<<<============================>>>>>>>>>>>>>>>>>>>>>>>>>>>>>>>>
<<<<<<<<<<<<<<<<<<<<<<<<<<<<<<<<  Entering timestep    126  >>>>>>>>>>>>>>>>>>>>>>>>>>>>>>>>
<<<<<<<<<<<<<<<<<<<<<<<<<<<<<<<<============================>>>>>>>>>>>>>>>>>>>>>>>>>>>>>>>>
                                                        Start time: Mon Aug 22 18:00:05 2022
 
<<<<<<<<<<<<<<<<<<<<<<<<<<<<<<<<============================>>>>>>>>>>>>>>>>>>>>>>>>>>>>>>>>
<<<<<<<<<<<<<<<<<<<<<<<<<<<<<<<<  Entering timestep    127  >>>>>>>>>>>>>>>>>>>>>>>>>>>>>>>>
<<<<<<<<<<<<<<<<<<<<<<<<<<<<<<<<============================>>>>>>>>>>>>>>>>>>>>>>>>>>>>>>>>
                                                        Start time: Mon Aug 22 18:00:11 2022
 
<<<<<<<<<<<<<<<<<<<<<<<<<<<<<<<<============================>>>>>>>>>>>>>>>>>>>>>>>>>>>>>>>>
<<<<<<<<<<<<<<<<<<<<<<<<<<<<<<<<  Entering timestep    128  >>>>>>>>>>>>>>>>>>>>>>>>>>>>>>>>
<<<<<<<<<<<<<<<<<<<<<<<<<<<<<<<<============================>>>>>>>>>>>>>>>>>>>>>>>>>>>>>>>>
                                                        Start time: Mon Aug 22 18:00:16 2022
 
<<<<<<<<<<<<<<<<<<<<<<<<<<<<<<<<============================>>>>>>>>>>>>>>>>>>>>>>>>>>>>>>>>
<<<<<<<<<<<<<<<<<<<<<<<<<<<<<<<<  Entering timestep    129  >>>>>>>>>>>>>>>>>>>>>>>>>>>>>>>>
<<<<<<<<<<<<<<<<<<<<<<<<<<<<<<<<============================>>>>>>>>>>>>>>>>>>>>>>>>>>>>>>>>
                                                        Start time: Mon Aug 22 18:00:22 2022
 
<<<<<<<<<<<<<<<<<<<<<<<<<<<<<<<<============================>>>>>>>>>>>>>>>>>>>>>>>>>>>>>>>>
<<<<<<<<<<<<<<<<<<<<<<<<<<<<<<<<  Entering timestep    130  >>>>>>>>>>>>>>>>>>>>>>>>>>>>>>>>
<<<<<<<<<<<<<<<<<<<<<<<<<<<<<<<<============================>>>>>>>>>>>>>>>>>>>>>>>>>>>>>>>>
                                                        Start time: Mon Aug 22 18:00:28 2022
 
<<<<<<<<<<<<<<<<<<<<<<<<<<<<<<<<============================>>>>>>>>>>>>>>>>>>>>>>>>>>>>>>>>
<<<<<<<<<<<<<<<<<<<<<<<<<<<<<<<<  Entering timestep    131  >>>>>>>>>>>>>>>>>>>>>>>>>>>>>>>>
<<<<<<<<<<<<<<<<<<<<<<<<<<<<<<<<============================>>>>>>>>>>>>>>>>>>>>>>>>>>>>>>>>
                                                        Start time: Mon Aug 22 18:00:34 2022
 
<<<<<<<<<<<<<<<<<<<<<<<<<<<<<<<<============================>>>>>>>>>>>>>>>>>>>>>>>>>>>>>>>>
<<<<<<<<<<<<<<<<<<<<<<<<<<<<<<<<  Entering timestep    132  >>>>>>>>>>>>>>>>>>>>>>>>>>>>>>>>
<<<<<<<<<<<<<<<<<<<<<<<<<<<<<<<<============================>>>>>>>>>>>>>>>>>>>>>>>>>>>>>>>>
                                                        Start time: Mon Aug 22 18:00:40 2022
 
<<<<<<<<<<<<<<<<<<<<<<<<<<<<<<<<============================>>>>>>>>>>>>>>>>>>>>>>>>>>>>>>>>
<<<<<<<<<<<<<<<<<<<<<<<<<<<<<<<<  Entering timestep    133  >>>>>>>>>>>>>>>>>>>>>>>>>>>>>>>>
<<<<<<<<<<<<<<<<<<<<<<<<<<<<<<<<============================>>>>>>>>>>>>>>>>>>>>>>>>>>>>>>>>
                                                        Start time: Mon Aug 22 18:00:46 2022
 
<<<<<<<<<<<<<<<<<<<<<<<<<<<<<<<<============================>>>>>>>>>>>>>>>>>>>>>>>>>>>>>>>>
<<<<<<<<<<<<<<<<<<<<<<<<<<<<<<<<  Entering timestep    134  >>>>>>>>>>>>>>>>>>>>>>>>>>>>>>>>
<<<<<<<<<<<<<<<<<<<<<<<<<<<<<<<<============================>>>>>>>>>>>>>>>>>>>>>>>>>>>>>>>>
                                                        Start time: Mon Aug 22 18:00:52 2022
 
<<<<<<<<<<<<<<<<<<<<<<<<<<<<<<<<============================>>>>>>>>>>>>>>>>>>>>>>>>>>>>>>>>
<<<<<<<<<<<<<<<<<<<<<<<<<<<<<<<<  Entering timestep    135  >>>>>>>>>>>>>>>>>>>>>>>>>>>>>>>>
<<<<<<<<<<<<<<<<<<<<<<<<<<<<<<<<============================>>>>>>>>>>>>>>>>>>>>>>>>>>>>>>>>
                                                        Start time: Mon Aug 22 18:00:58 2022
 
<<<<<<<<<<<<<<<<<<<<<<<<<<<<<<<<============================>>>>>>>>>>>>>>>>>>>>>>>>>>>>>>>>
<<<<<<<<<<<<<<<<<<<<<<<<<<<<<<<<  Entering timestep    136  >>>>>>>>>>>>>>>>>>>>>>>>>>>>>>>>
<<<<<<<<<<<<<<<<<<<<<<<<<<<<<<<<============================>>>>>>>>>>>>>>>>>>>>>>>>>>>>>>>>
                                                        Start time: Mon Aug 22 18:01:04 2022
 
<<<<<<<<<<<<<<<<<<<<<<<<<<<<<<<<============================>>>>>>>>>>>>>>>>>>>>>>>>>>>>>>>>
<<<<<<<<<<<<<<<<<<<<<<<<<<<<<<<<  Entering timestep    137  >>>>>>>>>>>>>>>>>>>>>>>>>>>>>>>>
<<<<<<<<<<<<<<<<<<<<<<<<<<<<<<<<============================>>>>>>>>>>>>>>>>>>>>>>>>>>>>>>>>
                                                        Start time: Mon Aug 22 18:01:10 2022
 
<<<<<<<<<<<<<<<<<<<<<<<<<<<<<<<<============================>>>>>>>>>>>>>>>>>>>>>>>>>>>>>>>>
<<<<<<<<<<<<<<<<<<<<<<<<<<<<<<<<  Entering timestep    138  >>>>>>>>>>>>>>>>>>>>>>>>>>>>>>>>
<<<<<<<<<<<<<<<<<<<<<<<<<<<<<<<<============================>>>>>>>>>>>>>>>>>>>>>>>>>>>>>>>>
                                                        Start time: Mon Aug 22 18:01:16 2022
 
<<<<<<<<<<<<<<<<<<<<<<<<<<<<<<<<============================>>>>>>>>>>>>>>>>>>>>>>>>>>>>>>>>
<<<<<<<<<<<<<<<<<<<<<<<<<<<<<<<<  Entering timestep    139  >>>>>>>>>>>>>>>>>>>>>>>>>>>>>>>>
<<<<<<<<<<<<<<<<<<<<<<<<<<<<<<<<============================>>>>>>>>>>>>>>>>>>>>>>>>>>>>>>>>
                                                        Start time: Mon Aug 22 18:01:22 2022
 
<<<<<<<<<<<<<<<<<<<<<<<<<<<<<<<<============================>>>>>>>>>>>>>>>>>>>>>>>>>>>>>>>>
<<<<<<<<<<<<<<<<<<<<<<<<<<<<<<<<  Entering timestep    140  >>>>>>>>>>>>>>>>>>>>>>>>>>>>>>>>
<<<<<<<<<<<<<<<<<<<<<<<<<<<<<<<<============================>>>>>>>>>>>>>>>>>>>>>>>>>>>>>>>>
                                                        Start time: Mon Aug 22 18:01:28 2022
 
<<<<<<<<<<<<<<<<<<<<<<<<<<<<<<<<============================>>>>>>>>>>>>>>>>>>>>>>>>>>>>>>>>
<<<<<<<<<<<<<<<<<<<<<<<<<<<<<<<<  Entering timestep    141  >>>>>>>>>>>>>>>>>>>>>>>>>>>>>>>>
<<<<<<<<<<<<<<<<<<<<<<<<<<<<<<<<============================>>>>>>>>>>>>>>>>>>>>>>>>>>>>>>>>
                                                        Start time: Mon Aug 22 18:01:33 2022
 
<<<<<<<<<<<<<<<<<<<<<<<<<<<<<<<<============================>>>>>>>>>>>>>>>>>>>>>>>>>>>>>>>>
<<<<<<<<<<<<<<<<<<<<<<<<<<<<<<<<  Entering timestep    142  >>>>>>>>>>>>>>>>>>>>>>>>>>>>>>>>
<<<<<<<<<<<<<<<<<<<<<<<<<<<<<<<<============================>>>>>>>>>>>>>>>>>>>>>>>>>>>>>>>>
                                                        Start time: Mon Aug 22 18:01:39 2022
 
<<<<<<<<<<<<<<<<<<<<<<<<<<<<<<<<============================>>>>>>>>>>>>>>>>>>>>>>>>>>>>>>>>
<<<<<<<<<<<<<<<<<<<<<<<<<<<<<<<<  Entering timestep    143  >>>>>>>>>>>>>>>>>>>>>>>>>>>>>>>>
<<<<<<<<<<<<<<<<<<<<<<<<<<<<<<<<============================>>>>>>>>>>>>>>>>>>>>>>>>>>>>>>>>
                                                        Start time: Mon Aug 22 18:01:45 2022
 
<<<<<<<<<<<<<<<<<<<<<<<<<<<<<<<<============================>>>>>>>>>>>>>>>>>>>>>>>>>>>>>>>>
<<<<<<<<<<<<<<<<<<<<<<<<<<<<<<<<  Entering timestep    144  >>>>>>>>>>>>>>>>>>>>>>>>>>>>>>>>
<<<<<<<<<<<<<<<<<<<<<<<<<<<<<<<<============================>>>>>>>>>>>>>>>>>>>>>>>>>>>>>>>>
                                                        Start time: Mon Aug 22 18:01:51 2022
 
<<<<<<<<<<<<<<<<<<<<<<<<<<<<<<<<============================>>>>>>>>>>>>>>>>>>>>>>>>>>>>>>>>
<<<<<<<<<<<<<<<<<<<<<<<<<<<<<<<<  Entering timestep    145  >>>>>>>>>>>>>>>>>>>>>>>>>>>>>>>>
<<<<<<<<<<<<<<<<<<<<<<<<<<<<<<<<============================>>>>>>>>>>>>>>>>>>>>>>>>>>>>>>>>
                                                        Start time: Mon Aug 22 18:01:57 2022
 
<<<<<<<<<<<<<<<<<<<<<<<<<<<<<<<<============================>>>>>>>>>>>>>>>>>>>>>>>>>>>>>>>>
<<<<<<<<<<<<<<<<<<<<<<<<<<<<<<<<  Entering timestep    146  >>>>>>>>>>>>>>>>>>>>>>>>>>>>>>>>
<<<<<<<<<<<<<<<<<<<<<<<<<<<<<<<<============================>>>>>>>>>>>>>>>>>>>>>>>>>>>>>>>>
                                                        Start time: Mon Aug 22 18:02:02 2022
 
<<<<<<<<<<<<<<<<<<<<<<<<<<<<<<<<============================>>>>>>>>>>>>>>>>>>>>>>>>>>>>>>>>
<<<<<<<<<<<<<<<<<<<<<<<<<<<<<<<<  Entering timestep    147  >>>>>>>>>>>>>>>>>>>>>>>>>>>>>>>>
<<<<<<<<<<<<<<<<<<<<<<<<<<<<<<<<============================>>>>>>>>>>>>>>>>>>>>>>>>>>>>>>>>
                                                        Start time: Mon Aug 22 18:02:08 2022
 
<<<<<<<<<<<<<<<<<<<<<<<<<<<<<<<<============================>>>>>>>>>>>>>>>>>>>>>>>>>>>>>>>>
<<<<<<<<<<<<<<<<<<<<<<<<<<<<<<<<  Entering timestep    148  >>>>>>>>>>>>>>>>>>>>>>>>>>>>>>>>
<<<<<<<<<<<<<<<<<<<<<<<<<<<<<<<<============================>>>>>>>>>>>>>>>>>>>>>>>>>>>>>>>>
                                                        Start time: Mon Aug 22 18:02:14 2022
 
<<<<<<<<<<<<<<<<<<<<<<<<<<<<<<<<============================>>>>>>>>>>>>>>>>>>>>>>>>>>>>>>>>
<<<<<<<<<<<<<<<<<<<<<<<<<<<<<<<<  Entering timestep    149  >>>>>>>>>>>>>>>>>>>>>>>>>>>>>>>>
<<<<<<<<<<<<<<<<<<<<<<<<<<<<<<<<============================>>>>>>>>>>>>>>>>>>>>>>>>>>>>>>>>
                                                        Start time: Mon Aug 22 18:02:20 2022
 
<<<<<<<<<<<<<<<<<<<<<<<<<<<<<<<<============================>>>>>>>>>>>>>>>>>>>>>>>>>>>>>>>>
<<<<<<<<<<<<<<<<<<<<<<<<<<<<<<<<  Entering timestep    150  >>>>>>>>>>>>>>>>>>>>>>>>>>>>>>>>
<<<<<<<<<<<<<<<<<<<<<<<<<<<<<<<<============================>>>>>>>>>>>>>>>>>>>>>>>>>>>>>>>>
                                                        Start time: Mon Aug 22 18:02:26 2022
 
<<<<<<<<<<<<<<<<<<<<<<<<<<<<<<<<============================>>>>>>>>>>>>>>>>>>>>>>>>>>>>>>>>
<<<<<<<<<<<<<<<<<<<<<<<<<<<<<<<<  Entering timestep    151  >>>>>>>>>>>>>>>>>>>>>>>>>>>>>>>>
<<<<<<<<<<<<<<<<<<<<<<<<<<<<<<<<============================>>>>>>>>>>>>>>>>>>>>>>>>>>>>>>>>
                                                        Start time: Mon Aug 22 18:02:32 2022
 
<<<<<<<<<<<<<<<<<<<<<<<<<<<<<<<<============================>>>>>>>>>>>>>>>>>>>>>>>>>>>>>>>>
<<<<<<<<<<<<<<<<<<<<<<<<<<<<<<<<  Entering timestep    152  >>>>>>>>>>>>>>>>>>>>>>>>>>>>>>>>
<<<<<<<<<<<<<<<<<<<<<<<<<<<<<<<<============================>>>>>>>>>>>>>>>>>>>>>>>>>>>>>>>>
                                                        Start time: Mon Aug 22 18:02:38 2022
 
<<<<<<<<<<<<<<<<<<<<<<<<<<<<<<<<============================>>>>>>>>>>>>>>>>>>>>>>>>>>>>>>>>
<<<<<<<<<<<<<<<<<<<<<<<<<<<<<<<<  Entering timestep    153  >>>>>>>>>>>>>>>>>>>>>>>>>>>>>>>>
<<<<<<<<<<<<<<<<<<<<<<<<<<<<<<<<============================>>>>>>>>>>>>>>>>>>>>>>>>>>>>>>>>
                                                        Start time: Mon Aug 22 18:02:44 2022
 
<<<<<<<<<<<<<<<<<<<<<<<<<<<<<<<<============================>>>>>>>>>>>>>>>>>>>>>>>>>>>>>>>>
<<<<<<<<<<<<<<<<<<<<<<<<<<<<<<<<  Entering timestep    154  >>>>>>>>>>>>>>>>>>>>>>>>>>>>>>>>
<<<<<<<<<<<<<<<<<<<<<<<<<<<<<<<<============================>>>>>>>>>>>>>>>>>>>>>>>>>>>>>>>>
                                                        Start time: Mon Aug 22 18:02:50 2022
 
<<<<<<<<<<<<<<<<<<<<<<<<<<<<<<<<============================>>>>>>>>>>>>>>>>>>>>>>>>>>>>>>>>
<<<<<<<<<<<<<<<<<<<<<<<<<<<<<<<<  Entering timestep    155  >>>>>>>>>>>>>>>>>>>>>>>>>>>>>>>>
<<<<<<<<<<<<<<<<<<<<<<<<<<<<<<<<============================>>>>>>>>>>>>>>>>>>>>>>>>>>>>>>>>
                                                        Start time: Mon Aug 22 18:02:56 2022
 
<<<<<<<<<<<<<<<<<<<<<<<<<<<<<<<<============================>>>>>>>>>>>>>>>>>>>>>>>>>>>>>>>>
<<<<<<<<<<<<<<<<<<<<<<<<<<<<<<<<  Entering timestep    156  >>>>>>>>>>>>>>>>>>>>>>>>>>>>>>>>
<<<<<<<<<<<<<<<<<<<<<<<<<<<<<<<<============================>>>>>>>>>>>>>>>>>>>>>>>>>>>>>>>>
                                                        Start time: Mon Aug 22 18:03:01 2022
 
<<<<<<<<<<<<<<<<<<<<<<<<<<<<<<<<============================>>>>>>>>>>>>>>>>>>>>>>>>>>>>>>>>
<<<<<<<<<<<<<<<<<<<<<<<<<<<<<<<<  Entering timestep    157  >>>>>>>>>>>>>>>>>>>>>>>>>>>>>>>>
<<<<<<<<<<<<<<<<<<<<<<<<<<<<<<<<============================>>>>>>>>>>>>>>>>>>>>>>>>>>>>>>>>
                                                        Start time: Mon Aug 22 18:03:07 2022
 
<<<<<<<<<<<<<<<<<<<<<<<<<<<<<<<<============================>>>>>>>>>>>>>>>>>>>>>>>>>>>>>>>>
<<<<<<<<<<<<<<<<<<<<<<<<<<<<<<<<  Entering timestep    158  >>>>>>>>>>>>>>>>>>>>>>>>>>>>>>>>
<<<<<<<<<<<<<<<<<<<<<<<<<<<<<<<<============================>>>>>>>>>>>>>>>>>>>>>>>>>>>>>>>>
                                                        Start time: Mon Aug 22 18:03:13 2022
 
<<<<<<<<<<<<<<<<<<<<<<<<<<<<<<<<============================>>>>>>>>>>>>>>>>>>>>>>>>>>>>>>>>
<<<<<<<<<<<<<<<<<<<<<<<<<<<<<<<<  Entering timestep    159  >>>>>>>>>>>>>>>>>>>>>>>>>>>>>>>>
<<<<<<<<<<<<<<<<<<<<<<<<<<<<<<<<============================>>>>>>>>>>>>>>>>>>>>>>>>>>>>>>>>
                                                        Start time: Mon Aug 22 18:03:19 2022
 
<<<<<<<<<<<<<<<<<<<<<<<<<<<<<<<<============================>>>>>>>>>>>>>>>>>>>>>>>>>>>>>>>>
<<<<<<<<<<<<<<<<<<<<<<<<<<<<<<<<  Entering timestep    160  >>>>>>>>>>>>>>>>>>>>>>>>>>>>>>>>
<<<<<<<<<<<<<<<<<<<<<<<<<<<<<<<<============================>>>>>>>>>>>>>>>>>>>>>>>>>>>>>>>>
                                                        Start time: Mon Aug 22 18:03:25 2022
 
<<<<<<<<<<<<<<<<<<<<<<<<<<<<<<<<============================>>>>>>>>>>>>>>>>>>>>>>>>>>>>>>>>
<<<<<<<<<<<<<<<<<<<<<<<<<<<<<<<<  Entering timestep    161  >>>>>>>>>>>>>>>>>>>>>>>>>>>>>>>>
<<<<<<<<<<<<<<<<<<<<<<<<<<<<<<<<============================>>>>>>>>>>>>>>>>>>>>>>>>>>>>>>>>
                                                        Start time: Mon Aug 22 18:03:31 2022
 
<<<<<<<<<<<<<<<<<<<<<<<<<<<<<<<<============================>>>>>>>>>>>>>>>>>>>>>>>>>>>>>>>>
<<<<<<<<<<<<<<<<<<<<<<<<<<<<<<<<  Entering timestep    162  >>>>>>>>>>>>>>>>>>>>>>>>>>>>>>>>
<<<<<<<<<<<<<<<<<<<<<<<<<<<<<<<<============================>>>>>>>>>>>>>>>>>>>>>>>>>>>>>>>>
                                                        Start time: Mon Aug 22 18:03:36 2022
 
<<<<<<<<<<<<<<<<<<<<<<<<<<<<<<<<============================>>>>>>>>>>>>>>>>>>>>>>>>>>>>>>>>
<<<<<<<<<<<<<<<<<<<<<<<<<<<<<<<<  Entering timestep    163  >>>>>>>>>>>>>>>>>>>>>>>>>>>>>>>>
<<<<<<<<<<<<<<<<<<<<<<<<<<<<<<<<============================>>>>>>>>>>>>>>>>>>>>>>>>>>>>>>>>
                                                        Start time: Mon Aug 22 18:03:42 2022
 
<<<<<<<<<<<<<<<<<<<<<<<<<<<<<<<<============================>>>>>>>>>>>>>>>>>>>>>>>>>>>>>>>>
<<<<<<<<<<<<<<<<<<<<<<<<<<<<<<<<  Entering timestep    164  >>>>>>>>>>>>>>>>>>>>>>>>>>>>>>>>
<<<<<<<<<<<<<<<<<<<<<<<<<<<<<<<<============================>>>>>>>>>>>>>>>>>>>>>>>>>>>>>>>>
                                                        Start time: Mon Aug 22 18:03:48 2022
 
<<<<<<<<<<<<<<<<<<<<<<<<<<<<<<<<============================>>>>>>>>>>>>>>>>>>>>>>>>>>>>>>>>
<<<<<<<<<<<<<<<<<<<<<<<<<<<<<<<<  Entering timestep    165  >>>>>>>>>>>>>>>>>>>>>>>>>>>>>>>>
<<<<<<<<<<<<<<<<<<<<<<<<<<<<<<<<============================>>>>>>>>>>>>>>>>>>>>>>>>>>>>>>>>
                                                        Start time: Mon Aug 22 18:03:54 2022
 
<<<<<<<<<<<<<<<<<<<<<<<<<<<<<<<<============================>>>>>>>>>>>>>>>>>>>>>>>>>>>>>>>>
<<<<<<<<<<<<<<<<<<<<<<<<<<<<<<<<  Entering timestep    166  >>>>>>>>>>>>>>>>>>>>>>>>>>>>>>>>
<<<<<<<<<<<<<<<<<<<<<<<<<<<<<<<<============================>>>>>>>>>>>>>>>>>>>>>>>>>>>>>>>>
                                                        Start time: Mon Aug 22 18:04:00 2022
 
<<<<<<<<<<<<<<<<<<<<<<<<<<<<<<<<============================>>>>>>>>>>>>>>>>>>>>>>>>>>>>>>>>
<<<<<<<<<<<<<<<<<<<<<<<<<<<<<<<<  Entering timestep    167  >>>>>>>>>>>>>>>>>>>>>>>>>>>>>>>>
<<<<<<<<<<<<<<<<<<<<<<<<<<<<<<<<============================>>>>>>>>>>>>>>>>>>>>>>>>>>>>>>>>
                                                        Start time: Mon Aug 22 18:04:06 2022
 
<<<<<<<<<<<<<<<<<<<<<<<<<<<<<<<<============================>>>>>>>>>>>>>>>>>>>>>>>>>>>>>>>>
<<<<<<<<<<<<<<<<<<<<<<<<<<<<<<<<  Entering timestep    168  >>>>>>>>>>>>>>>>>>>>>>>>>>>>>>>>
<<<<<<<<<<<<<<<<<<<<<<<<<<<<<<<<============================>>>>>>>>>>>>>>>>>>>>>>>>>>>>>>>>
                                                        Start time: Mon Aug 22 18:04:12 2022
 
<<<<<<<<<<<<<<<<<<<<<<<<<<<<<<<<============================>>>>>>>>>>>>>>>>>>>>>>>>>>>>>>>>
<<<<<<<<<<<<<<<<<<<<<<<<<<<<<<<<  Entering timestep    169  >>>>>>>>>>>>>>>>>>>>>>>>>>>>>>>>
<<<<<<<<<<<<<<<<<<<<<<<<<<<<<<<<============================>>>>>>>>>>>>>>>>>>>>>>>>>>>>>>>>
                                                        Start time: Mon Aug 22 18:04:17 2022
 
<<<<<<<<<<<<<<<<<<<<<<<<<<<<<<<<============================>>>>>>>>>>>>>>>>>>>>>>>>>>>>>>>>
<<<<<<<<<<<<<<<<<<<<<<<<<<<<<<<<  Entering timestep    170  >>>>>>>>>>>>>>>>>>>>>>>>>>>>>>>>
<<<<<<<<<<<<<<<<<<<<<<<<<<<<<<<<============================>>>>>>>>>>>>>>>>>>>>>>>>>>>>>>>>
                                                        Start time: Mon Aug 22 18:04:23 2022
 
<<<<<<<<<<<<<<<<<<<<<<<<<<<<<<<<============================>>>>>>>>>>>>>>>>>>>>>>>>>>>>>>>>
<<<<<<<<<<<<<<<<<<<<<<<<<<<<<<<<  Entering timestep    171  >>>>>>>>>>>>>>>>>>>>>>>>>>>>>>>>
<<<<<<<<<<<<<<<<<<<<<<<<<<<<<<<<============================>>>>>>>>>>>>>>>>>>>>>>>>>>>>>>>>
                                                        Start time: Mon Aug 22 18:04:29 2022
 
<<<<<<<<<<<<<<<<<<<<<<<<<<<<<<<<============================>>>>>>>>>>>>>>>>>>>>>>>>>>>>>>>>
<<<<<<<<<<<<<<<<<<<<<<<<<<<<<<<<  Entering timestep    172  >>>>>>>>>>>>>>>>>>>>>>>>>>>>>>>>
<<<<<<<<<<<<<<<<<<<<<<<<<<<<<<<<============================>>>>>>>>>>>>>>>>>>>>>>>>>>>>>>>>
                                                        Start time: Mon Aug 22 18:04:35 2022
 
<<<<<<<<<<<<<<<<<<<<<<<<<<<<<<<<============================>>>>>>>>>>>>>>>>>>>>>>>>>>>>>>>>
<<<<<<<<<<<<<<<<<<<<<<<<<<<<<<<<  Entering timestep    173  >>>>>>>>>>>>>>>>>>>>>>>>>>>>>>>>
<<<<<<<<<<<<<<<<<<<<<<<<<<<<<<<<============================>>>>>>>>>>>>>>>>>>>>>>>>>>>>>>>>
                                                        Start time: Mon Aug 22 18:04:41 2022
 
<<<<<<<<<<<<<<<<<<<<<<<<<<<<<<<<============================>>>>>>>>>>>>>>>>>>>>>>>>>>>>>>>>
<<<<<<<<<<<<<<<<<<<<<<<<<<<<<<<<  Entering timestep    174  >>>>>>>>>>>>>>>>>>>>>>>>>>>>>>>>
<<<<<<<<<<<<<<<<<<<<<<<<<<<<<<<<============================>>>>>>>>>>>>>>>>>>>>>>>>>>>>>>>>
                                                        Start time: Mon Aug 22 18:04:47 2022
 
<<<<<<<<<<<<<<<<<<<<<<<<<<<<<<<<============================>>>>>>>>>>>>>>>>>>>>>>>>>>>>>>>>
<<<<<<<<<<<<<<<<<<<<<<<<<<<<<<<<  Entering timestep    175  >>>>>>>>>>>>>>>>>>>>>>>>>>>>>>>>
<<<<<<<<<<<<<<<<<<<<<<<<<<<<<<<<============================>>>>>>>>>>>>>>>>>>>>>>>>>>>>>>>>
                                                        Start time: Mon Aug 22 18:04:53 2022
 
<<<<<<<<<<<<<<<<<<<<<<<<<<<<<<<<============================>>>>>>>>>>>>>>>>>>>>>>>>>>>>>>>>
<<<<<<<<<<<<<<<<<<<<<<<<<<<<<<<<  Entering timestep    176  >>>>>>>>>>>>>>>>>>>>>>>>>>>>>>>>
<<<<<<<<<<<<<<<<<<<<<<<<<<<<<<<<============================>>>>>>>>>>>>>>>>>>>>>>>>>>>>>>>>
                                                        Start time: Mon Aug 22 18:04:59 2022
 
<<<<<<<<<<<<<<<<<<<<<<<<<<<<<<<<============================>>>>>>>>>>>>>>>>>>>>>>>>>>>>>>>>
<<<<<<<<<<<<<<<<<<<<<<<<<<<<<<<<  Entering timestep    177  >>>>>>>>>>>>>>>>>>>>>>>>>>>>>>>>
<<<<<<<<<<<<<<<<<<<<<<<<<<<<<<<<============================>>>>>>>>>>>>>>>>>>>>>>>>>>>>>>>>
                                                        Start time: Mon Aug 22 18:05:05 2022
 
<<<<<<<<<<<<<<<<<<<<<<<<<<<<<<<<============================>>>>>>>>>>>>>>>>>>>>>>>>>>>>>>>>
<<<<<<<<<<<<<<<<<<<<<<<<<<<<<<<<  Entering timestep    178  >>>>>>>>>>>>>>>>>>>>>>>>>>>>>>>>
<<<<<<<<<<<<<<<<<<<<<<<<<<<<<<<<============================>>>>>>>>>>>>>>>>>>>>>>>>>>>>>>>>
                                                        Start time: Mon Aug 22 18:05:11 2022
 
<<<<<<<<<<<<<<<<<<<<<<<<<<<<<<<<============================>>>>>>>>>>>>>>>>>>>>>>>>>>>>>>>>
<<<<<<<<<<<<<<<<<<<<<<<<<<<<<<<<  Entering timestep    179  >>>>>>>>>>>>>>>>>>>>>>>>>>>>>>>>
<<<<<<<<<<<<<<<<<<<<<<<<<<<<<<<<============================>>>>>>>>>>>>>>>>>>>>>>>>>>>>>>>>
                                                        Start time: Mon Aug 22 18:05:17 2022
 
<<<<<<<<<<<<<<<<<<<<<<<<<<<<<<<<============================>>>>>>>>>>>>>>>>>>>>>>>>>>>>>>>>
<<<<<<<<<<<<<<<<<<<<<<<<<<<<<<<<  Entering timestep    180  >>>>>>>>>>>>>>>>>>>>>>>>>>>>>>>>
<<<<<<<<<<<<<<<<<<<<<<<<<<<<<<<<============================>>>>>>>>>>>>>>>>>>>>>>>>>>>>>>>>
                                                        Start time: Mon Aug 22 18:05:23 2022
 
<<<<<<<<<<<<<<<<<<<<<<<<<<<<<<<<============================>>>>>>>>>>>>>>>>>>>>>>>>>>>>>>>>
<<<<<<<<<<<<<<<<<<<<<<<<<<<<<<<<  Entering timestep    181  >>>>>>>>>>>>>>>>>>>>>>>>>>>>>>>>
<<<<<<<<<<<<<<<<<<<<<<<<<<<<<<<<============================>>>>>>>>>>>>>>>>>>>>>>>>>>>>>>>>
                                                        Start time: Mon Aug 22 18:05:29 2022
 
<<<<<<<<<<<<<<<<<<<<<<<<<<<<<<<<============================>>>>>>>>>>>>>>>>>>>>>>>>>>>>>>>>
<<<<<<<<<<<<<<<<<<<<<<<<<<<<<<<<  Entering timestep    182  >>>>>>>>>>>>>>>>>>>>>>>>>>>>>>>>
<<<<<<<<<<<<<<<<<<<<<<<<<<<<<<<<============================>>>>>>>>>>>>>>>>>>>>>>>>>>>>>>>>
                                                        Start time: Mon Aug 22 18:05:34 2022
 
<<<<<<<<<<<<<<<<<<<<<<<<<<<<<<<<============================>>>>>>>>>>>>>>>>>>>>>>>>>>>>>>>>
<<<<<<<<<<<<<<<<<<<<<<<<<<<<<<<<  Entering timestep    183  >>>>>>>>>>>>>>>>>>>>>>>>>>>>>>>>
<<<<<<<<<<<<<<<<<<<<<<<<<<<<<<<<============================>>>>>>>>>>>>>>>>>>>>>>>>>>>>>>>>
                                                        Start time: Mon Aug 22 18:05:40 2022
 
<<<<<<<<<<<<<<<<<<<<<<<<<<<<<<<<============================>>>>>>>>>>>>>>>>>>>>>>>>>>>>>>>>
<<<<<<<<<<<<<<<<<<<<<<<<<<<<<<<<  Entering timestep    184  >>>>>>>>>>>>>>>>>>>>>>>>>>>>>>>>
<<<<<<<<<<<<<<<<<<<<<<<<<<<<<<<<============================>>>>>>>>>>>>>>>>>>>>>>>>>>>>>>>>
                                                        Start time: Mon Aug 22 18:05:46 2022
 
<<<<<<<<<<<<<<<<<<<<<<<<<<<<<<<<============================>>>>>>>>>>>>>>>>>>>>>>>>>>>>>>>>
<<<<<<<<<<<<<<<<<<<<<<<<<<<<<<<<  Entering timestep    185  >>>>>>>>>>>>>>>>>>>>>>>>>>>>>>>>
<<<<<<<<<<<<<<<<<<<<<<<<<<<<<<<<============================>>>>>>>>>>>>>>>>>>>>>>>>>>>>>>>>
                                                        Start time: Mon Aug 22 18:05:52 2022
 
<<<<<<<<<<<<<<<<<<<<<<<<<<<<<<<<============================>>>>>>>>>>>>>>>>>>>>>>>>>>>>>>>>
<<<<<<<<<<<<<<<<<<<<<<<<<<<<<<<<  Entering timestep    186  >>>>>>>>>>>>>>>>>>>>>>>>>>>>>>>>
<<<<<<<<<<<<<<<<<<<<<<<<<<<<<<<<============================>>>>>>>>>>>>>>>>>>>>>>>>>>>>>>>>
                                                        Start time: Mon Aug 22 18:05:58 2022
 
<<<<<<<<<<<<<<<<<<<<<<<<<<<<<<<<============================>>>>>>>>>>>>>>>>>>>>>>>>>>>>>>>>
<<<<<<<<<<<<<<<<<<<<<<<<<<<<<<<<  Entering timestep    187  >>>>>>>>>>>>>>>>>>>>>>>>>>>>>>>>
<<<<<<<<<<<<<<<<<<<<<<<<<<<<<<<<============================>>>>>>>>>>>>>>>>>>>>>>>>>>>>>>>>
                                                        Start time: Mon Aug 22 18:06:04 2022
 
<<<<<<<<<<<<<<<<<<<<<<<<<<<<<<<<============================>>>>>>>>>>>>>>>>>>>>>>>>>>>>>>>>
<<<<<<<<<<<<<<<<<<<<<<<<<<<<<<<<  Entering timestep    188  >>>>>>>>>>>>>>>>>>>>>>>>>>>>>>>>
<<<<<<<<<<<<<<<<<<<<<<<<<<<<<<<<============================>>>>>>>>>>>>>>>>>>>>>>>>>>>>>>>>
                                                        Start time: Mon Aug 22 18:06:09 2022
 
<<<<<<<<<<<<<<<<<<<<<<<<<<<<<<<<============================>>>>>>>>>>>>>>>>>>>>>>>>>>>>>>>>
<<<<<<<<<<<<<<<<<<<<<<<<<<<<<<<<  Entering timestep    189  >>>>>>>>>>>>>>>>>>>>>>>>>>>>>>>>
<<<<<<<<<<<<<<<<<<<<<<<<<<<<<<<<============================>>>>>>>>>>>>>>>>>>>>>>>>>>>>>>>>
                                                        Start time: Mon Aug 22 18:06:15 2022
 
<<<<<<<<<<<<<<<<<<<<<<<<<<<<<<<<============================>>>>>>>>>>>>>>>>>>>>>>>>>>>>>>>>
<<<<<<<<<<<<<<<<<<<<<<<<<<<<<<<<  Entering timestep    190  >>>>>>>>>>>>>>>>>>>>>>>>>>>>>>>>
<<<<<<<<<<<<<<<<<<<<<<<<<<<<<<<<============================>>>>>>>>>>>>>>>>>>>>>>>>>>>>>>>>
                                                        Start time: Mon Aug 22 18:06:21 2022
 
<<<<<<<<<<<<<<<<<<<<<<<<<<<<<<<<============================>>>>>>>>>>>>>>>>>>>>>>>>>>>>>>>>
<<<<<<<<<<<<<<<<<<<<<<<<<<<<<<<<  Entering timestep    191  >>>>>>>>>>>>>>>>>>>>>>>>>>>>>>>>
<<<<<<<<<<<<<<<<<<<<<<<<<<<<<<<<============================>>>>>>>>>>>>>>>>>>>>>>>>>>>>>>>>
                                                        Start time: Mon Aug 22 18:06:27 2022
 
<<<<<<<<<<<<<<<<<<<<<<<<<<<<<<<<============================>>>>>>>>>>>>>>>>>>>>>>>>>>>>>>>>
<<<<<<<<<<<<<<<<<<<<<<<<<<<<<<<<  Entering timestep    192  >>>>>>>>>>>>>>>>>>>>>>>>>>>>>>>>
<<<<<<<<<<<<<<<<<<<<<<<<<<<<<<<<============================>>>>>>>>>>>>>>>>>>>>>>>>>>>>>>>>
                                                        Start time: Mon Aug 22 18:06:33 2022
 
<<<<<<<<<<<<<<<<<<<<<<<<<<<<<<<<============================>>>>>>>>>>>>>>>>>>>>>>>>>>>>>>>>
<<<<<<<<<<<<<<<<<<<<<<<<<<<<<<<<  Entering timestep    193  >>>>>>>>>>>>>>>>>>>>>>>>>>>>>>>>
<<<<<<<<<<<<<<<<<<<<<<<<<<<<<<<<============================>>>>>>>>>>>>>>>>>>>>>>>>>>>>>>>>
                                                        Start time: Mon Aug 22 18:06:39 2022
 
<<<<<<<<<<<<<<<<<<<<<<<<<<<<<<<<============================>>>>>>>>>>>>>>>>>>>>>>>>>>>>>>>>
<<<<<<<<<<<<<<<<<<<<<<<<<<<<<<<<  Entering timestep    194  >>>>>>>>>>>>>>>>>>>>>>>>>>>>>>>>
<<<<<<<<<<<<<<<<<<<<<<<<<<<<<<<<============================>>>>>>>>>>>>>>>>>>>>>>>>>>>>>>>>
                                                        Start time: Mon Aug 22 18:06:44 2022
 
<<<<<<<<<<<<<<<<<<<<<<<<<<<<<<<<============================>>>>>>>>>>>>>>>>>>>>>>>>>>>>>>>>
<<<<<<<<<<<<<<<<<<<<<<<<<<<<<<<<  Entering timestep    195  >>>>>>>>>>>>>>>>>>>>>>>>>>>>>>>>
<<<<<<<<<<<<<<<<<<<<<<<<<<<<<<<<============================>>>>>>>>>>>>>>>>>>>>>>>>>>>>>>>>
                                                        Start time: Mon Aug 22 18:06:50 2022
 
<<<<<<<<<<<<<<<<<<<<<<<<<<<<<<<<============================>>>>>>>>>>>>>>>>>>>>>>>>>>>>>>>>
<<<<<<<<<<<<<<<<<<<<<<<<<<<<<<<<  Entering timestep    196  >>>>>>>>>>>>>>>>>>>>>>>>>>>>>>>>
<<<<<<<<<<<<<<<<<<<<<<<<<<<<<<<<============================>>>>>>>>>>>>>>>>>>>>>>>>>>>>>>>>
                                                        Start time: Mon Aug 22 18:06:56 2022
 
<<<<<<<<<<<<<<<<<<<<<<<<<<<<<<<<============================>>>>>>>>>>>>>>>>>>>>>>>>>>>>>>>>
<<<<<<<<<<<<<<<<<<<<<<<<<<<<<<<<  Entering timestep    197  >>>>>>>>>>>>>>>>>>>>>>>>>>>>>>>>
<<<<<<<<<<<<<<<<<<<<<<<<<<<<<<<<============================>>>>>>>>>>>>>>>>>>>>>>>>>>>>>>>>
                                                        Start time: Mon Aug 22 18:07:02 2022
 
<<<<<<<<<<<<<<<<<<<<<<<<<<<<<<<<============================>>>>>>>>>>>>>>>>>>>>>>>>>>>>>>>>
<<<<<<<<<<<<<<<<<<<<<<<<<<<<<<<<  Entering timestep    198  >>>>>>>>>>>>>>>>>>>>>>>>>>>>>>>>
<<<<<<<<<<<<<<<<<<<<<<<<<<<<<<<<============================>>>>>>>>>>>>>>>>>>>>>>>>>>>>>>>>
                                                        Start time: Mon Aug 22 18:07:08 2022
 
<<<<<<<<<<<<<<<<<<<<<<<<<<<<<<<<============================>>>>>>>>>>>>>>>>>>>>>>>>>>>>>>>>
<<<<<<<<<<<<<<<<<<<<<<<<<<<<<<<<  Entering timestep    199  >>>>>>>>>>>>>>>>>>>>>>>>>>>>>>>>
<<<<<<<<<<<<<<<<<<<<<<<<<<<<<<<<============================>>>>>>>>>>>>>>>>>>>>>>>>>>>>>>>>
                                                        Start time: Mon Aug 22 18:07:14 2022
 
<<<<<<<<<<<<<<<<<<<<<<<<<<<<<<<<============================>>>>>>>>>>>>>>>>>>>>>>>>>>>>>>>>
<<<<<<<<<<<<<<<<<<<<<<<<<<<<<<<<  Entering timestep    200  >>>>>>>>>>>>>>>>>>>>>>>>>>>>>>>>
<<<<<<<<<<<<<<<<<<<<<<<<<<<<<<<<============================>>>>>>>>>>>>>>>>>>>>>>>>>>>>>>>>
                                                        Start time: Mon Aug 22 18:07:20 2022
 
Total wallclock time:    0 days    0 h   19 min   55 sec
 -------------------------------------------------------------------------------
 -----------
 SHARC fun fact #5: SHARC can detect electromagnetic radiation.
 -------------------------------------------------------------------------------
 -----------
