! 1 Hamiltonian Matrix (3x3, complex)
3 3
-7.802163275E+001  0.000000000E+000  0.000000000E+000  0.000000000E+000  0.000000000E+000  0.000000000E+000 
 0.000000000E+000  0.000000000E+000 -7.765375587E+001  0.000000000E+000  0.000000000E+000  0.000000000E+000 
 0.000000000E+000  0.000000000E+000  0.000000000E+000  0.000000000E+000 -7.746149301E+001  0.000000000E+000 

! 2 Dipole Moment Matrices (3x3x3, complex)
3 3
 8.692779490E-003  0.000000000E+000 -1.348308850E+000  0.000000000E+000  6.386251270E-003  0.000000000E+000 
-1.348308850E+000  0.000000000E+000 -6.256570880E-003  0.000000000E+000 -1.979475270E+000  0.000000000E+000 
 6.386251270E-003  0.000000000E+000 -1.979475270E+000  0.000000000E+000 -4.968646380E-002  0.000000000E+000 
3 3
 2.140271940E-002  0.000000000E+000  3.214980180E-002  0.000000000E+000  6.784812110E-003  0.000000000E+000 
 3.214980180E-002  0.000000000E+000  4.131862760E-003  0.000000000E+000  4.726636470E-002  0.000000000E+000 
 6.784812110E-003  0.000000000E+000  4.726636470E-002  0.000000000E+000 -1.245923300E-002  0.000000000E+000 
3 3
 1.165978450E-001  0.000000000E+000 -5.721855080E-001  0.000000000E+000 -2.317747320E-002  0.000000000E+000 
-5.721855080E-001  0.000000000E+000  1.760348470E-001  0.000000000E+000 -8.402842020E-001  0.000000000E+000 
-2.317747320E-002  0.000000000E+000 -8.402842020E-001  0.000000000E+000  2.233830370E-001  0.000000000E+000 
! 8 Runtime
 3.643443000E+000
