#                    1                    2                    3                    4
#               Time |      f_osc (state) |       === f_osc ===>
#               [fs] |                 [] |                 [] |
   0.000000000000E+000  5.203424564266E-001  0.000000000000E+000  5.203424564266E-001
   5.000000000000E-001  5.357511912333E-001  0.000000000000E+000  5.357511912333E-001
   1.000000000000E+000  5.418445770965E-001  0.000000000000E+000  5.418445770965E-001
   1.500000000000E+000  5.413015708192E-001  0.000000000000E+000  5.413015708192E-001
   2.000000000000E+000  5.360306554625E-001  0.000000000000E+000  5.360306554625E-001
   2.500000000000E+000  5.270934917987E-001  0.000000000000E+000  5.270934917987E-001
   3.000000000000E+000  5.150039420667E-001  0.000000000000E+000  5.150039420667E-001
   3.500000000000E+000  4.999617338220E-001  0.000000000000E+000  4.999617338220E-001
   4.000000000000E+000  4.819702250466E-001  0.000000000000E+000  4.819702250466E-001
   4.500000000000E+000  4.609272941100E-001  0.000000000000E+000  4.609272941100E-001
   5.000000000000E+000  4.367514087945E-001  0.000000000000E+000  4.367514087945E-001
   5.500000000000E+000  4.095002305452E-001  0.000000000000E+000  4.095002305452E-001
   6.000000000000E+000  3.794729114185E-001  0.000000000000E+000  3.794729114185E-001
   6.500000000000E+000  3.472798005691E-001  0.000000000000E+000  3.472798005691E-001
   7.000000000000E+000  3.138277330277E-001  0.000000000000E+000  3.138277330277E-001
   7.500000000000E+000  2.801767061663E-001  0.000000000000E+000  2.801767061663E-001
   8.000000000000E+000  2.473392187982E-001  0.000000000000E+000  2.473392187982E-001
   8.500000000000E+000  2.161049875598E-001  0.000000000000E+000  2.161049875598E-001
   9.000000000000E+000  1.869589102080E-001  0.000000000000E+000  1.869589102080E-001
   9.500000000000E+000  1.601077236836E-001  0.000000000000E+000  1.601077236836E-001
   1.000000000000E+001  1.355479933712E-001  0.000000000000E+000  1.355479933712E-001
   1.050000000000E+001  1.131590575952E-001  0.000000000000E+000  1.131590575952E-001
   1.100000000000E+001  9.278281647096E-002  0.000000000000E+000  9.278281647096E-002
   1.150000000000E+001  7.428686277758E-002  0.000000000000E+000  7.428686277758E-002
   1.200000000000E+001  5.760580749314E-002  0.000000000000E+000  5.760580749314E-002
   1.250000000000E+001  4.276855463887E-002  0.000000000000E+000  4.276855463887E-002
   1.300000000000E+001  2.988918754546E-002  0.000000000000E+000  2.988918754546E-002
   1.350000000000E+001  1.911899426524E-002  0.000000000000E+000  1.911899426524E-002
   1.400000000000E+001  1.053395848507E-002  0.000000000000E+000  1.053395848507E-002
   1.450000000000E+001  4.020801682901E-003  0.000000000000E+000  4.020801682901E-003
   1.500000000000E+001  0.000000000000E+000  0.000000000000E+000  7.632777304067E-004
   1.550000000000E+001  0.000000000000E+000  0.000000000000E+000  4.126942277160E-003
   1.600000000000E+001  0.000000000000E+000  0.000000000000E+000  6.653670379202E-003
   1.650000000000E+001  0.000000000000E+000  0.000000000000E+000  8.715437339843E-003
   1.700000000000E+001  0.000000000000E+000  0.000000000000E+000  1.059709053595E-002
   1.750000000000E+001  0.000000000000E+000  0.000000000000E+000  1.252503781435E-002
   1.800000000000E+001  0.000000000000E+000  0.000000000000E+000  1.470480251258E-002
   1.850000000000E+001  0.000000000000E+000  0.000000000000E+000  1.733978678417E-002
   1.900000000000E+001  0.000000000000E+000  0.000000000000E+000  2.063328937611E-002
   1.950000000000E+001  0.000000000000E+000  0.000000000000E+000  2.476980308640E-002
   2.000000000000E+001  0.000000000000E+000  0.000000000000E+000  2.986461629523E-002
   2.050000000000E+001  0.000000000000E+000  0.000000000000E+000  3.588171870633E-002
   2.100000000000E+001  0.000000000000E+000  0.000000000000E+000  4.254187030186E-002
   2.150000000000E+001  0.000000000000E+000  0.000000000000E+000  4.928246137466E-002
   2.200000000000E+001  0.000000000000E+000  0.000000000000E+000  5.531472608739E-002
   2.250000000000E+001  0.000000000000E+000  0.000000000000E+000  5.977585464328E-002
   2.300000000000E+001  0.000000000000E+000  0.000000000000E+000  6.189715086074E-002
   2.350000000000E+001  0.000000000000E+000  0.000000000000E+000  6.112666099807E-002
   2.400000000000E+001  0.000000000000E+000  0.000000000000E+000  5.720521325885E-002
   2.450000000000E+001  0.000000000000E+000  0.000000000000E+000  5.024222201136E-002
   2.500000000000E+001  0.000000000000E+000  0.000000000000E+000  4.085635290764E-002
   2.550000000000E+001  0.000000000000E+000  0.000000000000E+000  3.041081648460E-002
   2.600000000000E+001  0.000000000000E+000  0.000000000000E+000  2.117138291455E-002
   2.650000000000E+001  0.000000000000E+000  0.000000000000E+000  1.568598118081E-002
   2.700000000000E+001  0.000000000000E+000  0.000000000000E+000  1.491539678544E-002
   2.750000000000E+001  0.000000000000E+000  0.000000000000E+000  1.679604718989E-002
   2.800000000000E+001  0.000000000000E+000  0.000000000000E+000  1.817177480635E-002
   2.850000000000E+001  0.000000000000E+000  0.000000000000E+000  1.813585165200E-002
   2.900000000000E+001  0.000000000000E+000  0.000000000000E+000  1.708127279645E-002
   2.950000000000E+001  0.000000000000E+000  0.000000000000E+000  1.534343585248E-002
   3.000000000000E+001  0.000000000000E+000  0.000000000000E+000  1.320050962467E-002
   3.050000000000E+001  0.000000000000E+000  0.000000000000E+000  1.098496455851E-002
   3.100000000000E+001  0.000000000000E+000  0.000000000000E+000  9.006045232847E-003
   3.150000000000E+001  0.000000000000E+000  0.000000000000E+000  7.443852795631E-003
   3.200000000000E+001  0.000000000000E+000  0.000000000000E+000  6.336887553122E-003
   3.250000000000E+001  0.000000000000E+000  0.000000000000E+000  5.633588340641E-003
   3.300000000000E+001  0.000000000000E+000  0.000000000000E+000  5.247578255524E-003
   3.350000000000E+001  0.000000000000E+000  0.000000000000E+000  5.096816134112E-003
   3.400000000000E+001  0.000000000000E+000  0.000000000000E+000  5.125065918330E-003
   3.450000000000E+001  0.000000000000E+000  0.000000000000E+000  5.306252115388E-003
   3.500000000000E+001  0.000000000000E+000  0.000000000000E+000  5.633158910424E-003
   3.550000000000E+001  0.000000000000E+000  0.000000000000E+000  6.099749202658E-003
   3.600000000000E+001  0.000000000000E+000  0.000000000000E+000  6.690301147084E-003
   3.650000000000E+001  0.000000000000E+000  0.000000000000E+000  7.380507377319E-003
   3.700000000000E+001  0.000000000000E+000  0.000000000000E+000  8.143619142376E-003
   3.750000000000E+001  0.000000000000E+000  0.000000000000E+000  8.956106814081E-003
   3.800000000000E+001  0.000000000000E+000  0.000000000000E+000  9.799888215425E-003
   3.850000000000E+001  0.000000000000E+000  0.000000000000E+000  1.066198571565E-002
   3.900000000000E+001  0.000000000000E+000  0.000000000000E+000  1.153391749452E-002
   3.950000000000E+001  0.000000000000E+000  0.000000000000E+000  1.241119531324E-002
   4.000000000000E+001  0.000000000000E+000  0.000000000000E+000  1.329332844070E-002
   4.050000000000E+001  0.000000000000E+000  0.000000000000E+000  1.418236882683E-002
   4.100000000000E+001  0.000000000000E+000  0.000000000000E+000  1.508068451851E-002
   4.150000000000E+001  0.000000000000E+000  0.000000000000E+000  1.598710322569E-002
   4.200000000000E+001  0.000000000000E+000  0.000000000000E+000  1.689228165483E-002
   4.250000000000E+001  0.000000000000E+000  0.000000000000E+000  1.777390157917E-002
   4.300000000000E+001  0.000000000000E+000  0.000000000000E+000  1.859292513658E-002
   4.350000000000E+001  0.000000000000E+000  0.000000000000E+000  1.929017223194E-002
   4.400000000000E+001  0.000000000000E+000  0.000000000000E+000  1.978754036605E-002
   4.450000000000E+001  0.000000000000E+000  0.000000000000E+000  1.999439634049E-002
   4.500000000000E+001  0.000000000000E+000  0.000000000000E+000  1.982546197950E-002
   4.550000000000E+001  0.000000000000E+000  0.000000000000E+000  1.922780154190E-002
   4.600000000000E+001  0.000000000000E+000  0.000000000000E+000  1.820635542876E-002
   4.650000000000E+001  0.000000000000E+000  0.000000000000E+000  1.683295697201E-002
   4.700000000000E+001  0.000000000000E+000  0.000000000000E+000  1.522829227439E-002
   4.750000000000E+001  0.000000000000E+000  0.000000000000E+000  1.352617107208E-002
   4.800000000000E+001  0.000000000000E+000  0.000000000000E+000  1.184089857561E-002
   4.850000000000E+001  0.000000000000E+000  0.000000000000E+000  1.025214297718E-002
   4.900000000000E+001  0.000000000000E+000  0.000000000000E+000  8.805317858908E-003
   4.950000000000E+001  0.000000000000E+000  0.000000000000E+000  7.520953462518E-003
   5.000000000000E+001  0.000000000000E+000  0.000000000000E+000  6.404156839193E-003
   5.050000000000E+001  0.000000000000E+000  0.000000000000E+000  5.450736839016E-003
   5.100000000000E+001  0.000000000000E+000  0.000000000000E+000  4.650744852415E-003
   5.150000000000E+001  0.000000000000E+000  0.000000000000E+000  3.990716591860E-003
   5.200000000000E+001  0.000000000000E+000  0.000000000000E+000  3.455444687269E-003
   5.250000000000E+001  0.000000000000E+000  0.000000000000E+000  3.029646625673E-003
   5.300000000000E+001  0.000000000000E+000  0.000000000000E+000  2.699358808354E-003
   5.350000000000E+001  0.000000000000E+000  0.000000000000E+000  2.452820650030E-003
   5.400000000000E+001  0.000000000000E+000  0.000000000000E+000  2.280838864031E-003
   5.450000000000E+001  0.000000000000E+000  0.000000000000E+000  2.176798887050E-003
   5.500000000000E+001  0.000000000000E+000  0.000000000000E+000  2.136068534218E-003
   5.550000000000E+001  0.000000000000E+000  0.000000000000E+000  2.154844487746E-003
   5.600000000000E+001  0.000000000000E+000  0.000000000000E+000  2.228974587801E-003
   5.650000000000E+001  0.000000000000E+000  0.000000000000E+000  2.353405979237E-003
   5.700000000000E+001  0.000000000000E+000  0.000000000000E+000  2.523847962526E-003
   5.750000000000E+001  0.000000000000E+000  0.000000000000E+000  2.739121336376E-003
   5.800000000000E+001  0.000000000000E+000  0.000000000000E+000  3.001608669029E-003
   5.850000000000E+001  0.000000000000E+000  0.000000000000E+000  3.314510322019E-003
   5.900000000000E+001  0.000000000000E+000  0.000000000000E+000  3.678031257013E-003
   5.950000000000E+001  0.000000000000E+000  0.000000000000E+000  4.087044888092E-003
   6.000000000000E+001  0.000000000000E+000  0.000000000000E+000  4.531344145492E-003
   6.050000000000E+001  0.000000000000E+000  0.000000000000E+000  4.997971468733E-003
   6.100000000000E+001  0.000000000000E+000  0.000000000000E+000  5.474734260808E-003
   6.150000000000E+001  0.000000000000E+000  0.000000000000E+000  5.953205283071E-003
   6.200000000000E+001  0.000000000000E+000  0.000000000000E+000  6.430757308659E-003
   6.250000000000E+001  0.000000000000E+000  0.000000000000E+000  6.910642292097E-003
   6.300000000000E+001  0.000000000000E+000  0.000000000000E+000  7.400482393389E-003
   6.350000000000E+001  0.000000000000E+000  0.000000000000E+000  7.909717892406E-003
   6.400000000000E+001  0.000000000000E+000  0.000000000000E+000  8.446065715245E-003
   6.450000000000E+001  0.000000000000E+000  0.000000000000E+000  9.011242063054E-003
   6.500000000000E+001  0.000000000000E+000  0.000000000000E+000  9.595904768387E-003
   6.550000000000E+001  0.000000000000E+000  0.000000000000E+000  1.017514640262E-002
   6.600000000000E+001  0.000000000000E+000  0.000000000000E+000  1.070510990805E-002
   6.650000000000E+001  0.000000000000E+000  0.000000000000E+000  1.112432889452E-002
   6.700000000000E+001  0.000000000000E+000  0.000000000000E+000  1.136164842624E-002
   6.750000000000E+001  0.000000000000E+000  0.000000000000E+000  1.135182248598E-002
   6.800000000000E+001  0.000000000000E+000  0.000000000000E+000  1.105616481143E-002
   6.850000000000E+001  0.000000000000E+000  0.000000000000E+000  1.047963064861E-002
   6.900000000000E+001  0.000000000000E+000  0.000000000000E+000  9.673471989321E-003
   6.950000000000E+001  0.000000000000E+000  0.000000000000E+000  8.720851152600E-003
   7.000000000000E+001  0.000000000000E+000  0.000000000000E+000  7.712813671265E-003
   7.050000000000E+001  0.000000000000E+000  0.000000000000E+000  6.727968459257E-003
   7.100000000000E+001  0.000000000000E+000  0.000000000000E+000  5.821893049480E-003
   7.150000000000E+001  0.000000000000E+000  0.000000000000E+000  5.025643546988E-003
   7.200000000000E+001  0.000000000000E+000  0.000000000000E+000  4.349868983133E-003
   7.250000000000E+001  0.000000000000E+000  0.000000000000E+000  3.790920809363E-003
   7.300000000000E+001  0.000000000000E+000  0.000000000000E+000  3.336648821577E-003
   7.350000000000E+001  0.000000000000E+000  0.000000000000E+000  2.970827507937E-003
   7.400000000000E+001  0.000000000000E+000  0.000000000000E+000  2.676331415089E-003
   7.450000000000E+001  0.000000000000E+000  0.000000000000E+000  2.437512239525E-003
   7.500000000000E+001  0.000000000000E+000  0.000000000000E+000  2.241728489501E-003
   7.550000000000E+001  0.000000000000E+000  0.000000000000E+000  2.080498214703E-003
   7.600000000000E+001  0.000000000000E+000  0.000000000000E+000  1.949697773649E-003
   7.650000000000E+001  0.000000000000E+000  0.000000000000E+000  1.849129219258E-003
   7.700000000000E+001  0.000000000000E+000  0.000000000000E+000  1.781125952187E-003
   7.750000000000E+001  0.000000000000E+000  0.000000000000E+000  1.748844007882E-003
   7.800000000000E+001  0.000000000000E+000  0.000000000000E+000  1.754457496843E-003
   7.850000000000E+001  0.000000000000E+000  0.000000000000E+000  1.798275072414E-003
   7.900000000000E+001  0.000000000000E+000  0.000000000000E+000  1.879111374607E-003
   7.950000000000E+001  0.000000000000E+000  0.000000000000E+000  1.995452183784E-003
   8.000000000000E+001  0.000000000000E+000  0.000000000000E+000  2.146371040772E-003
   8.050000000000E+001  0.000000000000E+000  0.000000000000E+000  2.331464629440E-003
   8.100000000000E+001  0.000000000000E+000  0.000000000000E+000  2.549642092936E-003
   8.150000000000E+001  0.000000000000E+000  0.000000000000E+000  2.798559492712E-003
   8.200000000000E+001  0.000000000000E+000  0.000000000000E+000  3.074582891448E-003
   8.250000000000E+001  0.000000000000E+000  0.000000000000E+000  3.374635299496E-003
   8.300000000000E+001  0.000000000000E+000  0.000000000000E+000  3.698379121200E-003
   8.350000000000E+001  0.000000000000E+000  0.000000000000E+000  4.049758577872E-003
   8.400000000000E+001  0.000000000000E+000  0.000000000000E+000  4.437488561435E-003
   8.450000000000E+001  0.000000000000E+000  0.000000000000E+000  4.874250581737E-003
   8.500000000000E+001  0.000000000000E+000  0.000000000000E+000  5.375203857685E-003
   8.550000000000E+001  0.000000000000E+000  0.000000000000E+000  5.955846236334E-003
   8.600000000000E+001  0.000000000000E+000  0.000000000000E+000  6.629500616618E-003
   8.650000000000E+001  0.000000000000E+000  0.000000000000E+000  7.403921264960E-003
   8.700000000000E+001  0.000000000000E+000  0.000000000000E+000  8.276918562360E-003
   8.750000000000E+001  0.000000000000E+000  0.000000000000E+000  9.230632646473E-003
   8.800000000000E+001  0.000000000000E+000  0.000000000000E+000  1.022503737175E-002
   8.850000000000E+001  0.000000000000E+000  0.000000000000E+000  1.119322144476E-002
   8.900000000000E+001  0.000000000000E+000  0.000000000000E+000  1.204247315110E-002
   8.950000000000E+001  0.000000000000E+000  0.000000000000E+000  1.266710064503E-002
   9.000000000000E+001  0.000000000000E+000  0.000000000000E+000  1.297348658952E-002
   9.050000000000E+001  0.000000000000E+000  0.000000000000E+000  1.291082127624E-002
   9.100000000000E+001  0.000000000000E+000  0.000000000000E+000  1.248969689327E-002
   9.150000000000E+001  0.000000000000E+000  0.000000000000E+000  1.177849565303E-002
   9.200000000000E+001  0.000000000000E+000  0.000000000000E+000  1.087851545594E-002
   9.250000000000E+001  0.000000000000E+000  0.000000000000E+000  9.893753133513E-003
   9.300000000000E+001  0.000000000000E+000  0.000000000000E+000  8.908828901862E-003
   9.350000000000E+001  0.000000000000E+000  0.000000000000E+000  7.980863625550E-003
   9.400000000000E+001  0.000000000000E+000  0.000000000000E+000  7.141189047114E-003
   9.450000000000E+001  0.000000000000E+000  0.000000000000E+000  6.401343528135E-003
   9.500000000000E+001  0.000000000000E+000  0.000000000000E+000  5.759532128448E-003
   9.550000000000E+001  0.000000000000E+000  0.000000000000E+000  5.205959795663E-003
   9.600000000000E+001  0.000000000000E+000  0.000000000000E+000  4.726772697523E-003
   9.650000000000E+001  0.000000000000E+000  0.000000000000E+000  4.306995608658E-003
   9.700000000000E+001  0.000000000000E+000  0.000000000000E+000  3.932835877431E-003
   9.750000000000E+001  0.000000000000E+000  0.000000000000E+000  3.593505240699E-003
   9.800000000000E+001  0.000000000000E+000  0.000000000000E+000  3.282383569061E-003
   9.850000000000E+001  0.000000000000E+000  0.000000000000E+000  2.997043293840E-003
   9.900000000000E+001  0.000000000000E+000  0.000000000000E+000  2.738317717948E-003
   9.950000000000E+001  0.000000000000E+000  0.000000000000E+000  2.508389115661E-003
   1.000000000000E+002  0.000000000000E+000  0.000000000000E+000  2.308969801024E-003
