#                    1                    2                    3                    4                    5                    6
#               Time |           Sum c**2 |  === coeff_diag ===>
#               [fs] |                 [] |                 [] |
   0.000000000000E+000  1.000000000000E+000  0.000000000000E+000  0.000000000000E+000  1.000000000000E+000  0.000000000000E+000
   5.000000000000E-001  1.000000000000E+000 -1.281481725847E-004  1.516121599260E-004  1.237751130330E-001 -9.923102750579E-001
   1.000000000000E+000  9.999999999999E-001  1.124668205001E-004  2.375401026995E-004 -9.712887863532E-001 -2.379033930619E-001
   1.500000000000E+000  1.000000000000E+000  2.348021343079E-004 -1.871515587123E-005 -3.804856408170E-001  9.247867979431E-001
   2.000000000000E+000  1.000000000000E+000  4.218126242509E-005 -1.656553712502E-004  8.157655324372E-001  5.783827166042E-001
   2.500000000000E+000  1.000000000000E+000 -9.011990199309E-005 -6.040866492259E-005  8.070746386777E-001 -5.904494185216E-001
   3.000000000000E+000  1.000000000000E+000 -5.078771946054E-005  3.033526863227E-005 -2.078774144365E-001 -9.781548839870E-001
   3.500000000000E+000  1.000000000000E+000 -7.168292258682E-007  2.456114389184E-005 -9.455056079585E-001 -3.256058118574E-001
   4.000000000000E+000  9.999999999999E-001  1.434842438449E-005 -7.469505851220E-006 -8.612717205334E-001  5.081446872178E-001
   4.500000000000E+000  9.999999999999E-001 -3.799272654659E-006 -6.146528534528E-005 -3.705963594861E-001  9.287940215910E-001
   5.000000000000E+000  1.000000000000E+000 -8.916280199501E-005 -1.100938262634E-004  7.548111622414E-002  9.971472213384E-001
   5.500000000000E+000  1.000000000000E+000 -2.241630867814E-004 -9.188058501880E-005  3.707337177005E-001  9.287391732176E-001
   6.000000000000E+000  1.000000000000E+000 -3.339564562638E-004  1.864324335006E-005  5.654692605095E-001  8.247693032263E-001
   6.500000000000E+000  9.999999999999E-001 -3.383172502029E-004  1.696205307041E-004  7.094306993007E-001  7.047750986378E-001
   7.000000000000E+000  1.000000000000E+000 -2.400803770956E-004  2.546929437166E-004  8.192646079421E-001  5.734155383895E-001
   7.500000000000E+000  1.000000000000E+000 -1.271378855973E-004  2.327832801070E-004  8.944676320232E-001  4.471326256389E-001
   8.000000000000E+000  1.000000000000E+000 -5.363758167106E-005  1.522387602510E-004  9.365319119928E-001  3.505823038397E-001
   8.500000000000E+000  1.000000000000E+000 -4.262186390666E-005  1.284873293265E-004  9.527648936568E-001  3.037088064076E-001
   9.000000000000E+000  1.000000000000E+000 -1.594843113249E-004  5.902694983331E-004  9.488087804396E-001  3.158504777699E-001
   9.500000000000E+000  1.000000000000E+000 -8.578431752347E-004  3.013531542556E-003  9.214249133316E-001  3.885438351392E-001
   1.000000000000E+001  1.000000000000E+000 -3.959923791517E-003  8.824330405914E-003  8.546621958067E-001  5.190943856904E-001
   1.050000000000E+001  1.000000000000E+000 -9.314709881181E-003  1.031602781336E-002  7.236551205013E-001  6.900217984399E-001
   1.100000000000E+001  1.000000000000E+000 -9.363408146495E-003  4.344236469140E-003  5.136994802337E-001  8.579080942648E-001
   1.150000000000E+001  1.000000000000E+000 -6.588448231737E-003  9.165374751207E-004  2.430823043559E-001  9.699828584145E-001
   1.200000000000E+001  1.000000000000E+000 -4.261396332835E-003 -9.394142104183E-004 -3.038381362677E-002  9.995287799117E-001
   1.250000000000E+001  1.000000000000E+000 -2.496902686575E-003 -1.255101187591E-003 -2.321678405989E-001  9.726717246788E-001
   1.300000000000E+001  1.000000000000E+000 -1.444191487742E-003 -1.042940612486E-003 -3.051431760092E-001  9.523048192259E-001
   1.350000000000E+001  1.000000000000E+000 -9.075707403208E-004 -6.149219956815E-004 -2.142841969776E-001  9.767707413267E-001
   1.400000000000E+001  1.000000000000E+000 -5.727167484735E-004 -2.213388433168E-004  5.896704605656E-002  9.982597409913E-001
   1.450000000000E+001  9.999999999999E-001 -2.925116216077E-004  2.031067802245E-005  4.690252975510E-001  8.831846829976E-001
   1.500000000000E+001  1.000000000000E+000 -6.992784722912E-005  7.913668408503E-005  8.523183440748E-001  5.230233543553E-001
   1.550000000000E+001  1.000000000000E+000  3.913441563848E-005  2.836163828368E-005  9.991483440234E-001 -4.126238358836E-002
   1.600000000000E+001  1.000000000000E+000  4.748023608747E-005 -2.894868174478E-005  7.722847128357E-001 -6.352765690846E-001
   1.650000000000E+001  1.000000000000E+000  1.288874071690E-005 -4.642535841658E-005  1.381080440362E-001 -9.904171675870E-001
   1.700000000000E+001  1.000000000000E+000 -1.520093965850E-005 -2.758602829704E-005 -6.912752820291E-001 -7.225915052528E-001
   1.750000000000E+001  1.000000000000E+000 -1.537575482570E-005 -2.986235121371E-006 -9.569661066332E-001  2.901997079772E-001
   1.800000000000E+001  1.000000000000E+000 -4.807423617023E-006  5.499633004650E-006  2.091605052778E-002  9.997812354595E-001
   1.850000000000E+001  1.000000000000E+000  7.379280662156E-006  5.040292298894E-006  9.936950238368E-001  1.121169011443E-001
   1.900000000000E+001  1.000000000000E+000  9.781675255583E-006 -1.374586910602E-005  1.869476934285E-001 -9.823698690601E-001
   1.950000000000E+001  1.000000000000E+000 -1.078960061372E-005 -1.541846168515E-005 -9.599561137168E-001 -2.801504227796E-001
   2.000000000000E+001  9.999999999999E-001 -1.266493883130E-005 -1.134073860810E-005 -4.361449034147E-001  8.998764487063E-001
   2.050000000000E+001  9.999999999999E-001 -4.966801649726E-005 -1.200548522517E-005  7.565756470397E-001  6.539061765233E-001
   2.100000000000E+001  1.000000000000E+000 -7.024381347495E-005  8.413325497162E-005  8.781399087401E-001 -4.784038970006E-001
   2.150000000000E+001  1.000000000000E+000  8.109302111633E-005  1.553265812689E-004 -4.641904247168E-002 -9.989220398978E-001
   2.200000000000E+001  1.000000000000E+000  2.245916891205E-004 -1.706912629279E-005 -8.810618345148E-001 -4.730010497120E-001
   2.250000000000E+001  1.000000000000E+000  7.442407407152E-005 -2.131503881641E-004 -8.978206166283E-001  4.403613168583E-001
   2.300000000000E+001  1.000000000000E+000 -1.154531800829E-004 -7.823451687425E-005 -2.513461946623E-001  9.678972419522E-001
   2.350000000000E+001  1.000000000000E+000  9.587858980766E-005  1.069025973306E-004  4.772289124744E-001  8.787790077589E-001
   2.400000000000E+001  1.000000000000E+000  4.773747682052E-004 -1.893537740069E-004  8.913578728275E-001  4.532999876538E-001
   2.450000000000E+001  1.000000000000E+000  5.546200909393E-004 -9.021205186014E-004  9.980259353553E-001  6.279419506066E-002
   2.500000000000E+001  1.000000000000E+000  3.867941114950E-004 -1.792039753463E-003  9.927079212944E-001 -1.205305852604E-001
   2.550000000000E+001  1.000000000000E+000  3.579057372404E-004 -3.010691691362E-003  9.957201190002E-001 -9.237019138919E-002
   2.600000000000E+001  1.000000000000E+000  9.713905603544E-004 -4.952919777072E-003  9.958554593383E-001  9.080985129469E-002
   2.650000000000E+001  1.000000000000E+000  3.011951194656E-003 -8.100121573571E-003  9.399492647542E-001  3.412047711691E-001
   2.700000000000E+001  1.000000000000E+000  7.694042389107E-003 -1.281454802546E-002  8.203122481797E-001  5.717205650989E-001
   2.750000000000E+001  9.999999999999E-001  1.590968455460E-002 -1.754061670544E-002  6.690823849473E-001  7.428108580629E-001
   2.800000000000E+001  1.000000000000E+000  2.410728124856E-002 -1.630969845395E-002  5.157434886324E-001  8.562484958588E-001
   2.850000000000E+001  1.000000000000E+000  2.323422412558E-002 -7.995022510005E-003  3.806424742282E-001  9.243957795543E-001
   2.900000000000E+001  1.000000000000E+000  1.513244012116E-002 -2.667553824532E-003  2.823295406270E-001  9.591944140277E-001
   2.950000000000E+001  1.000000000000E+000  9.176609755799E-003 -1.157818202155E-003  2.422082261700E-001  9.701802020584E-001
   3.000000000000E+001  9.999999999999E-001  5.447813988086E-003 -7.920355123419E-004  2.877262311343E-001  9.576968778897E-001
   3.050000000000E+001  1.000000000000E+000  3.318266852854E-003 -1.019678333387E-003  4.430716736085E-001  8.964794707114E-001
   3.100000000000E+001  1.000000000000E+000  1.832392783899E-003 -1.228210005526E-003  6.962865787540E-001  7.177604991109E-001
   3.150000000000E+001  1.000000000000E+000  7.143450346114E-004 -1.230617689940E-003  9.439813089160E-001  3.299958540777E-001
   3.200000000000E+001  9.999999999999E-001 -8.513191376803E-005 -8.770046653383E-004  9.622754707848E-001 -2.720756180572E-001
   3.250000000000E+001  1.000000000000E+000 -3.815588903178E-004 -3.163817550057E-004  5.231679120450E-001 -8.522294820774E-001
   3.300000000000E+001  9.999999999999E-001 -1.964823729248E-004  7.028501613602E-005 -3.035865551106E-001 -9.528038413077E-001
   3.350000000000E+001  1.000000000000E+000  7.785774393725E-005  6.093621571190E-006 -9.524057022307E-001 -3.048333516194E-001
   3.400000000000E+001  1.000000000000E+000 -2.898454027238E-005 -2.434597827261E-004 -7.584788129619E-001  6.516976524242E-001
   3.450000000000E+001  1.000000000000E+000 -3.763189277749E-004 -1.187729292086E-004  1.875355000771E-001  9.822577464637E-001
   3.500000000000E+001  1.000000000000E+000 -3.596171593833E-004  3.362290521955E-004  9.400786100088E-001  3.409574234850E-001
   3.550000000000E+001  1.000000000000E+000  8.215832025886E-005  5.245813937909E-004  8.081506969807E-001 -5.889755249872E-001
   3.600000000000E+001  1.000000000000E+000  4.496491854326E-004  2.623628271920E-004  3.804989947968E-002 -9.992757047637E-001
   3.650000000000E+001  1.000000000000E+000  4.570726931415E-004 -1.428041468177E-004 -7.217360794335E-001 -6.921681893410E-001
   3.700000000000E+001  9.999999999999E-001  1.764911705506E-004 -3.840409203719E-004 -9.975788037358E-001  6.954388327093E-002
   3.750000000000E+001  1.000000000000E+000 -1.721156251692E-004 -3.213277676582E-004 -5.744732019319E-001  8.185233090064E-001
   3.800000000000E+001  1.000000000000E+000 -3.127038409040E-004 -7.106229747124E-007  3.827574070448E-001  9.238488348037E-001
   3.850000000000E+001  1.000000000000E+000 -8.789855924251E-005  2.596611032043E-004  9.996528379165E-001  2.634631844215E-002
   3.900000000000E+001  1.000000000000E+000  2.223970571353E-004  1.409739567040E-004  3.086432751474E-001 -9.511778274183E-001
   3.950000000000E+001  9.999999999999E-001  2.326433608686E-004 -2.187545995444E-004 -8.616665884033E-001 -5.074747170577E-001
   4.000000000000E+001  1.000000000000E+000 -2.479027292713E-004 -4.028001520612E-004 -6.965760087007E-001  7.174828502473E-001
   4.050000000000E+001  1.000000000000E+000 -6.435870967885E-004  2.202119181872E-004  4.461483376538E-001  8.949587689448E-001
   4.100000000000E+001  1.000000000000E+000 -5.214480183390E-005  9.104902846788E-004  9.998784698401E-001  1.556322070051E-002
   4.150000000000E+001  1.000000000000E+000  9.923028000212E-004  6.747484866700E-004  5.875447091184E-001 -8.091908148494E-001
   4.200000000000E+001  1.000000000000E+000  1.454211540826E-003 -5.027211282426E-004 -2.353371526271E-001 -9.719125768986E-001
   4.250000000000E+001  1.000000000000E+000  6.820763755408E-004 -1.829166307528E-003 -8.771534989779E-001 -4.802061308993E-001
   4.300000000000E+001  1.000000000000E+000 -1.221753341718E-003 -2.063443127264E-003 -9.360507649911E-001  3.518568101954E-001
   4.350000000000E+001  1.000000000000E+000 -2.688541246555E-003 -2.883437128876E-004 -2.690210356356E-001  9.631305056894E-001
   4.400000000000E+001  1.000000000000E+000 -1.711014436003E-003  1.712072406139E-003  6.975817284966E-001  7.165011328012E-001
   4.450000000000E+001  1.000000000000E+000 -1.270039985251E-003  1.217211461961E-003  9.410001360373E-001 -3.384016095890E-001
   4.500000000000E+001  9.999999999999E-001 -4.206042643834E-003  6.130852465855E-003  2.095316190814E-002 -9.997528128789E-001
   4.550000000000E+001  1.000000000000E+000  1.091255631185E-002  2.018462775176E-002 -9.273221173356E-001 -3.735601526093E-001
   4.600000000000E+001  1.000000000000E+000  5.637821755354E-002 -6.207597590722E-003 -7.091655065972E-001  7.027568900910E-001
   4.650000000000E+001  1.000000000000E+000  3.811543361369E-002 -1.202211740137E-001  2.996009672627E-001  9.456919918528E-001
   4.700000000000E+001  9.999999999999E-001 -1.764793326918E-001 -1.801059258073E-001  9.442957907188E-001  2.114766186897E-001
   4.750000000000E+001  9.999999999999E-001 -4.024406212454E-001  7.326979894503E-002  6.248446566719E-001 -6.650129607479E-001
   4.800000000000E+001  1.000000000000E+000 -2.630010612420E-001  4.296345540556E-001 -2.651458752019E-001 -8.221570753880E-001
   4.850000000000E+001  1.000000000000E+000  7.768347092532E-002  5.062460073640E-001 -8.464771364460E-001 -1.454534834481E-001
   4.900000000000E+001  1.000000000000E+000  3.073338250342E-001  3.597249873893E-001 -5.277339713508E-001  7.054365378402E-001
   4.950000000000E+001  1.000000000000E+000  3.813462929235E-001  1.896686954163E-001  4.088211253877E-001  8.071344858754E-001
   5.000000000000E+001  1.000000000000E+000  3.867302277649E-001  7.091942802986E-002  9.190314744009E-001 -2.813031676509E-002
   5.050000000000E+001  1.000000000000E+000  3.654849014474E-001 -1.086062463735E-002  3.515783316962E-001 -8.617978361125E-001
   5.100000000000E+001  9.999999999999E-001  3.090534205043E-001 -4.954000296263E-002 -6.518745612372E-001 -6.907179799258E-001
   5.150000000000E+001  9.999999999999E-001  2.258878913965E-001 -1.684282612537E-002 -9.387387012333E-001  2.597318435142E-001
   5.200000000000E+001  1.000000000000E+000  1.404572637508E-001  7.141188221225E-002 -2.953428626311E-001  9.423081733867E-001
   5.250000000000E+001  1.000000000000E+000  5.971876490417E-002  1.483946625589E-001  5.793537713739E-001  7.992258134202E-001
   5.300000000000E+001  1.000000000000E+000 -9.635818097166E-003  1.521201662201E-001  9.873883290228E-001  4.278894423033E-002
   5.350000000000E+001  9.999999999999E-001 -4.620800982134E-002  7.786094796628E-002  6.655207623405E-001 -7.408674695948E-001
   5.400000000000E+001  9.999999999999E-001 -3.986598182403E-002 -1.687767129754E-002 -1.415619082584E-001 -9.889823425294E-001
   5.450000000000E+001  1.000000000000E+000 -9.330270689536E-003 -6.511140716646E-002 -8.524550944152E-001 -5.186460861814E-001
   5.500000000000E+001  1.000000000000E+000  1.358925988578E-002 -4.959617801813E-002 -9.407338036283E-001  3.352244947089E-001
   5.550000000000E+001  1.000000000000E+000  1.381080087606E-002 -5.764916394046E-003 -3.406822530653E-001  9.400593757654E-001
   5.600000000000E+001  1.000000000000E+000  6.424670725181E-004  2.336277972887E-002  4.867731345831E-001  8.732157140178E-001
   5.650000000000E+001  1.000000000000E+000 -8.745565345111E-003  2.367683779144E-002  9.701844528804E-001  2.410498907451E-001
   5.700000000000E+001  1.000000000000E+000 -6.435005876856E-003  8.563213342077E-003  8.568897887160E-001 -5.153883507326E-001
   5.750000000000E+001  1.000000000000E+000  1.862647619720E-003 -4.826168361325E-003  2.513637648625E-001 -9.678788645058E-001
   5.800000000000E+001  1.000000000000E+000  6.589142286650E-003 -1.048338659010E-002 -5.145010129072E-001 -8.574003671139E-001
   5.850000000000E+001  1.000000000000E+000  4.575318182627E-003 -9.844295574735E-003 -9.805596116964E-001 -1.959209131715E-001
   5.900000000000E+001  1.000000000000E+000 -6.436840783015E-004 -4.932399377173E-003 -7.782670460828E-001  6.279137377767E-001
   5.950000000000E+001  1.000000000000E+000 -3.782078685678E-003  2.718544850831E-003  1.994844497124E-002  9.997901604527E-001
   6.000000000000E+001  1.000000000000E+000 -4.055877506813E-005  1.105086477097E-002  8.155231083214E-001  5.786189908192E-001
   6.050000000000E+001  1.000000000000E+000  1.544524845667E-002  1.254959665769E-002  9.493451968194E-001 -3.136042875980E-001
   6.100000000000E+001  9.999999999999E-001  3.676164318476E-002 -1.420416851790E-002  3.370071623090E-001 -9.406768816865E-001
   6.150000000000E+001  1.000000000000E+000  1.460318046672E-002 -9.581267823700E-002 -4.660935442845E-001 -8.794108742708E-001
   6.200000000000E+001  1.000000000000E+000 -1.959113907090E-001 -2.077527948541E-001 -8.921647463441E-001 -3.499993837159E-001
   6.250000000000E+001  1.000000000000E+000 -6.947536446361E-001 -1.646540291022E-001 -6.758880472972E-001  1.827067910235E-001
   6.300000000000E+001  1.000000000000E+000 -8.710820217636E-001 -1.171261329642E-001 -2.968174494968E-001  3.733590524032E-001
   6.350000000000E+001  9.999999999999E-001 -8.385537692314E-001 -4.060927848834E-001 -4.681154474572E-002  3.601734380155E-001
   6.400000000000E+001  1.000000000000E+000 -4.122320777031E-001 -8.702899543571E-001  8.801348983287E-002  2.547817400545E-001
   6.450000000000E+001  1.000000000000E+000  4.911761247367E-001 -8.531498942179E-001  1.254888965871E-001  1.230195485195E-001
   6.500000000000E+001  1.000000000000E+000  9.875942497210E-001  1.247058671322E-001  9.374270010922E-002  1.784238765081E-002
   6.550000000000E+001  9.999999999999E-001  1.217879566554E-001  9.915055753210E-001  3.566932177706E-002 -2.849714380348E-002
   6.600000000000E+001  9.999999999999E-001 -9.677524794507E-001  2.506888614383E-001 -1.551739319383E-003 -2.465411472312E-002
   6.650000000000E+001  9.999999999999E-001 -2.739870196991E-001 -9.617071767857E-001 -5.146545095511E-003 -4.892057723602E-003
   6.700000000000E+001  1.000000000000E+000  9.795430767405E-001 -2.011317993287E-001 -1.986600583402E-003  6.116659763413E-003
   6.750000000000E+001  1.000000000000E+000  7.234162872667E-002  9.973733214368E-001 -3.153772489500E-003  1.788898645129E-003
   6.800000000000E+001  1.000000000000E+000 -9.998457709071E-001 -1.707128473039E-002  5.894008535187E-004 -4.081451151244E-003
   6.850000000000E+001  1.000000000000E+000 -3.884722089758E-002 -9.992326968767E-001  4.976212895859E-003 -3.850016279562E-004
   6.900000000000E+001  1.000000000000E+000  9.626992872537E-001 -2.704987526626E-001  1.395140068205E-003  6.209727316495E-003
   6.950000000000E+001  1.000000000000E+000  5.774955118502E-001  8.163551233764E-001 -6.731093858094E-003  4.235410890923E-003
   7.000000000000E+001  1.000000000000E+000 -5.735080705430E-001  8.191463129410E-001 -7.227582508234E-003 -5.964316248982E-003
   7.050000000000E+001  1.000000000000E+000 -9.580978991054E-001 -2.862254856868E-001  4.258338926544E-003 -1.025931882695E-002
   7.100000000000E+001  9.999999999999E-001 -8.057680221794E-002 -9.966537193225E-001  1.371699732197E-002  7.659564975303E-004
   7.150000000000E+001  1.000000000000E+000  8.183390339423E-001 -5.744494385913E-001  7.693485678434E-003  1.642797329655E-002
   7.200000000000E+001  1.000000000000E+000  9.808193952240E-001  1.933409218362E-001 -9.581051691528E-003  2.282116001427E-002
   7.250000000000E+001  1.000000000000E+000  7.179726797501E-001  6.953034570943E-001 -2.709961315609E-002  1.827415256418E-002
   7.300000000000E+001  1.000000000000E+000  3.824574108310E-001  9.231437853333E-001 -3.826893489730E-002  8.207869562438E-003
   7.350000000000E+001  1.000000000000E+000  5.972309224852E-002  9.973656304259E-001 -4.105807083710E-002 -3.030893693094E-003
   7.400000000000E+001  1.000000000000E+000 -2.642023961358E-001  9.636929825267E-001 -3.618070012568E-002 -1.356046619446E-002
   7.450000000000E+001  1.000000000000E+000 -5.807847177507E-001  8.133398326379E-001 -2.625373099845E-002 -2.186709583874E-002
   7.500000000000E+001  1.000000000000E+000 -8.397419251261E-001  5.421530590121E-001 -1.436986872458E-002 -2.640202004102E-002
   7.550000000000E+001  9.999999999999E-001 -9.819378014420E-001  1.872945295820E-001 -2.993377954831E-003 -2.664494278925E-002
   7.600000000000E+001  1.000000000000E+000 -9.848852647484E-001 -1.714841160895E-001  6.099945217251E-003 -2.360092961885E-002
   7.650000000000E+001  9.999999999999E-001 -8.944164957338E-001 -4.466546270195E-001  1.190463492543E-002 -1.941792956433E-002
   7.700000000000E+001  1.000000000000E+000 -8.052692462348E-001 -5.925065328491E-001  1.451186082737E-002 -1.633571225713E-002
   7.750000000000E+001  1.000000000000E+000 -7.885324416417E-001 -6.146221470099E-001  1.470687527686E-002 -1.548911563236E-002
   7.800000000000E+001  1.000000000000E+000 -8.387733817858E-001 -5.440745324929E-001  1.320293742656E-002 -1.636458198657E-002
   7.850000000000E+001  1.000000000000E+000 -8.998182740264E-001 -4.357769498198E-001  1.099598221616E-002 -1.745314037971E-002
   7.900000000000E+001  1.000000000000E+000 -9.317863660394E-001 -3.624466592315E-001  9.543622596865E-003 -1.776250384120E-002
   7.950000000000E+001  1.000000000000E+000 -9.277596849438E-001 -3.726563678869E-001  9.727588373190E-003 -1.716311424910E-002
   8.000000000000E+001  1.000000000000E+000 -8.825680853940E-001 -4.697881653532E-001  1.139515653191E-002 -1.558219322542E-002
   8.050000000000E+001  1.000000000000E+000 -7.784371540007E-001 -6.274413553199E-001  1.379849008501E-002 -1.274929711974E-002
   8.100000000000E+001  9.999999999999E-001 -5.905083633946E-001 -8.068289645333E-001  1.599773093916E-002 -8.424212476654E-003
   8.150000000000E+001  1.000000000000E+000 -2.928764931281E-001 -9.559960963050E-001  1.697588681797E-002 -2.577380328546E-003
   8.200000000000E+001  1.000000000000E+000  1.263895321807E-001 -9.918491676905E-001  1.554423836301E-002  4.392193130847E-003
   8.250000000000E+001  1.000000000000E+000  6.174708765835E-001 -7.864473819874E-001  1.034003500261E-002  1.110475630073E-002
   8.300000000000E+001  1.000000000000E+000  9.763998116733E-001 -2.154948801824E-001  7.322960567672E-004  1.431181756518E-002
   8.350000000000E+001  1.000000000000E+000  7.874282668115E-001  6.162558182143E-001 -1.015399301147E-002  9.076759842044E-003
   8.400000000000E+001  1.000000000000E+000 -2.182416658514E-001  9.758090274142E-001 -1.189001122706E-002 -5.093617224571E-003
   8.450000000000E+001  1.000000000000E+000 -9.974631467103E-001 -7.014350193579E-002  3.064907748500E-003 -1.173739458032E-002
   8.500000000000E+001  1.000000000000E+000  2.345197541875E-001 -9.720480450774E-001  1.015646729776E-002  4.464205311395E-003
   8.550000000000E+001  1.000000000000E+000  7.747484014111E-001  6.321930016740E-001 -7.391897173084E-003  6.502538090656E-003
   8.600000000000E+001  1.000000000000E+000 -9.600381709308E-001  2.797347090313E-001 -1.020122163233E-003 -8.611751846668E-003
   8.650000000000E+001  1.000000000000E+000  2.309382691484E-001 -9.729333864430E-001  7.441495291935E-003  3.572888900037E-003
   8.700000000000E+001  1.000000000000E+000  9.416765492237E-001  3.363851639835E-001 -5.714365381505E-003  7.592372639132E-003
   8.750000000000E+001  1.000000000000E+000  1.546102197168E-001  9.878945048157E-001 -1.243075069630E-002 -2.367224356693E-003
   8.800000000000E+001  1.000000000000E+000 -4.688778852324E-001  8.831134255931E-001 -1.132195552275E-002 -1.166274411819E-002
   8.850000000000E+001  1.000000000000E+000 -9.154187102567E-001  4.020790245578E-001 -2.838535348004E-003 -1.824789411576E-002
   8.900000000000E+001  1.000000000000E+000 -8.467270405056E-001 -5.316721065736E-001  1.395841173234E-002 -1.353708647388E-002
   8.950000000000E+001  1.000000000000E+000  2.084104565445E-001 -9.778289695217E-001  1.825659985783E-002  9.071082002395E-003
   9.000000000000E+001  1.000000000000E+000  9.950572147624E-001 -9.692005132244E-002 -3.388174748701E-003  2.135797913893E-002
   9.050000000000E+001  1.000000000000E+000  5.067921754237E-001  8.617703084335E-001 -2.167688352405E-002  6.613558232673E-003
   9.100000000000E+001  1.000000000000E+000 -3.666032860266E-001  9.300893766393E-001 -1.932498410628E-002 -1.274076632273E-002
   9.150000000000E+001  9.999999999999E-001 -8.453020241225E-001  5.337863125552E-001 -8.586434290852E-003 -2.151589387510E-002
   9.200000000000E+001  1.000000000000E+000 -9.774588747741E-001  2.098786001809E-001 -1.083891202799E-003 -2.288987748622E-002
   9.250000000000E+001  1.000000000000E+000 -9.930491262270E-001  1.155508133009E-001  6.108758970679E-004 -2.238457674256E-002
   9.300000000000E+001  1.000000000000E+000 -9.732664516436E-001  2.286753825137E-001 -2.407041734825E-003 -2.131172652438E-002
   9.350000000000E+001  1.000000000000E+000 -8.784728117176E-001  4.773726894366E-001 -7.849311604377E-003 -1.841800098649E-002
   9.400000000000E+001  1.000000000000E+000 -6.571880605416E-001  7.535056394092E-001 -1.276321902016E-002 -1.304625235116E-002
   9.450000000000E+001  1.000000000000E+000 -3.256339020092E-001  9.453542445702E-001 -1.504839510850E-002 -6.438939361908E-003
   9.500000000000E+001  1.000000000000E+000  3.828318939513E-002  9.991613901327E-001 -1.451549113596E-002 -4.630280476748E-004
   9.550000000000E+001  1.000000000000E+000  3.631987857560E-001  9.316245387988E-001 -1.214987010581E-002  3.839451740175E-003
   9.600000000000E+001  1.000000000000E+000  6.283503110265E-001  7.778527925096E-001 -8.917507634955E-003  6.434118078761E-003
   9.650000000000E+001  1.000000000000E+000  8.435721170309E-001  5.369365093023E-001 -5.193604523296E-003  7.635104343706E-003
   9.700000000000E+001  1.000000000000E+000  9.856732383279E-001  1.685041732793E-001 -1.137285488983E-003  7.301877388416E-003
   9.750000000000E+001  1.000000000000E+000  9.442823685538E-001 -3.290917638695E-001  2.262279853524E-003  4.929653289593E-003
   9.800000000000E+001  1.000000000000E+000  6.017689609459E-001 -7.986629340171E-001  3.131734837046E-003  1.351926849360E-003
   9.850000000000E+001  1.000000000000E+000  4.948425708243E-002 -9.987735903555E-001  1.388792631420E-003 -8.335252877890E-004
   9.900000000000E+001  1.000000000000E+000 -4.373105156688E-001 -8.993101260243E-001 -6.187671277470E-004 -6.536382238660E-004
   9.950000000000E+001  1.000000000000E+000 -6.967942523429E-001 -7.172691820289E-001 -1.579964842210E-003  4.405956917369E-004
   1.000000000000E+002  9.999999999999E-001 -7.433400273390E-001 -6.689097524444E-001 -2.004214322032E-003  1.153241217872E-003
