#                    1                    2                    3                    4                    5                    6
#               Time |           Sum c**2 |  === coeff_diab ===>
#               [fs] |                 [] |                 [] |
   0.000000000000E+000  1.000000000000E+000  0.000000000000E+000  1.000000000000E+000
   5.000000000000E-001  1.000000000000E+000  4.393050687668E-007  9.999995827675E-001
   1.000000000000E+000  1.000000000000E+000  2.017894757955E-006  9.999979734421E-001
   1.500000000000E+000  1.000000000000E+000  5.428643817140E-006  9.999945759773E-001
   2.000000000000E+000  1.000000000000E+000  1.203590636578E-005  9.999879598618E-001
   2.500000000000E+000  1.000000000000E+000  2.369746835029E-005  9.999762773514E-001
   3.000000000000E+000  1.000000000000E+000  4.162763798377E-005  9.999583959579E-001
   3.500000000000E+000  1.000000000000E+000  6.439672870329E-005  9.999356269836E-001
   4.000000000000E+000  1.000000000000E+000  8.647409413243E-005  9.999135136604E-001
   4.500000000000E+000  1.000000000000E+000  9.954589040717E-005  9.999004602432E-001
   5.000000000000E+000  1.000000000000E+000  9.697306813905E-005  9.999030232430E-001
   5.500000000000E+000  1.000000000000E+000  7.825758802937E-005  9.999217391014E-001
   6.000000000000E+000  1.000000000000E+000  4.980312223779E-005  9.999501705170E-001
   6.500000000000E+000  1.000000000000E+000  2.161294287362E-005  9.999783635139E-001
   7.000000000000E+000  1.000000000000E+000  3.244980007366E-006  9.999967813492E-001
   7.500000000000E+000  1.000000000000E+000  1.810949356695E-006  9.999982118607E-001
   8.000000000000E+000  1.000000000000E+000  2.182378739235E-005  9.999781847000E-001
   8.500000000000E+000  1.000000000000E+000  6.192481669132E-005  9.999380707741E-001
   9.000000000000E+000  1.000000000000E+000  9.016870899359E-005  9.999098181725E-001
   9.500000000000E+000  1.000000000000E+000  6.306603154371E-006  9.999936819077E-001
   1.000000000000E+001  1.000000000000E+000  6.894545513205E-004  9.993105530739E-001
   1.050000000000E+001  1.000000000000E+000  3.868366125971E-003  9.961316585541E-001
   1.100000000000E+001  1.000000000000E+000  6.411979440600E-003  9.935880303383E-001
   1.150000000000E+001  1.000000000000E+000  7.565289735794E-003  9.924347400665E-001
   1.200000000000E+001  1.000000000000E+000  7.936387322843E-003  9.920636415482E-001
   1.250000000000E+001  1.000000000000E+000  7.917255163193E-003  9.920827746391E-001
   1.300000000000E+001  1.000000000000E+000  7.717341650277E-003  9.922826290131E-001
   1.350000000000E+001  1.000000000000E+000  7.447792682797E-003  9.925522208214E-001
   1.400000000000E+001  1.000000000000E+000  7.167530246079E-003  9.928324818611E-001
   1.450000000000E+001  1.000000000000E+000  6.908095441759E-003  9.930918812752E-001
   1.500000000000E+001  1.000000000000E+000  6.688093300909E-003  9.933118820190E-001
   1.550000000000E+001  1.000000000000E+000  6.520797032863E-003  9.934791922569E-001
   1.600000000000E+001  1.000000000000E+000  6.417428608984E-003  9.935825467110E-001
   1.650000000000E+001  1.000000000000E+000  6.386778317392E-003  9.936132431030E-001
   1.700000000000E+001  1.000000000000E+000  6.431085523218E-003  9.935688972473E-001
   1.750000000000E+001  1.000000000000E+000  6.541545502841E-003  9.934584498405E-001
   1.800000000000E+001  1.000000000000E+000  6.699309218675E-003  9.933006763458E-001
   1.850000000000E+001  1.000000000000E+000  6.881745997816E-003  9.931182265282E-001
   1.900000000000E+001  1.000000000000E+000  7.066153455526E-003  9.929338693619E-001
   1.950000000000E+001  1.000000000000E+000  7.227908819914E-003  9.927721023560E-001
   2.000000000000E+001  1.000000000000E+000  7.340415380895E-003  9.926595687866E-001
   2.050000000000E+001  1.000000000000E+000  7.380593102425E-003  9.926193952560E-001
   2.100000000000E+001  1.000000000000E+000  7.334009744227E-003  9.926660060883E-001
   2.150000000000E+001  1.000000000000E+000  7.194037549198E-003  9.928059577942E-001
   2.200000000000E+001  1.000000000000E+000  6.957871839404E-003  9.930421113968E-001
   2.250000000000E+001  1.000000000000E+000  6.625349633396E-003  9.933746457100E-001
   2.300000000000E+001  1.000000000000E+000  6.204326637089E-003  9.937956929207E-001
   2.350000000000E+001  1.000000000000E+000  5.718379747123E-003  9.942816495895E-001
   2.400000000000E+001  1.000000000000E+000  5.212048534304E-003  9.947879314423E-001
   2.450000000000E+001  1.000000000000E+000  4.750146530569E-003  9.952498674393E-001
   2.500000000000E+001  1.000000000000E+000  4.415749106556E-003  9.955842494965E-001
   2.550000000000E+001  1.000000000000E+000  4.318371415138E-003  9.956816434860E-001
   2.600000000000E+001  1.000000000000E+000  4.632962401956E-003  9.953670501709E-001
   2.650000000000E+001  1.000000000000E+000  5.720923189074E-003  9.942790865898E-001
   2.700000000000E+001  1.000000000000E+000  8.468670770526E-003  9.915313124657E-001
   2.750000000000E+001  1.000000000000E+000  1.514499261975E-002  9.848549962044E-001
   2.800000000000E+001  1.000000000000E+000  3.072513826191E-002  9.692748785019E-001
   2.850000000000E+001  1.000000000000E+000  6.167352572083E-002  9.383264780045E-001
   2.900000000000E+001  1.000000000000E+000  1.075433045626E-001  8.924567103386E-001
   2.950000000000E+001  1.000000000000E+000  1.548783034086E-001  8.451216816902E-001
   3.000000000000E+001  1.000000000000E+000  1.891878098249E-001  8.108121752739E-001
   3.050000000000E+001  1.000000000000E+000  2.084411233664E-001  7.915588617325E-001
   3.100000000000E+001  1.000000000000E+000  2.179738730192E-001  7.820261120796E-001
   3.150000000000E+001  1.000000000000E+000  2.223605513573E-001  7.776394486427E-001
   3.200000000000E+001  1.000000000000E+000  2.241731584072E-001  7.758268713951E-001
   3.250000000000E+001  1.000000000000E+000  2.247436195612E-001  7.752563953400E-001
   3.300000000000E+001  1.000000000000E+000  2.247398942709E-001  7.752600908279E-001
   3.350000000000E+001  1.000000000000E+000  2.244842946529E-001  7.755156755447E-001
   3.400000000000E+001  1.000000000000E+000  2.241319566965E-001  7.758680582047E-001
   3.450000000000E+001  1.000000000000E+000  2.237703800201E-001  7.762296199799E-001
   3.500000000000E+001  1.000000000000E+000  2.234594076872E-001  7.765405774117E-001
   3.550000000000E+001  1.000000000000E+000  2.232315689325E-001  7.767684459686E-001
   3.600000000000E+001  1.000000000000E+000  2.230750173330E-001  7.769249677658E-001
   3.650000000000E+001  1.000000000000E+000  2.229230552912E-001  7.770769596100E-001
   3.700000000000E+001  1.000000000000E+000  2.226639837027E-001  7.773360013962E-001
   3.750000000000E+001  1.000000000000E+000  2.221721708775E-001  7.778277993202E-001
   3.800000000000E+001  1.000000000000E+000  2.213466018438E-001  7.786533832550E-001
   3.850000000000E+001  1.000000000000E+000  2.201380878687E-001  7.798619270325E-001
   3.900000000000E+001  1.000000000000E+000  2.185489386320E-001  7.814510464668E-001
   3.950000000000E+001  1.000000000000E+000  2.166219800711E-001  7.833780050278E-001
   4.000000000000E+001  1.000000000000E+000  2.144248783588E-001  7.855751514435E-001
   4.050000000000E+001  1.000000000000E+000  2.120449244976E-001  7.879551053047E-001
   4.100000000000E+001  1.000000000000E+000  2.095885276794E-001  7.904114723206E-001
   4.150000000000E+001  1.000000000000E+000  2.071891427040E-001  7.928108572960E-001
   4.200000000000E+001  1.000000000000E+000  2.050287276506E-001  7.949712872505E-001
   4.250000000000E+001  1.000000000000E+000  2.033886611462E-001  7.966113090515E-001
   4.300000000000E+001  1.000000000000E+000  2.027560770512E-001  7.972438931465E-001
   4.350000000000E+001  1.000000000000E+000  2.040579766035E-001  7.959420084953E-001
   4.400000000000E+001  1.000000000000E+000  2.091863006353E-001  7.908136844635E-001
   4.450000000000E+001  1.000000000000E+000  2.222422063351E-001  7.777577638626E-001
   4.500000000000E+001  1.000000000000E+000  2.517896890640E-001  7.482103109360E-001
   4.550000000000E+001  1.000000000000E+000  3.088859319687E-001  6.911140680313E-001
   4.600000000000E+001  1.000000000000E+000  3.893626630306E-001  6.106373667717E-001
   4.650000000000E+001  1.000000000000E+000  4.662119150162E-001  5.337880849838E-001
   4.700000000000E+001  1.000000000000E+000  5.181449055672E-001  4.818550646305E-001
   4.750000000000E+001  1.000000000000E+000  5.459235906601E-001  4.540763795376E-001
   4.800000000000E+001  1.000000000000E+000  5.594127774239E-001  4.405872225761E-001
   4.850000000000E+001  1.000000000000E+000  5.656613111496E-001  4.343386590481E-001
   4.900000000000E+001  1.000000000000E+000  5.682747364044E-001  4.317252635956E-001
   4.950000000000E+001  1.000000000000E+000  5.691008567810E-001  4.308991432190E-001
   5.000000000000E+001  1.000000000000E+000  5.691694021225E-001  4.308305978775E-001
   5.050000000000E+001  1.000000000000E+000  5.690795779228E-001  4.309204220772E-001
   5.100000000000E+001  1.000000000000E+000  5.691525340080E-001  4.308474361897E-001
   5.150000000000E+001  1.000000000000E+000  5.695008039474E-001  4.304992258549E-001
   5.200000000000E+001  1.000000000000E+000  5.700888633728E-001  4.299111664295E-001
   5.250000000000E+001  1.000000000000E+000  5.708009004593E-001  4.291991293430E-001
   5.300000000000E+001  1.000000000000E+000  5.715082883835E-001  4.284917116165E-001
   5.350000000000E+001  1.000000000000E+000  5.721283555031E-001  4.278716444969E-001
   5.400000000000E+001  1.000000000000E+000  5.726524591446E-001  4.273475706577E-001
   5.450000000000E+001  1.000000000000E+000  5.731412768364E-001  4.268587529659E-001
   5.500000000000E+001  1.000000000000E+000  5.736668705940E-001  4.263331592083E-001
   5.550000000000E+001  1.000000000000E+000  5.742244124413E-001  4.257755875587E-001
   5.600000000000E+001  1.000000000000E+000  5.746968984604E-001  4.253031015396E-001
   5.650000000000E+001  1.000000000000E+000  5.749256014824E-001  4.250743985176E-001
   5.700000000000E+001  1.000000000000E+000  5.748403668404E-001  4.251596033573E-001
   5.750000000000E+001  1.000000000000E+000  5.745236873627E-001  4.254763424397E-001
   5.800000000000E+001  1.000000000000E+000  5.741522312164E-001  4.258477389812E-001
   5.850000000000E+001  1.000000000000E+000  5.738929510117E-001  4.261070191860E-001
   5.900000000000E+001  1.000000000000E+000  5.738471150398E-001  4.261528849602E-001
   5.950000000000E+001  1.000000000000E+000  5.740375518799E-001  4.259624183178E-001
   6.000000000000E+001  1.000000000000E+000  5.743958950043E-001  4.256041347980E-001
   6.050000000000E+001  1.000000000000E+000  5.747615098953E-001  4.252384603024E-001
   6.100000000000E+001  1.000000000000E+000  5.748869180679E-001  4.251130521297E-001
   6.150000000000E+001  1.000000000000E+000  5.744306445122E-001  4.255693256855E-001
   6.200000000000E+001  1.000000000000E+000  5.728676319122E-001  4.271323680878E-001
   6.250000000000E+001  1.000000000000E+000  5.691967606544E-001  4.308032095432E-001
   6.300000000000E+001  1.000000000000E+000  5.611441731453E-001  4.388558566570E-001
   6.350000000000E+001  1.000000000000E+000  5.430952906609E-001  4.569047093391E-001
   6.400000000000E+001  1.000000000000E+000  5.022813081741E-001  4.977186918259E-001
   6.450000000000E+001  1.000000000000E+000  4.232835173607E-001  5.767164826393E-001
   6.500000000000E+001  1.000000000000E+000  3.183043003082E-001  6.816956996918E-001
   6.550000000000E+001  1.000000000000E+000  2.285453677177E-001  7.714546322823E-001
   6.600000000000E+001  1.000000000000E+000  1.721178889275E-001  8.278821110725E-001
   6.650000000000E+001  1.000000000000E+000  1.402119845152E-001  8.597880005836E-001
   6.700000000000E+001  1.000000000000E+000  1.216447651386E-001  8.783552646637E-001
   6.750000000000E+001  1.000000000000E+000  1.099817305803E-001  8.900182843208E-001
   6.800000000000E+001  1.000000000000E+000  1.020574644208E-001  8.979425430298E-001
   6.850000000000E+001  1.000000000000E+000  9.632891416550E-002  9.036710858345E-001
   6.900000000000E+001  1.000000000000E+000  9.202915430069E-002  9.079708456993E-001
   6.950000000000E+001  1.000000000000E+000  8.876864612103E-002  9.112313389778E-001
   7.000000000000E+001  1.000000000000E+000  8.633600920439E-002  9.136639833450E-001
   7.050000000000E+001  1.000000000000E+000  8.459135890007E-002  9.154086112976E-001
   7.100000000000E+001  1.000000000000E+000  8.341118693352E-002  9.165887832642E-001
   7.150000000000E+001  1.000000000000E+000  8.266498893499E-002  9.173350334167E-001
   7.200000000000E+001  1.000000000000E+000  8.223196119070E-002  9.177680611610E-001
   7.250000000000E+001  1.000000000000E+000  8.203729242086E-002  9.179627299309E-001
   7.300000000000E+001  1.000000000000E+000  8.206877857447E-002  9.179311990738E-001
   7.350000000000E+001  1.000000000000E+000  8.235187828541E-002  9.176481366158E-001
   7.400000000000E+001  1.000000000000E+000  8.289853483438E-002  9.171014428139E-001
   7.450000000000E+001  1.000000000000E+000  8.367826789618E-002  9.163217544556E-001
   7.500000000000E+001  1.000000000000E+000  8.461941778660E-002  9.153805971146E-001
   7.550000000000E+001  1.000000000000E+000  8.563995361328E-002  9.143600463867E-001
   7.600000000000E+001  1.000000000000E+000  8.668770641088E-002  9.133123159409E-001
   7.650000000000E+001  1.000000000000E+000  8.779457211494E-002  9.122053980827E-001
   7.700000000000E+001  1.000000000000E+000  8.910673111677E-002  9.108932614326E-001
   7.750000000000E+001  1.000000000000E+000  9.088913351297E-002  9.091108441353E-001
   7.800000000000E+001  1.000000000000E+000  9.347191452980E-002  9.065280556679E-001
   7.850000000000E+001  1.000000000000E+000  9.717018157244E-002  9.028298258781E-001
   7.900000000000E+001  1.000000000000E+000  1.021989583969E-001  8.978010416031E-001
   7.950000000000E+001  1.000000000000E+000  1.086033731699E-001  8.913966417313E-001
   8.000000000000E+001  1.000000000000E+000  1.161833107471E-001  8.838166594505E-001
   8.050000000000E+001  1.000000000000E+000  1.244000047445E-001  8.755999803543E-001
   8.100000000000E+001  1.000000000000E+000  1.323261111975E-001  8.676738739014E-001
   8.150000000000E+001  1.000000000000E+000  1.387208104134E-001  8.612791895866E-001
   8.200000000000E+001  1.000000000000E+000  1.422941237688E-001  8.577058911324E-001
   8.250000000000E+001  1.000000000000E+000  1.420585215092E-001  8.579415082932E-001
   8.300000000000E+001  1.000000000000E+000  1.375791281462E-001  8.624208569527E-001
   8.350000000000E+001  1.000000000000E+000  1.289955675602E-001  8.710044622421E-001
   8.400000000000E+001  1.000000000000E+000  1.168815046549E-001  8.831185102463E-001
   8.450000000000E+001  1.000000000000E+000  1.020802706480E-001  8.979197144508E-001
   8.500000000000E+001  1.000000000000E+000  8.560995012522E-002  9.143900275230E-001
   8.550000000000E+001  1.000000000000E+000  6.863795220852E-002  9.313620328903E-001
   8.600000000000E+001  1.000000000000E+000  5.246685072780E-002  9.475331306458E-001
   8.650000000000E+001  1.000000000000E+000  3.842154890299E-002  9.615784287453E-001
   8.700000000000E+001  1.000000000000E+000  2.761973626912E-002  9.723802804947E-001
   8.750000000000E+001  1.000000000000E+000  2.076324820518E-002  9.792367219925E-001
   8.800000000000E+001  1.000000000000E+000  1.828639395535E-002  9.817135930061E-001
   8.850000000000E+001  1.000000000000E+000  2.123367600143E-002  9.787663221359E-001
   8.900000000000E+001  1.000000000000E+000  3.302177414298E-002  9.669782519341E-001
   8.950000000000E+001  1.000000000000E+000  6.165676936507E-002  9.383432269096E-001
   9.000000000000E+001  1.000000000000E+000  1.203290596604E-001  8.796709179878E-001
   9.050000000000E+001  1.000000000000E+000  2.212514430285E-001  7.787485718727E-001
   9.100000000000E+001  1.000000000000E+000  3.599464297295E-001  6.400535702705E-001
   9.150000000000E+001  1.000000000000E+000  5.078387856483E-001  4.921611845493E-001
   9.200000000000E+001  1.000000000000E+000  6.338713765144E-001  3.661286532879E-001
   9.250000000000E+001  1.000000000000E+000  7.263451218605E-001  2.736548781395E-001
   9.300000000000E+001  1.000000000000E+000  7.893269062042E-001  2.106731086969E-001
   9.350000000000E+001  1.000000000000E+000  8.313648700714E-001  1.686351150274E-001
   9.400000000000E+001  1.000000000000E+000  8.598913550377E-001  1.401086449623E-001
   9.450000000000E+001  1.000000000000E+000  8.801195621490E-001  1.198804378510E-001
   9.500000000000E+001  1.000000000000E+000  8.953387737274E-001  1.046612411737E-001
   9.550000000000E+001  1.000000000000E+000  9.074509739876E-001  9.254901111126E-002
   9.600000000000E+001  1.000000000000E+000  9.174289107323E-001  8.257105946541E-002
   9.650000000000E+001  1.000000000000E+000  9.257286787033E-001  7.427132129669E-002
   9.700000000000E+001  1.000000000000E+000  9.325985908508E-001  6.740140914917E-002
   9.750000000000E+001  1.000000000000E+000  9.382897615433E-001  6.171021610498E-002
   9.800000000000E+001  1.000000000000E+000  9.432209134102E-001  5.677907541394E-002
   9.850000000000E+001  1.000000000000E+000  9.481317400932E-001  5.186825990677E-002
   9.900000000000E+001  1.000000000000E+000  9.541097879410E-001  4.589020088315E-002
   9.950000000000E+001  1.000000000000E+000  9.622071981430E-001  3.779281675816E-002
   1.000000000000E+002  1.000000000000E+000  9.725817441940E-001  2.741822972894E-002
