#                    1                    2                    3                    4                    5                    6
#               Time |           Sum c**2 |  === coeff_diab ===>
#               [fs] |                 [] |                 [] |
   0.000000000000E+000  1.000000000000E+000  0.000000000000E+000  1.000000000000E+000
   5.000000000000E-001  1.000000000000E+000  3.837432754208E-007  9.999996383293E-001
   1.000000000000E+000  1.000000000000E+000  1.922634548123E-006  9.999980687023E-001
   1.500000000000E+000  1.000000000000E+000  5.312302546966E-006  9.999946923186E-001
   2.000000000000E+000  1.000000000000E+000  1.181946711918E-005  9.999881763010E-001
   2.500000000000E+000  1.000000000000E+000  2.330233376103E-005  9.999766724860E-001
   3.000000000000E+000  1.000000000000E+000  4.106482366771E-005  9.999589587723E-001
   3.500000000000E+000  1.000000000000E+000  6.381000266618E-005  9.999362137097E-001
   4.000000000000E+000  1.000000000000E+000  8.609792060976E-005  9.999138898340E-001
   4.500000000000E+000  1.000000000000E+000  9.946604532178E-005  9.999005400883E-001
   5.000000000000E+000  1.000000000000E+000  9.685639241182E-005  9.999031399187E-001
   5.500000000000E+000  1.000000000000E+000  7.755959280429E-005  9.999224370966E-001
   6.000000000000E+000  1.000000000000E+000  4.847595921725E-005  9.999514976800E-001
   6.500000000000E+000  1.000000000000E+000  2.036382213964E-005  9.999796126347E-001
   7.000000000000E+000  1.000000000000E+000  2.768274660063E-006  9.999972580545E-001
   7.500000000000E+000  1.000000000000E+000  2.076110619881E-006  9.999979466994E-001
   8.000000000000E+000  1.000000000000E+000  2.234826910469E-005  9.999776602183E-001
   8.500000000000E+000  1.000000000000E+000  6.200327095611E-005  9.999379923198E-001
   9.000000000000E+000  1.000000000000E+000  8.986782629090E-005  9.999101190552E-001
   9.500000000000E+000  1.000000000000E+000  7.766643898679E-006  9.999922218669E-001
   1.000000000000E+001  1.000000000000E+000  6.414311586855E-004  9.993585764665E-001
   1.050000000000E+001  1.000000000000E+000  3.958046001174E-003  9.960419786789E-001
   1.100000000000E+001  1.000000000000E+000  6.497834879516E-003  9.935021748994E-001
   1.150000000000E+001  1.000000000000E+000  7.581040515669E-003  9.924189892867E-001
   1.200000000000E+001  1.000000000000E+000  7.932384551958E-003  9.920676443190E-001
   1.250000000000E+001  1.000000000000E+000  7.913205813993E-003  9.920868239883E-001
   1.300000000000E+001  1.000000000000E+000  7.701170764927E-003  9.922987998984E-001
   1.350000000000E+001  1.000000000000E+000  7.430905674419E-003  9.925691078298E-001
   1.400000000000E+001  1.000000000000E+000  7.152696434421E-003  9.928473156728E-001
   1.450000000000E+001  1.000000000000E+000  6.896856697875E-003  9.931031200191E-001
   1.500000000000E+001  1.000000000000E+000  6.681598542064E-003  9.933183767779E-001
   1.550000000000E+001  1.000000000000E+000  6.519303116221E-003  9.934806861736E-001
   1.600000000000E+001  1.000000000000E+000  6.419723308856E-003  9.935802520111E-001
   1.650000000000E+001  1.000000000000E+000  6.389398437771E-003  9.936106229826E-001
   1.700000000000E+001  1.000000000000E+000  6.429092297530E-003  9.935708904730E-001
   1.750000000000E+001  1.000000000000E+000  6.533338819238E-003  9.934666565241E-001
   1.800000000000E+001  1.000000000000E+000  6.689825048600E-003  9.933101605159E-001
   1.850000000000E+001  1.000000000000E+000  6.875923081473E-003  9.931240494445E-001
   1.900000000000E+001  1.000000000000E+000  7.063478835519E-003  9.929365439819E-001
   1.950000000000E+001  1.000000000000E+000  7.226383204467E-003  9.927736279714E-001
   2.000000000000E+001  1.000000000000E+000  7.339932675747E-003  9.926600514918E-001
   2.050000000000E+001  1.000000000000E+000  7.381810689833E-003  9.926181776686E-001
   2.100000000000E+001  1.000000000000E+000  7.337020337900E-003  9.926629954946E-001
   2.150000000000E+001  1.000000000000E+000  7.198251415474E-003  9.928017439279E-001
   2.200000000000E+001  1.000000000000E+000  6.961876702411E-003  9.930381065338E-001
   2.250000000000E+001  1.000000000000E+000  6.626561055096E-003  9.933734342883E-001
   2.300000000000E+001  1.000000000000E+000  6.199185210540E-003  9.938008343472E-001
   2.350000000000E+001  1.000000000000E+000  5.703970989865E-003  9.942960583468E-001
   2.400000000000E+001  1.000000000000E+000  5.189271375084E-003  9.948107086015E-001
   2.450000000000E+001  1.000000000000E+000  4.726347149977E-003  9.952736668199E-001
   2.500000000000E+001  1.000000000000E+000  4.402731536948E-003  9.955972670661E-001
   2.550000000000E+001  1.000000000000E+000  4.325135909940E-003  9.956748789912E-001
   2.600000000000E+001  1.000000000000E+000  4.661249318020E-003  9.953387632548E-001
   2.650000000000E+001  1.000000000000E+000  5.769533280569E-003  9.942304764983E-001
   2.700000000000E+001  1.000000000000E+000  8.530694056640E-003  9.914692891796E-001
   2.750000000000E+001  1.000000000000E+000  1.516928725050E-002  9.848307015736E-001
   2.800000000000E+001  1.000000000000E+000  3.056182222618E-002  9.694381945376E-001
   2.850000000000E+001  1.000000000000E+000  6.139830969286E-002  9.386016940324E-001
   2.900000000000E+001  1.000000000000E+000  1.079876618231E-001  8.920123530781E-001
   2.950000000000E+001  1.000000000000E+000  1.560127494066E-001  8.439872356923E-001
   3.000000000000E+001  1.000000000000E+000  1.899817245860E-001  8.100182605128E-001
   3.050000000000E+001  1.000000000000E+000  2.088716067901E-001  7.911283783087E-001
   3.100000000000E+001  1.000000000000E+000  2.181921510666E-001  7.818078340322E-001
   3.150000000000E+001  1.000000000000E+000  2.224622095978E-001  7.775377904022E-001
   3.200000000000E+001  1.000000000000E+000  2.242107124418E-001  7.757893173606E-001
   3.250000000000E+001  1.000000000000E+000  2.247480776489E-001  7.752519372522E-001
   3.300000000000E+001  1.000000000000E+000  2.247295032421E-001  7.752704818568E-001
   3.350000000000E+001  1.000000000000E+000  2.244700157848E-001  7.755299544129E-001
   3.400000000000E+001  1.000000000000E+000  2.241208186440E-001  7.758791962572E-001
   3.450000000000E+001  1.000000000000E+000  2.237664333397E-001  7.762335666603E-001
   3.500000000000E+001  1.000000000000E+000  2.234631797501E-001  7.765368053488E-001
   3.550000000000E+001  1.000000000000E+000  2.232402652808E-001  7.767597496204E-001
   3.600000000000E+001  1.000000000000E+000  2.230848242066E-001  7.769151608922E-001
   3.650000000000E+001  1.000000000000E+000  2.229332604729E-001  7.770667544283E-001
   3.700000000000E+001  1.000000000000E+000  2.226806415630E-001  7.773193435358E-001
   3.750000000000E+001  1.000000000000E+000  2.222045527813E-001  7.777954174164E-001
   3.800000000000E+001  1.000000000000E+000  2.213940495756E-001  7.786059355232E-001
   3.850000000000E+001  1.000000000000E+000  2.201896083631E-001  7.798104065381E-001
   3.900000000000E+001  1.000000000000E+000  2.186004385260E-001  7.813995465728E-001
   3.950000000000E+001  1.000000000000E+000  2.166737803838E-001  7.833262047151E-001
   4.000000000000E+001  1.000000000000E+000  2.144694607854E-001  7.855305690169E-001
   4.050000000000E+001  1.000000000000E+000  2.120674235899E-001  7.879326062124E-001
   4.100000000000E+001  1.000000000000E+000  2.095731538069E-001  7.904268461931E-001
   4.150000000000E+001  1.000000000000E+000  2.071283283065E-001  7.928716716935E-001
   4.200000000000E+001  1.000000000000E+000  2.049373222789E-001  7.950626926223E-001
   4.250000000000E+001  1.000000000000E+000  2.033137351905E-001  7.966862350072E-001
   4.300000000000E+001  1.000000000000E+000  2.027585624712E-001  7.972414077265E-001
   4.350000000000E+001  1.000000000000E+000  2.041694706827E-001  7.958305144161E-001
   4.400000000000E+001  1.000000000000E+000  2.093913576303E-001  7.906086274685E-001
   4.450000000000E+001  1.000000000000E+000  2.224533899373E-001  7.775465802604E-001
   4.500000000000E+001  1.000000000000E+000  2.516937748512E-001  7.483062251488E-001
   4.550000000000E+001  1.000000000000E+000  3.081216357143E-001  6.918783642857E-001
   4.600000000000E+001  1.000000000000E+000  3.893472350058E-001  6.106527947965E-001
   4.650000000000E+001  1.000000000000E+000  4.678462087352E-001  5.321537912648E-001
   4.700000000000E+001  1.000000000000E+000  5.192797929118E-001  4.807201772859E-001
   4.750000000000E+001  1.000000000000E+000  5.464972581153E-001  4.535027120824E-001
   4.800000000000E+001  1.000000000000E+000  5.596816047746E-001  4.403183952254E-001
   4.850000000000E+001  1.000000000000E+000  5.657799664581E-001  4.342200037396E-001
   4.900000000000E+001  1.000000000000E+000  5.683059693152E-001  4.316940306848E-001
   4.950000000000E+001  1.000000000000E+000  5.690921119879E-001  4.309078880121E-001
   5.000000000000E+001  1.000000000000E+000  5.691510363266E-001  4.308489636734E-001
   5.050000000000E+001  1.000000000000E+000  5.690699326448E-001  4.309300673552E-001
   5.100000000000E+001  1.000000000000E+000  5.691583347861E-001  4.308416354116E-001
   5.150000000000E+001  1.000000000000E+000  5.695182354631E-001  4.304817943392E-001
   5.200000000000E+001  1.000000000000E+000  5.701086700124E-001  4.298913597899E-001
   5.250000000000E+001  1.000000000000E+000  5.708145226874E-001  4.291855071150E-001
   5.300000000000E+001  1.000000000000E+000  5.715115889847E-001  4.284884110153E-001
   5.350000000000E+001  1.000000000000E+000  5.721213911270E-001  4.278786088730E-001
   5.400000000000E+001  1.000000000000E+000  5.726366611238E-001  4.273633686785E-001
   5.450000000000E+001  1.000000000000E+000  5.731168017847E-001  4.268832280176E-001
   5.500000000000E+001  1.000000000000E+000  5.736339167562E-001  4.263661130461E-001
   5.550000000000E+001  1.000000000000E+000  5.741901161247E-001  4.258098838753E-001
   5.600000000000E+001  1.000000000000E+000  5.746746414481E-001  4.253253585519E-001
   5.650000000000E+001  1.000000000000E+000  5.749223251473E-001  4.250776748527E-001
   5.700000000000E+001  1.000000000000E+000  5.748522174277E-001  4.251477527700E-001
   5.750000000000E+001  1.000000000000E+000  5.745418338951E-001  4.254581959072E-001
   5.800000000000E+001  1.000000000000E+000  5.741683874629E-001  4.258315827348E-001
   5.850000000000E+001  1.000000000000E+000  5.739025605291E-001  4.260974096686E-001
   5.900000000000E+001  1.000000000000E+000  5.738509290912E-001  4.261490709088E-001
   5.950000000000E+001  1.000000000000E+000  5.740417506185E-001  4.259582195792E-001
   6.000000000000E+001  1.000000000000E+000  5.744079409940E-001  4.255920888083E-001
   6.050000000000E+001  1.000000000000E+000  5.747796491857E-001  4.252203210120E-001
   6.100000000000E+001  1.000000000000E+000  5.748916561520E-001  4.251083140457E-001
   6.150000000000E+001  1.000000000000E+000  5.743939287938E-001  4.256060414039E-001
   6.200000000000E+001  1.000000000000E+000  5.727747362445E-001  4.272252637555E-001
   6.250000000000E+001  1.000000000000E+000  5.690541744648E-001  4.309457957329E-001
   6.300000000000E+001  1.000000000000E+000  5.610028852480E-001  4.389971445543E-001
   6.350000000000E+001  1.000000000000E+000  5.432328600101E-001  4.567671399899E-001
   6.400000000000E+001  1.000000000000E+000  5.037585677700E-001  4.962414322300E-001
   6.450000000000E+001  1.000000000000E+000  4.273993332363E-001  5.726006667637E-001
   6.500000000000E+001  1.000000000000E+000  3.208152914157E-001  6.791847085843E-001
   6.550000000000E+001  1.000000000000E+000  2.263978523728E-001  7.736021476272E-001
   6.600000000000E+001  1.000000000000E+000  1.707864364327E-001  8.292135635673E-001
   6.650000000000E+001  1.000000000000E+000  1.394631615002E-001  8.605368235986E-001
   6.700000000000E+001  1.000000000000E+000  1.211592498398E-001  8.788407799625E-001
   6.750000000000E+001  1.000000000000E+000  1.096163402134E-001  8.903836746877E-001
   6.800000000000E+001  1.000000000000E+000  1.017920293536E-001  8.982079780970E-001
   6.850000000000E+001  1.000000000000E+000  9.610182498501E-002  9.038981750150E-001
   6.900000000000E+001  1.000000000000E+000  9.184679354357E-002  9.081532064564E-001
   6.950000000000E+001  1.000000000000E+000  8.862512301935E-002  9.113748620795E-001
   7.000000000000E+001  1.000000000000E+000  8.622711911690E-002  9.137728734325E-001
   7.050000000000E+001  1.000000000000E+000  8.451582803964E-002  9.154841421580E-001
   7.100000000000E+001  1.000000000000E+000  8.336668872391E-002  9.166332814738E-001
   7.150000000000E+001  1.000000000000E+000  8.264620001796E-002  9.173538223338E-001
   7.200000000000E+001  1.000000000000E+000  8.223041471246E-002  9.177696076393E-001
   7.250000000000E+001  1.000000000000E+000  8.204546518413E-002  9.179545571676E-001
   7.300000000000E+001  1.000000000000E+000  8.208577077589E-002  9.179142068724E-001
   7.350000000000E+001  1.000000000000E+000  8.238225591765E-002  9.176177589835E-001
   7.400000000000E+001  1.000000000000E+000  8.294627367591E-002  9.170537039724E-001
   7.450000000000E+001  1.000000000000E+000  8.374331978322E-002  9.162567025685E-001
   7.500000000000E+001  1.000000000000E+000  8.469564705160E-002  9.153043678496E-001
   7.550000000000E+001  1.000000000000E+000  8.571336648375E-002  9.142866335163E-001
   7.600000000000E+001  1.000000000000E+000  8.674130772052E-002  9.132587146312E-001
   7.650000000000E+001  1.000000000000E+000  8.783278081398E-002  9.121671893837E-001
   7.700000000000E+001  1.000000000000E+000  8.916227591484E-002  9.108377166346E-001
   7.750000000000E+001  1.000000000000E+000  9.097229491194E-002  9.090276827363E-001
   7.800000000000E+001  1.000000000000E+000  9.355929413594E-002  9.064406760617E-001
   7.850000000000E+001  1.000000000000E+000  9.724352173745E-002  9.027564857131E-001
   7.900000000000E+001  1.000000000000E+000  1.022234520609E-001  8.977765479391E-001
   7.950000000000E+001  1.000000000000E+000  1.085457409046E-001  8.914542739965E-001
   8.000000000000E+001  1.000000000000E+000  1.160320359826E-001  8.839679342151E-001
   8.050000000000E+001  1.000000000000E+000  1.241945599532E-001  8.758054251457E-001
   8.100000000000E+001  1.000000000000E+000  1.321817944822E-001  8.678181906167E-001
   8.150000000000E+001  1.000000000000E+000  1.388002722059E-001  8.611997277941E-001
   8.200000000000E+001  1.000000000000E+000  1.427022592051E-001  8.572977556961E-001
   8.250000000000E+001  1.000000000000E+000  1.428129107141E-001  8.571871190882E-001
   8.300000000000E+001  1.000000000000E+000  1.386857238536E-001  8.613142612453E-001
   8.350000000000E+001  1.000000000000E+000  1.304646961849E-001  8.695353336174E-001
   8.400000000000E+001  1.000000000000E+000  1.186815694469E-001  8.813184454543E-001
   8.450000000000E+001  1.000000000000E+000  1.041320640045E-001  8.958679210944E-001
   8.500000000000E+001  1.000000000000E+000  8.779572843740E-002  9.122042492109E-001
   8.550000000000E+001  1.000000000000E+000  7.078684715849E-002  9.292131379404E-001
   8.600000000000E+001  1.000000000000E+000  5.433572471418E-002  9.456642566594E-001
   8.650000000000E+001  1.000000000000E+000  3.971776662021E-002  9.602822110280E-001
   8.700000000000E+001  1.000000000000E+000  2.805233354557E-002  9.719476832182E-001
   8.750000000000E+001  1.000000000000E+000  2.004809454686E-002  9.799518756508E-001
   8.800000000000E+001  1.000000000000E+000  1.595906716973E-002  9.840409197918E-001
   8.850000000000E+001  1.000000000000E+000  1.607412940622E-002  9.839258687311E-001
   8.900000000000E+001  1.000000000000E+000  2.189713223979E-002  9.781028938372E-001
   8.950000000000E+001  1.000000000000E+000  3.791694585276E-002  9.620830504219E-001
   9.000000000000E+001  1.000000000000E+000  7.402743004692E-002  9.259725476013E-001
   9.050000000000E+001  1.000000000000E+000  1.481898729771E-001  8.518101419241E-001
   9.100000000000E+001  1.000000000000E+000  2.813558243525E-001  7.186441756475E-001
   9.150000000000E+001  1.000000000000E+000  4.709886810362E-001  5.290112891615E-001
   9.200000000000E+001  1.000000000000E+000  6.684685164358E-001  3.315315133665E-001
   9.250000000000E+001  1.000000000000E+000  8.038357157087E-001  1.961642842913E-001
   9.300000000000E+001  1.000000000000E+000  8.417681216002E-001  1.582318933010E-001
   9.350000000000E+001  1.000000000000E+000  8.243575855966E-001  1.756423995023E-001
   9.400000000000E+001  1.000000000000E+000  8.344844355777E-001  1.655155644223E-001
   9.450000000000E+001  1.000000000000E+000  8.842088692523E-001  1.157911307477E-001
   9.500000000000E+001  1.000000000000E+000  9.077138553043E-001  9.228615959685E-002
   9.550000000000E+001  1.000000000000E+000  9.020647069883E-001  9.793527811053E-002
   9.600000000000E+001  1.000000000000E+000  9.150540039545E-001  8.494596624322E-002
   9.650000000000E+001  1.000000000000E+000  9.289709807826E-001  7.102901921739E-002
   9.700000000000E+001  1.000000000000E+000  9.313681932477E-001  6.863180675227E-002
   9.750000000000E+001  1.000000000000E+000  9.376730640876E-001  6.232691356065E-002
   9.800000000000E+001  1.000000000000E+000  9.436417683983E-001  5.635822042580E-002
   9.850000000000E+001  1.000000000000E+000  9.475374146751E-001  5.246258532487E-002
   9.900000000000E+001  1.000000000000E+000  9.530228670446E-001  4.697712177951E-002
   9.950000000000E+001  1.000000000000E+000  9.605492683200E-001  3.945074658114E-002
   1.000000000000E+002  1.000000000000E+000  9.698599254597E-001  3.014004846328E-002
