#                    1                    2                    3                    4                    5                    6                    7                    8                    9                   10
#               Time |               Ekin |               Epot |               Etot |  Energy          1 |  Energy          2 | Spin             1 | Spin             2 | f_osc            1 | f_osc            2 |
#               [fs] |               [eV] |               [eV] |               [eV] |               [eV] |               [eV] |                 [] |                 [] |                 [] |                 [] |
   0.000000000000E+000  4.175870705134E-001  1.030286803635E+001  1.072045510686E+001  3.851140081280E-001  1.030286803635E+001  0.000000000000E+000  0.000000000000E+000  0.000000000000E+000  5.326922244501E-001
   5.000000000000E-001  4.722506488833E-001  1.024967359049E+001  1.072192423938E+001  3.983776529626E-001  1.024967359049E+001  0.000000000000E+000  0.000000000000E+000  0.000000000000E+000  5.214869575126E-001
   1.000000000000E+000  5.304534685859E-001  1.019391256692E+001  1.072436603550E+001  4.423509771668E-001  1.019391256692E+001  0.000000000000E+000  0.000000000000E+000  0.000000000000E+000  5.049947507742E-001
   1.500000000000E+000  6.227902163423E-001  1.010246109227E+001  1.072525130861E+001  4.884609392312E-001  1.010246109227E+001  0.000000000000E+000  0.000000000000E+000  0.000000000000E+000  4.826522136624E-001
   2.000000000000E+000  7.602920589881E-001  9.963502350993E+000  1.072379440998E+001  5.281710559260E-001  9.963502350993E+000  0.000000000000E+000  0.000000000000E+000  0.000000000000E+000  4.543885606709E-001
   2.500000000000E+000  9.229595847536E-001  9.798403265927E+000  1.072136285068E+001  5.838964325914E-001  9.798403265927E+000  0.000000000000E+000  0.000000000000E+000  0.000000000000E+000  4.208135064045E-001
   3.000000000000E+000  1.077720144369E+000  9.642307883552E+000  1.072002802792E+001  6.893995937516E-001  9.642307883552E+000  0.000000000000E+000  0.000000000000E+000  0.000000000000E+000  3.831916358579E-001
   3.500000000000E+000  1.206416275910E+000  9.514375467131E+000  1.072079174304E+001  8.608841021543E-001  9.514375467131E+000  0.000000000000E+000  0.000000000000E+000  0.000000000000E+000  3.431777625671E-001
   4.000000000000E+000  1.319530209230E+000  9.403363633422E+000  1.072289384265E+001  1.083702614095E+000  9.403363633422E+000  0.000000000000E+000  0.000000000000E+000  0.000000000000E+000  3.024641513735E-001
   4.500000000000E+000  1.446089014987E+000  9.278445966219E+000  1.072453498121E+001  1.323855049668E+000  9.278445966219E+000  0.000000000000E+000  0.000000000000E+000  0.000000000000E+000  2.625087572742E-001
   5.000000000000E+000  1.609478575316E+000  9.114974938249E+000  1.072445351357E+001  1.553658723846E+000  9.114974938249E+000  0.000000000000E+000  0.000000000000E+000  0.000000000000E+000  2.244102188029E-001
   5.500000000000E+000  1.809965975197E+000  8.912913269917E+000  1.072287924511E+001  1.769833848531E+000  8.912913269917E+000  0.000000000000E+000  0.000000000000E+000  0.000000000000E+000  1.888720600161E-001
   6.000000000000E+000  2.027103599588E+000  8.693913875701E+000  1.072101747529E+001  1.990381298375E+000  8.693913875701E+000  0.000000000000E+000  0.000000000000E+000  0.000000000000E+000  1.562256890967E-001
   6.500000000000E+000  2.235267054370E+000  8.484542413322E+000  1.071980946769E+001  2.237884072957E+000  8.484542413322E+000  0.000000000000E+000  0.000000000000E+000  0.000000000000E+000  1.264856684615E-001
   7.000000000000E+000  2.416962209404E+000  8.302533630098E+000  1.071949583950E+001  2.525498060031E+000  8.302533630098E+000  0.000000000000E+000  0.000000000000E+000  0.000000000000E+000  9.944920791444E-002
   7.500000000000E+000  2.567077682276E+000  8.152831290248E+000  1.071990897252E+001  2.851871398048E+000  8.152831290248E+000  0.000000000000E+000  0.000000000000E+000  0.000000000000E+000  7.482704376911E-002
   8.000000000000E+000  2.690991298155E+000  8.029771888448E+000  1.072076318660E+001  3.200842974019E+000  8.029771888448E+000  0.000000000000E+000  0.000000000000E+000  0.000000000000E+000  5.239117853470E-002
   8.500000000000E+000  2.800088470694E+000  7.921543235080E+000  1.072163170577E+001  3.541596712064E+000  7.921543235080E+000  0.000000000000E+000  0.000000000000E+000  0.000000000000E+000  3.218388893444E-002
   9.000000000000E+000  2.905313784852E+000  7.816700222092E+000  1.072201400694E+001  3.828496128198E+000  7.816700222092E+000  0.000000000000E+000  0.000000000000E+000  0.000000000000E+000  1.497283640144E-002
   9.500000000000E+000  3.010782467311E+000  7.711105902796E+000  1.072188837011E+001  4.002509934731E+000  7.711105902796E+000  0.000000000000E+000  0.000000000000E+000  0.000000000000E+000  3.072996970748E-003
   1.000000000000E+001  3.103052257983E+000  7.615073663788E+000  1.071812592177E+001  4.005580467286E+000  7.615073663788E+000  0.000000000000E+000  0.000000000000E+000  0.000000000000E+000  3.116209303764E-004
   1.050000000000E+001  3.156171200466E+000  7.562190788281E+000  1.071836198875E+001  3.823069906143E+000  7.562190788281E+000  0.000000000000E+000  0.000000000000E+000  0.000000000000E+000  7.768316803875E-003
   1.100000000000E+001  3.153873183172E+000  7.564041162383E+000  1.071791434556E+001  3.506143544261E+000  7.564041162383E+000  0.000000000000E+000  0.000000000000E+000  0.000000000000E+000  2.190712216241E-002
   1.150000000000E+001  3.091621606401E+000  7.626600133877E+000  1.071822174028E+001  3.127160805144E+000  7.626600133877E+000  0.000000000000E+000  0.000000000000E+000  0.000000000000E+000  3.837091463484E-002
   1.200000000000E+001  2.972462102830E+000  7.746560431169E+000  1.071902253400E+001  2.736080973219E+000  7.746560431169E+000  0.000000000000E+000  0.000000000000E+000  0.000000000000E+000  5.539638475954E-002
   1.250000000000E+001  2.806375917755E+000  7.913365942117E+000  1.071974185987E+001  2.358087095792E+000  7.913365942117E+000  0.000000000000E+000  0.000000000000E+000  0.000000000000E+000  7.272980317888E-002
   1.300000000000E+001  2.603134282057E+000  8.116919338512E+000  1.072005362057E+001  2.006914118867E+000  8.116919338512E+000  0.000000000000E+000  0.000000000000E+000  0.000000000000E+000  9.066073063724E-002
   1.350000000000E+001  2.367559594590E+000  8.352430056227E+000  1.071998965082E+001  1.694580494353E+000  8.352430056227E+000  0.000000000000E+000  0.000000000000E+000  0.000000000000E+000  1.096867693319E-001
   1.400000000000E+001  2.099974550584E+000  8.619923401847E+000  1.071989795243E+001  1.433683732408E+000  8.619923401847E+000  0.000000000000E+000  0.000000000000E+000  0.000000000000E+000  1.304344883481E-001
   1.450000000000E+001  1.800998555958E+000  8.919245903169E+000  1.072024445913E+001  1.233829179420E+000  8.919245903169E+000  0.000000000000E+000  0.000000000000E+000  0.000000000000E+000  1.536570052055E-001
   1.500000000000E+001  1.477972741885E+000  9.243428452671E+000  1.072140119456E+001  1.095880252600E+000  9.243428452671E+000  0.000000000000E+000  0.000000000000E+000  0.000000000000E+000  1.802242594878E-001
   1.550000000000E+001  1.150068171312E+000  9.573359407014E+000  1.072342757833E+001  1.007359716107E+000  9.573359407014E+000  0.000000000000E+000  0.000000000000E+000  0.000000000000E+000  2.110223171548E-001
   1.600000000000E+001  8.487714270469E-001  9.877109200490E+000  1.072588062754E+001  9.422981136391E-001  9.877109200490E+000  0.000000000000E+000  0.000000000000E+000  0.000000000000E+000  2.466427197215E-001
   1.650000000000E+001  6.105743170557E-001  1.011714816459E+001  1.072772248165E+001  8.688638404712E-001  1.011714816459E+001  0.000000000000E+000  0.000000000000E+000  0.000000000000E+000  2.868139917729E-001
   1.700000000000E+001  4.623549675051E-001  1.026555932428E+001  1.072791429178E+001  7.648151277781E-001  1.026555932428E+001  0.000000000000E+000  0.000000000000E+000  0.000000000000E+000  3.296613711328E-001
   1.750000000000E+001  4.073710126118E-001  1.031891676632E+001  1.072628777893E+001  6.324271193639E-001  1.031891676632E+001  0.000000000000E+000  0.000000000000E+000  0.000000000000E+000  3.713818990339E-001
   1.800000000000E+001  4.228172539704E-001  1.030088351012E+001  1.072370076409E+001  5.004445605695E-001  1.030088351012E+001  0.000000000000E+000  0.000000000000E+000  0.000000000000E+000  4.069957619670E-001
   1.850000000000E+001  4.725773838339E-001  1.024901534712E+001  1.072159273095E+001  4.087541699702E-001  1.024901534712E+001  0.000000000000E+000  0.000000000000E+000  0.000000000000E+000  4.322581809953E-001
   1.900000000000E+001  5.283781109750E-001  1.019283798937E+001  1.072121610034E+001  3.843148097838E-001  1.019283798937E+001  0.000000000000E+000  0.000000000000E+000  0.000000000000E+000  4.453393715654E-001
   1.950000000000E+001  5.867178936451E-001  1.013593136653E+001  1.072264926017E+001  4.240064227376E-001  1.013593136653E+001  0.000000000000E+000  0.000000000000E+000  0.000000000000E+000  4.467678005734E-001
   2.000000000000E+001  6.679682228477E-001  1.005635113020E+001  1.072431935305E+001  4.982749969344E-001  1.005635113020E+001  0.000000000000E+000  0.000000000000E+000  0.000000000000E+000  4.381212132734E-001
   2.050000000000E+001  7.949541579656E-001  9.929573564913E+000  1.072452772288E+001  5.764391528445E-001  9.929573564913E+000  0.000000000000E+000  0.000000000000E+000  0.000000000000E+000  4.209954444155E-001
   2.100000000000E+001  9.709130208564E-001  9.752459021190E+000  1.072337204205E+001  6.510631077145E-001  9.752459021190E+000  0.000000000000E+000  0.000000000000E+000  0.000000000000E+000  3.967315947218E-001
   2.150000000000E+001  1.179850565213E+000  9.542340062097E+000  1.072219062731E+001  7.361547377275E-001  9.542340062097E+000  0.000000000000E+000  0.000000000000E+000  0.000000000000E+000  3.665880998306E-001
   2.200000000000E+001  1.402446774099E+000  9.318994465650E+000  1.072144123975E+001  8.478895779060E-001  9.318994465650E+000  0.000000000000E+000  0.000000000000E+000  0.000000000000E+000  3.319576055623E-001
   2.250000000000E+001  1.623423777797E+000  9.097141413609E+000  1.072056519141E+001  9.959121590305E-001  9.097141413609E+000  0.000000000000E+000  0.000000000000E+000  0.000000000000E+000  2.944850112502E-001
   2.300000000000E+001  1.826539364345E+000  8.892741471062E+000  1.071928083541E+001  1.189135841999E+000  8.892741471062E+000  0.000000000000E+000  0.000000000000E+000  0.000000000000E+000  2.559756660319E-001
   2.350000000000E+001  1.991772187242E+000  8.726315831032E+000  1.071808801827E+001  1.439475675462E+000  8.726315831032E+000  0.000000000000E+000  0.000000000000E+000  0.000000000000E+000  2.181640850723E-001
   2.400000000000E+001  2.101592537642E+000  8.616055031518E+000  1.071764756916E+001  1.756025159678E+000  8.616055031518E+000  0.000000000000E+000  0.000000000000E+000  0.000000000000E+000  1.824409158151E-001
   2.450000000000E+001  2.149782297038E+000  8.568459055781E+000  1.071824135282E+001  2.136896368834E+000  8.568459055781E+000  0.000000000000E+000  0.000000000000E+000  0.000000000000E+000  1.496767931658E-001
   2.500000000000E+001  2.145373442849E+000  8.574337803150E+000  1.071971124600E+001  2.565960027262E+000  8.574337803150E+000  0.000000000000E+000  0.000000000000E+000  0.000000000000E+000  1.201974687412E-001
   2.550000000000E+001  2.110747446476E+000  8.610958883549E+000  1.072170633002E+001  3.015116843645E+000  8.610958883549E+000  0.000000000000E+000  0.000000000000E+000  0.000000000000E+000  9.389352258367E-002
   2.600000000000E+001  2.076224621642E+000  8.647560371751E+000  1.072378499339E+001  3.449366719723E+000  8.647560371751E+000  0.000000000000E+000  0.000000000000E+000  0.000000000000E+000  7.039351166584E-002
   2.650000000000E+001  2.072939254132E+000  8.652529442558E+000  1.072546869669E+001  3.833036347595E+000  8.652529442558E+000  0.000000000000E+000  0.000000000000E+000  0.000000000000E+000  4.928761171633E-002
   2.700000000000E+001  2.125267891392E+000  8.601011762179E+000  1.072627965357E+001  4.135949935245E+000  8.601011762179E+000  0.000000000000E+000  0.000000000000E+000  0.000000000000E+000  3.047301881864E-002
   2.750000000000E+001  2.243155408845E+000  8.482266181063E+000  1.072542158991E+001  4.336943284647E+000  8.482266181063E+000  0.000000000000E+000  0.000000000000E+000  0.000000000000E+000  1.482359485846E-002
   2.800000000000E+001  2.411884634311E+000  8.309781110075E+000  1.072166574439E+001  4.422113283446E+000  8.309781110075E+000  0.000000000000E+000  0.000000000000E+000  0.000000000000E+000  4.442706919263E-003
   2.850000000000E+001  2.587489446778E+000  8.129752771368E+000  1.071724221815E+001  4.380643406557E+000  8.129752771368E+000  0.000000000000E+000  0.000000000000E+000  0.000000000000E+000  3.109286960865E-004
   2.900000000000E+001  2.722623133105E+000  7.994208514540E+000  1.071683164765E+001  4.209548020943E+000  7.994208514540E+000  0.000000000000E+000  0.000000000000E+000  0.000000000000E+000  1.777063772517E-003
   2.950000000000E+001  2.805921781778E+000  7.913714519944E+000  1.071963630172E+001  3.926650310920E+000  7.913714519944E+000  0.000000000000E+000  0.000000000000E+000  0.000000000000E+000  1.014515931357E-002
   3.000000000000E+001  2.851808307434E+000  7.867930550258E+000  1.071973885769E+001  3.569737364683E+000  7.867930550258E+000  0.000000000000E+000  0.000000000000E+000  0.000000000000E+000  2.632394006875E-002
   3.050000000000E+001  2.858976610793E+000  7.859195696039E+000  1.071817230683E+001  3.181799359138E+000  7.859195696039E+000  0.000000000000E+000  0.000000000000E+000  0.000000000000E+000  4.744337188418E-002
   3.100000000000E+001  2.809085818479E+000  7.908296461304E+000  1.071738227978E+001  2.800086501879E+000  7.908296461304E+000  0.000000000000E+000  0.000000000000E+000  0.000000000000E+000  7.127139469070E-002
   3.150000000000E+001  2.691008095782E+000  8.026911972005E+000  1.071792006779E+001  2.448701548274E+000  8.026911972005E+000  0.000000000000E+000  0.000000000000E+000  0.000000000000E+000  9.711881168422E-002
   3.200000000000E+001  2.511627857413E+000  8.208001282568E+000  1.071962913998E+001  2.134008696779E+000  8.208001282568E+000  0.000000000000E+000  0.000000000000E+000  0.000000000000E+000  1.246638729405E-001
   3.250000000000E+001  2.294062074569E+000  8.427652389428E+000  1.072171446400E+001  1.846605597929E+000  8.427652389428E+000  0.000000000000E+000  0.000000000000E+000  0.000000000000E+000  1.534532602770E-001
   3.300000000000E+001  2.066656052272E+000  8.656395635976E+000  1.072305168825E+001  1.572102327713E+000  8.656395635976E+000  0.000000000000E+000  0.000000000000E+000  0.000000000000E+000  1.827634270960E-001
   3.350000000000E+001  1.848075211374E+000  8.874946586586E+000  1.072302179796E+001  1.306031049013E+000  8.874946586586E+000  0.000000000000E+000  0.000000000000E+000  0.000000000000E+000  2.116046844182E-001
   3.400000000000E+001  1.638849911116E+000  9.083143605638E+000  1.072199351675E+001  1.061742755206E+000  9.083143605638E+000  0.000000000000E+000  0.000000000000E+000  0.000000000000E+000  2.388101585461E-001
   3.450000000000E+001  1.425785542736E+000  9.295152123226E+000  1.072093766596E+001  8.649361493251E-001  9.295152123226E+000  0.000000000000E+000  0.000000000000E+000  0.000000000000E+000  2.631661259561E-001
   3.500000000000E+001  1.195112168953E+000  9.525584924599E+000  1.072069709355E+001  7.396514005538E-001  9.525584924599E+000  0.000000000000E+000  0.000000000000E+000  0.000000000000E+000  2.835328018696E-001
   3.550000000000E+001  9.445656603251E-001  9.777023281628E+000  1.072158894195E+001  6.959583536034E-001  9.777023281628E+000  0.000000000000E+000  0.000000000000E+000  0.000000000000E+000  2.989325740085E-001
   3.600000000000E+001  6.881789471908E-001  1.003521523202E+001  1.072339417921E+001  7.253678730518E-001  1.003521523202E+001  0.000000000000E+000  0.000000000000E+000  0.000000000000E+000  3.086393796475E-001
   3.650000000000E+001  4.537743031551E-001  1.027184678663E+001  1.072562108979E+001  8.035260424573E-001  1.027184678663E+001  0.000000000000E+000  0.000000000000E+000  0.000000000000E+000  3.122845849319E-001
   3.700000000000E+001  2.757920962827E-001  1.045191920778E+001  1.072771130406E+001  8.974110311652E-001  1.045191920778E+001  0.000000000000E+000  0.000000000000E+000  0.000000000000E+000  3.100096933846E-001
   3.750000000000E+001  1.861524267313E-001  1.054289529956E+001  1.072904772629E+001  9.747849684878E-001  1.054289529956E+001  0.000000000000E+000  0.000000000000E+000  0.000000000000E+000  3.025612473878E-001
   3.800000000000E+001  2.054307525109E-001  1.052381794256E+001  1.072924869507E+001  1.013854529207E+000  1.052381794256E+001  0.000000000000E+000  0.000000000000E+000  0.000000000000E+000  2.912268104257E-001
   3.850000000000E+001  3.368228181355E-001  1.039143156683E+001  1.072825438496E+001  1.010005478960E+000  1.039143156683E+001  0.000000000000E+000  0.000000000000E+000  0.000000000000E+000  2.774259316377E-001
   3.900000000000E+001  5.652378786954E-001  1.016115196555E+001  1.072638984424E+001  9.767183373113E-001  1.016115196555E+001  0.000000000000E+000  0.000000000000E+000  0.000000000000E+000  2.621683401114E-001
   3.950000000000E+001  8.617837794725E-001  9.862352467022E+000  1.072413624649E+001  9.405514149091E-001  9.862352467022E+000  0.000000000000E+000  0.000000000000E+000  0.000000000000E+000  2.458310584761E-001
   4.000000000000E+001  1.191237684022E+000  9.530763523061E+000  1.072200120708E+001  9.331784904520E-001  9.530763523061E+000  0.000000000000E+000  0.000000000000E+000  0.000000000000E+000  2.283396869409E-001
   4.050000000000E+001  1.519647051431E+000  9.200717464565E+000  1.072036451600E+001  9.833859426985E-001  9.200717464565E+000  0.000000000000E+000  0.000000000000E+000  0.000000000000E+000  2.095471881119E-001
   4.100000000000E+001  1.820511100252E+000  8.899021586343E+000  1.071953268659E+001  1.110844336812E+000  8.899021586343E+000  0.000000000000E+000  0.000000000000E+000  0.000000000000E+000  1.894324547030E-001
   4.150000000000E+001  2.079122262420E+000  8.640478336988E+000  1.071960059941E+001  1.321603579768E+000  8.640478336988E+000  0.000000000000E+000  0.000000000000E+000  0.000000000000E+000  1.681674531452E-001
   4.200000000000E+001  2.294096909204E+000  8.426288554869E+000  1.072038546407E+001  1.606450985445E+000  8.426288554869E+000  0.000000000000E+000  0.000000000000E+000  0.000000000000E+000  1.460472630953E-001
   4.250000000000E+001  2.474394903947E+000  8.246953562223E+000  1.072134846617E+001  1.943694727087E+000  8.246953562223E+000  0.000000000000E+000  0.000000000000E+000  0.000000000000E+000  1.233949624506E-001
   4.300000000000E+001  2.631822666333E+000  8.090007279875E+000  1.072182994621E+001  2.306687784933E+000  8.090007279875E+000  0.000000000000E+000  0.000000000000E+000  0.000000000000E+000  1.005006619307E-001
   4.350000000000E+001  2.772473971134E+000  7.949074352701E+000  1.072154832384E+001  2.672647699961E+000  7.949074352701E+000  0.000000000000E+000  0.000000000000E+000  0.000000000000E+000  7.760402998142E-002
   4.400000000000E+001  2.892954292119E+000  7.827888454680E+000  1.072084274680E+001  3.026534740313E+000  7.827888454680E+000  0.000000000000E+000  0.000000000000E+000  0.000000000000E+000  5.496991005178E-002
   4.450000000000E+001  2.984674899030E+000  7.735756967549E+000  1.072043186658E+001  3.356596309298E+000  7.735756967549E+000  0.000000000000E+000  0.000000000000E+000  0.000000000000E+000  3.319474823199E-002
   4.500000000000E+001  3.040685657753E+000  7.679056607000E+000  1.071974226475E+001  3.645406780921E+000  7.679056607000E+000  0.000000000000E+000  0.000000000000E+000  0.000000000000E+000  1.427662604799E-002
   4.550000000000E+001  3.044726917708E+000  7.670532368892E+000  1.071525928660E+001  3.865816541162E+000  7.670532368892E+000  0.000000000000E+000  0.000000000000E+000  0.000000000000E+000  2.780602492230E-003
   4.600000000000E+001  2.962962821338E+000  7.751015206820E+000  1.071397802816E+001  3.990688221127E+000  7.751015206820E+000  0.000000000000E+000  0.000000000000E+000  0.000000000000E+000  1.850680981717E-004
   4.650000000000E+001  2.792180295029E+000  7.927007280960E+000  1.071918757599E+001  4.014885672110E+000  7.927007280960E+000  0.000000000000E+000  0.000000000000E+000  0.000000000000E+000  4.708552238397E-003
   4.700000000000E+001  2.581112339564E+000  8.141504007488E+000  1.072261634705E+001  3.957891428616E+000  8.141504007488E+000  0.000000000000E+000  0.000000000000E+000  0.000000000000E+000  1.666158184984E-002
   4.750000000000E+001  2.373776186954E+000  8.349294216351E+000  1.072307040330E+001  3.841647934246E+000  8.349294216351E+000  0.000000000000E+000  0.000000000000E+000  0.000000000000E+000  3.368983853351E-002
   4.800000000000E+001  2.185107224024E+000  8.538023939275E+000  1.072313116330E+001  3.680111363554E+000  8.538023939275E+000  0.000000000000E+000  0.000000000000E+000  0.000000000000E+000  5.310286267955E-002
   4.850000000000E+001  2.019447691394E+000  8.703914875611E+000  1.072336256701E+001  3.480238306826E+000  8.703914875611E+000  0.000000000000E+000  0.000000000000E+000  0.000000000000E+000  7.410677655946E-002
   4.900000000000E+001  1.881447288729E+000  8.842360954414E+000  1.072380824314E+001  3.243475865454E+000  8.842360954414E+000  0.000000000000E+000  0.000000000000E+000  0.000000000000E+000  9.674785848338E-002
   4.950000000000E+001  1.777919324080E+000  8.946436878491E+000  1.072435620257E+001  2.966821263229E+000  8.946436878491E+000  0.000000000000E+000  0.000000000000E+000  0.000000000000E+000  1.212933225140E-001
   5.000000000000E+001  1.716059508747E+000  9.008569175486E+000  1.072462868423E+001  2.645936461337E+000  9.008569175486E+000  0.000000000000E+000  0.000000000000E+000  0.000000000000E+000  1.480024936728E-001
   5.050000000000E+001  1.698009590670E+000  9.026115075799E+000  1.072412466647E+001  2.281870458625E+000  9.026115075799E+000  0.000000000000E+000  0.000000000000E+000  0.000000000000E+000  1.769705614945E-001
   5.100000000000E+001  1.714140517927E+000  9.008448629056E+000  1.072258914698E+001  1.888825420557E+000  9.008448629056E+000  0.000000000000E+000  0.000000000000E+000  0.000000000000E+000  2.079755389111E-001
   5.150000000000E+001  1.739971977158E+000  8.980297636111E+000  1.072026961327E+001  1.497704227329E+000  8.980297636111E+000  0.000000000000E+000  0.000000000000E+000  0.000000000000E+000  2.403451778010E-001
   5.200000000000E+001  1.739841629582E+000  8.977903578559E+000  1.071774520814E+001  1.151753931307E+000  8.977903578559E+000  0.000000000000E+000  0.000000000000E+000  0.000000000000E+000  2.729237051805E-001
   5.250000000000E+001  1.676068819063E+000  9.039705257240E+000  1.071577407630E+001  8.961353614898E-001  9.039705257240E+000  0.000000000000E+000  0.000000000000E+000  0.000000000000E+000  3.042389685291E-001
   5.300000000000E+001  1.521324467796E+000  9.193972578847E+000  1.071529704664E+001  7.643857321407E-001  9.193972578847E+000  0.000000000000E+000  0.000000000000E+000  0.000000000000E+000  3.328053501878E-001
   5.350000000000E+001  1.273681100774E+000  9.443733898289E+000  1.071741499906E+001  7.627900565915E-001  9.443733898289E+000  0.000000000000E+000  0.000000000000E+000  0.000000000000E+000  3.574083351942E-001
   5.400000000000E+001  9.714619277354E-001  9.750999130446E+000  1.072246105818E+001  8.551280781264E-001  9.750999130446E+000  0.000000000000E+000  0.000000000000E+000  0.000000000000E+000  3.771738717691E-001
   5.450000000000E+001  6.931024435331E-001  1.003514148917E+001  1.072824393270E+001  9.624168502960E-001  1.003514148917E+001  0.000000000000E+000  0.000000000000E+000  0.000000000000E+000  3.913813899436E-001
   5.500000000000E+001  5.221571464728E-001  1.020832371581E+001  1.073048086228E+001  9.997451545613E-001  1.020832371581E+001  0.000000000000E+000  0.000000000000E+000  0.000000000000E+000  3.991806771403E-001
   5.550000000000E+001  4.909954913866E-001  1.023658954079E+001  1.072758503218E+001  9.381976302053E-001  1.023658954079E+001  0.000000000000E+000  0.000000000000E+000  0.000000000000E+000  3.994228091237E-001
   5.600000000000E+001  5.609007730711E-001  1.016201130105E+001  1.072291207412E+001  8.270992642955E-001  1.016201130105E+001  0.000000000000E+000  0.000000000000E+000  0.000000000000E+000  3.907724155797E-001
   5.650000000000E+001  6.636898028703E-001  1.005660664510E+001  1.072029644797E+001  7.466191475047E-001  1.005660664510E+001  0.000000000000E+000  0.000000000000E+000  0.000000000000E+000  3.722783648502E-001
   5.700000000000E+001  7.538350387468E-001  9.966486079233E+000  1.072032111798E+001  7.488537463476E-001  9.966486079233E+000  0.000000000000E+000  0.000000000000E+000  0.000000000000E+000  3.442851068314E-001
   5.750000000000E+001  8.231326888321E-001  9.898546600808E+000  1.072167928964E+001  8.414736778193E-001  9.898546600808E+000  0.000000000000E+000  0.000000000000E+000  0.000000000000E+000  3.089929332339E-001
   5.800000000000E+001  8.865811767385E-001  9.836704377165E+000  1.072328555390E+001  1.004491908362E+000  9.836704377165E+000  0.000000000000E+000  0.000000000000E+000  0.000000000000E+000  2.699592897420E-001
   5.850000000000E+001  9.661618794420E-001  9.758495594585E+000  1.072465747403E+001  1.210117723752E+000  9.758495594585E+000  0.000000000000E+000  0.000000000000E+000  0.000000000000E+000  2.309515947491E-001
   5.900000000000E+001  1.081888634695E+000  9.643679881526E+000  1.072556851622E+001  1.433133518226E+000  9.643679881526E+000  0.000000000000E+000  0.000000000000E+000  0.000000000000E+000  1.950174210930E-001
   5.950000000000E+001  1.247363273071E+000  9.478492631577E+000  1.072585590465E+001  1.654349279657E+000  9.478492631577E+000  0.000000000000E+000  0.000000000000E+000  0.000000000000E+000  1.639256165969E-001
   6.000000000000E+001  1.466871536070E+000  9.258515532339E+000  1.072538706841E+001  1.862506025860E+000  9.258515532339E+000  0.000000000000E+000  0.000000000000E+000  0.000000000000E+000  1.380385171125E-001
   6.050000000000E+001  1.733397343257E+000  8.990753066132E+000  1.072415040939E+001  2.056582785713E+000  8.990753066132E+000  0.000000000000E+000  0.000000000000E+000  0.000000000000E+000  1.166629813425E-001
   6.100000000000E+001  2.028547964593E+000  8.693804485938E+000  1.072235245053E+001  2.246313615449E+000  8.693804485938E+000  0.000000000000E+000  0.000000000000E+000  0.000000000000E+000  9.865521625712E-002
   6.150000000000E+001  2.325698012854E+000  8.394692600727E+000  1.072039061358E+001  2.449202781965E+000  8.394692600727E+000  0.000000000000E+000  0.000000000000E+000  0.000000000000E+000  8.285792696343E-002
   6.200000000000E+001  2.595800498023E+000  8.122906115075E+000  1.071870661310E+001  2.684335533557E+000  8.122906115075E+000  0.000000000000E+000  0.000000000000E+000  0.000000000000E+000  6.829689718852E-002
   6.250000000000E+001  2.813656578032E+000  7.903994885743E+000  1.071765146377E+001  2.965685732181E+000  7.903994885743E+000  0.000000000000E+000  0.000000000000E+000  0.000000000000E+000  5.420375208699E-002
   6.300000000000E+001  2.963416371652E+000  7.754222340522E+000  1.071763871217E+001  3.296181866966E+000  7.754222340522E+000  0.000000000000E+000  0.000000000000E+000  0.000000000000E+000  4.000918072313E-002
   6.350000000000E+001  3.044602907511E+000  7.674665778100E+000  1.071926868561E+001  3.661435102356E+000  7.674665778100E+000  0.000000000000E+000  0.000000000000E+000  0.000000000000E+000  2.550551585635E-002
   6.400000000000E+001  3.075597245703E+000  7.645398846303E+000  1.072099609201E+001  4.021765254178E+000  7.645398846303E+000  0.000000000000E+000  0.000000000000E+000  0.000000000000E+000  1.184003786477E-002
   6.450000000000E+001  3.067255873926E+000  7.649256059965E+000  1.071651193389E+001  4.307481247228E+000  7.649256059965E+000  0.000000000000E+000  0.000000000000E+000  0.000000000000E+000  2.873710700332E-003
   6.500000000000E+001  2.999178785005E+000  7.716597976401E+000  1.071577676141E+001  4.438704064185E+000  7.716597976401E+000  0.000000000000E+000  0.000000000000E+000  0.000000000000E+000  7.103144167074E-004
   6.550000000000E+001  2.871709110308E+000  7.848722306505E+000  1.072043141681E+001  4.388840291717E+000  7.848722306505E+000  0.000000000000E+000  0.000000000000E+000  0.000000000000E+000  5.738038787093E-003
   6.600000000000E+001  2.721598915765E+000  8.000332436478E+000  1.072193135224E+001  4.211358122198E+000  8.000332436478E+000  0.000000000000E+000  0.000000000000E+000  0.000000000000E+000  1.815140596851E-002
   6.650000000000E+001  2.564620678470E+000  8.156428635194E+000  1.072104931366E+001  3.987074549350E+000  8.156428635194E+000  0.000000000000E+000  0.000000000000E+000  0.000000000000E+000  3.495898759284E-002
   6.700000000000E+001  2.391784088960E+000  8.328962686672E+000  1.072074677563E+001  3.776601025925E+000  8.328962686672E+000  0.000000000000E+000  0.000000000000E+000  0.000000000000E+000  5.299199286507E-002
   6.750000000000E+001  2.198868320937E+000  8.522673453412E+000  1.072154177435E+001  3.606419398582E+000  8.522673453412E+000  0.000000000000E+000  0.000000000000E+000  0.000000000000E+000  7.071185991686E-002
   6.800000000000E+001  1.995403460155E+000  8.727304964836E+000  1.072270842499E+001  3.476290207142E+000  8.727304964836E+000  0.000000000000E+000  0.000000000000E+000  0.000000000000E+000  8.755596780236E-002
   6.850000000000E+001  1.796186834487E+000  8.927232172218E+000  1.072341900671E+001  3.374950931939E+000  8.927232172218E+000  0.000000000000E+000  0.000000000000E+000  0.000000000000E+000  1.033023043065E-001
   6.900000000000E+001  1.610177698298E+000  9.113049188614E+000  1.072322688691E+001  3.294009582193E+000  9.113049188614E+000  0.000000000000E+000  0.000000000000E+000  0.000000000000E+000  1.178232365347E-001
   6.950000000000E+001  1.434535567068E+000  9.287715524131E+000  1.072225109120E+001  3.235288232164E+000  9.287715524131E+000  0.000000000000E+000  0.000000000000E+000  0.000000000000E+000  1.310462851539E-001
   7.000000000000E+001  1.257062676843E+000  9.464237948142E+000  1.072130062498E+001  3.209550616854E+000  9.464237948142E+000  0.000000000000E+000  0.000000000000E+000  0.000000000000E+000  1.429678923284E-001
   7.050000000000E+001  1.068423430761E+000  9.653295024013E+000  1.072171845477E+001  3.225346825185E+000  9.653295024013E+000  0.000000000000E+000  0.000000000000E+000  0.000000000000E+000  1.536202833032E-001
   7.100000000000E+001  8.802900864372E-001  9.844081927557E+000  1.072437201399E+001  3.270685344517E+000  9.844081927557E+000  0.000000000000E+000  0.000000000000E+000  0.000000000000E+000  1.629935734275E-001
   7.150000000000E+001  7.339192073086E-001  9.994030530432E+000  1.072794973774E+001  3.302883758697E+000  9.994030530432E+000  0.000000000000E+000  0.000000000000E+000  0.000000000000E+000  1.709717356338E-001
   7.200000000000E+001  6.788497628893E-001  1.005021877274E+001  1.072906853563E+001  3.269322598413E+000  1.005021877274E+001  0.000000000000E+000  0.000000000000E+000  0.000000000000E+000  1.773436850300E-001
   7.250000000000E+001  7.286337855790E-001  9.997350591376E+000  1.072598437696E+001  3.154973832701E+000  9.997350591376E+000  0.000000000000E+000  0.000000000000E+000  0.000000000000E+000  1.818311606328E-001
   7.300000000000E+001  8.397519726605E-001  9.881282338318E+000  1.072103431098E+001  3.006168924291E+000  9.881282338318E+000  0.000000000000E+000  0.000000000000E+000  0.000000000000E+000  1.840931682409E-001
   7.350000000000E+001  9.406944117009E-001  9.776837699990E+000  1.071753211169E+001  2.899175123522E+000  9.776837699990E+000  0.000000000000E+000  0.000000000000E+000  0.000000000000E+000  1.837210079184E-001
   7.400000000000E+001  9.769304077100E-001  9.739618513374E+000  1.071654892108E+001  2.892397584144E+000  9.739618513374E+000  0.000000000000E+000  0.000000000000E+000  0.000000000000E+000  1.802580423224E-001
   7.450000000000E+001  9.309311921232E-001  9.786666179726E+000  1.071759737185E+001  3.006928938242E+000  9.786666179726E+000  0.000000000000E+000  0.000000000000E+000  0.000000000000E+000  1.732787070645E-001
   7.500000000000E+001  8.193330398103E-001  9.900990455193E+000  1.072032349500E+001  3.230584472350E+000  9.900990455193E+000  0.000000000000E+000  0.000000000000E+000  0.000000000000E+000  1.625073389639E-001
   7.550000000000E+001  6.866569963684E-001  1.003777936072E+001  1.072443635709E+001  3.523532707003E+000  1.003777936072E+001  0.000000000000E+000  0.000000000000E+000  0.000000000000E+000  1.479694550223E-001
   7.600000000000E+001  5.958633349197E-001  1.013240123370E+001  1.072826456862E+001  3.824858238290E+000  1.013240123370E+001  0.000000000000E+000  0.000000000000E+000  0.000000000000E+000  1.301819020982E-001
   7.650000000000E+001  6.017039890647E-001  1.012731678663E+001  1.072902077569E+001  4.077357839290E+000  1.012731678663E+001  0.000000000000E+000  0.000000000000E+000  0.000000000000E+000  1.102983476873E-001
   7.700000000000E+001  7.149422635580E-001  1.001102267908E+001  1.072596494264E+001  4.264420048611E+000  1.001102267908E+001  0.000000000000E+000  0.000000000000E+000  0.000000000000E+000  9.002710508936E-002
   7.750000000000E+001  8.941165087866E-001  9.827520535112E+000  1.072163704390E+001  4.419306973428E+000  9.827520535112E+000  0.000000000000E+000  0.000000000000E+000  0.000000000000E+000  7.120788678318E-002
   7.800000000000E+001  1.076891889209E+000  9.641793588397E+000  1.071868547761E+001  4.593087306287E+000  9.641793588397E+000  0.000000000000E+000  0.000000000000E+000  0.000000000000E+000  5.521912188144E-002
   7.850000000000E+001  1.215580202151E+000  9.501914013893E+000  1.071749421604E+001  4.819890925394E+000  9.501914013893E+000  0.000000000000E+000  0.000000000000E+000  0.000000000000E+000  4.263357673539E-002
   7.900000000000E+001  1.286487469927E+000  9.430616650700E+000  1.071710412063E+001  5.110352039562E+000  9.430616650700E+000  0.000000000000E+000  0.000000000000E+000  0.000000000000E+000  3.330799813162E-002
   7.950000000000E+001  1.280474385175E+000  9.436470907823E+000  1.071694529300E+001  5.463128855452E+000  9.436470907823E+000  0.000000000000E+000  0.000000000000E+000  0.000000000000E+000  2.669466716935E-002
   8.000000000000E+001  1.196625891680E+000  9.520924430885E+000  1.071755032257E+001  5.871840303549E+000  9.520924430885E+000  0.000000000000E+000  0.000000000000E+000  0.000000000000E+000  2.212525251041E-002
   8.050000000000E+001  1.049890824694E+000  9.670247716158E+000  1.072013854085E+001  6.317095007487E+000  9.670247716158E+000  0.000000000000E+000  0.000000000000E+000  0.000000000000E+000  1.898256169771E-002
   8.100000000000E+001  8.848728944794E-001  9.839926477128E+000  1.072479937161E+001  6.750908685082E+000  9.839926477128E+000  0.000000000000E+000  0.000000000000E+000  0.000000000000E+000  1.678918111087E-002
   8.150000000000E+001  7.719072569483E-001  9.957021415699E+000  1.072892867265E+001  7.099255215566E+000  9.957021415699E+000  0.000000000000E+000  0.000000000000E+000  0.000000000000E+000  1.522514882291E-002
   8.200000000000E+001  7.694089463383E-001  9.959718335953E+000  1.072912728229E+001  7.301430083255E+000  9.959718335953E+000  0.000000000000E+000  0.000000000000E+000  0.000000000000E+000  1.410119927530E-002
   8.250000000000E+001  8.808646981007E-001  9.844707789386E+000  1.072557248749E+001  7.357083349753E+000  9.844707789386E+000  0.000000000000E+000  0.000000000000E+000  0.000000000000E+000  1.331013987459E-002
   8.300000000000E+001  1.056776667148E+000  9.664928434841E+000  1.072170510199E+001  7.323226401727E+000  9.664928434841E+000  0.000000000000E+000  0.000000000000E+000  0.000000000000E+000  1.278537299429E-002
   8.350000000000E+001  1.238058863205E+000  9.481736772760E+000  1.071979563597E+001  7.265438130051E+000  9.481736772760E+000  0.000000000000E+000  0.000000000000E+000  0.000000000000E+000  1.247774820161E-002
   8.400000000000E+001  1.389439620282E+000  9.330042559611E+000  1.071948217989E+001  7.222489042335E+000  9.330042559611E+000  0.000000000000E+000  0.000000000000E+000  0.000000000000E+000  1.234160368480E-002
   8.450000000000E+001  1.499437096912E+000  9.220037274991E+000  1.071947437190E+001  7.207915441481E+000  9.220037274991E+000  0.000000000000E+000  0.000000000000E+000  0.000000000000E+000  1.232653526403E-002
   8.500000000000E+001  1.564646057030E+000  9.154421920862E+000  1.071906797789E+001  7.227528862740E+000  9.154421920862E+000  0.000000000000E+000  0.000000000000E+000  0.000000000000E+000  1.237178918544E-002
   8.550000000000E+001  1.579289425597E+000  9.139104088660E+000  1.071839351426E+001  7.290424711166E+000  9.139104088660E+000  0.000000000000E+000  0.000000000000E+000  0.000000000000E+000  1.240533037921E-002
   8.600000000000E+001  1.536164115112E+000  9.181946779864E+000  1.071811089498E+001  7.407963195294E+000  9.181946779864E+000  0.000000000000E+000  0.000000000000E+000  0.000000000000E+000  1.234772937826E-002
   8.650000000000E+001  1.435585976464E+000  9.283437350361E+000  1.071902332682E+001  7.584659772162E+000  9.283437350361E+000  0.000000000000E+000  0.000000000000E+000  0.000000000000E+000  1.212106115563E-002
   8.700000000000E+001  1.296019591188E+000  9.425501726875E+000  1.072152131806E+001  7.806830925280E+000  9.425501726875E+000  0.000000000000E+000  0.000000000000E+000  0.000000000000E+000  1.166619791178E-002
   8.750000000000E+001  1.157980848445E+000  9.566939969448E+000  1.072492081789E+001  8.037237059497E+000  9.566939969448E+000  0.000000000000E+000  0.000000000000E+000  0.000000000000E+000  1.096543665215E-002
   8.800000000000E+001  1.072312984299E+000  9.655005803717E+000  1.072731878802E+001  8.225425275882E+000  9.655005803717E+000  0.000000000000E+000  0.000000000000E+000  0.000000000000E+000  1.005643093323E-002
   8.850000000000E+001  1.073616742400E+000  9.653374753368E+000  1.072699149577E+001  8.334182646438E+000  9.653374753368E+000  0.000000000000E+000  0.000000000000E+000  0.000000000000E+000  9.026042585845E-003
   8.900000000000E+001  1.157497367736E+000  9.566618875118E+000  1.072411624285E+001  8.362668339404E+000  9.566618875118E+000  0.000000000000E+000  0.000000000000E+000  0.000000000000E+000  7.977845276723E-003
   8.950000000000E+001  1.282563496218E+000  9.437941138893E+000  1.072050463511E+001  8.343593159318E+000  9.437941138893E+000  0.000000000000E+000  0.000000000000E+000  0.000000000000E+000  6.982792001887E-003
   9.000000000000E+001  1.394999799328E+000  9.322947463384E+000  1.071794726271E+001  8.316963282731E+000  9.322947463384E+000  0.000000000000E+000  0.000000000000E+000  0.000000000000E+000  6.044114827098E-003
   9.050000000000E+001  1.455621425659E+000  9.261793687752E+000  1.071741511341E+001  8.303745353021E+000  9.261793687752E+000  0.000000000000E+000  0.000000000000E+000  0.000000000000E+000  5.107720938872E-003
   9.100000000000E+001  1.456010373110E+000  9.263088405396E+000  1.071909877851E+001  8.294979749939E+000  9.263088405396E+000  0.000000000000E+000  0.000000000000E+000  0.000000000000E+000  4.147572579933E-003
   9.150000000000E+001  1.420232037625E+000  9.301796598937E+000  1.072202863656E+001  8.258227510670E+000  9.301796598937E+000  0.000000000000E+000  0.000000000000E+000  0.000000000000E+000  3.268274797488E-003
   9.200000000000E+001  1.388916285328E+000  9.335181973681E+000  1.072409825901E+001  8.157656412834E+000  9.335181973681E+000  0.000000000000E+000  0.000000000000E+000  0.000000000000E+000  2.666014059918E-003
   9.250000000000E+001  1.390504763975E+000  9.333295952666E+000  1.072380071664E+001  7.978831633635E+000  9.333295952666E+000  0.000000000000E+000  0.000000000000E+000  0.000000000000E+000  2.488055797343E-003
   9.300000000000E+001  1.421622028896E+000  9.300184052330E+000  1.072180608123E+001  7.741903474935E+000  9.300184052330E+000  0.000000000000E+000  0.000000000000E+000  0.000000000000E+000  2.758329877544E-003
   9.350000000000E+001  1.455561548825E+000  9.264691428019E+000  1.072025297684E+001  7.488943185206E+000  9.264691428019E+000  0.000000000000E+000  0.000000000000E+000  0.000000000000E+000  3.381674196187E-003
   9.400000000000E+001  1.470791457423E+000  9.250013063338E+000  1.072080452076E+001  7.253810161500E+000  9.250013063338E+000  0.000000000000E+000  0.000000000000E+000  0.000000000000E+000  4.189541539856E-003
   9.450000000000E+001  1.474058029193E+000  9.249403528339E+000  1.072346155753E+001  7.039600242957E+000  9.249403528339E+000  0.000000000000E+000  0.000000000000E+000  0.000000000000E+000  5.003565279171E-003
   9.500000000000E+001  1.500379442809E+000  9.226085005054E+000  1.072646444786E+001  6.820020429923E+000  9.226085005054E+000  0.000000000000E+000  0.000000000000E+000  0.000000000000E+000  5.690663615051E-003
   9.550000000000E+001  1.589791790646E+000  9.137845562156E+000  1.072763735280E+001  6.564397506284E+000  9.137845562156E+000  0.000000000000E+000  0.000000000000E+000  0.000000000000E+000  6.187087831468E-003
   9.600000000000E+001  1.759012758598E+000  8.967305560887E+000  1.072631831949E+001  6.266882112964E+000  8.967305560887E+000  0.000000000000E+000  0.000000000000E+000  0.000000000000E+000  6.487720736239E-003
   9.650000000000E+001  1.993291532578E+000  8.730671013019E+000  1.072396254560E+001  5.953546565296E+000  8.730671013019E+000  0.000000000000E+000  0.000000000000E+000  0.000000000000E+000  6.615850186747E-003
   9.700000000000E+001  2.263450706716E+000  8.458663570930E+000  1.072211427765E+001  5.662533060036E+000  8.458663570930E+000  0.000000000000E+000  0.000000000000E+000  0.000000000000E+000  6.593653462634E-003
   9.750000000000E+001  2.546076522031E+000  8.174834415237E+000  1.072091093727E+001  5.422649745049E+000  8.174834415237E+000  0.000000000000E+000  0.000000000000E+000  0.000000000000E+000  6.427388286389E-003
   9.800000000000E+001  2.826589099860E+000  7.892746243883E+000  1.071933534374E+001  5.250361412368E+000  7.892746243883E+000  0.000000000000E+000  0.000000000000E+000  0.000000000000E+000  6.111438633083E-003
   9.850000000000E+001  3.088414811160E+000  7.628460304078E+000  1.071687511524E+001  5.160086013729E+000  7.628460304078E+000  0.000000000000E+000  0.000000000000E+000  0.000000000000E+000  5.646889148823E-003
   9.900000000000E+001  3.308920606372E+000  7.406273640470E+000  1.071519424684E+001  5.166385721206E+000  7.406273640470E+000  0.000000000000E+000  0.000000000000E+000  0.000000000000E+000  5.056197448160E-003
   9.950000000000E+001  3.482059851855E+000  7.235765204407E+000  1.071782505626E+001  5.259131097158E+000  7.235765204407E+000  0.000000000000E+000  0.000000000000E+000  0.000000000000E+000  4.376454366655E-003
   1.000000000000E+002  3.652947187407E+000  7.071049255625E+000  1.072399644303E+001  5.366496333316E+000  7.071049255625E+000  0.000000000000E+000  0.000000000000E+000  0.000000000000E+000  3.641369327752E-003
