#                    1                    2                    3                    4
#               Time |      f_osc (state) |       === f_osc ===>
#               [fs] |                 [] |                 [] |
   0.000000000000E+000  5.326922244501E-001  0.000000000000E+000  5.326922244501E-001
   5.000000000000E-001  5.214869575126E-001  0.000000000000E+000  5.214869575126E-001
   1.000000000000E+000  5.049947507742E-001  0.000000000000E+000  5.049947507742E-001
   1.500000000000E+000  4.826522136624E-001  0.000000000000E+000  4.826522136624E-001
   2.000000000000E+000  4.543885606709E-001  0.000000000000E+000  4.543885606709E-001
   2.500000000000E+000  4.208135064045E-001  0.000000000000E+000  4.208135064045E-001
   3.000000000000E+000  3.831916358579E-001  0.000000000000E+000  3.831916358579E-001
   3.500000000000E+000  3.431777625671E-001  0.000000000000E+000  3.431777625671E-001
   4.000000000000E+000  3.024641513735E-001  0.000000000000E+000  3.024641513735E-001
   4.500000000000E+000  2.625087572742E-001  0.000000000000E+000  2.625087572742E-001
   5.000000000000E+000  2.244102188029E-001  0.000000000000E+000  2.244102188029E-001
   5.500000000000E+000  1.888720600161E-001  0.000000000000E+000  1.888720600161E-001
   6.000000000000E+000  1.562256890967E-001  0.000000000000E+000  1.562256890967E-001
   6.500000000000E+000  1.264856684615E-001  0.000000000000E+000  1.264856684615E-001
   7.000000000000E+000  9.944920791444E-002  0.000000000000E+000  9.944920791444E-002
   7.500000000000E+000  7.482704376911E-002  0.000000000000E+000  7.482704376911E-002
   8.000000000000E+000  5.239117853470E-002  0.000000000000E+000  5.239117853470E-002
   8.500000000000E+000  3.218388893444E-002  0.000000000000E+000  3.218388893444E-002
   9.000000000000E+000  1.497283640144E-002  0.000000000000E+000  1.497283640144E-002
   9.500000000000E+000  3.072996970748E-003  0.000000000000E+000  3.072996970748E-003
   1.000000000000E+001  3.116209303764E-004  0.000000000000E+000  3.116209303764E-004
   1.050000000000E+001  7.768316803875E-003  0.000000000000E+000  7.768316803875E-003
   1.100000000000E+001  2.190712216241E-002  0.000000000000E+000  2.190712216241E-002
   1.150000000000E+001  3.837091463484E-002  0.000000000000E+000  3.837091463484E-002
   1.200000000000E+001  5.539638475954E-002  0.000000000000E+000  5.539638475954E-002
   1.250000000000E+001  7.272980317888E-002  0.000000000000E+000  7.272980317888E-002
   1.300000000000E+001  9.066073063724E-002  0.000000000000E+000  9.066073063724E-002
   1.350000000000E+001  1.096867693319E-001  0.000000000000E+000  1.096867693319E-001
   1.400000000000E+001  1.304344883481E-001  0.000000000000E+000  1.304344883481E-001
   1.450000000000E+001  1.536570052055E-001  0.000000000000E+000  1.536570052055E-001
   1.500000000000E+001  1.802242594878E-001  0.000000000000E+000  1.802242594878E-001
   1.550000000000E+001  2.110223171548E-001  0.000000000000E+000  2.110223171548E-001
   1.600000000000E+001  2.466427197215E-001  0.000000000000E+000  2.466427197215E-001
   1.650000000000E+001  2.868139917729E-001  0.000000000000E+000  2.868139917729E-001
   1.700000000000E+001  3.296613711328E-001  0.000000000000E+000  3.296613711328E-001
   1.750000000000E+001  3.713818990339E-001  0.000000000000E+000  3.713818990339E-001
   1.800000000000E+001  4.069957619670E-001  0.000000000000E+000  4.069957619670E-001
   1.850000000000E+001  4.322581809953E-001  0.000000000000E+000  4.322581809953E-001
   1.900000000000E+001  4.453393715654E-001  0.000000000000E+000  4.453393715654E-001
   1.950000000000E+001  4.467678005734E-001  0.000000000000E+000  4.467678005734E-001
   2.000000000000E+001  4.381212132734E-001  0.000000000000E+000  4.381212132734E-001
   2.050000000000E+001  4.209954444155E-001  0.000000000000E+000  4.209954444155E-001
   2.100000000000E+001  3.967315947218E-001  0.000000000000E+000  3.967315947218E-001
   2.150000000000E+001  3.665880998306E-001  0.000000000000E+000  3.665880998306E-001
   2.200000000000E+001  3.319576055623E-001  0.000000000000E+000  3.319576055623E-001
   2.250000000000E+001  2.944850112502E-001  0.000000000000E+000  2.944850112502E-001
   2.300000000000E+001  2.559756660319E-001  0.000000000000E+000  2.559756660319E-001
   2.350000000000E+001  2.181640850723E-001  0.000000000000E+000  2.181640850723E-001
   2.400000000000E+001  1.824409158151E-001  0.000000000000E+000  1.824409158151E-001
   2.450000000000E+001  1.496767931658E-001  0.000000000000E+000  1.496767931658E-001
   2.500000000000E+001  1.201974687412E-001  0.000000000000E+000  1.201974687412E-001
   2.550000000000E+001  9.389352258367E-002  0.000000000000E+000  9.389352258367E-002
   2.600000000000E+001  7.039351166584E-002  0.000000000000E+000  7.039351166584E-002
   2.650000000000E+001  4.928761171633E-002  0.000000000000E+000  4.928761171633E-002
   2.700000000000E+001  3.047301881864E-002  0.000000000000E+000  3.047301881864E-002
   2.750000000000E+001  1.482359485846E-002  0.000000000000E+000  1.482359485846E-002
   2.800000000000E+001  4.442706919263E-003  0.000000000000E+000  4.442706919263E-003
   2.850000000000E+001  3.109286960865E-004  0.000000000000E+000  3.109286960865E-004
   2.900000000000E+001  1.777063772517E-003  0.000000000000E+000  1.777063772517E-003
   2.950000000000E+001  1.014515931357E-002  0.000000000000E+000  1.014515931357E-002
   3.000000000000E+001  2.632394006875E-002  0.000000000000E+000  2.632394006875E-002
   3.050000000000E+001  4.744337188418E-002  0.000000000000E+000  4.744337188418E-002
   3.100000000000E+001  7.127139469070E-002  0.000000000000E+000  7.127139469070E-002
   3.150000000000E+001  9.711881168422E-002  0.000000000000E+000  9.711881168422E-002
   3.200000000000E+001  1.246638729405E-001  0.000000000000E+000  1.246638729405E-001
   3.250000000000E+001  1.534532602770E-001  0.000000000000E+000  1.534532602770E-001
   3.300000000000E+001  1.827634270960E-001  0.000000000000E+000  1.827634270960E-001
   3.350000000000E+001  2.116046844182E-001  0.000000000000E+000  2.116046844182E-001
   3.400000000000E+001  2.388101585461E-001  0.000000000000E+000  2.388101585461E-001
   3.450000000000E+001  2.631661259561E-001  0.000000000000E+000  2.631661259561E-001
   3.500000000000E+001  2.835328018696E-001  0.000000000000E+000  2.835328018696E-001
   3.550000000000E+001  2.989325740085E-001  0.000000000000E+000  2.989325740085E-001
   3.600000000000E+001  3.086393796475E-001  0.000000000000E+000  3.086393796475E-001
   3.650000000000E+001  3.122845849319E-001  0.000000000000E+000  3.122845849319E-001
   3.700000000000E+001  3.100096933846E-001  0.000000000000E+000  3.100096933846E-001
   3.750000000000E+001  3.025612473878E-001  0.000000000000E+000  3.025612473878E-001
   3.800000000000E+001  2.912268104257E-001  0.000000000000E+000  2.912268104257E-001
   3.850000000000E+001  2.774259316377E-001  0.000000000000E+000  2.774259316377E-001
   3.900000000000E+001  2.621683401114E-001  0.000000000000E+000  2.621683401114E-001
   3.950000000000E+001  2.458310584761E-001  0.000000000000E+000  2.458310584761E-001
   4.000000000000E+001  2.283396869409E-001  0.000000000000E+000  2.283396869409E-001
   4.050000000000E+001  2.095471881119E-001  0.000000000000E+000  2.095471881119E-001
   4.100000000000E+001  1.894324547030E-001  0.000000000000E+000  1.894324547030E-001
   4.150000000000E+001  1.681674531452E-001  0.000000000000E+000  1.681674531452E-001
   4.200000000000E+001  1.460472630953E-001  0.000000000000E+000  1.460472630953E-001
   4.250000000000E+001  1.233949624506E-001  0.000000000000E+000  1.233949624506E-001
   4.300000000000E+001  1.005006619307E-001  0.000000000000E+000  1.005006619307E-001
   4.350000000000E+001  7.760402998142E-002  0.000000000000E+000  7.760402998142E-002
   4.400000000000E+001  5.496991005178E-002  0.000000000000E+000  5.496991005178E-002
   4.450000000000E+001  3.319474823199E-002  0.000000000000E+000  3.319474823199E-002
   4.500000000000E+001  1.427662604799E-002  0.000000000000E+000  1.427662604799E-002
   4.550000000000E+001  2.780602492230E-003  0.000000000000E+000  2.780602492230E-003
   4.600000000000E+001  1.850680981717E-004  0.000000000000E+000  1.850680981717E-004
   4.650000000000E+001  4.708552238397E-003  0.000000000000E+000  4.708552238397E-003
   4.700000000000E+001  1.666158184984E-002  0.000000000000E+000  1.666158184984E-002
   4.750000000000E+001  3.368983853351E-002  0.000000000000E+000  3.368983853351E-002
   4.800000000000E+001  5.310286267955E-002  0.000000000000E+000  5.310286267955E-002
   4.850000000000E+001  7.410677655946E-002  0.000000000000E+000  7.410677655946E-002
   4.900000000000E+001  9.674785848338E-002  0.000000000000E+000  9.674785848338E-002
   4.950000000000E+001  1.212933225140E-001  0.000000000000E+000  1.212933225140E-001
   5.000000000000E+001  1.480024936728E-001  0.000000000000E+000  1.480024936728E-001
   5.050000000000E+001  1.769705614945E-001  0.000000000000E+000  1.769705614945E-001
   5.100000000000E+001  2.079755389111E-001  0.000000000000E+000  2.079755389111E-001
   5.150000000000E+001  2.403451778010E-001  0.000000000000E+000  2.403451778010E-001
   5.200000000000E+001  2.729237051805E-001  0.000000000000E+000  2.729237051805E-001
   5.250000000000E+001  3.042389685291E-001  0.000000000000E+000  3.042389685291E-001
   5.300000000000E+001  3.328053501878E-001  0.000000000000E+000  3.328053501878E-001
   5.350000000000E+001  3.574083351942E-001  0.000000000000E+000  3.574083351942E-001
   5.400000000000E+001  3.771738717691E-001  0.000000000000E+000  3.771738717691E-001
   5.450000000000E+001  3.913813899436E-001  0.000000000000E+000  3.913813899436E-001
   5.500000000000E+001  3.991806771403E-001  0.000000000000E+000  3.991806771403E-001
   5.550000000000E+001  3.994228091237E-001  0.000000000000E+000  3.994228091237E-001
   5.600000000000E+001  3.907724155797E-001  0.000000000000E+000  3.907724155797E-001
   5.650000000000E+001  3.722783648502E-001  0.000000000000E+000  3.722783648502E-001
   5.700000000000E+001  3.442851068314E-001  0.000000000000E+000  3.442851068314E-001
   5.750000000000E+001  3.089929332339E-001  0.000000000000E+000  3.089929332339E-001
   5.800000000000E+001  2.699592897420E-001  0.000000000000E+000  2.699592897420E-001
   5.850000000000E+001  2.309515947491E-001  0.000000000000E+000  2.309515947491E-001
   5.900000000000E+001  1.950174210930E-001  0.000000000000E+000  1.950174210930E-001
   5.950000000000E+001  1.639256165969E-001  0.000000000000E+000  1.639256165969E-001
   6.000000000000E+001  1.380385171125E-001  0.000000000000E+000  1.380385171125E-001
   6.050000000000E+001  1.166629813425E-001  0.000000000000E+000  1.166629813425E-001
   6.100000000000E+001  9.865521625712E-002  0.000000000000E+000  9.865521625712E-002
   6.150000000000E+001  8.285792696343E-002  0.000000000000E+000  8.285792696343E-002
   6.200000000000E+001  6.829689718852E-002  0.000000000000E+000  6.829689718852E-002
   6.250000000000E+001  5.420375208699E-002  0.000000000000E+000  5.420375208699E-002
   6.300000000000E+001  4.000918072313E-002  0.000000000000E+000  4.000918072313E-002
   6.350000000000E+001  2.550551585635E-002  0.000000000000E+000  2.550551585635E-002
   6.400000000000E+001  1.184003786477E-002  0.000000000000E+000  1.184003786477E-002
   6.450000000000E+001  2.873710700332E-003  0.000000000000E+000  2.873710700332E-003
   6.500000000000E+001  7.103144167074E-004  0.000000000000E+000  7.103144167074E-004
   6.550000000000E+001  5.738038787093E-003  0.000000000000E+000  5.738038787093E-003
   6.600000000000E+001  1.815140596851E-002  0.000000000000E+000  1.815140596851E-002
   6.650000000000E+001  3.495898759284E-002  0.000000000000E+000  3.495898759284E-002
   6.700000000000E+001  5.299199286507E-002  0.000000000000E+000  5.299199286507E-002
   6.750000000000E+001  7.071185991686E-002  0.000000000000E+000  7.071185991686E-002
   6.800000000000E+001  8.755596780236E-002  0.000000000000E+000  8.755596780236E-002
   6.850000000000E+001  1.033023043065E-001  0.000000000000E+000  1.033023043065E-001
   6.900000000000E+001  1.178232365347E-001  0.000000000000E+000  1.178232365347E-001
   6.950000000000E+001  1.310462851539E-001  0.000000000000E+000  1.310462851539E-001
   7.000000000000E+001  1.429678923284E-001  0.000000000000E+000  1.429678923284E-001
   7.050000000000E+001  1.536202833032E-001  0.000000000000E+000  1.536202833032E-001
   7.100000000000E+001  1.629935734275E-001  0.000000000000E+000  1.629935734275E-001
   7.150000000000E+001  1.709717356338E-001  0.000000000000E+000  1.709717356338E-001
   7.200000000000E+001  1.773436850300E-001  0.000000000000E+000  1.773436850300E-001
   7.250000000000E+001  1.818311606328E-001  0.000000000000E+000  1.818311606328E-001
   7.300000000000E+001  1.840931682409E-001  0.000000000000E+000  1.840931682409E-001
   7.350000000000E+001  1.837210079184E-001  0.000000000000E+000  1.837210079184E-001
   7.400000000000E+001  1.802580423224E-001  0.000000000000E+000  1.802580423224E-001
   7.450000000000E+001  1.732787070645E-001  0.000000000000E+000  1.732787070645E-001
   7.500000000000E+001  1.625073389639E-001  0.000000000000E+000  1.625073389639E-001
   7.550000000000E+001  1.479694550223E-001  0.000000000000E+000  1.479694550223E-001
   7.600000000000E+001  1.301819020982E-001  0.000000000000E+000  1.301819020982E-001
   7.650000000000E+001  1.102983476873E-001  0.000000000000E+000  1.102983476873E-001
   7.700000000000E+001  9.002710508936E-002  0.000000000000E+000  9.002710508936E-002
   7.750000000000E+001  7.120788678318E-002  0.000000000000E+000  7.120788678318E-002
   7.800000000000E+001  5.521912188144E-002  0.000000000000E+000  5.521912188144E-002
   7.850000000000E+001  4.263357673539E-002  0.000000000000E+000  4.263357673539E-002
   7.900000000000E+001  3.330799813162E-002  0.000000000000E+000  3.330799813162E-002
   7.950000000000E+001  2.669466716935E-002  0.000000000000E+000  2.669466716935E-002
   8.000000000000E+001  2.212525251041E-002  0.000000000000E+000  2.212525251041E-002
   8.050000000000E+001  1.898256169771E-002  0.000000000000E+000  1.898256169771E-002
   8.100000000000E+001  1.678918111087E-002  0.000000000000E+000  1.678918111087E-002
   8.150000000000E+001  1.522514882291E-002  0.000000000000E+000  1.522514882291E-002
   8.200000000000E+001  1.410119927530E-002  0.000000000000E+000  1.410119927530E-002
   8.250000000000E+001  1.331013987459E-002  0.000000000000E+000  1.331013987459E-002
   8.300000000000E+001  1.278537299429E-002  0.000000000000E+000  1.278537299429E-002
   8.350000000000E+001  1.247774820161E-002  0.000000000000E+000  1.247774820161E-002
   8.400000000000E+001  1.234160368480E-002  0.000000000000E+000  1.234160368480E-002
   8.450000000000E+001  1.232653526403E-002  0.000000000000E+000  1.232653526403E-002
   8.500000000000E+001  1.237178918544E-002  0.000000000000E+000  1.237178918544E-002
   8.550000000000E+001  1.240533037921E-002  0.000000000000E+000  1.240533037921E-002
   8.600000000000E+001  1.234772937826E-002  0.000000000000E+000  1.234772937826E-002
   8.650000000000E+001  1.212106115563E-002  0.000000000000E+000  1.212106115563E-002
   8.700000000000E+001  1.166619791178E-002  0.000000000000E+000  1.166619791178E-002
   8.750000000000E+001  1.096543665215E-002  0.000000000000E+000  1.096543665215E-002
   8.800000000000E+001  1.005643093323E-002  0.000000000000E+000  1.005643093323E-002
   8.850000000000E+001  9.026042585845E-003  0.000000000000E+000  9.026042585845E-003
   8.900000000000E+001  7.977845276723E-003  0.000000000000E+000  7.977845276723E-003
   8.950000000000E+001  6.982792001887E-003  0.000000000000E+000  6.982792001887E-003
   9.000000000000E+001  6.044114827098E-003  0.000000000000E+000  6.044114827098E-003
   9.050000000000E+001  5.107720938872E-003  0.000000000000E+000  5.107720938872E-003
   9.100000000000E+001  4.147572579933E-003  0.000000000000E+000  4.147572579933E-003
   9.150000000000E+001  3.268274797488E-003  0.000000000000E+000  3.268274797488E-003
   9.200000000000E+001  2.666014059918E-003  0.000000000000E+000  2.666014059918E-003
   9.250000000000E+001  2.488055797343E-003  0.000000000000E+000  2.488055797343E-003
   9.300000000000E+001  2.758329877544E-003  0.000000000000E+000  2.758329877544E-003
   9.350000000000E+001  3.381674196187E-003  0.000000000000E+000  3.381674196187E-003
   9.400000000000E+001  4.189541539856E-003  0.000000000000E+000  4.189541539856E-003
   9.450000000000E+001  5.003565279171E-003  0.000000000000E+000  5.003565279171E-003
   9.500000000000E+001  5.690663615051E-003  0.000000000000E+000  5.690663615051E-003
   9.550000000000E+001  6.187087831468E-003  0.000000000000E+000  6.187087831468E-003
   9.600000000000E+001  6.487720736239E-003  0.000000000000E+000  6.487720736239E-003
   9.650000000000E+001  6.615850186747E-003  0.000000000000E+000  6.615850186747E-003
   9.700000000000E+001  6.593653462634E-003  0.000000000000E+000  6.593653462634E-003
   9.750000000000E+001  6.427388286389E-003  0.000000000000E+000  6.427388286389E-003
   9.800000000000E+001  6.111438633083E-003  0.000000000000E+000  6.111438633083E-003
   9.850000000000E+001  5.646889148823E-003  0.000000000000E+000  5.646889148823E-003
   9.900000000000E+001  5.056197448160E-003  0.000000000000E+000  5.056197448160E-003
   9.950000000000E+001  4.376454366655E-003  0.000000000000E+000  4.376454366655E-003
   1.000000000000E+002  3.641369327752E-003  0.000000000000E+000  3.641369327752E-003
