#=================================================================================================================================================
#     Step |         Time |         State |                                     Energy |     Gradient |           Expectation Value |    Runtime |
#          |              |  diag |   MCH |          kin |          pot |          tot |          RMS |           DM |            S |            |
#          |         [fs] |       |       |         [eV] |         [eV] |         [eV] |     [eV/Ang] |      [Debye] |              |      [sec] |
#=================================================================================================================================================
         0        0.00000       2       2       0.622730      10.486073      11.108803       2.826167       0.551491       0.000000            8
         1        0.50000       2       2       0.577294      10.532170      11.109464       3.014847       0.530027       0.000000            6
         2        1.00000       2       2       0.588443      10.519701      11.108144       3.003339       0.508996       0.000000            6
         3        1.50000       2       2       0.639400      10.465947      11.105346       2.801423       0.489127       0.000000            7
         4        2.00000       2       2       0.693032      10.409288      11.102320       2.483952       0.471013       0.000000            6
         5        2.50000       2       2       0.710406      10.390392      11.100798       2.191365       0.455246       0.000000            6
         6        3.00000       2       2       0.676272      10.426001      11.102273       2.083594       0.442597       0.000000            6
         7        3.50000       2       2       0.616899      10.489053      11.105952       2.145469       0.434034       0.000000            6
         8        4.00000       2       2       0.584864      10.523129      11.107993       2.135956       0.430589       0.000000            6
         9        4.50000       2       2       0.608653      10.497080      11.105734       1.904602       0.433410       0.000000            6
        10        5.00000       2       2       0.661470      10.440553      11.102023       1.647937       0.443983       0.000000            5
        11        5.50000       2       2       0.696321      10.405196      11.101517       1.752028       0.464028       0.000000            6
        12        6.00000       2       2       0.703971      10.400563      11.104535       2.123614       0.495135       0.000000            6
        13        6.50000       2       2       0.719534      10.387796      11.107330       2.372823       0.538357       0.000000            6
        14        7.00000       2       2       0.776269      10.330732      11.107001       2.326307       0.594022       0.000000            6
        15        7.50000       2       2       0.867696      10.236856      11.104552       2.041938       0.661804       0.000000            6
        16        8.00000       2       2       0.958106      10.144709      11.102815       1.704844       0.740940       0.000000            6
        17        8.50000       2       2       1.019050      10.084080      11.103130       1.499529       0.830325       0.000000            6
        18        9.00000       2       2       1.049916      10.054946      11.104862       1.479379       0.928607       0.000000            6
        19        9.50000       2       2       1.072058      10.034729      11.106787       1.557748       1.034424       0.000000            6
        20       10.00000       2       2       1.111930       9.996111      11.108041       1.638474       1.146794       0.000000            6
        21       10.50000       2       2       1.187659       9.920631      11.108290       1.676291       1.265494       0.000000            6
        22       11.00000       2       2       1.303139       9.804439      11.107579       1.660679       1.391062       0.000000            6
        23       11.50000       2       2       1.447907       9.658221      11.106128       1.598592       1.524343       0.000000            6
        24       12.00000       2       2       1.600697       9.503668      11.104365       1.512600       1.665891       0.000000            6
        25       12.50000       2       2       1.736200       9.366721      11.102921       1.442956       1.815861       0.000000            6
        26       13.00000       2       2       1.834602       9.267865      11.102468       1.430187       1.974407       0.000000            5
        27       13.50000       2       2       1.890102       9.212938      11.103041       1.461296       2.142555       0.000000            6
        28       14.00000       2       2       1.910574       9.193130      11.103704       1.457146       2.323092       0.000000            6
        29       14.50000       2       2       1.905161       9.198253      11.103413       1.358777       2.521623       0.000000            6
        30       15.00000       2       2       1.872060       9.230541      11.102601       1.240752       2.747769       0.000000            5
        31       15.50000       2       2       1.804047       9.298818      11.102864       1.298546       3.016156       0.000000            6
        32       16.00000       2       2       1.707794       9.397138      11.104932       1.575569       3.343343       0.000000            6
        33       16.50000       2       2       1.612509       9.495098      11.107607       1.899963       3.734601       0.000000            6
        34       17.00000       2       2       1.554643       9.554275      11.108918       2.133645       4.161742       0.000000            6
        35       17.50000       2       2       1.552515       9.555378      11.107893       2.246255       4.558788       0.000000            5
        36       18.00000       2       2       1.594018       9.511101      11.105119       2.289144       4.853916       0.000000            6
        37       18.50000       2       2       1.642523       9.458245      11.100768       2.358890       4.962835       0.000000            6
        38       19.00000       2       2       1.639901       9.453529      11.093430       2.613761       4.529747       0.000000            6
        39       19.50000       2       2       1.543508       9.556209      11.099717       2.945786       3.419546       0.000000            7
        40       20.00000       2       2       1.396211       9.710127      11.106338       2.947431       2.881384       0.000000            5
        41       20.50000       2       2       1.272785       9.835770      11.108555       2.842604       2.745302       0.000000            6
        42       21.00000       2       2       1.205539       9.903540      11.109079       2.713216       2.726165       0.000000            6
        43       21.50000       2       2       1.200603       9.907970      11.108574       2.560807       2.745813       0.000000            6
        44       22.00000       2       2       1.249386       9.857976      11.107361       2.386497       2.782399       0.000000            6
        45       22.50000       2       2       1.333416       9.772463      11.105878       2.209317       2.827931       0.000000            6
        46       23.00000       2       2       1.431101       9.673680      11.104781       2.067532       2.877717       0.000000            5
        47       23.50000       2       2       1.526948       9.577697      11.104645       1.993832       2.927623       0.000000            6
        48       24.00000       2       2       1.618256       9.486997      11.105253       1.959904       2.973506       0.000000            6
        49       24.50000       2       2       1.710869       9.394570      11.105439       1.870024       3.011157       0.000000            6
        50       25.00000       2       2       1.803471       9.300718      11.104189       1.644533       3.036092       0.000000            6
        51       25.50000       2       2       1.875925       9.226139      11.102064       1.316607       3.043319       0.000000            5
        52       26.00000       2       2       1.897342       9.203354      11.100696       1.078011       3.027588       0.000000            6
        53       26.50000       2       2       1.847967       9.253266      11.101232       1.177263       2.984565       0.000000            6
        54       27.00000       2       2       1.736306       9.367463      11.103769       1.546844       2.912469       0.000000            6
# Surface Hop: new state=    1 old state=    2 randnum=  0.008832866
        55       27.50000       1       1       2.141052       8.962717      11.103769       2.396260       3.905091       0.000000            9
        56       28.00000       1       1       1.897725       9.208942      11.106667       2.645196       3.738990       0.000000            6
        57       28.50000       1       1       1.718963       9.388601      11.107565       2.728079       3.581056       0.000000            6
        58       29.00000       1       1       1.621774       9.485432      11.107206       2.653668       3.409303       0.000000            6
        59       29.50000       1       1       1.600322       9.506044      11.106366       2.480965       3.161828       0.000000            6
        60       30.00000       1       1       1.638952       9.466097      11.105049       2.304932       2.873002       0.000000            6
        61       30.50000       1       1       1.724008       9.381255      11.105263       2.235149       2.621992       0.000000            6
# Surface Hop: new state=    2 old state=    1 randnum=  0.054437077
        62       31.00000       2       2       1.214653       9.890610      11.105263       1.601508       2.131592       0.000000            9
        63       31.50000       2       2       1.201152       9.904374      11.105526       1.621083       2.021937       0.000000            6
        64       32.00000       2       2       1.225304       9.879696      11.105001       1.611891       1.912798       0.000000            6
        65       32.50000       2       2       1.279382       9.824437      11.103819       1.573580       1.805774       0.000000            6
        66       33.00000       2       2       1.346033       9.756256      11.102289       1.518088       1.697727       0.000000            6
        67       33.50000       2       2       1.403313       9.697579      11.100892       1.465896       1.582396       0.000000            6
        68       34.00000       2       2       1.431761       9.668337      11.100098       1.436217       1.454674       0.000000            6
        69       34.50000       2       2       1.421137       9.678975      11.100113       1.431051       1.317183       0.000000            5
        70       35.00000       2       2       1.373109       9.727608      11.100717       1.437751       1.183405       0.000000            6
        71       35.50000       2       2       1.298429       9.803148      11.101577       1.461402       1.072259       0.000000            6
        72       36.00000       2       2       1.212318       9.890199      11.102518       1.525919       0.998101       0.000000            6
        73       36.50000       2       2       1.130686       9.972513      11.103199       1.614138       0.963802       0.000000            6
        74       37.00000       2       2       1.064072      10.039001      11.103073       1.666785       0.960869       0.000000            6
        75       37.50000       2       2       1.011015      10.091276      11.102292       1.665995       0.975537       0.000000            6
        76       38.00000       2       2       0.960636      10.141140      11.101776       1.656945       0.995124       0.000000            5
        77       38.50000       2       2       0.904369      10.197654      11.102023       1.674455       1.010793       0.000000            6
        78       39.00000       2       2       0.843059      10.259608      11.102667       1.706281       1.017335       0.000000            6
        79       39.50000       2       2       0.783650      10.319631      11.103280       1.736171       1.012137       0.000000            6
        80       40.00000       2       2       0.733812      10.370036      11.103848       1.770480       0.994460       0.000000            5
        81       40.50000       2       2       0.700890      10.403577      11.104467       1.817369       0.965062       0.000000            6
        82       41.00000       2       2       0.692884      10.412204      11.105088       1.869598       0.925944       0.000000            6
        83       41.50000       2       2       0.717771      10.387757      11.105527       1.909926       0.880126       0.000000            6
        84       42.00000       2       2       0.780929      10.324673      11.105602       1.923949       0.831574       0.000000            5
        85       42.50000       2       2       0.882478      10.222752      11.105229       1.905410       0.785505       0.000000            6
        86       43.00000       2       2       1.015893      10.088548      11.104442       1.855863       0.748943       0.000000            6
        87       43.50000       2       2       1.168373       9.934995      11.103369       1.780915       0.730986       0.000000            5
        88       44.00000       2       2       1.322654       9.779528      11.102182       1.684213       0.741640       0.000000            6
        89       44.50000       2       2       1.459646       9.641413      11.101060       1.562147       0.788791       0.000000            6
        90       45.00000       2       2       1.561329       9.538904      11.100233       1.411794       0.875554       0.000000            5
        91       45.50000       2       2       1.614534       9.485575      11.100110       1.271908       0.999583       0.000000            6
        92       46.00000       2       2       1.617296       9.483888      11.101184       1.269499       1.148007       0.000000            6
        93       46.50000       2       2       1.584880       9.518142      11.103022       1.482243       1.286244       0.000000            6
        94       47.00000       2       2       1.544182       9.559820      11.104002       1.731440       1.379114       0.000000            5
        95       47.50000       2       2       1.515604       9.588379      11.103983       1.781937       1.451155       0.000000            6
        96       48.00000       2       2       1.496528       9.605584      11.102112       1.607475       1.526277       0.000000            6
# Surface Hop: new state=    1 old state=    2 randnum=  0.002639215
        97       48.50000       1       1       1.897193       9.204919      11.102112       1.368054       1.952899       0.000000            9
        98       49.00000       1       1       1.898195       9.203063      11.101258       1.333109       1.980487       0.000000            6
        99       49.50000       1       1       1.819734       9.283866      11.103600       1.550467       2.008698       0.000000            6
       100       50.00000       1       1       1.693240       9.413384      11.106624       1.776295       2.049806       0.000000            6
       101       50.50000       1       1       1.562083       9.546408      11.108491       1.874582       2.108531       0.000000            5
       102       51.00000       1       1       1.455587       9.653471      11.109058       1.846818       2.184390       0.000000            6
       103       51.50000       1       1       1.384781       9.724330      11.109111       1.757951       2.273816       0.000000            6
       104       52.00000       1       1       1.351653       9.757576      11.109229       1.671793       2.372014       0.000000            6
       105       52.50000       1       1       1.357227       9.752162      11.109389       1.616500       2.474232       0.000000            6
# Surface Hop: new state=    2 old state=    1 randnum=  0.020193022
       106       53.00000       2       2       0.373798      10.735591      11.109389       1.807743       2.266734       0.000000            9
       107       53.50000       2       2       0.401720      10.707394      11.109114       1.816929       2.294249       0.000000            6
       108       54.00000       2       2       0.496841      10.611303      11.108144       1.782767       2.324344       0.000000            6
       109       54.50000       2       2       0.643777      10.462633      11.106410       1.692028       2.357309       0.000000            6
       110       55.00000       2       2       0.815675      10.288211      11.103886       1.531302       2.393138       0.000000            5
       111       55.50000       2       2       0.975029      10.125800      11.100829       1.305245       2.431437       0.000000            6
       112       56.00000       2       2       1.079665      10.018579      11.098245       1.102323       2.471424       0.000000            6
       113       56.50000       2       2       1.099448       9.998657      11.098105       1.179462       2.512034       0.000000            6
       114       57.00000       2       2       1.044286      10.057966      11.102251       1.628074       2.552079       0.000000            5
       115       57.50000       2       2       0.982853      10.126140      11.108994       2.118791       2.590372       0.000000            6
       116       58.00000       2       2       1.010287      10.101647      11.111934       2.301035       2.625749       0.000000            6
       117       58.50000       2       2       1.164714       9.942572      11.107286       2.036158       2.657102       0.000000            6
       118       59.00000       2       2       1.382901       9.716804      11.099705       1.472970       2.683607       0.000000            5
       119       59.50000       2       2       1.556476       9.538954      11.095430       0.963497       2.704909       0.000000            6
       120       60.00000       2       2       1.614902       9.480790      11.095691       0.901133       2.721063       0.000000            6
       121       60.50000       2       2       1.551263       9.547195      11.098458       1.178923       2.732453       0.000000            5
       122       61.00000       2       2       1.399910       9.701833      11.101743       1.476730       2.740803       0.000000            6
# Surface Hop: new state=    1 old state=    2 randnum=  0.059034746
       123       61.50000       1       1       1.462696       9.639047      11.101743       1.547582       3.226706       0.000000            9
       124       62.00000       1       1       1.234630       9.869498      11.104128       1.711260       3.239093       0.000000            6
       125       62.50000       1       1       1.068088      10.037306      11.105394       1.830156       3.268249       0.000000            6
       126       63.00000       1       1       0.986211      10.119816      11.106027       1.899107       3.318325       0.000000            5
       127       63.50000       1       1       1.000908      10.105238      11.106146       1.917645       3.388588       0.000000            6
# Surface Hop: new state=    2 old state=    1 randnum=  0.022611349
       128       64.00000       2       2       0.671205      10.434941      11.106146       2.029255       3.035703       0.000000            9
       129       64.50000       2       2       0.785026      10.320228      11.105254       1.969404       3.084640       0.000000            6
       130       65.00000       2       2       0.979332      10.124254      11.103587       1.855924       3.125767       0.000000            5
       131       65.50000       2       2       1.227707       9.873311      11.101017       1.678160       3.155853       0.000000            6
       132       66.00000       2       2       1.490125       9.607347      11.097472       1.421073       3.171527       0.000000            6
       133       66.50000       2       2       1.713294       9.379962      11.093256       1.081981       3.169870       0.000000            6
# Surface Hop: new state=    1 old state=    2 randnum=  0.004224335
       134       67.00000       1       1       2.609363       8.483893      11.093256       0.910412       3.962417       0.000000            9
       135       67.50000       1       1       2.645051       8.448301      11.093353       1.407502       4.041116       0.000000            6
       136       68.00000       1       1       2.516385       8.586489      11.102874       2.295697       4.108034       0.000000            6
       137       68.50000       1       1       2.367249       8.748975      11.116223       3.001520       4.153437       0.000000            5
       138       69.00000       1       1       2.370984       8.746688      11.117672       3.074583       4.165634       0.000000            6
       139       69.50000       1       1       2.547222       8.557924      11.105147       2.474975       4.133695       0.000000            6
       140       70.00000       1       1       2.738495       8.355266      11.093761       1.619559       4.050966       0.000000            6
       141       70.50000       1       1       2.780890       8.310690      11.091580       1.120572       3.918145       0.000000            5
       142       71.00000       1       1       2.622404       8.473231      11.095636       1.309646       3.744031       0.000000            6
       143       71.50000       1       1       2.304760       8.796644      11.101405       1.729155       3.543731       0.000000            6
       144       72.00000       1       1       1.904343       9.202181      11.106524       2.094960       3.335663       0.000000            6
       145       72.50000       1       1       1.494739       9.615585      11.110325       2.364325       3.138481       0.000000            6
       146       73.00000       1       1       1.132843       9.979936      11.112779       2.546608       2.968601       0.000000            6
       147       73.50000       1       1       0.856707      10.257401      11.114108       2.658145       2.838474       0.000000            7
       148       74.00000       1       1       0.687585      10.426964      11.114549       2.713677       2.755865       0.000000            6
       149       74.50000       1       1       0.633064      10.481265      11.114329       2.725496       2.723957       0.000000            6
       150       75.00000       1       1       0.690449      10.423235      11.113684       2.701947       2.742002       0.000000            6
       151       75.50000       1       1       0.849931      10.262811      11.112743       2.645963       2.805933       0.000000            6
       152       76.00000       1       1       1.096894      10.014667      11.111562       2.552010       2.908484       0.000000            6
       153       76.50000       1       1       1.412275       9.697696      11.109971       2.406270       3.038975       0.000000            6
       154       77.00000       1       1       1.770571       9.337161      11.107732       2.193849       3.183152       0.000000            7
       155       77.50000       1       1       2.137034       8.967707      11.104741       1.911608       3.323986       0.000000            6
       156       78.00000       1       1       2.467483       8.633807      11.101290       1.586846       3.443557       0.000000            6
       157       78.50000       1       1       2.713709       8.384338      11.098047       1.302403       3.525464       0.000000            6
       158       79.00000       1       1       2.834336       8.261661      11.095998       1.230919       3.557077       0.000000            6
       159       79.50000       1       1       2.811338       8.285687      11.097024       1.549513       3.531487       0.000000            6
       160       80.00000       1       1       2.676613       8.426924      11.103538       2.177606       3.448898       0.000000            6
       161       80.50000       1       1       2.532150       8.580641      11.112791       2.766447       3.316881       0.000000            5
       162       81.00000       1       1       2.496712       8.617207      11.113918       2.906691       3.148531       0.000000            6
       163       81.50000       1       1       2.579577       8.524548      11.104125       2.495580       2.958678       0.000000            6
       164       82.00000       1       1       2.655826       8.439485      11.095311       1.892570       2.760430       0.000000            6
       165       82.50000       1       1       2.600551       8.494356      11.094907       1.597328       2.563777       0.000000            5
       166       83.00000       1       1       2.390842       8.709125      11.099967       1.699546       2.375986       0.000000            6
       167       83.50000       1       1       2.084683       9.021044      11.105727       1.911777       2.202623       0.000000            6
       168       84.00000       1       1       1.759612       9.350327      11.109938       2.069347       2.048158       0.000000            6
       169       84.50000       1       1       1.476600       9.635703      11.112303       2.145136       1.915794       0.000000            6
       170       85.00000       1       1       1.271702       9.841554      11.113255       2.153762       1.806700       0.000000            5
       171       85.50000       1       1       1.160355       9.952950      11.113304       2.117694       1.719360       0.000000            6
       172       86.00000       1       1       1.144531       9.968367      11.112899       2.059673       1.649521       0.000000            6
       173       86.50000       1       1       1.218868       9.893412      11.112280       1.997941       1.590918       0.000000            5
       174       87.00000       1       1       1.374142       9.737309      11.111451       1.938201       1.536513       0.000000            6
       175       87.50000       1       1       1.596937       9.513163      11.110100       1.868283       1.479737       0.000000            6
       176       88.00000       1       1       1.865856       9.242075      11.107931       1.768767       1.415679       0.000000            6
       177       88.50000       1       1       2.147885       8.957134      11.105019       1.638098       1.342120       0.000000            6
       178       89.00000       1       1       2.400248       8.701706      11.101954       1.507133       1.260440       0.000000            5
       179       89.50000       1       1       2.578906       8.520457      11.099363       1.415354       1.176052       0.000000            6
       180       90.00000       1       1       2.647434       8.449874      11.097308       1.364324       1.097703       0.000000            6
       181       90.50000       1       1       2.579302       8.516254      11.095557       1.351183       1.034808       0.000000            6
       182       91.00000       1       1       2.359466       8.735899      11.095365       1.509490       0.992992       0.000000            6
       183       91.50000       1       1       2.005555       9.094671      11.100226       2.009595       0.970582       0.000000            6
       184       92.00000       1       1       1.607482       9.503402      11.110884       2.658527       0.959876       0.000000            6
       185       92.50000       1       1       1.319007       9.799908      11.118915       3.017856       0.952532       0.000000            6
       186       93.00000       1       1       1.245505       9.869924      11.115429       2.828247       0.944031       0.000000            6
       187       93.50000       1       1       1.342598       9.763056      11.105654       2.259234       0.934739       0.000000            6
       188       94.00000       1       1       1.474337       9.625471      11.099808       1.766365       0.929137       0.000000            6
       189       94.50000       1       1       1.541716       9.558216      11.099932       1.667767       0.934555       0.000000            6
       190       95.00000       1       1       1.526049       9.576689      11.102738       1.834078       0.958665       0.000000            7
       191       95.50000       1       1       1.454922       9.650562      11.105484       2.034819       1.006086       0.000000            6
       192       96.00000       1       1       1.363152       9.744154      11.107306       2.195338       1.076450       0.000000            6
       193       96.50000       1       1       1.277078       9.831425      11.108502       2.322523       1.165491       0.000000            6
       194       97.00000       1       1       1.216224       9.893433      11.109657       2.431860       1.267768       0.000000            6
       195       97.50000       1       1       1.199692       9.911236      11.110928       2.512761       1.378527       0.000000            6
       196       98.00000       1       1       1.247009       9.864738      11.111747       2.528983       1.494138       0.000000            6
       197       98.50000       1       1       1.369930       9.741396      11.111326       2.450159       1.611547       0.000000            6
       198       99.00000       1       1       1.562062       9.547466      11.109528       2.283478       1.727700       0.000000            5
       199       99.50000       1       1       1.796980       9.310008      11.106988       2.071631       1.839281       0.000000            6
       200      100.00000       1       1       2.037049       9.067576      11.104625       1.875135       1.943001       0.000000            6
