#=================================================================================================================================================
#     Step |         Time |         State |                                     Energy |     Gradient |           Expectation Value |    Runtime |
#          |              |  diag |   MCH |          kin |          pot |          tot |          RMS |           DM |            S |            |
#          |         [fs] |       |       |         [eV] |         [eV] |         [eV] |     [eV/Ang] |      [Debye] |              |      [sec] |
#=================================================================================================================================================
         0        0.00000       2       2       0.529814      10.158532      10.688345       2.262275       0.558064       0.000000            8
         1        0.50000       2       2       0.499000      10.191781      10.690781       2.413525       0.570196       0.000000            6
         2        1.00000       2       2       0.510853      10.181287      10.692139       2.439575       0.582869       0.000000            6
         3        1.50000       2       2       0.585618      10.104892      10.690510       2.273143       0.596075       0.000000            6
         4        2.00000       2       2       0.705162       9.982224      10.687386       2.040958       0.609351       0.000000            5
         5        2.50000       2       2       0.834402       9.852388      10.686790       2.057939       0.622365       0.000000            6
         6        3.00000       2       2       0.970169       9.719643      10.689812       2.370471       0.634999       0.000000            6
         7        3.50000       2       2       1.150829       9.541306      10.692136       2.612527       0.646841       0.000000            6
         8        4.00000       2       2       1.401587       9.288069      10.689656       2.521486       0.657336       0.000000            6
         9        4.50000       2       2       1.685651       8.998894      10.684545       2.148438       0.666534       0.000000            6
        10        5.00000       2       2       1.929476       8.752142      10.681618       1.757092       0.675019       0.000000            5
        11        5.50000       2       2       2.084758       8.597753      10.682511       1.606308       0.682933       0.000000            6
        12        6.00000       2       2       2.155613       8.530036      10.685649       1.703817       0.689549       0.000000            6
        13        6.50000       2       2       2.181027       8.507694      10.688721       1.860621       0.693903       0.000000            6
        14        7.00000       2       2       2.203121       8.487172      10.690293       1.945060       0.696020       0.000000            5
        15        7.50000       2       2       2.245726       8.444529      10.690255       1.932645       0.698565       0.000000            6
        16        8.00000       2       2       2.311211       8.378202      10.689413       1.861871       0.710249       0.000000            6
        17        8.50000       2       2       2.390375       8.298279      10.688654       1.785542       0.757249       0.000000            5
        18        9.00000       2       2       2.474299       8.214136      10.688436       1.734855       0.933010       0.000000            6
        19        9.50000       2       2       2.561561       8.127464      10.689025       1.721434       1.563967       0.000000            5
        20       10.00000       2       2       2.654478       8.032844      10.687321       1.755888       2.636854       0.000000            6
        21       10.50000       2       2       2.739851       7.945670      10.685521       1.706386       2.805241       0.000000            5
        22       11.00000       2       2       2.795171       7.889748      10.684918       1.592903       2.412800       0.000000            6
        23       11.50000       2       2       2.803902       7.879837      10.683740       1.495090       2.007674       0.000000            6
        24       12.00000       2       2       2.748363       7.934533      10.682895       1.454161       1.701543       0.000000            5
        25       12.50000       2       2       2.616970       8.066274      10.683244       1.502922       1.478203       0.000000            6
        26       13.00000       2       2       2.416236       8.268961      10.685197       1.643900       1.312198       0.000000            6
        27       13.50000       2       2       2.176491       8.511937      10.688428       1.837821       1.186013       0.000000            5
        28       14.00000       2       2       1.946285       8.745380      10.691664       2.015402       1.089250       0.000000            6
        29       14.50000       2       2       1.772527       8.920292      10.692819       2.085899       1.016757       0.000000            6
        30       15.00000       2       2       1.670794       9.019647      10.690441       1.984227       0.966808       0.000000            5
        31       15.50000       2       2       1.607395       9.078443      10.685838       1.759201       0.938964       0.000000            6
        32       16.00000       2       2       1.517933       9.164483      10.682416       1.596106       0.931934       0.000000            6
        33       16.50000       2       2       1.352405       9.330087      10.682492       1.666831       0.942779       0.000000            5
        34       17.00000       2       2       1.108979       9.577021      10.686000       1.930231       0.967652       0.000000            6
        35       17.50000       2       2       0.835255       9.855842      10.691097       2.229850       1.003187       0.000000            7
        36       18.00000       2       2       0.602297      10.092882      10.695180       2.444690       1.047164       0.000000            6
        37       18.50000       2       2       0.467144      10.229124      10.696268       2.518128       1.097859       0.000000            5
        38       19.00000       2       2       0.445413      10.249108      10.694521       2.463530       1.152498       0.000000            6
        39       19.50000       2       2       0.512289      10.179540      10.691830       2.346755       1.206448       0.000000            6
        40       20.00000       2       2       0.626979      10.062851      10.689830       2.226130       1.254060       0.000000            6
        41       20.50000       2       2       0.756490       9.932435      10.688925       2.117869       1.290749       0.000000            6
        42       21.00000       2       2       0.883435       9.805239      10.688674       2.013205       1.315082       0.000000            5
        43       21.50000       2       2       1.001921       9.686766      10.688688       1.917177       1.329881       0.000000            6
        44       22.00000       2       2       1.112421       9.576557      10.688978       1.867099       1.341925       0.000000            6
        45       22.50000       2       2       1.221660       9.468227      10.689887       1.910391       1.360363       0.000000            6
        46       23.00000       2       2       1.345990       9.345509      10.691499       2.044470       1.394405       0.000000            5
        47       23.50000       2       2       1.510544       9.182453      10.692998       2.182405       1.451652       0.000000            6
        48       24.00000       2       2       1.736341       8.956452      10.692793       2.202316       1.538802       0.000000            6
        49       24.50000       2       2       2.019007       8.670950      10.689957       2.030502       1.665515       0.000000            5
        50       25.00000       2       2       2.317921       8.367602      10.685523       1.698374       1.850448       0.000000            6
        51       25.50000       2       2       2.570673       8.111135      10.681808       1.381981       2.126166       0.000000            6
        52       26.00000       2       2       2.725468       7.955450      10.680918       1.408750       2.538269       0.000000            5
        53       26.50000       2       2       2.770811       7.912669      10.683479       1.875147       3.119445       0.000000            6
        54       27.00000       2       2       2.742369       7.944737      10.687106       2.481187       3.801112       0.000000            5
        55       27.50000       2       2       2.691839       7.995662      10.687500       2.931512       4.352296       0.000000            6
        56       28.00000       2       2       2.642095       8.044035      10.686130       3.066424       4.617324       0.000000            6
        57       28.50000       2       2       2.587441       8.099022      10.686463       2.882380       4.591516       0.000000            5
        58       29.00000       2       2       2.518722       8.167703      10.686425       2.490750       4.254165       0.000000            6
        59       29.50000       2       2       2.422973       8.262770      10.685743       2.074143       3.740146       0.000000            6
        60       30.00000       2       2       2.286695       8.399372      10.686067       1.782489       3.246589       0.000000            6
        61       30.50000       2       2       2.110793       8.576692      10.687485       1.654075       2.844549       0.000000            5
        62       31.00000       2       2       1.911720       8.777446      10.689166       1.634279       2.525051       0.000000            6
        63       31.50000       2       2       1.710797       8.979619      10.690415       1.651894       2.265561       0.000000            6
        64       32.00000       2       2       1.524484       9.166523      10.691007       1.669291       2.049912       0.000000            6
        65       32.50000       2       2       1.360917       9.330250      10.691167       1.687134       1.868547       0.000000            5
        66       33.00000       2       2       1.222824       9.468556      10.691380       1.727029       1.715384       0.000000            6
        67       33.50000       2       2       1.114370       9.577739      10.692109       1.800077       1.585601       0.000000            6
        68       34.00000       2       2       1.046632       9.646587      10.693219       1.872134       1.475043       0.000000            6
        69       34.50000       2       2       1.034650       9.659100      10.693750       1.866117       1.380885       0.000000            6
        70       35.00000       2       2       1.084140       9.608520      10.692661       1.710719       1.302379       0.000000            6
        71       35.50000       2       2       1.177691       9.512226      10.689916       1.395068       1.240690       0.000000            5
        72       36.00000       2       2       1.274870       9.411807      10.686678       1.000195       1.197880       0.000000            6
        73       36.50000       2       2       1.328058       9.356201      10.684259       0.765507       1.175527       0.000000            6
        74       37.00000       2       2       1.301972       9.381507      10.683479       1.006309       1.173721       0.000000            6
        75       37.50000       2       2       1.186964       9.497750      10.684714       1.550137       1.190537       0.000000            6
        76       38.00000       2       2       1.005100       9.682851      10.687951       2.168004       1.222052       0.000000            6
        77       38.50000       2       2       0.808405       9.883946      10.692351       2.748966       1.262739       0.000000            6
        78       39.00000       2       2       0.664230      10.031757      10.695988       3.200117       1.306214       0.000000            6
        79       39.50000       2       2       0.626965      10.069823      10.696788       3.441539       1.346365       0.000000            5
        80       40.00000       2       2       0.709861       9.984367      10.694228       3.434293       1.378581       0.000000            6
        81       40.50000       2       2       0.878232       9.811709      10.689941       3.206152       1.400828       0.000000            6
        82       41.00000       2       2       1.070286       9.615918      10.686204       2.840945       1.414147       0.000000            6
        83       41.50000       2       2       1.227862       9.456311      10.684173       2.433612       1.422351       0.000000            6
        84       42.00000       2       2       1.314870       9.368831      10.683701       2.059652       1.430945       0.000000            5
        85       42.50000       2       2       1.318882       9.365406      10.684288       1.787769       1.445641       0.000000            6
        86       43.00000       2       2       1.246046       9.439710      10.685756       1.696429       1.470933       0.000000            6
        87       43.50000       2       2       1.118592       9.569632      10.688224       1.818691       1.509241       0.000000            5
        88       44.00000       2       2       0.974537       9.716867      10.691404       2.063806       1.560445       0.000000            6
        89       44.50000       2       2       0.860925       9.833114      10.694039       2.275607       1.621661       0.000000            6
        90       45.00000       2       2       0.815346       9.879292      10.694638       2.336779       1.686683       0.000000            6
        91       45.50000       2       2       0.846097       9.846909      10.693005       2.222844       1.744379       0.000000            5
        92       46.00000       2       2       0.929589       9.760807      10.690396       1.991712       1.774067       0.000000            6
        93       46.50000       2       2       1.026376       9.661513      10.687889       1.731787       1.734539       0.000000            6
        94       47.00000       2       2       1.097389       9.588306      10.685694       1.555700       1.560980       0.000000            5
        95       47.50000       2       2       1.115577       9.570249      10.685827       1.643847       1.274551       0.000000            6
        96       48.00000       2       2       1.084395       9.604012      10.688407       1.900814       1.075922       0.000000            6
        97       48.50000       2       2       1.032313       9.657411      10.689723       2.048666       1.021812       0.000000            5
        98       49.00000       2       2       0.981243       9.708621      10.689865       2.073181       1.039001       0.000000            6
        99       49.50000       2       2       0.939141       9.750784      10.689925       2.056736       1.082718       0.000000            5
       100       50.00000       2       2       0.912313       9.778232      10.690545       2.058663       1.138221       0.000000            6
       101       50.50000       2       2       0.913437       9.777978      10.691415       2.073039       1.202878       0.000000            6
       102       51.00000       2       2       0.956390       9.734917      10.691307       2.032669       1.279125       0.000000            6
       103       51.50000       2       2       1.040247       9.649128      10.689375       1.883728       1.373288       0.000000            6
       104       52.00000       2       2       1.139706       9.546860      10.686566       1.675972       1.496019       0.000000            5
       105       52.50000       2       2       1.218688       9.466329      10.685017       1.570283       1.660323       0.000000            6
       106       53.00000       2       2       1.257635       9.427988      10.685623       1.657266       1.874825       0.000000            6
       107       53.50000       2       2       1.264605       9.422367      10.686971       1.809440       2.134375       0.000000            6
       108       54.00000       2       2       1.258584       9.428884      10.687468       1.898462       2.417252       0.000000            5
       109       54.50000       2       2       1.250786       9.436926      10.687712       1.956588       2.695121       0.000000            6
       110       55.00000       2       2       1.249048       9.439736      10.688785       2.041822       2.947262       0.000000            6
       111       55.50000       2       2       1.267046       9.422556      10.689602       2.076120       3.166927       0.000000            6
       112       56.00000       2       2       1.311305       9.377350      10.688655       1.956248       3.359166       0.000000            6
       113       56.50000       2       2       1.364813       9.321929      10.686742       1.711961       3.535234       0.000000            6
       114       57.00000       2       2       1.397482       9.288340      10.685822       1.488148       3.707552       0.000000            6
       115       57.50000       2       2       1.391246       9.295271      10.686516       1.409657       3.885814       0.000000            6
       116       58.00000       2       2       1.350503       9.337555      10.688057       1.471786       4.074486       0.000000            6
       117       58.50000       2       2       1.293562       9.395916      10.689478       1.596370       4.271506       0.000000            6
       118       59.00000       2       2       1.239286       9.451001      10.690287       1.734814       4.468717       0.000000            6
       119       59.50000       2       2       1.199738       9.490843      10.690580       1.884038       4.654940       0.000000            6
       120       60.00000       2       2       1.181580       9.509409      10.690989       2.063777       4.821562       0.000000            6
       121       60.50000       2       2       1.194359       9.497851      10.692210       2.283013       4.967998       0.000000            6
       122       61.00000       2       2       1.258771       9.435286      10.694057       2.501906       5.105444       0.000000            6
       123       61.50000       2       2       1.400554       9.293514      10.694068       2.624029       5.250441       0.000000            6
       124       62.00000       2       2       1.607665       9.076369      10.684034       2.531028       5.214792       0.000000            6
# Surface Hop: new state=    1 old state=    2 randnum=  0.073151710
       125       62.50000       1       1       2.231964       8.452069      10.684034       2.747681       2.082906       0.000000            9
       126       63.00000       1       1       2.634513       8.034032      10.668545       2.287797       3.085247       0.000000            6
       127       63.50000       1       1       3.083979       7.579118      10.663097       2.036296       3.373566       0.000000            6
       128       64.00000       1       1       3.488659       7.171909      10.660568       1.909587       3.423321       0.000000            6
       129       64.50000       1       1       3.811117       6.848799      10.659917       1.919292       3.386931       0.000000            6
       130       65.00000       1       1       4.045575       6.615541      10.661116       2.056013       3.317200       0.000000            6
       131       65.50000       1       1       4.214341       6.449244      10.663585       2.249920       3.235735       0.000000            6
       132       66.00000       1       1       4.356141       6.308970      10.665112       2.378243       3.147793       0.000000            5
       133       66.50000       1       1       4.495581       6.167367      10.662949       2.350687       3.044304       0.000000            6
       134       67.00000       1       1       4.610046       6.046584      10.656630       2.210695       2.911097       0.000000            6
       135       67.50000       1       1       4.631441       6.018940      10.650381       2.192510       2.754732       0.000000            6
       136       68.00000       1       1       4.503883       6.147120      10.651003       2.566505       2.607788       0.000000            6
       137       68.50000       1       1       4.263733       6.396930      10.660663       3.208967       2.502301       0.000000            5
       138       69.00000       1       1       4.050355       6.619708      10.670064       3.652644       2.454067       0.000000            6
       139       69.50000       1       1       3.982914       6.684160      10.667075       3.557621       2.463323       0.000000            6
       140       70.00000       1       1       4.024875       6.631084      10.655960       3.026148       2.517532       0.000000            5
       141       70.50000       1       1       4.029570       6.619880      10.649449       2.472930       2.593588       0.000000            6
       142       71.00000       1       1       3.893179       6.758069      10.651247       2.229475       2.663827       0.000000            6
       143       71.50000       1       1       3.621274       7.036775      10.658049       2.300763       2.705464       0.000000            5
       144       72.00000       1       1       3.296608       7.369258      10.665865       2.478995       2.705150       0.000000            6
       145       72.50000       1       1       3.020378       7.650695      10.671073       2.570445       2.656608       0.000000            6
       146       73.00000       1       1       2.858396       7.813070      10.671466       2.496727       2.561270       0.000000            6
       147       73.50000       1       1       2.812022       7.856224      10.668246       2.346091       2.433384       0.000000            6
       148       74.00000       1       1       2.834258       7.830579      10.664837       2.311488       2.296756       0.000000            5
       149       74.50000       1       1       2.873422       7.789698      10.663119       2.461811       2.173163       0.000000            6
       150       75.00000       1       1       2.898809       7.763448      10.662257       2.667212       2.074636       0.000000            6
       151       75.50000       1       1       2.892803       7.768150      10.660953       2.796876       2.002877       0.000000            5
       152       76.00000       1       1       2.835641       7.823920      10.659561       2.837857       1.951978       0.000000            6
       153       76.50000       1       1       2.710392       7.949570      10.659962       2.869950       1.912425       0.000000            6
       154       77.00000       1       1       2.527597       8.136121      10.663718       2.970508       1.875136       0.000000            5
       155       77.50000       1       1       2.342442       8.326998      10.669440       3.097101       1.833495       0.000000            6
       156       78.00000       1       1       2.232248       8.440410      10.672658       3.095792       1.782996       0.000000            6
       157       78.50000       1       1       2.239343       8.431373      10.670716       2.873729       1.720624       0.000000            5
       158       79.00000       1       1       2.338928       8.327374      10.666302       2.511739       1.645939       0.000000            6
       159       79.50000       1       1       2.470479       8.193003      10.663482       2.184552       1.563467       0.000000            6
       160       80.00000       1       1       2.589861       8.073454      10.663316       1.999365       1.484137       0.000000            6
       161       80.50000       1       1       2.688500       7.976073      10.664573       1.940077       1.423602       0.000000            6
       162       81.00000       1       1       2.780601       7.885347      10.665948       1.948955       1.396708       0.000000            5
       163       81.50000       1       1       2.885075       7.781814      10.666889       2.002433       1.410371       0.000000            6
       164       82.00000       1       1       3.016797       7.650718      10.667515       2.112673       1.460508       0.000000            6
       165       82.50000       1       1       3.187272       7.480888      10.668160       2.292129       1.536008       0.000000            5
       166       83.00000       1       1       3.408772       7.260124      10.668896       2.519600       1.625575       0.000000            6
       167       83.50000       1       1       3.694691       6.974449      10.669141       2.734711       1.721833       0.000000            6
       168       84.00000       1       1       4.051130       6.616581      10.667711       2.863433       1.821914       0.000000            5
       169       84.50000       1       1       4.461470       6.202075      10.663545       2.852705       1.925796       0.000000            6
       170       85.00000       1       1       4.872379       5.783732      10.656112       2.688143       2.033601       0.000000            5
       171       85.50000       1       1       5.187090       5.458054      10.645145       2.394801       2.142058       0.000000            6
       172       86.00000       1       1       5.265613       5.365771      10.631384       2.133791       2.241111       0.000000            6
       173       86.50000       1       1       4.953790       5.669298      10.623088       2.538359       2.314274       0.000000            5
       174       87.00000       1       1       4.224635       6.418319      10.642954       4.028702       2.348008       0.000000            6
       175       87.50000       1       1       3.423852       7.267213      10.691064       5.581048       2.344926       0.000000            5
       176       88.00000       1       1       3.128184       7.570263      10.698447       5.763043       2.319182       0.000000            6
       177       88.50000       1       1       3.431782       7.226276      10.658058       4.522154       2.274047       0.000000            5
       178       89.00000       1       1       3.866297       6.770101      10.636398       3.157004       2.197840       0.000000            6
       179       89.50000       1       1       4.070463       6.569710      10.640173       2.489067       2.078314       0.000000            5
       180       90.00000       1       1       4.005342       6.644428      10.649770       2.333841       1.910785       0.000000            6
       181       90.50000       1       1       3.759034       6.898194      10.657228       2.344686       1.699480       0.000000            5
       182       91.00000       1       1       3.417935       7.244303      10.662238       2.400920       1.456607       0.000000            6
       183       91.50000       1       1       3.044798       7.620962      10.665760       2.466476       1.200545       0.000000            6
       184       92.00000       1       1       2.685300       7.982986      10.668286       2.518667       0.954609       0.000000            5
       185       92.50000       1       1       2.373012       8.296975      10.669987       2.543346       0.747818       0.000000            6
       186       93.00000       1       1       2.130761       8.540162      10.670923       2.533539       0.614958       0.000000            6
       187       93.50000       1       1       1.970604       8.700479      10.671083       2.484815       0.579675       0.000000            5
       188       94.00000       1       1       1.893327       8.777087      10.670414       2.391238       0.622308       0.000000            6
       189       94.50000       1       1       1.887472       8.781355      10.668827       2.244535       0.695153       0.000000            6
       190       95.00000       1       1       1.928233       8.738053      10.666285       2.038934       0.761643       0.000000            6
       191       95.50000       1       1       1.977838       8.685227      10.663065       1.791110       0.802995       0.000000            5
       192       96.00000       1       1       1.991367       8.668823      10.660189       1.593245       0.812196       0.000000            6
       193       96.50000       1       1       1.933379       8.726215      10.659594       1.650340       0.790647       0.000000            6
       194       97.00000       1       1       1.804906       8.857994      10.662900       2.048765       0.747306       0.000000            5
       195       97.50000       1       1       1.661140       9.007523      10.668663       2.550612       0.697413       0.000000            6
       196       98.00000       1       1       1.587558       9.084785      10.672343       2.878712       0.658821       0.000000            6
       197       98.50000       1       1       1.642101       9.029838      10.671940       2.953654       0.646311       0.000000            5
       198       99.00000       1       1       1.827785       8.842313      10.670098       2.870693       0.667639       0.000000            6
       199       99.50000       1       1       2.118413       8.550118      10.668531       2.701220       0.723777       0.000000            5
       200      100.00000       1       1       2.482632       8.183961      10.666593       2.437345       0.812074       0.000000            6
