#                    1                    2                    3                    4                    5                    6
#               Time |           Sum c**2 |  === coeff_diab ===>
#               [fs] |                 [] |                 [] |
   0.000000000000E+000  1.000000000000E+000  0.000000000000E+000  1.000000000000E+000
   5.000000000000E-001  1.000000000000E+000  1.435735157429E-006  9.999985694885E-001
   1.000000000000E+000  1.000000000000E+000  4.939462996845E-006  9.999950528145E-001
   1.500000000000E+000  1.000000000000E+000  9.103951015277E-006  9.999908804893E-001
   2.000000000000E+000  1.000000000000E+000  1.286055339733E-005  9.999871253967E-001
   2.500000000000E+000  1.000000000000E+000  1.576526847202E-005  9.999842643738E-001
   3.000000000000E+000  1.000000000000E+000  1.804420207918E-005  9.999819397926E-001
   3.500000000000E+000  1.000000000000E+000  2.049294380413E-005  9.999794960022E-001
   4.000000000000E+000  1.000000000000E+000  2.418842632324E-005  9.999758005142E-001
   4.500000000000E+000  1.000000000000E+000  3.007173290825E-005  9.999698996544E-001
   5.000000000000E+000  1.000000000000E+000  3.856204784825E-005  9.999614357948E-001
   5.500000000000E+000  1.000000000000E+000  4.941935549141E-005  9.999505877495E-001
   6.000000000000E+000  1.000000000000E+000  6.199566996656E-005  9.999380111694E-001
   6.500000000000E+000  1.000000000000E+000  7.572308823001E-005  9.999243021011E-001
   7.000000000000E+000  1.000000000000E+000  9.062626486411E-005  9.999094009399E-001
   7.500000000000E+000  1.000000000000E+000  1.077506967704E-004  9.998922348022E-001
   8.000000000000E+000  1.000000000000E+000  1.293114328291E-004  9.998707175255E-001
   8.500000000000E+000  1.000000000000E+000  1.586083817529E-004  9.998413920403E-001
   9.000000000000E+000  1.000000000000E+000  1.999243395403E-004  9.998000860214E-001
   9.500000000000E+000  1.000000000000E+000  2.585252514109E-004  9.997414946556E-001
   1.000000000000E+001  1.000000000000E+000  3.404068702366E-004  9.996595978737E-001
   1.050000000000E+001  1.000000000000E+000  4.515523032751E-004  9.995484352112E-001
   1.100000000000E+001  1.000000000000E+000  5.975952954032E-004  9.994024038315E-001
   1.150000000000E+001  1.000000000000E+000  7.836858276278E-004  9.992163181305E-001
   1.200000000000E+001  1.000000000000E+000  1.015257788822E-003  9.989847540855E-001
   1.250000000000E+001  1.000000000000E+000  1.298291725107E-003  9.987016916275E-001
   1.300000000000E+001  1.000000000000E+000  1.637204433791E-003  9.983627796173E-001
   1.350000000000E+001  1.000000000000E+000  2.029229653999E-003  9.979707598686E-001
   1.400000000000E+001  1.000000000000E+000  2.455325331539E-003  9.975446462631E-001
   1.450000000000E+001  1.000000000000E+000  2.871746430174E-003  9.971282482147E-001
   1.500000000000E+001  1.000000000000E+000  3.203065600246E-003  9.967969059944E-001
   1.550000000000E+001  1.000000000000E+000  3.336448920891E-003  9.966635704041E-001
   1.600000000000E+001  1.000000000000E+000  3.111716592684E-003  9.968882799149E-001
   1.650000000000E+001  1.000000000000E+000  2.337681595236E-003  9.976623058319E-001
   1.700000000000E+001  1.000000000000E+000  9.770500473678E-004  9.990229606628E-001
   1.750000000000E+001  1.000000000000E+000  1.070511825674E-005  9.999892711639E-001
   1.800000000000E+001  1.000000000000E+000  5.069013219327E-003  9.949309825897E-001
   1.850000000000E+001  1.000000000000E+000  4.449839517474E-002  9.555016160011E-001
   1.900000000000E+001  1.000000000000E+000  2.420933544636E-001  7.579066753387E-001
   1.950000000000E+001  1.000000000000E+000  6.183606982231E-001  3.816393017769E-001
   2.000000000000E+001  1.000000000000E+000  8.220743536949E-001  1.779256314039E-001
   2.050000000000E+001  1.000000000000E+000  9.058002233505E-001  9.419976919889E-002
   2.100000000000E+001  1.000000000000E+000  9.476090073586E-001  5.239097028971E-002
   2.150000000000E+001  1.000000000000E+000  9.720779657364E-001  2.792200632393E-002
   2.200000000000E+001  1.000000000000E+000  9.873954653740E-001  1.260453928262E-002
   2.250000000000E+001  1.000000000000E+000  9.964794516563E-001  3.520556492731E-003
   2.300000000000E+001  1.000000000000E+000  9.999762773514E-001  2.373211282247E-005
   2.350000000000E+001  1.000000000000E+000  9.971151947975E-001  2.884808694944E-003
   2.400000000000E+001  1.000000000000E+000  9.860029220581E-001  1.399705000222E-002
   2.450000000000E+001  1.000000000000E+000  9.640074372292E-001  3.599257767200E-002
   2.500000000000E+001  1.000000000000E+000  9.286326766014E-001  7.136732339859E-002
   2.550000000000E+001  1.000000000000E+000  8.788524866104E-001  1.211475059390E-001
   2.600000000000E+001  1.000000000000E+000  8.160990476608E-001  1.839009821415E-001
   2.650000000000E+001  1.000000000000E+000  7.438066005707E-001  2.561933994293E-001
   2.700000000000E+001  1.000000000000E+000  6.654229164124E-001  3.345771133900E-001
   2.750000000000E+001  1.000000000000E+000  4.180828332901E-001  5.819171667099E-001
   2.800000000000E+001  1.000000000000E+000  5.257168412209E-001  4.742831587791E-001
   2.850000000000E+001  1.000000000000E+000  6.626206040382E-001  3.373794257641E-001
   2.900000000000E+001  1.000000000000E+000  8.431135416031E-001  1.568864732981E-001
   2.950000000000E+001  1.000000000000E+000  9.859507083893E-001  1.404926553369E-002
   3.000000000000E+001  1.000000000000E+000  9.823005199432E-001  1.769947819412E-002
   3.050000000000E+001  1.000000000000E+000  9.141370654106E-001  8.586293458939E-002
   3.100000000000E+001  1.000000000000E+000  1.549326926470E-001  8.450673222542E-001
   3.150000000000E+001  1.000000000000E+000  2.040268331766E-001  7.959731817245E-001
   3.200000000000E+001  1.000000000000E+000  2.482150495052E-001  7.517849206924E-001
   3.250000000000E+001  1.000000000000E+000  2.886201441288E-001  7.113798856735E-001
   3.300000000000E+001  1.000000000000E+000  3.264082372189E-001  6.735917925835E-001
   3.350000000000E+001  1.000000000000E+000  3.626476228237E-001  6.373523473740E-001
   3.400000000000E+001  1.000000000000E+000  3.982377052307E-001  6.017622947693E-001
   3.450000000000E+001  1.000000000000E+000  4.337190389633E-001  5.662809610367E-001
   3.500000000000E+001  1.000000000000E+000  4.689387083054E-001  5.310612916946E-001
   3.550000000000E+001  1.000000000000E+000  5.029739737511E-001  4.970260560513E-001
   3.600000000000E+001  1.000000000000E+000  5.345120429993E-001  4.654879271984E-001
   3.650000000000E+001  1.000000000000E+000  5.624013543129E-001  4.375986754894E-001
   3.700000000000E+001  1.000000000000E+000  5.859909057617E-001  4.140090942383E-001
   3.750000000000E+001  1.000000000000E+000  6.051782369614E-001  3.948217630386E-001
   3.800000000000E+001  1.000000000000E+000  6.202607154846E-001  3.797392845154E-001
   3.850000000000E+001  1.000000000000E+000  6.317477226257E-001  3.682523071766E-001
   3.900000000000E+001  1.000000000000E+000  6.401779651642E-001  3.598220348358E-001
   3.950000000000E+001  1.000000000000E+000  6.460236907005E-001  3.539763391018E-001
   4.000000000000E+001  1.000000000000E+000  6.496331691742E-001  3.503668308258E-001
   4.050000000000E+001  1.000000000000E+000  6.512061357498E-001  3.487938642502E-001
   4.100000000000E+001  1.000000000000E+000  6.507714390755E-001  3.492285609245E-001
   4.150000000000E+001  1.000000000000E+000  6.481309533119E-001  3.518690466881E-001
   4.200000000000E+001  1.000000000000E+000  6.427832245827E-001  3.572167754173E-001
   4.250000000000E+001  1.000000000000E+000  6.337938904762E-001  3.662061095238E-001
   4.300000000000E+001  1.000000000000E+000  6.196019649506E-001  3.803980052471E-001
   4.350000000000E+001  1.000000000000E+000  5.977720618248E-001  4.022279679775E-001
   4.400000000000E+001  1.000000000000E+000  5.646764636040E-001  4.353235661983E-001
   4.450000000000E+001  1.000000000000E+000  5.152897238731E-001  4.847102463245E-001
   4.500000000000E+001  1.000000000000E+000  4.435366392136E-001  5.564633607864E-001
   4.550000000000E+001  1.000000000000E+000  3.440540730953E-001  6.559458971024E-001
   4.600000000000E+001  1.000000000000E+000  2.162539511919E-001  7.837460637093E-001
   4.650000000000E+001  1.000000000000E+000  7.639753073454E-002  9.236024618149E-001
   4.700000000000E+001  1.000000000000E+000  1.917754843817E-006  9.999980926514E-001
   4.750000000000E+001  1.000000000000E+000  7.913509756327E-002  9.208648800850E-001
   4.800000000000E+001  1.000000000000E+000  2.186109423637E-001  7.813890576363E-001
   4.850000000000E+001  1.000000000000E+000  6.723585724831E-001  3.276414275169E-001
   4.900000000000E+001  1.000000000000E+000  5.922210812569E-001  4.077789187431E-001
   4.950000000000E+001  1.000000000000E+000  5.478018522263E-001  4.521981477737E-001
   5.000000000000E+001  1.000000000000E+000  5.312874317169E-001  4.687125682831E-001
   5.050000000000E+001  1.000000000000E+000  5.388202071190E-001  4.611797630787E-001
   5.100000000000E+001  1.000000000000E+000  5.677089691162E-001  4.322910606861E-001
   5.150000000000E+001  1.000000000000E+000  6.142121553421E-001  3.857878148556E-001
   5.200000000000E+001  1.000000000000E+000  6.725320816040E-001  3.274678885937E-001
   5.250000000000E+001  1.000000000000E+000  7.352330684662E-001  2.647669315338E-001
   5.300000000000E+001  1.000000000000E+000  2.050026059151E-001  7.949973940849E-001
   5.350000000000E+001  1.000000000000E+000  1.764923781157E-001  8.235076069832E-001
   5.400000000000E+001  1.000000000000E+000  1.491370350122E-001  8.508629798889E-001
   5.450000000000E+001  1.000000000000E+000  1.228951364756E-001  8.771048784256E-001
   5.500000000000E+001  1.000000000000E+000  9.778329730034E-002  9.022166728973E-001
   5.550000000000E+001  1.000000000000E+000  7.388526946306E-002  9.261147379875E-001
   5.600000000000E+001  1.000000000000E+000  5.144985020161E-002  9.485501646996E-001
   5.650000000000E+001  1.000000000000E+000  3.111172281206E-002  9.688882827759E-001
   5.700000000000E+001  1.000000000000E+000  1.418125815690E-002  9.858187437057E-001
   5.750000000000E+001  1.000000000000E+000  2.883784705773E-003  9.971162080765E-001
   5.800000000000E+001  1.000000000000E+000  4.237267130520E-004  9.995762705803E-001
   5.850000000000E+001  1.000000000000E+000  1.086885109544E-002  9.891311526299E-001
   5.900000000000E+001  1.000000000000E+000  3.916447237134E-002  9.608355164528E-001
   5.950000000000E+001  1.000000000000E+000  9.160713851452E-002  9.083928465843E-001
   6.000000000000E+001  1.000000000000E+000  1.765412092209E-001  8.234587907791E-001
   6.050000000000E+001  1.000000000000E+000  3.041066527367E-001  6.958933472633E-001
   6.100000000000E+001  1.000000000000E+000  4.809074699879E-001  5.190925598145E-001
   6.150000000000E+001  1.000000000000E+000  3.076529800892E-001  6.923469901085E-001
   6.200000000000E+001  1.000000000000E+000  1.047942340374E-001  8.952057957649E-001
   6.250000000000E+001  1.000000000000E+000  8.175638504326E-003  9.918243885040E-001
   6.300000000000E+001  1.000000000000E+000  1.212018914521E-002  9.878798127174E-001
   6.350000000000E+001  1.000000000000E+000  7.645462453365E-002  9.235453605652E-001
   6.400000000000E+001  1.000000000000E+000  8.261824250221E-001  1.738175749779E-001
   6.450000000000E+001  1.000000000000E+000  7.377610206604E-001  2.622389793396E-001
   6.500000000000E+001  1.000000000000E+000  6.425323486328E-001  3.574676513672E-001
   6.550000000000E+001  1.000000000000E+000  5.431622266769E-001  4.568378031254E-001
   6.600000000000E+001  1.000000000000E+000  4.421807527542E-001  5.578192472458E-001
   6.650000000000E+001  1.000000000000E+000  3.424846827984E-001  6.575153470039E-001
   6.700000000000E+001  1.000000000000E+000  7.523236274719E-001  2.476763576269E-001
   6.750000000000E+001  1.000000000000E+000  8.520937561989E-001  1.479062139988E-001
   6.800000000000E+001  1.000000000000E+000  9.289754033089E-001  7.102459669113E-002
   6.850000000000E+001  1.000000000000E+000  9.774475097656E-001  2.255248278379E-002
   6.900000000000E+001  1.000000000000E+000  9.981934428215E-001  1.806531799957E-003
   6.950000000000E+001  1.000000000000E+000  9.973316192627E-001  2.668407047167E-003
   7.000000000000E+001  1.000000000000E+000  9.828947782516E-001  1.710521802306E-002
   7.050000000000E+001  1.000000000000E+000  9.615051150322E-001  3.849490731955E-002
   7.100000000000E+001  1.000000000000E+000  9.372372031212E-001  6.276278942823E-002
   7.150000000000E+001  1.000000000000E+000  9.120873212814E-001  8.791269361973E-002
   7.200000000000E+001  1.000000000000E+000  8.868123888969E-001  1.131876334548E-001
   7.250000000000E+001  1.000000000000E+000  8.615545034409E-001  1.384454667568E-001
   7.300000000000E+001  1.000000000000E+000  8.362141847610E-001  1.637858003378E-001
   7.350000000000E+001  1.000000000000E+000  8.106485605240E-001  1.893514394760E-001
   7.400000000000E+001  1.000000000000E+000  7.847573757172E-001  2.152426093817E-001
   7.450000000000E+001  1.000000000000E+000  7.584758996964E-001  2.415241003036E-001
   7.500000000000E+001  1.000000000000E+000  7.316647768021E-001  2.683352231979E-001
   7.550000000000E+001  1.000000000000E+000  7.039700746536E-001  2.960298955441E-001
   7.600000000000E+001  1.000000000000E+000  6.746737360954E-001  3.253262937069E-001
   7.650000000000E+001  1.000000000000E+000  6.426480412483E-001  3.573519587517E-001
   7.700000000000E+001  1.000000000000E+000  6.064275503159E-001  3.935724496841E-001
   7.750000000000E+001  1.000000000000E+000  5.644176006317E-001  4.355824291706E-001
   7.800000000000E+001  1.000000000000E+000  5.151205658913E-001  4.848794639111E-001
   7.850000000000E+001  1.000000000000E+000  4.573022723198E-001  5.426977276802E-001
   7.900000000000E+001  1.000000000000E+000  3.902512788773E-001  6.097487211227E-001
   7.950000000000E+001  1.000000000000E+000  3.143837153912E-001  6.856162548065E-001
   8.000000000000E+001  1.000000000000E+000  2.323072254658E-001  7.676927447319E-001
   8.050000000000E+001  1.000000000000E+000  1.500841677189E-001  8.499158620834E-001
   8.100000000000E+001  1.000000000000E+000  7.741698622704E-002  9.225829839706E-001
   8.150000000000E+001  1.000000000000E+000  2.517652325332E-002  9.748234748840E-001
   8.200000000000E+001  1.000000000000E+000  1.199622987770E-003  9.988003969193E-001
   8.250000000000E+001  1.000000000000E+000  7.779197767377E-003  9.922208189964E-001
   8.300000000000E+001  1.000000000000E+000  4.227633774281E-002  9.577236771584E-001
   8.350000000000E+001  1.000000000000E+000  9.917975962162E-002  9.008202552795E-001
   8.400000000000E+001  1.000000000000E+000  1.720051318407E-001  8.279948830605E-001
   8.450000000000E+001  1.000000000000E+000  2.545795738697E-001  7.454203963280E-001
   8.500000000000E+001  1.000000000000E+000  3.417583405972E-001  6.582416296005E-001
   8.550000000000E+001  1.000000000000E+000  4.296606779099E-001  5.703393220901E-001
   8.600000000000E+001  1.000000000000E+000  5.155612230301E-001  4.844387471676E-001
   8.650000000000E+001  1.000000000000E+000  5.976033806801E-001  4.023966193199E-001
   8.700000000000E+001  1.000000000000E+000  6.744970083237E-001  3.255029916763E-001
   8.750000000000E+001  1.000000000000E+000  7.452520132065E-001  2.547479867935E-001
   8.800000000000E+001  1.000000000000E+000  8.090001344681E-001  1.909998655319E-001
   8.850000000000E+001  1.000000000000E+000  8.649002313614E-001  1.350997835398E-001
   8.900000000000E+001  1.000000000000E+000  9.120968580246E-001  8.790312707424E-002
   8.950000000000E+001  1.000000000000E+000  9.497648477554E-001  5.023518204689E-002
   9.000000000000E+001  1.000000000000E+000  9.772028923035E-001  2.279710397124E-002
   9.050000000000E+001  1.000000000000E+000  9.939673542976E-001  6.032658275217E-003
   9.100000000000E+001  1.000000000000E+000  9.999761581421E-001  2.382441380178E-005
   9.150000000000E+001  1.000000000000E+000  9.955637454987E-001  4.436227492988E-003
   9.200000000000E+001  1.000000000000E+000  9.815451502800E-001  1.845487579703E-002
   9.250000000000E+001  1.000000000000E+000  9.593349695206E-001  4.066504538059E-002
   9.300000000000E+001  1.000000000000E+000  9.309626221657E-001  6.903737038374E-002
   9.350000000000E+001  1.000000000000E+000  8.987256288528E-001  1.012743636966E-001
   9.400000000000E+001  1.000000000000E+000  8.646057248116E-001  1.353942751884E-001
   9.450000000000E+001  1.000000000000E+000  8.299028873444E-001  1.700971275568E-001
   9.500000000000E+001  1.000000000000E+000  7.952444553375E-001  2.047555744648E-001
   9.550000000000E+001  1.000000000000E+000  7.607697248459E-001  2.392302900553E-001
   9.600000000000E+001  1.000000000000E+000  7.263098955154E-001  2.736900746822E-001
   9.650000000000E+001  1.000000000000E+000  6.915107369423E-001  3.084892630577E-001
   9.700000000000E+001  1.000000000000E+000  6.558734774590E-001  3.441265523434E-001
   9.750000000000E+001  1.000000000000E+000  6.187707781792E-001  3.812292218208E-001
   9.800000000000E+001  1.000000000000E+000  5.794411301613E-001  4.205588400364E-001
   9.850000000000E+001  1.000000000000E+000  5.369735360146E-001  4.630264639854E-001
   9.900000000000E+001  1.000000000000E+000  4.903177917004E-001  5.096821784973E-001
   9.950000000000E+001  1.000000000000E+000  4.383421242237E-001  5.616579055786E-001
   1.000000000000E+002  1.000000000000E+000  3.799854218960E-001  6.200146079063E-001
