#                    1                    2                    3                    4                    5                    6
#               Time |           Sum c**2 |   === coeff_MCH ===>
#               [fs] |                 [] |                 [] |
   0.000000000000E+000  1.000000000000E+000  0.000000000000E+000  0.000000000000E+000  1.000000000000E+000  0.000000000000E+000
   5.000000000000E-001  1.000000000000E+000  5.669870415865E-005 -7.789231205946E-005 -1.294367522086E-001 -9.915876753448E-001
   1.000000000000E+000  1.000000000000E+000 -6.149218251491E-005 -8.986352280881E-005 -9.633737975653E-001  2.681621045336E-001
   1.500000000000E+000  1.000000000000E+000 -6.923013538714E-005  2.669266154253E-005  3.777723852440E-001  9.258984930551E-001
   2.000000000000E+000  1.000000000000E+000  1.362069878597E-005  3.682613660450E-005  8.954687303162E-001 -4.451244224756E-001
   2.500000000000E+000  1.000000000000E+000  1.955823410885E-005 -1.288633227330E-005 -4.856565636648E-001 -8.741497020652E-001
   3.000000000000E+000  1.000000000000E+000 -1.361872338343E-005 -1.357918289829E-005 -8.472066481673E-001  5.312634891758E-001
   3.500000000000E+000  1.000000000000E+000 -1.124358833886E-005  1.802021250008E-005  6.059492154942E-001  7.955033298427E-001
   4.000000000000E+000  1.000000000000E+000  2.930736402295E-005  9.067575358761E-006  7.121246988995E-001 -7.020529981961E-001
   4.500000000000E+000  1.000000000000E+000  5.488692711947E-006 -4.366024548123E-005 -7.881080800162E-001 -6.155368813295E-001
   5.000000000000E+000  1.000000000000E+000 -5.424557344760E-005 -1.417811809574E-006 -5.357882621137E-001  8.443523762249E-001
   5.500000000000E+000  1.000000000000E+000  2.058139951541E-006  5.887150198247E-005  8.764328642036E-001  4.815240711260E-001
   6.000000000000E+000  1.000000000000E+000  5.867574644587E-005 -5.261175034762E-006  4.386236660588E-001 -8.986708385736E-001
   6.500000000000E+000  1.000000000000E+000 -8.160733924071E-006 -5.439218170222E-005 -9.161323727272E-001 -4.008758818091E-001
   7.000000000000E+000  1.000000000000E+000 -4.705838550283E-005  9.756053997325E-006 -3.876445525666E-001  9.218089273574E-001
   7.500000000000E+000  1.000000000000E+000  9.350276296101E-006  3.920166979403E-005  9.040834939904E-001  4.273558637365E-001
   8.000000000000E+000  1.000000000000E+000  3.253128062964E-005 -6.556538380115E-006  5.275260629028E-001 -8.495388465850E-001
   8.500000000000E+000  1.000000000000E+000 -2.296456909704E-007 -2.522783464401E-005 -7.469361730978E-001 -6.648957457237E-001
   9.000000000000E+000  9.999999999999E-001 -1.133959567118E-005 -1.144302652768E-005 -8.031944573684E-001  5.957169322699E-001
   9.500000000000E+000  9.999999999999E-001 -3.000706562282E-005 -1.819590080120E-005  4.025163441563E-001  9.154127983896E-001
   1.000000000000E+001  1.000000000000E+000 -7.290549601517E-005  5.482936584008E-005  9.859641243445E-001 -1.669572914974E-001
   1.050000000000E+001  1.000000000000E+000  7.765774930522E-005  1.579579600380E-004  1.223684952862E-001 -9.924847204768E-001
   1.100000000000E+001  1.000000000000E+000  2.689335288553E-004 -7.413041382178E-005 -8.839677327888E-001 -4.675478259683E-001
   1.150000000000E+001  1.000000000000E+000 -9.093338074152E-007 -3.830007494091E-004 -8.136937650056E-001  5.812936522109E-001
   1.200000000000E+001  1.000000000000E+000 -4.410701268816E-004 -1.844615213005E-004  4.197604838334E-002  9.991185028780E-001
   1.250000000000E+001  1.000000000000E+000 -4.654156887321E-004  3.360334769641E-004  7.980221022871E-001  6.026279073616E-001
   1.300000000000E+001  9.999999999999E-001 -2.828515413252E-005  6.881934283049E-004  9.893250695058E-001 -1.457238224761E-001
   1.350000000000E+001  1.000000000000E+000  5.824782602427E-004  5.676008057343E-004  6.359645461803E-001 -7.717178464634E-001
   1.400000000000E+001  1.000000000000E+000  9.064263450075E-004 -2.226344225859E-005 -1.818438113527E-002 -9.998342393509E-001
   1.450000000000E+001  1.000000000000E+000  6.444620563960E-004 -6.492783851434E-004 -6.597094160889E-001 -7.515202255628E-001
   1.500000000000E+001  1.000000000000E+000  4.008907501695E-005 -7.363233476919E-004 -9.911028700345E-001 -1.330960451337E-001
   1.550000000000E+001  9.999999999999E-001 -2.696989054343E-005 -2.247638860162E-004 -8.126426843654E-001  5.827622296453E-001
   1.600000000000E+001  1.000000000000E+000  1.163579061857E-003 -5.436675217154E-004 -1.289640594089E-001  9.916484366398E-001
   1.650000000000E+001  1.000000000000E+000  1.222573208784E-003 -4.386606041777E-003  6.922229017588E-001  7.216693961107E-001
   1.700000000000E+001  1.000000000000E+000 -7.994433090880E-003 -8.826765925206E-003  9.891700468121E-001 -1.462901081160E-001
   1.750000000000E+001  1.000000000000E+000 -2.755675918699E-002  6.451016488312E-003  4.335268389779E-001 -9.006961137338E-001
   1.800000000000E+001  1.000000000000E+000 -1.684149555192E-002  6.395239022954E-002 -4.880895427069E-001 -8.702844673506E-001
   1.850000000000E+001  1.000000000000E+000  1.176040585867E-001  1.088144330033E-001 -9.787022480927E-001 -1.283378905562E-001
   1.900000000000E+001  1.000000000000E+000  3.651332881108E-001 -1.121131476326E-001 -6.381341972493E-001  6.685006135691E-001
   1.950000000000E+001  1.000000000000E+000  2.185578786710E-001 -5.799655620175E-001  2.305742331723E-001  7.501386028873E-001
   2.000000000000E+001  1.000000000000E+000 -2.687568416550E-001 -6.174192682895E-001  7.368657014174E-001  5.993450828278E-002
   2.050000000000E+001  1.000000000000E+000 -5.547546054273E-001 -2.903430711578E-001  3.027127327013E-001 -7.185493930471E-001
   2.100000000000E+001  1.000000000000E+000 -5.314140097945E-001  5.347854518621E-002 -6.481881604475E-001 -5.427626590459E-001
   2.150000000000E+001  1.000000000000E+000 -3.627882671380E-001  2.207266729166E-001 -7.671909122457E-001  4.807104255764E-001
   2.200000000000E+001  1.000000000000E+000 -2.291625001564E-001  2.345260552312E-001  1.895472172859E-001  9.255019883063E-001
   2.250000000000E+001  1.000000000000E+000 -1.814258359154E-001  2.079033122710E-001  9.390769309656E-001  2.049277837127E-001
   2.300000000000E+001  1.000000000000E+000 -1.707133444649E-001  2.075832651180E-001  6.152973965837E-001 -7.410635976904E-001
   2.350000000000E+001  9.999999999999E-001 -1.405803461648E-001  2.276208014879E-001 -3.227698681979E-001 -9.078796997321E-001
   2.400000000000E+001  1.000000000000E+000 -7.600486084100E-002  2.293183927134E-001 -9.388373028866E-001 -2.453993777508E-001
   2.450000000000E+001  1.000000000000E+000 -5.042835737765E-003  1.842381691902E-001 -7.845510565427E-001  5.920392778346E-001
   2.500000000000E+001  9.999999999999E-001  2.934345011082E-002  1.006252696911E-001 -1.006669166310E-001  9.893834893160E-001
   2.550000000000E+001  1.000000000000E+000  6.767135633763E-003  1.771539088739E-002  6.060411204566E-001  7.952072252669E-001
   2.600000000000E+001  1.000000000000E+000 -5.855760465603E-002 -2.293675221382E-002  9.772745214412E-001  2.024337473763E-001
   2.650000000000E+001  1.000000000000E+000 -1.292531811148E-001  4.985339446257E-003  8.575981929181E-001 -4.977892134889E-001
   2.700000000000E+001  1.000000000000E+000 -1.487924554320E-001  1.030622598120E-001  2.396881915924E-001 -9.538283632919E-001
   2.750000000000E+001  9.999999999999E-001 -1.074876624919E-001  4.499438706355E-001 -5.396144638882E-001 -7.034295601211E-001
   2.800000000000E+001  1.000000000000E+000  3.131738631926E-001  5.069817837996E-001 -7.965407177407E-001  1.020513953336E-001
   2.850000000000E+001  1.000000000000E+000  6.714263028355E-001  4.183409239883E-002 -1.939533672665E-001  7.140159101168E-001
   2.900000000000E+001  1.000000000000E+000  3.544088576000E-001 -6.212694999220E-001  6.047905568948E-001  3.502098690960E-001
   2.950000000000E+001  1.000000000000E+000 -4.649752382300E-001 -5.522508510306E-001  4.349878245984E-001 -5.381473941404E-001
   3.000000000000E+001  1.000000000000E+000 -6.756137982904E-001  2.090603076522E-001 -4.567654467638E-001 -5.396342372076E-001
   3.050000000000E+001  1.000000000000E+000 -1.686447878438E-001  6.823209530461E-001 -6.434258982596E-001  3.033152914317E-001
   3.100000000000E+001  1.000000000000E+000  3.500665002305E-001  4.840150411512E-001  1.176847908007E-001  7.933052220741E-001
   3.150000000000E+001  1.000000000000E+000  4.838131408284E-001  1.180778948062E-001  8.536099569234E-001  1.527497854702E-001
   3.200000000000E+001  9.999999999999E-001  3.904730239195E-001 -1.097032684192E-001  4.599020231571E-001 -7.899279331592E-001
   3.250000000000E+001  1.000000000000E+000  2.864598286862E-001 -1.794404547311E-001 -5.733358277638E-001 -7.463430299516E-001
   3.300000000000E+001  9.999999999999E-001  2.382106280018E-001 -1.848462552428E-001 -9.294881296924E-001  2.124602913265E-001
   3.350000000000E+001  1.000000000000E+000  2.166772062749E-001 -1.689655445260E-001 -2.291030701055E-001  9.338165860126E-001
   3.400000000000E+001  1.000000000000E+000  1.902561386310E-001 -1.266374086519E-001  7.252927582255E-001  6.493966301951E-001
   3.450000000000E+001  1.000000000000E+000  1.491048577081E-001 -5.498441242022E-002  9.307665320037E-001 -3.292690673302E-001
   3.500000000000E+001  9.999999999999E-001  1.010433114943E-001  2.474157361124E-002  1.442772038073E-001 -9.840539579713E-001
   3.550000000000E+001  1.000000000000E+000  5.994852711586E-002  7.689496029471E-002 -8.311547171480E-001 -5.474259542081E-001
   3.600000000000E+001  9.999999999999E-001  2.865037844355E-002  7.999281919098E-002 -8.120815121116E-001  5.773247979945E-001
   3.650000000000E+001  1.000000000000E+000 -1.728139639251E-003  4.879093956610E-002  3.050121169434E-001  9.510962444818E-001
   3.700000000000E+001  1.000000000000E+000 -2.967200874471E-002  1.956744662402E-002  9.977395647847E-001 -5.703023577805E-002
   3.750000000000E+001  9.999999999999E-001 -3.933628086564E-002  8.957332642650E-003  1.493926795796E-001 -9.879545791622E-001
   3.800000000000E+001  1.000000000000E+000 -2.802560567341E-002  4.162053611873E-003 -9.494113860184E-001 -3.127543170525E-001
   3.850000000000E+001  9.999999999999E-001 -1.429407840961E-002 -5.835344464922E-003 -4.317139119665E-001  9.018784431906E-001
   3.900000000000E+001  9.999999999999E-001 -1.153343587615E-002 -1.344664486294E-002  8.628920457085E-001  5.050777019942E-001
   3.950000000000E+001  1.000000000000E+000 -1.305835454664E-002 -1.129221183636E-002  5.363528350278E-001 -8.438172797982E-001
   4.000000000000E+001  9.999999999999E-001 -1.080201384458E-002 -6.397727156090E-003 -8.466037835869E-001 -5.320755765870E-001
   4.050000000000E+001  1.000000000000E+000 -8.888189328772E-003 -4.377720111162E-003 -5.006819485633E-001  8.655746195678E-001
   4.100000000000E+001  1.000000000000E+000 -8.394245896111E-003 -1.215977057682E-003  8.905938117871E-001  4.547204860595E-001
   4.150000000000E+001  1.000000000000E+000 -5.310851223328E-003  5.794035424045E-004  4.134621195261E-001 -9.105056479055E-001
   4.200000000000E+001  1.000000000000E+000 -6.654258621575E-003 -1.356955057297E-003 -9.153783204788E-001 -4.025374639864E-001
   4.250000000000E+001  9.999999999999E-001 -1.230642171571E-002  6.341079200983E-003 -4.488718863257E-001  8.934888764643E-001
   4.300000000000E+001  9.999999999999E-001 -2.586729889133E-004  2.136420369727E-002  8.212762404503E-001  5.701305471209E-001
   4.350000000000E+001  9.999999999999E-001  2.806464012137E-002  1.012716839113E-002  7.558081255280E-001 -6.541130588981E-001
   4.400000000000E+001  9.999999999999E-001  2.568993250457E-002 -3.485419542053E-002 -3.387519294186E-001 -9.398788979143E-001
   4.450000000000E+001  1.000000000000E+000 -3.735064806369E-002 -5.665806365480E-002 -9.890518840487E-001 -1.310387865168E-001
   4.500000000000E+001  1.000000000000E+000 -1.090636392680E-001  1.345922333871E-002 -6.387360428924E-001  7.615380748242E-001
   4.550000000000E+001  1.000000000000E+000 -7.141936263942E-002  1.609754897097E-001  2.464746996411E-001  9.530143696659E-001
   4.600000000000E+001  9.999999999999E-001  1.512349585746E-001  2.295806514581E-001  8.940213242786E-001  3.537606302517E-001
   4.650000000000E+001  1.000000000000E+000  4.174572998799E-001 -1.013405512165E-002  7.504258376375E-001 -5.123355989094E-001
   4.700000000000E+001  9.999999999999E-001  2.957882851269E-001 -5.187174134474E-001 -6.618688137989E-002 -7.994128045642E-001
   4.750000000000E+001  1.000000000000E+000 -3.332718650038E-001 -6.547030574686E-001 -6.412919432358E-001 -2.214461877728E-001
   4.800000000000E+001  9.999999999999E-001 -7.625703176720E-001 -1.525723964127E-001 -4.062867417257E-001  4.797283168173E-001
   4.850000000000E+001  1.000000000000E+000 -6.754450353964E-001  4.843071805063E-001  2.535901988120E-001  4.948864214493E-001
   4.900000000000E+001  9.999999999999E-001 -1.576949904172E-001  8.434659027894E-001  5.104849428170E-001 -5.570174131976E-002
   4.950000000000E+001  1.000000000000E+000  4.790654641919E-001  7.333763952623E-001  9.844254860837E-002 -4.721910720399E-001
   5.000000000000E+001  9.999999999999E-001  8.830951335830E-001  1.489482619762E-001 -4.064735105041E-001 -1.809328205570E-001
   5.050000000000E+001  9.999999999999E-001  6.709034319679E-001 -6.288315000196E-001 -1.863120960549E-001  3.460452751019E-001
   5.100000000000E+001  1.000000000000E+000 -1.873966477009E-001 -9.241420352720E-001  3.068431180268E-001  1.291947986312E-001
   5.150000000000E+001  1.000000000000E+000 -9.208977103960E-001 -2.619966633729E-001  3.335625686978E-002 -2.866923708376E-001
   5.200000000000E+001  1.000000000000E+000 -6.285549131167E-001  7.240284808023E-001 -2.741834449225E-001  7.432979694836E-002
   5.250000000000E+001  1.000000000000E+000  3.856739274162E-001  8.701768919661E-001  1.675553158614E-001  2.568521257965E-001
   5.300000000000E+001  1.000000000000E+000  8.867643472789E-001  5.122957907639E-002  3.259038846199E-001 -3.237455491776E-001
   5.350000000000E+001  1.000000000000E+000  4.596559368981E-001 -6.999696381967E-001 -4.627328261641E-001 -2.909248302694E-001
   5.400000000000E+001  1.000000000000E+000 -3.013657933610E-001 -7.329190252760E-001 -2.213047426926E-001  5.683595445158E-001
   5.450000000000E+001  1.000000000000E+000 -7.151894380365E-001 -2.269088537489E-001  6.419159755422E-001  1.579883544921E-001
   5.500000000000E+001  1.000000000000E+000 -6.276954224920E-001  3.128468273630E-001  1.385444906595E-001 -6.992358281005E-001
   5.550000000000E+001  1.000000000000E+000 -2.681453484171E-001  5.758532863659E-001 -7.466637668650E-001 -1.974443819278E-001
   5.600000000000E+001  1.000000000000E+000  8.771912743146E-002  5.425530652136E-001 -3.500888983518E-001  7.585375991741E-001
   5.650000000000E+001  1.000000000000E+000  2.963600377754E-001  3.449269636027E-001  6.940412974218E-001  5.581243546582E-001
   5.700000000000E+001  1.000000000000E+000  3.524071148094E-001  1.218215201060E-001  7.423409092260E-001 -5.566854741776E-001
   5.750000000000E+001  9.999999999999E-001  3.249114771181E-001 -6.662781979610E-002 -3.948287489737E-001 -8.567984154105E-001
   5.800000000000E+001  1.000000000000E+000  2.346045239774E-001 -2.496781767065E-001 -9.129942625110E-001  2.215016975732E-001
   5.850000000000E+001  9.999999999999E-001  1.486645016331E-002 -3.846350870167E-001 -1.317063562357E-002  9.228550118260E-001
   5.900000000000E+001  1.000000000000E+000 -2.799964387192E-001 -3.297427601054E-001  8.326516873904E-001  3.457786487749E-001
   5.950000000000E+001  1.000000000000E+000 -4.692960764157E-001 -6.477260569352E-002  6.910811562348E-001 -5.458686084670E-001
   6.000000000000E+001  1.000000000000E+000 -4.123816834670E-001  2.943956889693E-001 -8.315824013106E-002 -8.581125989959E-001
   6.050000000000E+001  1.000000000000E+000 -4.588181234997E-002  5.315053309271E-001 -7.638620933635E-001 -3.631964273144E-001
   6.100000000000E+001  1.000000000000E+000  4.554594617029E-001  3.206136940045E-001 -6.342204963041E-001  5.362162810190E-001
   6.150000000000E+001  1.000000000000E+000  5.064974465138E-001 -3.770401055604E-001  3.320021009381E-001  7.007679362290E-001
   6.200000000000E+001  9.999999999999E-001 -3.290779555103E-001 -6.004490337620E-001  6.689664436723E-001 -2.892275130270E-001
   6.250000000000E+001  9.999999999999E-001 -6.339872958860E-001  3.173838598522E-001 -3.620121672055E-001 -6.052063986406E-001
   6.300000000000E+001  1.000000000000E+000  3.212852280381E-001  6.311731595867E-001 -5.130263559457E-001  4.849744353746E-001
   6.350000000000E+001  1.000000000000E+000  6.180203098561E-001 -3.100631280717E-001  6.058516362373E-001  3.935168968219E-001
   6.400000000000E+001  9.999999999999E-001 -2.224879680624E-001 -5.600578307998E-001  2.985215814111E-001 -7.400805332253E-001
   6.450000000000E+001  1.000000000000E+000 -5.041324889042E-001  6.925170315671E-002 -8.189965819747E-001 -2.651400270704E-001
   6.500000000000E+001  9.999999999999E-001 -1.187282905141E-001  3.808369324927E-001 -3.484024487866E-001  8.482231767410E-001
   6.550000000000E+001  1.000000000000E+000  1.435070255997E-001  2.456405214332E-001  7.591411294408E-001  5.854666629492E-001
   6.600000000000E+001  1.000000000000E+000  1.511180544556E-001  1.208815318661E-001  8.883604934006E-001 -4.163731771336E-001
   6.650000000000E+001  1.000000000000E+000  1.250674368243E-001  1.253934031871E-001  2.214185426296E-001 -9.589621784321E-001
   6.700000000000E+001  1.000000000000E+000  3.699445903746E-001  4.026801065453E-001 -4.389050280966E-001 -7.129881542892E-001
   6.750000000000E+001  1.000000000000E+000  5.967631726108E-001  4.689966832503E-001 -6.311544242280E-001 -1.598746999781E-001
   6.800000000000E+001  1.000000000000E+000  8.006040357501E-001  3.498522830278E-001 -3.596495494738E-001  3.275496291622E-001
   6.850000000000E+001  1.000000000000E+000  9.158983992145E-001  4.032188461872E-002  1.826377408143E-001  3.551728080350E-001
   6.900000000000E+001  1.000000000000E+000  8.706809771394E-001 -3.143325637986E-001  3.598382228026E-001 -1.167310104200E-001
   6.950000000000E+001  1.000000000000E+000  7.665746514773E-001 -5.434646443290E-001 -1.147892419445E-002 -3.418738340033E-001
   7.000000000000E+001  1.000000000000E+000  7.231790416810E-001 -6.436711029902E-001 -2.353654677128E-001 -8.545572805315E-002
   7.050000000000E+001  1.000000000000E+000  7.133755493369E-001 -6.875567471190E-001 -7.392491872401E-002  1.135612235363E-001
   7.100000000000E+001  9.999999999999E-001  6.454723587803E-001 -7.600148428869E-001  7.531174292067E-002  8.426981688431E-003
   7.150000000000E+001  9.999999999999E-001  4.085871342416E-001 -9.093783093652E-001 -2.914837574738E-002 -7.237414164983E-002
   7.200000000000E+001  1.000000000000E+000 -1.335801936094E-001 -9.894275678863E-001 -4.128256143311E-002  3.853790216675E-002
   7.250000000000E+001  1.000000000000E+000 -8.438135653996E-001 -5.363671499683E-001  1.608566205301E-002 -5.495339734616E-003
   7.300000000000E+001  1.000000000000E+000 -8.253418027029E-001  5.639281336350E-001 -1.004261660226E-002  2.636502717540E-002
   7.350000000000E+001  1.000000000000E+000  4.215790061275E-001  9.062675355414E-001  2.270461896454E-002 -2.085175997320E-002
   7.400000000000E+001  1.000000000000E+000  9.046737872038E-001 -4.260475540272E-001 -6.555573615334E-003  2.417624544871E-003
   7.450000000000E+001  1.000000000000E+000 -5.041487042871E-001 -8.634286447053E-001 -1.779767040422E-002 -2.881387892647E-003
   7.500000000000E+001  1.000000000000E+000 -8.176668992878E-001  5.753449679559E-001  1.620745520832E-002  1.167596045423E-002
   7.550000000000E+001  1.000000000000E+000  5.758556200286E-001  8.175389757116E-001  3.089620040480E-003 -3.283644617735E-003
   7.600000000000E+001  1.000000000000E+000  8.969738359009E-001 -4.418310733245E-001 -2.239945927708E-003 -1.477237274296E-002
   7.650000000000E+001  9.999999999999E-001 -8.570095537094E-002 -9.962390909113E-001 -1.218489399346E-002  3.814229544277E-003
   7.700000000000E+001  1.000000000000E+000 -8.556735765261E-001 -5.173984586706E-001 -7.426715795044E-003  8.149189706688E-003
   7.750000000000E+001  1.000000000000E+000 -9.927100231365E-001  1.194877537696E-001 -1.633464836253E-004  1.579430218032E-002
   7.800000000000E+001  1.000000000000E+000 -8.693188575429E-001  4.939653869960E-001  6.706548843516E-003  1.542538728263E-002
   7.850000000000E+001  9.999999999999E-001 -7.689677868053E-001  6.389467271412E-001  9.803033083947E-003  1.842615732066E-002
   7.900000000000E+001  1.000000000000E+000 -7.448028324454E-001  6.667410231564E-001  1.312157929695E-002  2.351537748847E-002
   7.950000000000E+001  1.000000000000E+000 -7.439124828618E-001  6.673945121785E-001  1.589213712668E-002  3.043391092174E-002
   8.000000000000E+001  1.000000000000E+000 -6.988773498678E-001  7.138520052389E-001  2.192456758144E-002  3.879533212313E-002
   8.050000000000E+001  9.999999999999E-001 -5.630790899408E-001  8.244337903473E-001  3.576001572690E-002  4.440816456667E-002
   8.100000000000E+001  9.999999999999E-001 -3.467531218587E-001  9.353704128703E-001  5.566549049532E-002  4.178296753371E-002
   8.150000000000E+001  1.000000000000E+000 -1.351511944127E-001  9.875788459304E-001  7.352519368788E-002  3.187826238646E-002
   8.200000000000E+001  1.000000000000E+000  1.402043507707E-002  9.960647875334E-001  8.507485038472E-002  2.050941901635E-002
   8.250000000000E+001  1.000000000000E+000  1.527030537412E-001  9.840025573008E-001  9.154066482250E-002  6.407127862160E-003
   8.300000000000E+001  1.000000000000E+000  3.863121018604E-001  9.176251833875E-001  9.145952465372E-002 -1.902992694196E-002
   8.350000000000E+001  1.000000000000E+000  7.445835187030E-001  6.610240243679E-001  7.196530897607E-002 -5.885250367134E-002
   8.400000000000E+001  1.000000000000E+000  9.952545653699E-001  3.516310460404E-002  1.429227119611E-002 -8.959708236876E-002
   8.450000000000E+001  9.999999999999E-001  6.278243416300E-001 -7.734853193195E-001 -6.247028917446E-002 -6.045262462851E-002
   8.500000000000E+001  1.000000000000E+000 -4.143115088271E-001 -9.064471413032E-001 -7.627470718038E-002  2.969381621311E-002
   8.550000000000E+001  1.000000000000E+000 -9.932137340843E-001  8.804547307879E-002  3.667239513421E-003  7.590141270762E-002
   8.600000000000E+001  1.000000000000E+000 -2.024489821531E-001  9.767825038656E-001  6.800674853727E-002  1.689473055992E-002
   8.650000000000E+001  1.000000000000E+000  8.657700533482E-001  4.962343397114E-001  3.506610189397E-002 -5.444321183226E-002
   8.700000000000E+001  1.000000000000E+000  7.971774629265E-001 -6.007339262828E-001 -3.284128597304E-002 -5.048061361137E-002
   8.750000000000E+001  1.000000000000E+000 -9.589689073803E-002 -9.938067484573E-001 -5.613725908108E-002  7.356700795872E-004
   8.800000000000E+001  1.000000000000E+000 -7.999052155703E-001 -5.978537480667E-001 -3.501181316512E-002  3.868740059612E-002
   8.850000000000E+001  1.000000000000E+000 -9.986263214058E-001 -2.011040766425E-002 -6.012929693460E-003  4.800923219146E-002
   8.900000000000E+001  1.000000000000E+000 -9.212545180615E-001  3.863491455634E-001  1.256568796687E-002  4.320363595442E-002
   8.950000000000E+001  1.000000000000E+000 -7.954487602285E-001  6.045640993528E-001  2.134162880402E-002  3.616703616176E-002
   9.000000000000E+001  1.000000000000E+000 -6.896929209696E-001  7.230418073555E-001  2.518283883300E-002  3.000073680601E-002
   9.050000000000E+001  9.999999999999E-001 -5.658385838441E-001  8.237082909338E-001  2.786856319269E-002  2.355189303943E-002
   9.100000000000E+001  1.000000000000E+000 -3.245708604593E-001  9.452438375206E-001  3.124290543532E-002  1.384648077910E-002
   9.150000000000E+001  1.000000000000E+000  1.616726553421E-001  9.863142577612E-001  3.219842041627E-002 -3.065807281002E-003
   9.200000000000E+001  9.999999999999E-001  8.119979849870E-001  5.828541132616E-001  1.887441494181E-002 -2.416839861546E-002
   9.250000000000E+001  1.000000000000E+000  9.087773998686E-001 -4.163170235346E-001 -1.152500632841E-002 -2.590265686120E-002
   9.300000000000E+001  1.000000000000E+000 -4.690579858027E-002 -9.985852297076E-001 -2.501639022030E-002  1.251115390228E-003
   9.350000000000E+001  1.000000000000E+000 -9.384014220453E-001 -3.448623156143E-001 -7.683260291159E-003  2.034015446807E-002
   9.400000000000E+001  1.000000000000E+000 -7.474861470689E-001  6.639988788784E-001  1.241702113747E-002  1.468898820274E-002
   9.450000000000E+001  1.000000000000E+000  1.566902795672E-001  9.874949218340E-001  1.724688834426E-002 -2.116715321988E-003
   9.500000000000E+001  9.999999999999E-001  9.093557373229E-001  4.157039800853E-001  7.466035591444E-003 -1.437366521057E-002
   9.550000000000E+001  9.999999999999E-001  8.298310174098E-001 -5.577950042628E-001 -7.902763687292E-003 -1.351895299641E-002
   9.600000000000E+001  1.000000000000E+000 -1.052895600130E-001 -9.943196990308E-001 -1.556242638669E-002  5.055259595524E-004
   9.650000000000E+001  1.000000000000E+000 -9.515293997316E-001 -3.071463977194E-001 -6.152230255509E-003  1.466430623628E-002
   9.700000000000E+001  1.000000000000E+000 -6.237830426507E-001  7.814200197169E-001  1.194358761347E-002  1.161116712828E-002
   9.750000000000E+001  9.999999999999E-001  5.355448679310E-001  8.443188562300E-001  1.601755057634E-002 -7.797532988248E-003
   9.800000000000E+001  1.000000000000E+000  9.753966011447E-001 -2.195995976777E-001 -1.732911588870E-003 -1.935159405677E-002
   9.850000000000E+001  1.000000000000E+000  1.869911336912E-001 -9.821229605791E-001 -2.036104122086E-002 -7.364388956170E-003
   9.900000000000E+001  1.000000000000E+000 -7.519227242790E-001 -6.587866290499E-001 -1.956549075721E-002  1.515208465443E-002
   9.950000000000E+001  1.000000000000E+000 -9.875573055201E-001  1.545395740917E-001 -2.204862518668E-003  2.903837004221E-002
   1.000000000000E+002  1.000000000000E+000 -6.616913860167E-001  7.489427003217E-001  1.921734225019E-002  2.966538493041E-002
