#                    1                    2                    3                    4
#               Time |      f_osc (state) |       === f_osc ===>
#               [fs] |                 [] |                 [] |
   0.000000000000E+000  5.048930616442E-001  0.000000000000E+000  5.048930616442E-001
   5.000000000000E-001  5.245601894674E-001  0.000000000000E+000  5.245601894674E-001
   1.000000000000E+000  5.370425755713E-001  0.000000000000E+000  5.370425755713E-001
   1.500000000000E+000  5.432496136919E-001  0.000000000000E+000  5.432496136919E-001
   2.000000000000E+000  5.450348521331E-001  0.000000000000E+000  5.450348521331E-001
   2.500000000000E+000  5.439465092659E-001  0.000000000000E+000  5.439465092659E-001
   3.000000000000E+000  5.408934375070E-001  0.000000000000E+000  5.408934375070E-001
   3.500000000000E+000  5.363398599355E-001  0.000000000000E+000  5.363398599355E-001
   4.000000000000E+000  5.305157391249E-001  0.000000000000E+000  5.305157391249E-001
   4.500000000000E+000  5.234952907970E-001  0.000000000000E+000  5.234952907970E-001
   5.000000000000E+000  5.152115089837E-001  0.000000000000E+000  5.152115089837E-001
   5.500000000000E+000  5.055118124917E-001  0.000000000000E+000  5.055118124917E-001
   6.000000000000E+000  4.942468562689E-001  0.000000000000E+000  4.942468562689E-001
   6.500000000000E+000  4.813366132826E-001  0.000000000000E+000  4.813366132826E-001
   7.000000000000E+000  4.667543056451E-001  0.000000000000E+000  4.667543056451E-001
   7.500000000000E+000  4.504390452727E-001  0.000000000000E+000  4.504390452727E-001
   8.000000000000E+000  4.322309125255E-001  0.000000000000E+000  4.322309125255E-001
   8.500000000000E+000  4.119416211501E-001  0.000000000000E+000  4.119416211501E-001
   9.000000000000E+000  3.895069667971E-001  0.000000000000E+000  3.895069667971E-001
   9.500000000000E+000  3.651060895201E-001  0.000000000000E+000  3.651060895201E-001
   1.000000000000E+001  3.391748427998E-001  0.000000000000E+000  3.391748427998E-001
   1.050000000000E+001  3.122890071984E-001  0.000000000000E+000  3.122890071984E-001
   1.100000000000E+001  2.849950279349E-001  0.000000000000E+000  2.849950279349E-001
   1.150000000000E+001  2.576638225913E-001  0.000000000000E+000  2.576638225913E-001
   1.200000000000E+001  2.304698250792E-001  0.000000000000E+000  2.304698250792E-001
   1.250000000000E+001  2.034584401571E-001  0.000000000000E+000  2.034584401571E-001
   1.300000000000E+001  1.766755841971E-001  0.000000000000E+000  1.766755841971E-001
   1.350000000000E+001  1.502758344089E-001  0.000000000000E+000  1.502758344089E-001
   1.400000000000E+001  1.245868686916E-001  0.000000000000E+000  1.245868686916E-001
   1.450000000000E+001  1.000986312576E-001  0.000000000000E+000  1.000986312576E-001
   1.500000000000E+001  7.740769244038E-002  0.000000000000E+000  7.740769244038E-002
   1.550000000000E+001  5.711633231363E-002  0.000000000000E+000  5.711633231363E-002
   1.600000000000E+001  3.975076347959E-002  0.000000000000E+000  3.975076347959E-002
   1.650000000000E+001  2.568421168413E-002  0.000000000000E+000  2.568421168413E-002
   1.700000000000E+001  1.504217303818E-002  0.000000000000E+000  1.504217303818E-002
   1.750000000000E+001  7.605868472975E-003  0.000000000000E+000  7.605868472975E-003
   1.800000000000E+001  2.908695169412E-003  0.000000000000E+000  2.908695169412E-003
   1.850000000000E+001  8.084661458271E-004  0.000000000000E+000  8.084661458271E-004
   1.900000000000E+001  2.441390484722E-003  0.000000000000E+000  2.441390484722E-003
   1.950000000000E+001  6.352626829784E-003  0.000000000000E+000  6.352626829784E-003
   2.000000000000E+001  8.012260418453E-003  0.000000000000E+000  8.012260418453E-003
   2.050000000000E+001  8.399747062157E-003  0.000000000000E+000  8.399747062157E-003
   2.100000000000E+001  8.276741502482E-003  0.000000000000E+000  8.276741502482E-003
   2.150000000000E+001  7.865501647989E-003  0.000000000000E+000  7.865501647989E-003
   2.200000000000E+001  7.248422781050E-003  0.000000000000E+000  7.248422781050E-003
   2.250000000000E+001  6.465344179449E-003  0.000000000000E+000  6.465344179449E-003
   2.300000000000E+001  5.549438086342E-003  0.000000000000E+000  5.549438086342E-003
   2.350000000000E+001  4.549005247947E-003  0.000000000000E+000  4.549005247947E-003
   2.400000000000E+001  3.535717772300E-003  0.000000000000E+000  3.535717772300E-003
   2.450000000000E+001  2.595398258718E-003  0.000000000000E+000  2.595398258718E-003
   2.500000000000E+001  1.801991463078E-003  0.000000000000E+000  1.801991463078E-003
   2.550000000000E+001  1.192186029634E-003  0.000000000000E+000  1.192186029634E-003
   2.600000000000E+001  7.597845156168E-004  0.000000000000E+000  7.597845156168E-004
   2.650000000000E+001  4.714720810431E-004  0.000000000000E+000  4.714720810431E-004
   2.700000000000E+001  2.879946341539E-004  0.000000000000E+000  2.879946341539E-004
   2.750000000000E+001  0.000000000000E+000  0.000000000000E+000  1.754698601452E-004
   2.800000000000E+001  0.000000000000E+000  0.000000000000E+000  1.018127282925E-004
   2.850000000000E+001  0.000000000000E+000  0.000000000000E+000  6.275010317073E-005
   2.900000000000E+001  0.000000000000E+000  0.000000000000E+000  6.560074867559E-005
   2.950000000000E+001  0.000000000000E+000  0.000000000000E+000  1.607092082254E-004
   3.000000000000E+001  0.000000000000E+000  0.000000000000E+000  3.539812320788E-004
   3.050000000000E+001  0.000000000000E+000  0.000000000000E+000  6.500720918151E-004
   3.100000000000E+001  1.148911961597E-003  0.000000000000E+000  1.148911961597E-003
   3.150000000000E+001  1.795081848942E-003  0.000000000000E+000  1.795081848942E-003
   3.200000000000E+001  2.742270673824E-003  0.000000000000E+000  2.742270673824E-003
   3.250000000000E+001  4.137583881592E-003  0.000000000000E+000  4.137583881592E-003
   3.300000000000E+001  6.199012015808E-003  0.000000000000E+000  6.199012015808E-003
   3.350000000000E+001  9.203614245420E-003  0.000000000000E+000  9.203614245420E-003
   3.400000000000E+001  1.338476411733E-002  0.000000000000E+000  1.338476411733E-002
   3.450000000000E+001  1.872377479936E-002  0.000000000000E+000  1.872377479936E-002
   3.500000000000E+001  2.477447420716E-002  0.000000000000E+000  2.477447420716E-002
   3.550000000000E+001  3.072110654052E-002  0.000000000000E+000  3.072110654052E-002
   3.600000000000E+001  3.566977979481E-002  0.000000000000E+000  3.566977979481E-002
   3.650000000000E+001  3.896458722172E-002  0.000000000000E+000  3.896458722172E-002
   3.700000000000E+001  4.035244022929E-002  0.000000000000E+000  4.035244022929E-002
   3.750000000000E+001  3.995450117308E-002  0.000000000000E+000  3.995450117308E-002
   3.800000000000E+001  3.812838623966E-002  0.000000000000E+000  3.812838623966E-002
   3.850000000000E+001  3.531316530728E-002  0.000000000000E+000  3.531316530728E-002
   3.900000000000E+001  3.192144169767E-002  0.000000000000E+000  3.192144169767E-002
   3.950000000000E+001  2.828640799056E-002  0.000000000000E+000  2.828640799056E-002
   4.000000000000E+001  2.464758636043E-002  0.000000000000E+000  2.464758636043E-002
   4.050000000000E+001  2.115656500664E-002  0.000000000000E+000  2.115656500664E-002
   4.100000000000E+001  1.789366474557E-002  0.000000000000E+000  1.789366474557E-002
   4.150000000000E+001  1.488783363156E-002  0.000000000000E+000  1.488783363156E-002
   4.200000000000E+001  1.214061393920E-002  0.000000000000E+000  1.214061393920E-002
   4.250000000000E+001  9.644833028156E-003  0.000000000000E+000  9.644833028156E-003
   4.300000000000E+001  7.400487317090E-003  0.000000000000E+000  7.400487317090E-003
   4.350000000000E+001  5.423240078302E-003  0.000000000000E+000  5.423240078302E-003
   4.400000000000E+001  3.744459342555E-003  0.000000000000E+000  3.744459342555E-003
   4.450000000000E+001  2.400842590113E-003  0.000000000000E+000  2.400842590113E-003
   4.500000000000E+001  1.415575112774E-003  0.000000000000E+000  1.415575112774E-003
   4.550000000000E+001  7.752793579975E-004  0.000000000000E+000  7.752793579975E-004
   4.600000000000E+001  4.160978369811E-004  0.000000000000E+000  4.160978369811E-004
   4.650000000000E+001  2.360114446353E-004  0.000000000000E+000  2.360114446353E-004
   4.700000000000E+001  1.339582374136E-004  0.000000000000E+000  1.339582374136E-004
   4.750000000000E+001  6.723869179278E-005  0.000000000000E+000  6.723869179278E-005
   4.800000000000E+001  5.663090302316E-005  0.000000000000E+000  5.663090302316E-005
   4.850000000000E+001  0.000000000000E+000  0.000000000000E+000  1.106610991409E-004
   4.900000000000E+001  0.000000000000E+000  0.000000000000E+000  2.468789659991E-004
   4.950000000000E+001  0.000000000000E+000  0.000000000000E+000  4.469538339219E-004
   5.000000000000E+001  0.000000000000E+000  0.000000000000E+000  6.683683490559E-004
   5.050000000000E+001  0.000000000000E+000  0.000000000000E+000  8.643996789849E-004
   5.100000000000E+001  0.000000000000E+000  0.000000000000E+000  1.012660687459E-003
   5.150000000000E+001  0.000000000000E+000  0.000000000000E+000  1.124204554608E-003
   5.200000000000E+001  0.000000000000E+000  0.000000000000E+000  1.230750733791E-003
   5.250000000000E+001  0.000000000000E+000  0.000000000000E+000  1.367812638761E-003
   5.300000000000E+001  1.566594705473E-003  0.000000000000E+000  1.566594705473E-003
   5.350000000000E+001  1.684507977155E-003  0.000000000000E+000  1.684507977155E-003
   5.400000000000E+001  1.789934542776E-003  0.000000000000E+000  1.789934542776E-003
   5.450000000000E+001  1.878309721760E-003  0.000000000000E+000  1.878309721760E-003
   5.500000000000E+001  1.940825915586E-003  0.000000000000E+000  1.940825915586E-003
   5.550000000000E+001  1.964680976970E-003  0.000000000000E+000  1.964680976970E-003
   5.600000000000E+001  1.935360106802E-003  0.000000000000E+000  1.935360106802E-003
   5.650000000000E+001  1.840739128002E-003  0.000000000000E+000  1.840739128002E-003
   5.700000000000E+001  1.676634945392E-003  0.000000000000E+000  1.676634945392E-003
   5.750000000000E+001  1.451952937013E-003  0.000000000000E+000  1.451952937013E-003
   5.800000000000E+001  1.190361762651E-003  0.000000000000E+000  1.190361762651E-003
   5.850000000000E+001  9.251989939144E-004  0.000000000000E+000  9.251989939144E-004
   5.900000000000E+001  6.882310908595E-004  0.000000000000E+000  6.882310908595E-004
   5.950000000000E+001  4.997580331035E-004  0.000000000000E+000  4.997580331035E-004
   6.000000000000E+001  3.663923405793E-004  0.000000000000E+000  3.663923405793E-004
   6.050000000000E+001  2.850850581040E-004  0.000000000000E+000  2.850850581040E-004
   6.100000000000E+001  2.472463886430E-004  0.000000000000E+000  2.472463886430E-004
   6.150000000000E+001  0.000000000000E+000  0.000000000000E+000  2.397137665303E-004
   6.200000000000E+001  0.000000000000E+000  0.000000000000E+000  2.561006217852E-004
   6.250000000000E+001  0.000000000000E+000  0.000000000000E+000  2.949383843612E-004
   6.300000000000E+001  0.000000000000E+000  0.000000000000E+000  3.624660744776E-004
   6.350000000000E+001  0.000000000000E+000  0.000000000000E+000  4.747281243679E-004
   6.400000000000E+001  6.511812185592E-004  0.000000000000E+000  6.511812185592E-004
   6.450000000000E+001  8.312874551442E-004  0.000000000000E+000  8.312874551442E-004
   6.500000000000E+001  1.035709750841E-003  0.000000000000E+000  1.035709750841E-003
   6.550000000000E+001  1.264265036620E-003  0.000000000000E+000  1.264265036620E-003
   6.600000000000E+001  1.517563302337E-003  0.000000000000E+000  1.517563302337E-003
   6.650000000000E+001  1.796490442330E-003  0.000000000000E+000  1.796490442330E-003
   6.700000000000E+001  0.000000000000E+000  0.000000000000E+000  2.100913332324E-003
   6.750000000000E+001  0.000000000000E+000  0.000000000000E+000  2.558199421149E-003
   6.800000000000E+001  0.000000000000E+000  0.000000000000E+000  3.209045067948E-003
   6.850000000000E+001  0.000000000000E+000  0.000000000000E+000  4.091201314955E-003
   6.900000000000E+001  0.000000000000E+000  0.000000000000E+000  5.201564022571E-003
   6.950000000000E+001  0.000000000000E+000  0.000000000000E+000  6.462910132629E-003
   7.000000000000E+001  0.000000000000E+000  0.000000000000E+000  7.731202199887E-003
   7.050000000000E+001  0.000000000000E+000  0.000000000000E+000  8.849806645898E-003
   7.100000000000E+001  0.000000000000E+000  0.000000000000E+000  9.708643264700E-003
   7.150000000000E+001  0.000000000000E+000  0.000000000000E+000  1.027400763331E-002
   7.200000000000E+001  0.000000000000E+000  0.000000000000E+000  1.058536019576E-002
   7.250000000000E+001  0.000000000000E+000  0.000000000000E+000  1.073003033666E-002
   7.300000000000E+001  0.000000000000E+000  0.000000000000E+000  1.081227201526E-002
   7.350000000000E+001  0.000000000000E+000  0.000000000000E+000  1.092958022044E-002
   7.400000000000E+001  0.000000000000E+000  0.000000000000E+000  1.115857324886E-002
   7.450000000000E+001  0.000000000000E+000  0.000000000000E+000  1.154616056415E-002
   7.500000000000E+001  0.000000000000E+000  0.000000000000E+000  1.210160899001E-002
   7.550000000000E+001  0.000000000000E+000  0.000000000000E+000  1.278958169588E-002
   7.600000000000E+001  0.000000000000E+000  0.000000000000E+000  1.353112709848E-002
   7.650000000000E+001  0.000000000000E+000  0.000000000000E+000  1.421771954859E-002
   7.700000000000E+001  0.000000000000E+000  0.000000000000E+000  1.473528115898E-002
   7.750000000000E+001  0.000000000000E+000  0.000000000000E+000  1.498329053674E-002
   7.800000000000E+001  0.000000000000E+000  0.000000000000E+000  1.488163561159E-002
   7.850000000000E+001  0.000000000000E+000  0.000000000000E+000  1.437810749525E-002
   7.900000000000E+001  0.000000000000E+000  0.000000000000E+000  1.346829080367E-002
   7.950000000000E+001  0.000000000000E+000  0.000000000000E+000  1.221518789871E-002
   8.000000000000E+001  0.000000000000E+000  0.000000000000E+000  1.074981974809E-002
   8.050000000000E+001  0.000000000000E+000  0.000000000000E+000  9.243736229957E-003
   8.100000000000E+001  0.000000000000E+000  0.000000000000E+000  7.859719591954E-003
   8.150000000000E+001  0.000000000000E+000  0.000000000000E+000  6.702737465992E-003
   8.200000000000E+001  0.000000000000E+000  0.000000000000E+000  5.801959500799E-003
   8.250000000000E+001  0.000000000000E+000  0.000000000000E+000  5.131014738555E-003
   8.300000000000E+001  0.000000000000E+000  0.000000000000E+000  4.641959381942E-003
   8.350000000000E+001  0.000000000000E+000  0.000000000000E+000  4.288451749310E-003
   8.400000000000E+001  0.000000000000E+000  0.000000000000E+000  4.035671109383E-003
   8.450000000000E+001  0.000000000000E+000  0.000000000000E+000  3.862085825810E-003
   8.500000000000E+001  0.000000000000E+000  0.000000000000E+000  3.757523426893E-003
   8.550000000000E+001  0.000000000000E+000  0.000000000000E+000  3.720302474333E-003
   8.600000000000E+001  0.000000000000E+000  0.000000000000E+000  3.754639535084E-003
   8.650000000000E+001  0.000000000000E+000  0.000000000000E+000  3.869111532398E-003
   8.700000000000E+001  0.000000000000E+000  0.000000000000E+000  4.075991917346E-003
   8.750000000000E+001  0.000000000000E+000  0.000000000000E+000  4.391763430710E-003
   8.800000000000E+001  0.000000000000E+000  0.000000000000E+000  4.837850202702E-003
   8.850000000000E+001  0.000000000000E+000  0.000000000000E+000  5.441163932704E-003
   8.900000000000E+001  0.000000000000E+000  0.000000000000E+000  6.233070625427E-003
   8.950000000000E+001  0.000000000000E+000  0.000000000000E+000  7.244609727302E-003
   9.000000000000E+001  0.000000000000E+000  0.000000000000E+000  8.495094075066E-003
   9.050000000000E+001  0.000000000000E+000  0.000000000000E+000  9.972141977831E-003
   9.100000000000E+001  0.000000000000E+000  0.000000000000E+000  1.160643151783E-002
   9.150000000000E+001  0.000000000000E+000  0.000000000000E+000  1.325506303696E-002
   9.200000000000E+001  0.000000000000E+000  0.000000000000E+000  1.471487728353E-002
   9.250000000000E+001  0.000000000000E+000  0.000000000000E+000  1.577618048547E-002
   9.300000000000E+001  0.000000000000E+000  0.000000000000E+000  1.629011816366E-002
   9.350000000000E+001  0.000000000000E+000  0.000000000000E+000  1.620695196780E-002
   9.400000000000E+001  0.000000000000E+000  0.000000000000E+000  1.557587034165E-002
   9.450000000000E+001  0.000000000000E+000  0.000000000000E+000  1.452295147483E-002
   9.500000000000E+001  0.000000000000E+000  0.000000000000E+000  1.321635287780E-002
   9.550000000000E+001  0.000000000000E+000  0.000000000000E+000  1.182560898464E-002
   9.600000000000E+001  0.000000000000E+000  0.000000000000E+000  1.048842680034E-002
   9.650000000000E+001  0.000000000000E+000  0.000000000000E+000  9.294131389958E-003
   9.700000000000E+001  0.000000000000E+000  0.000000000000E+000  8.283628804544E-003
   9.750000000000E+001  0.000000000000E+000  0.000000000000E+000  7.459262558832E-003
   9.800000000000E+001  0.000000000000E+000  0.000000000000E+000  6.797394983750E-003
   9.850000000000E+001  0.000000000000E+000  0.000000000000E+000  6.259260740829E-003
   9.900000000000E+001  0.000000000000E+000  0.000000000000E+000  5.799024150416E-003
   9.950000000000E+001  0.000000000000E+000  0.000000000000E+000  5.370614639987E-003
   1.000000000000E+002  0.000000000000E+000  0.000000000000E+000  4.935374627753E-003
