           6
  t=         0.00000    2    2
C       3.419682856      0.769170618     -9.243868292
C       4.699057983      0.792882704     -8.882844331
H       2.842111564     -0.065070816     -9.636300248
H       2.593850091      1.628255693     -9.330573089
H       5.240386394     -0.174605709     -8.987240178
H       5.288495371      1.760850224     -8.774942436
           6
  t=         0.50000    2    2
C       3.423515254      0.768160522     -9.243414649
C       4.698866433      0.792024230     -8.881562634
H       2.828636705     -0.063235374     -9.639889368
H       2.585598536      1.641544638     -9.332676963
H       5.237368471     -0.184217726     -8.993997252
H       5.269888193      1.777587120     -8.783155012
           6
  t=         1.00000    2    2
C       3.425730044      0.767561023     -9.243311026
C       4.699644199      0.791219175     -8.880043094
H       2.818464640     -0.060664435     -9.648571118
H       2.582370363      1.649703222     -9.328795727
H       5.233744134     -0.190991220     -8.995300904
H       5.251280332      1.790355398     -8.796377815
           6
  t=         1.50000    2    2
C       3.426334810      0.767351326     -9.243554726
C       4.701319471      0.790467328     -8.878313709
H       2.811821874     -0.056900485     -9.662173484
H       2.584209532      1.652444961     -9.318927352
H       5.229618586     -0.194659261     -8.991114482
H       5.233060898      1.798967214     -8.814520301
           6
  t=         2.00000    2    2
C       3.425375505      0.767503796     -9.244127913
C       4.703786926      0.789767526     -8.876413828
H       2.808860092     -0.051614812     -9.680441176
H       2.591014135      1.649700801     -9.303217816
H       5.225204750     -0.195124449     -8.981520441
H       5.215674057      1.803408397     -8.837353145
           6
  t=         2.50000    2    2
C       3.422931805      0.767986919     -9.244997185
C       4.706913593      0.789118403     -8.874392717
H       2.809661753     -0.044610080     -9.703092104
H       2.602539240      1.641600622     -9.281920916
H       5.220817496     -0.192466897     -8.966677250
H       5.199602002      1.803823345     -8.864557304
           6
  t=         3.00000    2    2
C       3.419123485      0.768762398     -9.246113121
C       4.710539732      0.788520537     -8.872307523
H       2.814228307     -0.035800720     -9.729859688
H       2.618343503      1.628492749     -9.255367441
H       5.216868493     -0.186961844     -8.946790598
H       5.185348818      1.800502516     -8.895770895
           6
  t=         3.50000    2    2
C       3.414119290      0.769777380     -9.247413435
C       4.714480652      0.787978326     -8.870219795
H       2.822468813     -0.025180650     -9.760506438
H       2.637703239      1.611000864     -9.223934072
H       5.213853613     -0.179085785     -8.922095365
H       5.173423115      1.793869600     -8.930628605
           6
  t=         4.00000    2    2
C       3.408143959      0.770953778     -9.248829433
C       4.718531794      0.787501163     -8.868192029
H       2.834198263     -0.012778978     -9.794813733
H       2.659521256      1.590099969     -9.188004194
H       5.212327388     -0.169496333     -8.892843042
H       5.164312289      1.784454210     -8.968787964
           6
  t=         4.50000    2    2
C       3.401479340      0.772178177     -9.250296363
C       4.722478819      0.787103337     -8.866284198
H       2.849146072      0.001386145     -9.832554855
H       2.682258087      1.567180427     -9.147906668
H       5.212860484     -0.158972753     -8.859287594
H       5.158451911      1.772843710     -9.009949810
           6
  t=         5.00000    2    2
C       3.394457115      0.773298432     -9.251766025
C       4.726110808      0.786802353     -8.864551483
H       2.866970481      0.017353711     -9.873458776
H       2.703946071      1.544031974     -9.103835888
H       5.215977025     -0.148312212     -8.821673837
H       5.156189379      1.759609662     -9.053862797
           6
  t=         5.50000    2    2
C       3.387437069      0.774136002     -9.253218326
C       4.729235802      0.786615196     -8.863042811
H       2.887273735      0.035251685     -9.917167344
H       2.722366210      1.522658956     -9.055786750
H       5.222076045     -0.138186865     -8.780238094
H       5.157744107      1.745215522     -9.100310562
           6
  t=         6.00000    2    2
C       3.380767883      0.774520234     -9.254664375
C       4.731696624      0.786553131     -8.861799489
H       2.909613540      0.055307670     -9.963200104
H       2.735436711      1.504858061     -9.003577694
H       5.231346570     -0.128989421     -8.735230811
H       5.163170970      1.729927523     -9.149080558
           6
  t=         6.50000    2    2
C       3.374737819      0.774338618     -9.256133567
C       4.733383889      0.786616686     -8.860852742
H       2.933509169      0.077830966    -10.010935079
H       2.741739640      1.491642336     -8.947044217
H       5.243698089     -0.120716530     -8.686966307
H       5.172329295      1.713753319     -9.199923144
           6
  t=         7.00000    2    2
C       3.369537001      0.773577904     -9.257646228
C       4.734243829      0.786793404     -8.860219071
H       2.958440840      0.103170568    -10.059615273
H       2.740927938      1.482801864     -8.886378432
H       5.258728405     -0.112937603     -8.635890431
H       5.184864542      1.696429320     -9.252518884
           6
  t=         7.50000    2    2
C       3.365254809      0.772328381     -9.259188477
C       4.734278723      0.787059714     -8.859893984
H       2.983844822      0.131664751    -10.108379001
H       2.733742150      1.476915793     -8.822421224
H       5.275741862     -0.104868986     -8.582640070
H       5.200204161      1.677460066     -9.306470431
           6
  t=         8.00000    2    2
C       3.361913610      0.770749382     -9.260707837
C       4.733541021      0.787386188     -8.859844502
H       3.009102120      0.163594128    -10.156309445
H       2.721620910      1.471826334     -8.756693827
H       5.293811840     -0.095526919     -8.528073867
H       5.217564334      1.656192205     -9.361332255
           6
  t=         8.50000    2    2
C       3.359517681      0.769022272     -9.262130503
C       4.732122135      0.787743710     -8.860003776
H       3.033522754      0.199141385    -10.202486506
H       2.706163705      1.465257331     -8.691162111
H       5.311866964     -0.083905964     -8.473266153
H       5.235967566      1.631900960     -9.416658976
           6
  t=         9.00000    2    2
C       3.358089219      0.767315996     -9.263382927
C       4.730133484      0.788106750     -8.860282148
H       3.056354950      0.238307619    -10.245985880
H       2.688751479      1.455311229     -8.627938611
H       5.328800105     -0.069147610     -8.419474990
H       5.254300867      1.603916683     -9.471947585
           6
  t=         9.50000    2    2
C       3.357658272      0.765764896     -9.264401393
C       4.727678575      0.788451806     -8.860616143
H       3.076896125      0.280683730    -10.285745539
H       2.670529458      1.440879832     -8.569123821
H       5.343646247     -0.050736337     -8.368116943
H       5.271496385      1.571921383     -9.526257497
           6
  t=        10.00000    2    2
C       3.358199998      0.764453526     -9.265136894
C       4.724853577      0.788759467     -8.861005874
H       3.094682956      0.325403864    -10.320570428
H       2.652568273      1.421754956     -8.516630613
H       5.355736139     -0.028612569     -8.320590800
H       5.286766817      1.536153865     -9.578054265
           6
  t=        10.50000    2    2
C       3.359585652      0.763410850     -9.265532205
C       4.721734751      0.789020478     -8.861560029
H       3.109825021      0.371896084    -10.349530058
H       2.635912944      1.397979085     -8.471714620
H       5.364726179     -0.002800024     -8.277465307
H       5.299926040      1.496932646     -9.625831242
           6
  t=        11.00000    2    2
C       3.361639697      0.762626597     -9.265515401
C       4.718351068      0.789228081     -8.862470492
H       3.122853659      0.420008750    -10.371992553
H       2.621563691      1.369612287     -8.435027888
H       5.370531510      0.026742544     -8.238522306
H       5.311272542      1.454510801     -9.668358079
           6
  t=        11.50000    2    2
C       3.364230905      0.762088231     -9.265047096
C       4.714747602      0.789377633     -8.863848564
H       3.134052957      0.469405221    -10.387515873
H       2.610202988      1.336976142     -8.407047122
H       5.373094101      0.059810407     -8.203746037
H       5.320923567      1.409312674     -9.704759615
           6
  t=        12.00000    2    2
C       3.367257784      0.761785472     -9.264114624
C       4.710993725      0.789468011     -8.865732826
H       3.143489028      0.519562923    -10.395879096
H       2.602227382      1.300590041     -8.388098186
H       5.372370425      0.095975671     -8.173283568
H       5.328842437      1.361905120     -9.734475243
           6
  t=        12.50000    2    2
C       3.370625823      0.761706963     -9.262718406
C       4.707172745      0.789500979     -8.868123616
H       3.151133326      0.569859691    -10.397101003
H       2.597846114      1.261099474     -8.378329961
H       5.368371371      0.134658541     -8.147272192
H       5.334970987      1.312958825     -9.757190981
           6
  t=        13.00000    2    2
C       3.374237519      0.761838361     -9.260865296
C       4.703376280      0.789480627     -8.870998791
H       3.156916004      0.619620009    -10.391454820
H       2.597129417      1.219242098     -8.377701529
H       5.361182287      0.175166898     -8.125758623
H       5.339293529      1.263225835     -9.772809862
           6
  t=        13.50000    2    2
C       3.377990059      0.762160885     -9.258566173
C       4.699700388      0.789413040     -8.874320306
H       3.160746656      0.668144099    -10.379488281
H       2.600017414      1.175833724     -8.385958583
H       5.350975611      0.216719730     -8.108657592
H       5.341868356      1.213522321     -9.781447180
           6
  t=        14.00000    2    2
C       3.381777468      0.762649348     -9.255836617
C       4.696242156      0.789305845     -8.878037324
H       3.162522705      0.714735839    -10.362041653
H       2.606295203      1.131765521     -8.402588311
H       5.338018240      0.258466699     -8.095724391
H       5.342851866      1.164712646     -9.783439992
           6
  t=        14.50000    2    2
C       3.385497165      0.763269741     -9.252700611
C       4.693095440      0.789167595     -8.882088434
H       3.162135337      0.758733308    -10.340259160
H       2.615531372      1.088007366     -8.426744600
H       5.322675205      0.299509511     -8.086532346
H       5.342523138      1.117690244     -9.779362505
           6
  t=        15.00000    2    2
C       3.389060857      0.763976805     -9.249198000
C       4.690345860      0.789007046     -8.886403760
H       3.159475366      0.799543246    -10.315575688
H       2.626977694      1.045607784     -8.457146988
H       5.305407057      0.338927626     -8.080457074
H       5.341310876      1.073355029     -9.770042245
           6
  t=        15.50000    2    2
C       3.392408348      0.764712883     -9.245395677
C       4.688066272      0.788832474     -8.890907265
H       3.154444932      0.836673930    -10.289663259
H       2.639436111      1.005680723     -8.491969781
H       5.286756891      0.375810394     -8.076673207
H       5.339817153      1.032583406     -9.756567153
           6
  t=        16.00000    2    2
C       3.395521791      0.765409993     -9.241400137
C       4.686313466      0.788651107     -8.895518985
H       3.146975526      0.869759096    -10.264324746
H       2.651131150      0.969362413     -8.528768815
H       5.267320226      0.409296845     -8.074174757
H       5.338826736      0.996189760     -9.740268569
           6
  t=        16.50000    2    2
C       3.398431995      0.765997190     -9.237365056
C       4.685128319      0.788468861     -8.900156617
H       3.137054815      0.898563163    -10.241328224
H       2.659680361      0.937721451     -8.564538086
H       5.247695667      0.438621920     -8.071831878
H       5.339282278      0.964880415     -9.722664479
           6
  t=        17.00000    2    2
C       3.401204125      0.766413515     -9.233482139
C       4.684540416      0.788290101     -8.904736221
H       3.124759211      0.922962809    -10.222202993
H       2.662315436      0.911623005     -8.596019811
H       5.228420323      0.463164507     -8.068493429
H       5.342210366      0.939208503     -9.705351355
           6
  t=        17.50000    2    2
C       3.403893098      0.766623232     -9.229946376
C       4.684576252      0.788116955     -8.909173214
H       3.110282836      0.942904528    -10.208048352
H       2.656479445      0.891589059     -8.620319760
H       5.209904750      0.482485921     -8.063132649
H       5.348593887      0.919544400     -9.689836284
           6
  t=        18.00000    2    2
C       3.406478939      0.766625644     -9.226904064
C       4.685266901      0.787948799     -8.913386114
H       3.093948611      0.958343627    -10.199406913
H       2.640702253      0.877734625     -8.635655223
H       5.192388682      0.496340943     -8.055009598
H       5.359208192      0.906078706     -9.677327577
           6
  t=        18.50000    2    2
C       3.408821805      0.766452510     -9.224414492
C       4.686651151      0.787782467     -8.917303741
H       3.076190860      0.969178203    -10.196244805
H       2.615283061      0.869850811     -8.641811635
H       5.175934349      0.504646258     -8.043808594
H       5.374460768      0.898865123     -9.668530909
           6
  t=        19.00000    2    2
C       3.410679557      0.766154623     -9.222452048
C       4.688769733      0.787613424     -8.920874147
H       3.057507654      0.975198346    -10.198035001
H       2.582267486      0.867600292     -8.639989647
H       5.160460714      0.507416591     -8.029704657
H       5.394287091      0.897885345     -9.663521160
           6
  t=        19.50000    2    2
C       3.411782286      0.765786257     -9.220941040
C       4.691651924      0.787437306     -8.924071326
H       3.038400329      0.976087607    -10.203900587
H       2.544728429      0.870693447     -8.632192697
H       5.145803939      0.504713549     -8.013333546
H       5.418141928      0.903089572     -9.661746937
           6
  t=        20.00000    2    2
C       3.411913126      0.765396261     -9.219794452
C       4.695301607      0.787249932     -8.926897183
H       3.019328643      0.971489547    -10.212758509
H       2.505867834      0.878939361     -8.620579994
H       5.131777744      0.496648933     -7.995675465
H       5.445085776      0.914381498     -9.662165280
           6
  t=        20.50000    2    2
C       3.410946950      0.765026554     -9.218939532
C       4.699694389      0.787044707     -8.929376846
H       3.000712474      0.961115401    -10.223428842
H       2.468410993      0.892180738     -8.607052439
H       5.118208973      0.483446522     -7.977897745
H       5.473926987      0.931562817     -9.663454946
           6
  t=        21.00000    2    2
C       3.408847349      0.764714487     -9.218327521
C       4.704781885      0.786808802     -8.931549275
H       2.982958388      0.944813274    -10.234722887
H       2.434385254      0.910219592     -8.593086218
H       5.104955665      0.465487470     -7.961212215
H       5.503383180      0.954310278     -9.664233267
           6
  t=        21.50000    2    2
C       3.405649720      0.764495634     -9.217930007
C       4.710491271      0.786521130     -8.933458284
H       2.966467389      0.922576574    -10.245524158
H       2.405152303      0.932788824     -8.579735829
H       5.091925256      0.443299734     -7.946774664
H       5.532229918      0.982197101     -9.663223067
           6
  t=        22.00000    2    2
C       3.401444148      0.764404415     -9.217728281
C       4.716722418      0.786154579     -8.935146779
H       2.951610284      0.894539790    -10.254854458
H       2.381555867      0.959542262     -8.567731190
H       5.079088871      0.417522938     -7.935619087
H       5.559401097      1.014708357     -9.659350535
           6
  t=        22.50000    2    2
C       3.396358117      0.764473868     -9.217703062
C       4.723349803      0.785680650     -8.936653785
H       2.938691282      0.860966045    -10.261910259
H       2.364105135      0.990052320     -8.557602255
H       5.066483458      0.388861327     -7.928619655
H       5.584023030      1.051250205     -9.651779961
           6
  t=        23.00000    2    2
C       3.390540484      0.764734431     -9.217828561
C       4.730230009      0.785075006     -8.938013788
H       2.927923451      0.822228497    -10.266072044
H       2.353129552      1.023813896     -8.549779574
H       5.054199955      0.358039798     -7.926468751
H       5.605397502      1.091157043     -9.639904395
           6
  t=        23.50000    2    2
C       3.384149563      0.765213779     -9.218070368
C       4.737210360      0.784320676     -8.939257389
H       2.919414980      0.778781344    -10.266905853
H       2.348866671      1.060258151     -8.544648390
H       5.042373422      0.325759932     -7.929660527
H       5.622976582      1.133714505     -9.623323741
           6
  t=        24.00000    2    2
C       3.377347122      0.765937499     -9.218386136
C       4.744135258      0.783409539     -8.940412882
H       2.913166788      0.731130347    -10.264154806
H       2.351491426      1.098765323     -8.542565179
H       5.031172705      0.292667530     -7.938480417
H       5.636342092      1.178182798     -9.601820304
           6
  t=        24.50000    2    2
C       3.370296059      0.766930004     -9.218727938
C       4.750850476      0.782342881     -8.941507871
H       2.909077141      0.679807445    -10.257725933
H       2.361106260      1.138676460     -8.543849954
H       5.020792773      0.259328952     -7.952998138
H       5.645195116      1.223816587     -9.575339306
           6
  t=        25.00000    2    2
C       3.363160239      0.768214908     -9.219045824
C       4.757206269      0.781131567     -8.942570666
H       2.906951710      0.625351768    -10.247669376
H       2.377709481      1.179307186     -8.548765343
H       5.011446233      0.226212137     -7.973065981
H       5.649350947      1.269882653     -9.543973355
           6
  t=        25.50000    2    2
C       3.356105352      0.769814572     -9.219292613
C       4.763059990      0.779796016     -8.943631230
H       2.906518069      0.568295524    -10.234147744
H       2.401151819      1.219967725     -8.557487802
H       5.003353840      0.193669436     -7.998323051
H       5.648736142      1.315676825     -9.507949280
           6
  t=        26.00000    2    2
C       3.349300333      0.771748324     -9.219430076
C       4.768278898      0.778365804     -8.944721834
H       2.907444910      0.509156114    -10.217392610
H       2.431084314      1.259993524     -8.570072825
H       4.996732339      0.161923367     -8.028206321
H       5.643383299      1.360541465     -9.467613978
           6
  t=        26.50000    2    2
C       3.342920168      0.774029494     -9.219436115
C       4.772743645      0.776878342     -8.945877734
H       2.909359248      0.448432842    -10.197648909
H       2.466897830      1.298789787     -8.586415305
H       4.991775158      0.131054877     -8.061971530
H       5.633418607      1.403886938     -9.423415230
           6
  t=        27.00000    2    2
C       3.337150543      0.776662131     -9.219312118
C       4.776355643      0.775375407     -8.947138237
H       2.911850159      0.386605132    -10.175111645
H       2.507649126      1.335889784     -8.606209719
H       4.988613812      0.100998688     -8.098728196
H       5.619027665      1.445220185     -9.375869478
           6
  t=        27.50000    2    2
C       3.332198979      0.779640786     -9.219088568
C       4.779051657      0.773895778     -8.948551199
H       2.914430497      0.324109019    -10.149852406
H       2.551961268      1.371022321     -8.628920255
H       4.987232952      0.071545296     -8.137488469
H       5.600371933      1.484189048     -9.325496043
           6
  t=        28.00000    2    2
C       3.328312725      0.782951524     -9.218825084
C       4.780822678      0.772463603     -8.950184483
H       2.916456525      0.261324819    -10.121751532
H       2.597922702      1.404159626     -8.653775510
H       4.987336127      0.042380523     -8.177204092
H       5.577466449      1.520633503     -9.272716305
           6
  t=        28.50000    2    2
C       3.325732948      0.786519284     -9.218607930
C       4.781661626      0.771097999     -8.952108573
H       2.917415881      0.199064437    -10.090717343
H       2.643404908      1.435421491     -8.679659166
H       4.988561658      0.013404661     -8.216648106
H       5.550526539      1.554387703     -9.218098878
           6
  t=        29.00000    2    2
C       3.324578830      0.790159094     -9.218544894
C       4.781509885      0.769834902     -8.954341602
H       2.917364023      0.138711396    -10.056861171
H       2.686674576      1.465292148     -8.705220792
H       4.990986163     -0.015244421     -8.254671200
H       5.520432294      1.585220573     -9.162532846
           6
  t=        29.50000    2    2
C       3.324873074      0.793638711     -9.218745282
C       4.780279915      0.768712746     -8.956845322
H       2.916673995      0.081472425    -10.020136842
H       2.726482691      1.494922264     -8.729398829
H       4.995107728     -0.043621111     -8.290820111
H       5.488333592      1.613136758     -9.106733132
           6
  t=        30.00000    2    2
C       3.326611058      0.796747421     -9.219304806
C       4.777923806      0.767744861     -8.959564307
H       2.915654926      0.028416219     -9.980489433
H       2.761806669      1.525444640     -8.751332796
H       5.001287700     -0.071645743     -8.324944986
H       5.455208054      1.638205302     -9.051285303
           6
  t=        30.50000    2    2
C       3.329748621      0.799324185     -9.220284999
C       4.774456403      0.766919337     -8.962444276
H       2.914496841     -0.019483849     -9.937968046
H       2.791978167      1.557566851     -8.770448889
H       5.009620323     -0.098985156     -8.357003310
H       5.421788794      1.660471374     -8.996670229
           6
  t=        31.00000    2    2
C       3.334182766      0.801274496     -9.221702961
C       4.769947180      0.766210300     -8.965432982
H       2.913316462     -0.061384088     -9.892746870
H       2.816846719      1.591363353     -8.786569646
H       5.020008070     -0.125103704     -8.387029980
H       5.388606245      1.679914553     -8.943274780
           6
  t=        31.50000    2    2
C       3.339751444      0.802576631     -9.223534823
C       4.764511863      0.765588441     -8.968480256
H       2.912181533     -0.096607251     -9.845120648
H       2.836762165      1.626217338     -8.799889808
H       5.032218980     -0.149346935     -8.415097242
H       5.356026342      1.696427552     -8.891418792
           6
  t=        32.00000    2    2
C       3.346247424      0.803272074     -9.225728881
C       4.758304319      0.765028913     -8.971538571
H       2.911118375     -0.124668946     -9.795489745
H       2.852418271      1.660951742     -8.810842417
H       5.045926605     -0.171033437     -8.441269356
H       5.324290844      1.709823553     -8.841386112
           6
  t=        32.50000    2    2
C       3.353436403      0.803445286     -9.228221658
C       4.751509070      0.764515700     -8.974562709
H       2.910108302     -0.145296853     -9.744341839
H       2.864655909      1.694085017     -8.819935514
H       5.060740751     -0.189535768     -8.465572202
H       5.293560489      1.719869375     -8.793449360
           6
  t=        33.00000    2    2
C       3.361073769      0.803202458     -9.230950769
C       4.744333264      0.764042963     -8.977509260
H       2.909076781     -0.158449838     -9.692235507
H       2.874300664      1.724098927     -8.827619684
H       5.076233116     -0.204339381     -8.487979935
H       5.263958600      1.726332693     -8.747884901
           6
  t=        33.50000    2    2
C       3.368916155      0.802656101     -9.233862754
C       4.736999784      0.763614033     -8.980335605
H       2.907875835     -0.164340029     -9.639786257
H       2.882067261      1.749640185     -8.834215740
H       5.091958625     -0.215075425     -8.508417742
H       5.235607414      1.729030760     -8.704975224
           6
  t=        34.00000    2    2
C       3.376728541      0.801917338     -9.236916338
C       4.729741037      0.763239302     -8.982998896
H       2.906263871     -0.163457850     -9.587652046
H       2.888525492      1.769632732     -8.839894539
H       5.107472150     -0.221531542     -8.526776785
H       5.208654967      1.727870860     -8.665001988
           6
  t=        34.50000    2    2
C       3.384288184      0.801093507     -9.240082938
C       4.722793703      0.762933971     -8.985455702
H       2.903886165     -0.156594393     -9.536516486
H       2.894105921      1.783321717     -8.844689558
H       5.122342891     -0.223648902     -8.542930061
H       5.183290279      1.722881037     -8.628232574
           6
  t=        35.00000    2    2
C       3.391386910      0.800288613     -9.243345856
C       4.716393614      0.762715743     -8.987662526
H       2.900268062     -0.144841748     -9.487057891
H       2.899128828      1.790268438     -8.848529746
H       5.136162461     -0.221513675     -8.556752949
H       5.159746783      1.714229105     -8.594901062
           6
  t=        35.50000    2    2
C       3.397831892      0.799602874     -9.246699891
C       4.710771183      0.762602800     -8.989577365
H       2.894824631     -0.129558661     -9.439909660
H       2.903837185      1.790325531     -8.851274666
H       5.148553466     -0.215349741     -8.568136195
H       5.138296294      1.702235280     -8.565185787
           6
  t=        36.00000    2    2
C       3.403445712      0.799128854     -9.250151558
C       4.706145873      0.762611555     -8.991162378
H       2.886901999     -0.112280625     -9.395607838
H       2.908424309      1.783606982     -8.852747693
H       5.159178034     -0.205515321     -8.576997838
H       5.119236655      1.687381730     -8.539182304
           6
  t=        36.50000    2    2
C       3.408066108      0.798942357     -9.253720087
C       4.702718950      0.762754247     -8.992386828
H       2.875857375     -0.094569760     -9.354539473
H       2.913046785      1.770470591     -8.852757688
H       5.167750881     -0.192501724     -8.583292763
H       5.102874903      1.670315761     -8.516876825
           6
  t=        37.00000    2    2
C       3.411546263      0.799088450     -9.257437830
C       4.700664018      0.763036769     -8.993230015
H       2.861174672     -0.077821132     -9.316910447
H       2.917817688      1.751521835     -8.851107109
H       5.174058682     -0.176934297     -8.587018626
H       5.089508446      1.651845536     -8.498124607
           6
  t=        37.50000    2    2
C       3.413756723      0.799566381     -9.261349023
C       4.700115734      0.763457487     -8.993684118
H       2.842592577     -0.063073987     -9.282747338
H       2.922781957      1.727637874     -8.847583559
H       5.177988706     -0.159575920     -8.588217691
H       5.079404444      1.632924434     -8.482635606
           6
  t=        38.00000    2    2
C       3.414593146      0.800317868     -9.265505676
C       4.701156135      0.764009005     -8.993757284
H       2.820201137     -0.050887033     -9.251947710
H       2.927877068      1.699999049     -8.841931243
H       5.179555368     -0.141328492     -8.586959316
H       5.072786514      1.614614747     -8.469982434
           6
  t=        38.50000    2    2
C       3.413989285      0.801223637     -9.269962571
C       4.703801878      0.764684319     -8.993476237
H       2.794459470     -0.041324491     -9.224362314
H       2.932901906      1.670095778     -8.833797756
H       5.178912295     -0.123226538     -8.583303211
H       5.069833515      1.598028364     -8.459636571
           6
  t=        39.00000    2    2
C       3.411932096      0.802110479     -9.274772934
C       4.707996092      0.765486870     -8.992886823
H       2.766122059     -0.034044970     -9.199888632
H       2.937514818      1.639673324     -8.822665317
H       5.176332270     -0.106409702     -8.577242646
H       5.070692269      1.584239668     -8.451045391
           6
  t=        39.50000    2    2
C       3.408469668      0.802770895     -9.279985830
C       4.713611031      0.766440230     -8.992050163
H       2.736101913     -0.028450087     -9.178532396
H       2.941290510      1.610574896     -8.807809179
H       5.172151933     -0.092058662     -8.568661804
H       5.075486908      1.574177737     -8.443731758
           6
  t=        40.00000    2    2
C       3.403707652      0.802994610     -9.285642453
C       4.720461533      0.767591201     -8.991033651
H       2.705328364     -0.023834278     -9.160409810
H       2.943838891      1.584482305     -8.788348100
H       5.166692628     -0.081277216     -8.557339951
H       5.084303563      1.568505439     -8.437388525
           6
  t=        40.50000    2    2
C       3.397790608      0.802607216     -9.291768450
C       4.728328349      0.769002556     -8.989898120
H       2.674646764     -0.019500978     -9.145688764
H       2.944971352      1.562600150     -8.763424123
H       5.160185952     -0.074937277     -8.543028721
H       5.097143200      1.567522738     -8.431924404
           6
  t=        41.00000    2    2
C       3.390876005      0.801504216     -9.298362037
C       4.736984385      0.770737298     -8.988683814
H       2.644779301     -0.014834315     -9.134506123
H       2.944848076      1.545398389     -8.732472207
H       5.152721548     -0.073516506     -8.525575234
H       5.113862832      1.571115546     -8.427462515
           6
  t=        41.50000    2    2
C       3.383107715      0.799668221     -9.305383966
C       4.746219322      0.772840351     -8.987398171
H       2.616337834     -0.009339105     -9.126899419
H       2.944041040      1.532533803     -8.695466297
H       5.144236242     -0.076988453     -8.505051269
H       5.134132958      1.578777583     -8.424298364
           6
  t=        42.00000    2    2
C       3.374601145      0.797163472     -9.312756047
C       4.755854507      0.775324900     -8.986009601
H       2.589854874     -0.002663518     -9.122782497
H       2.943467401      1.522995726     -8.653018035
H       5.134547215     -0.084802199     -8.481825352
H       5.157439787      1.589694853     -8.422845078
           6
  t=        42.50000    2    2
C       3.365442027      0.794114086     -9.320372442
C       4.765746050      0.778167514     -8.984449084
H       2.565803186      0.005382839     -9.121952591
H       2.944227543      1.515398721     -8.606285538
H       5.123426917     -0.095965155     -8.456553985
H       5.183130207      1.602870987     -8.423572790
           6
  t=        43.00000    2    2
C       3.355695051      0.790678290     -9.328118634
C       4.775777983      0.781311145     -8.982618644
H       2.544595774      0.014813911     -9.124113186
H       2.947425187      1.508291917     -8.556755642
H       5.110691905     -0.109193305     -8.430102679
H       5.210481480      1.617254137     -8.426955798
           6
  t=        43.50000    2    2
C       3.345415615      0.787028165     -9.335892167
C       4.785850628      0.784673428     -8.980403120
H       2.526565343      0.025456493     -9.128892696
H       2.954037164      1.500375958     -8.505997930
H       5.096279265     -0.123080167     -8.403429312
H       5.238774221      1.631842198     -8.433429348
           6
  t=        44.00000    2    2
C       3.334659224      0.783338214     -9.343618706
C       4.795869557      0.788156033     -8.977681876
H       2.511936193      0.036944638     -9.135854728
H       2.964856124      1.490605291     -8.455469050
H       5.080289874     -0.136239918     -8.377468591
H       5.267354068      1.645753824     -8.443359988
           6
  t=        44.50000    2    2
C       3.323488454      0.779780825     -9.351260748
C       4.805737036      0.791653183     -8.974338911
H       2.500794030      0.048721019     -9.144502190
H       2.980489820      1.478197978     -8.406395410
H       5.062995034     -0.147406006     -8.353039542
H       5.295674869      1.658268611     -8.457027083
           6
  t=        45.00000    2    2
C       3.311977807      0.776525056     -9.358818579
C       4.815347261      0.795058208     -8.970271385
H       2.493059988      0.060048170     -9.154282051
H       3.001387741      1.462599325     -8.359726668
H       5.044811831     -0.155483600     -8.330784991
H       5.323321631      1.668841075     -8.474612301
           6
  t=        45.50000    2    2
C       3.300217649      0.773735291     -9.366323328
C       4.824585026      0.798268819     -8.965397870
H       2.488473754      0.070034299     -9.164598060
H       3.027870021      1.443432097     -8.316147799
H       5.026257580     -0.159574618     -8.311142945
H       5.350012971      1.677102763     -8.496187798
           6
  t=        46.00000    2    2
C       3.288316888      0.771567571     -9.373824164
C       4.833327248      0.801191561     -8.959666230
H       2.486596774      0.077681725     -9.174834487
H       3.060145726      1.420457163     -8.276127573
H       5.007893953     -0.158990118     -8.294345795
H       5.375585478      1.682856375     -8.521703487
           6
  t=        46.50000    2    2
C       3.276402147      0.770162949     -9.381373918
C       4.841446548      0.803745598     -8.953059464
H       2.486847158      0.081959983     -9.184388129
H       3.098321605      1.393554752     -8.239978941
H       4.990277110     -0.153264028     -8.280438194
H       5.399967172      1.686069078     -8.550978331
           6
  t=        47.00000    2    2
C       3.264612245      0.769638560     -9.389017781
C       4.848814146      0.805866038     -8.945597456
H       2.488580508      0.081908785     -9.192702818
H       3.142413283      1.362716721     -8.207909863
H       4.973924732     -0.142173801     -8.269300850
H       5.423149563      1.686864693     -8.583704995
           6
  t=        47.50000    2    2
C       3.253087845      0.770076967     -9.396788461
C       4.855301600      0.807507696     -8.937335000
H       2.491208118      0.076766100     -9.199302414
H       3.192364671      1.328041765     -8.180038783
H       4.959302670     -0.125768234     -8.260658897
H       5.445166118      1.685510308     -8.619474175
           6
  t=        48.00000    2    2
C       3.241959657      0.771515027     -9.404705309
C       4.860783913      0.808651288     -8.928359673
H       2.494316437      0.066116179     -9.203823068
H       3.248062324      1.289711043     -8.156379980
H       4.946813868     -0.104397601     -8.254059107
H       5.466072830      1.682381550     -8.657815501
           6
  t=        48.50000    1    1
C       3.231340176      0.773929678     -9.412765579
C       4.865165559      0.809314747     -8.918802964
H       2.497675642      0.050097480     -9.206050169
H       3.309231933      1.247868596     -8.136831376
H       4.936719457     -0.078711919     -8.248780051
H       5.485910696      1.677907000     -8.698234138
           6
  t=        49.00000    1    1
C       3.221388291      0.777305835     -9.420374723
C       4.868484019      0.809464326     -8.908761123
H       2.501411094      0.028419633     -9.208799599
H       3.373730919      1.203771843     -8.123276944
H       4.928780705     -0.049714205     -8.245043559
H       5.504597488      1.672704102     -8.741741611
           6
  t=        49.50000    1    1
C       3.212140179      0.781533742     -9.428164573
C       4.870139202      0.809237446     -8.898313386
H       2.507110300      0.001742432     -9.209460117
H       3.444646674      1.158665019     -8.113045278
H       4.924907741     -0.019829748     -8.241387981
H       5.522262591      1.666964671     -8.786615597
           6
  t=        50.00000    1    1
C       3.203632031      0.786462802     -9.436138349
C       4.870051937      0.808792701     -8.887654926
H       2.515372872     -0.028559794     -9.208099183
H       3.521791133      1.112964987     -8.105531281
H       4.925369649      0.008917574     -8.236336269
H       5.538737180      1.660826173     -8.832508562
           6
  t=        50.50000    1    1
C       3.195898251      0.791931333     -9.444269281
C       4.868141259      0.808313964     -8.876978780
H       2.526957681     -0.061058888     -9.204926989
H       3.604896721      1.067444413     -8.100255009
H       4.930571107      0.034114399     -8.228476336
H       5.553679652      1.654236932     -8.879122658
           6
  t=        51.00000    1    1
C       3.188960138      0.797770365     -9.452513574
C       4.864360360      0.807986572     -8.866456493
H       2.542548121     -0.094288761     -9.200226181
H       3.693589933      1.023056456     -8.096879337
H       4.940993202      0.053385408     -8.216646580
H       5.566602756      1.646958141     -8.926152834
           6
  t=        51.50000    1    1
C       3.182823899      0.803807419     -9.460821911
C       4.858706494      0.807955460     -8.856206806
H       2.562629475     -0.126818395     -9.194337398
H       3.787381685      0.980928404     -8.095128054
H       4.957170532      0.064881340     -8.200310743
H       5.576934486      1.638608711     -8.973244329
           6
  t=        52.00000    1    1
C       3.177482179      0.809870740     -9.469147664
C       4.851239435      0.808283994     -8.846279935
H       2.587429501     -0.157313416     -9.187648770
H       3.885503246      0.942382829     -8.094567386
H       4.979602388      0.067691389     -8.179904370
H       5.584092396      1.628733079     -9.019964481
           6
  t=        52.50000    1    1
C       3.172919106      0.815794800     -9.477448129
C       4.842119075      0.808934437     -8.836684124
H       2.616903748     -0.184584951     -9.180580644
H       3.986504116      0.908947971     -8.094202432
H       5.008594812      0.061977785     -8.156932542
H       5.587550557      1.616872128     -9.065793116
           6
  t=        53.00000    1    1
C       3.169117870      0.821426513     -9.485679216
C       4.831656351      0.809779634     -8.827469035
H       2.650756402     -0.207624534     -9.173568148
H       4.087645059      0.882326984     -8.091804855
H       5.044097464      0.048764750     -8.133716924
H       5.586892252      1.602626808     -9.110135413
           6
  t=        53.50000    1    1
C       3.166068899      0.826631532     -9.493789166
C       4.820342491      0.810638455     -8.818844871
H       2.688482816     -0.225631654     -9.167039716
H       4.184457282      0.864282362     -8.083024577
H       5.085617444      0.029536698     -8.112924361
H       5.581848820      1.585706044     -9.152359597
           6
  t=        54.00000    1    1
C       3.163775961      0.831299532     -9.501714720
C       4.808784327      0.811319584     -8.811253693
H       2.729424108     -0.238033021     -9.161393794
H       4.271346445      0.856401041     -8.061009285
H       5.132225755      0.005871708     -8.097102169
H       5.572332158      1.565963099     -9.191861915
           6
  t=        54.50000    1    1
C       3.162257726      0.835348135     -9.509381706
C       4.797479321      0.811659397     -8.805230725
H       2.772815435     -0.244498007     -9.156978819
H       4.344103660      0.859786440     -8.018300702
H       5.182628088     -0.020758239     -8.088361666
H       5.558464839      1.543421050     -9.228151190
           6
  t=        55.00000    1    1
C       3.161544200      0.838724264     -9.516710165
C       4.786555516      0.811546645     -8.800999048
H       2.817820960     -0.244952974     -9.154077407
H       4.402885238      0.874782213     -7.951676153
H       5.235268949     -0.049023950     -8.088234914
H       5.540599988      1.518290033     -9.260931303
           6
  t=        55.50000    1    1
C       3.161670612      0.841403460     -9.523622060
C       4.775798371      0.810936886     -8.798185003
H       2.863553185     -0.239596974     -9.152894903
H       4.451841752      0.900770451     -7.865428055
H       5.288447486     -0.077695089     -8.097663643
H       5.519310446      1.490977042     -9.290141038
           6
  t=        56.00000    1    1
C       3.162671377      0.843389148     -9.530048804
C       4.764940843      0.809848831     -8.796036842
H       2.909083590     -0.228924095     -9.153548377
H       4.495659888      0.936213002     -7.768640229
H       5.340426147     -0.105604658     -8.117061068
H       5.495345441      1.462083750     -9.315933867
           6
  t=        56.50000    1    1
C       3.164575657      0.844713420     -9.535936665
C       4.753852100      0.808334521     -8.793828432
H       2.953452991     -0.213754276     -9.156055515
H       4.537320669      0.979059507     -7.670290282
H       5.389520690     -0.131659473     -8.146398022
H       5.469577955      1.432385541     -9.338629387
           6
  t=        57.00000    1    1
C       3.167404320      0.845438883     -9.541250111
C       4.742538159      0.806447113     -8.791055283
H       2.995689727     -0.195265221     -9.160324812
H       4.578097758      1.027221435     -7.576847574
H       5.434162750     -0.154876377     -8.185283431
H       5.442954240      1.402787082     -9.358670766
           6
  t=        57.50000    1    1
C       3.171168004      0.845659862     -9.545973192
C       4.731081750      0.804227155     -8.787433837
H       3.034840723     -0.175008315     -9.166151487
H       4.618286574      1.078837963     -7.492241404
H       5.472938439     -0.174415846     -8.233030725
H       5.416434117      1.374255161     -9.376586240
           6
  t=        58.00000    1    1
C       3.175865581      0.845500681     -9.550108589
C       4.719597541      0.801705282     -8.782838151
H       3.070015159     -0.154883732     -9.173228565
H       4.657766658      1.132346034     -7.418609983
H       5.504612173     -0.189605840     -8.288714640
H       5.390912521      1.347735906     -9.392937526
           6
  t=        58.50000    1    1
C       3.181483391      0.845107672     -9.553673772
C       4.708211730      0.798911592     -8.777243283
H       3.100434774     -0.137033834     -9.181183152
H       4.696283528      1.186455536     -7.357006596
H       5.528141778     -0.199955841     -8.351223440
H       5.367124452      1.324070513     -9.408244882
           6
  t=        59.00000    1    1
C       3.187994791      0.844633449     -9.556693838
C       4.697055579      0.795884699     -8.770690044
H       3.125478613     -0.123638485     -9.189649335
H       4.733563276      1.240095799     -7.307874905
H       5.542687155     -0.205161691     -8.419303039
H       5.345559149      1.303928493     -9.422899953
           6
  t=        59.50000    1    1
C       3.195360862      0.844213194     -9.559191038
C       4.686263254      0.792677330     -8.763265829
H       3.144714318     -0.116611495     -9.198376621
H       4.769349442      1.292359833     -7.271334234
H       5.547614846     -0.205102488     -8.491591806
H       5.326404815      1.287772306     -9.437089950
           6
  t=        60.00000    1    1
C       3.203532741      0.843937722     -9.561173611
C       4.675967899      0.789357728     -8.755093521
H       3.157904460     -0.117256203     -9.207344821
H       4.803408048      1.342455848     -7.247340139
H       5.542506978     -0.199838203     -8.566647857
H       5.309547215      1.275863187     -9.450760166
           6
  t=        60.50000    1    1
C       3.212454278      0.843832415     -9.562627981
C       4.666294312      0.786008118     -8.746322432
H       3.164996776     -0.125995126     -9.216837273
H       4.835522299      1.389667745     -7.235772872
H       5.527178240     -0.189611156     -8.642972809
H       5.294623316      1.268300804     -9.463629219
           6
  t=        61.00000    1    1
C       3.222064131      0.843851232     -9.563517968
C       4.657348747      0.782722348     -8.737118748
H       3.166112111     -0.142281519     -9.227429419
H       4.865484729      1.433322986     -7.236484885
H       5.501703491     -0.174856418     -8.719038645
H       5.281110154      1.265076821     -9.475249242
           6
  t=        61.50000    1    1
C       3.232296072      0.843888938     -9.563792326
C       4.649208195      0.779604565     -8.727655068
H       3.161534831     -0.164734128     -9.239881612
H       4.893088377      1.472766677     -7.249322995
H       5.466459843     -0.156222346     -8.793324542
H       5.268425040      1.266126151     -9.485088987
           6
  t=        62.00000    1    1
C       3.243078211      0.843805911     -9.563396726
C       4.641911024      0.776770335     -8.718099579
H       3.151707685     -0.191425177     -9.254982021
H       4.918118557      1.507340020     -7.274135237
H       5.422176241     -0.134601271     -8.864371969
H       5.256010094      1.271358608     -9.492615082
           6
  t=        62.50000    1    1
C       3.254331871      0.843455874     -9.562285640
C       4.635451131      0.774350048     -8.708605530
H       3.137217997     -0.220208205     -9.273397614
H       4.940345874      1.536363656     -7.310763494
H       5.369980027     -0.111164595     -8.930863030
H       5.243389510      1.280667647     -9.497353964
           6
  t=        63.00000    1    1
C       3.265970914      0.842708350     -9.560430656
C       4.629776972      0.772493033     -8.699301502
H       3.118770872     -0.248989396     -9.295573531
H       4.959520752      1.559126993     -7.359022745
H       5.311420034     -0.087387586     -8.991720692
H       5.230198315      1.293920828     -9.498929836
           6
  t=        63.50000    1    1
C       3.277901661      0.841462661     -9.557824272
C       4.624797269      0.771368842     -8.690283694
H       3.097155406     -0.275901317     -9.321692069
H       4.975371884      1.574886753     -7.418664277
H       5.248431337     -0.065032287     -9.046214559
H       5.216185852      1.310935989     -9.497083432
           6
  t=        64.00000    1    1
C       3.290023386      0.839654010     -9.554480327
C       4.620394593      0.771160612     -8.681613225
H       3.073209802     -0.299385161     -9.351676736
H       4.987611108      1.582882183     -7.489316399
H       5.183211278     -0.046045117     -9.094032370
H       5.201202307      1.331452431     -9.491682662
           6
  t=        64.50000    1    1
C       3.302229380      0.837254103     -9.550432566
C       4.616445361      0.772045981     -8.673323677
H       3.047789634     -0.318211446     -9.385222093
H       4.995951920      1.582380649     -7.570388622
H       5.118002502     -0.032337331     -9.135259811
H       5.185177995      1.355106357     -9.482736134
           6
  t=        65.00000    1    1
C       3.314408866      0.834268287     -9.545732337
C       4.612840084      0.774163626     -8.665443833
H       3.021741656     -0.331463941     -9.421835358
H       5.000156061      1.572781728     -7.660917437
H       5.054831746     -0.025459955     -9.170228097
H       5.168100356      1.381418103     -9.470414806
           6
  t=        65.50000    1    1
C       3.326450083      0.830730905     -9.540445924
C       4.609491599      0.777568701     -8.658036793
H       2.995880932     -0.338511010     -9.460879346
H       5.000140580      1.553834584     -7.759309984
H       4.995308578     -0.026272371     -9.199263770
H       5.149996262      1.409800623     -9.455081636
           6
  t=        66.00000    1    1
C       3.338244476      0.826700086     -9.534651391
C       4.606318553      0.782180736     -8.651252026
H       2.970972081     -0.338977475     -9.501613398
H       4.996208123      1.526065651     -7.862926430
H       4.940572548     -0.034746954     -9.222460574
H       5.130920112      1.439590707     -9.437314164
           6
  t=        66.50000    1    1
C       3.349691280      0.822252825     -9.528434759
C       4.603196321      0.787720007     -8.645385122
H       2.947714518     -0.332723380     -9.543232148
H       4.989506410      1.491563364     -7.967454040
H       4.891386427     -0.050007016     -9.239601473
H       5.110945653      1.470097125     -9.417903760
           6
  t=        67.00000    1    1
C       3.360701331      0.817481169     -9.521885586
C       4.599875780      0.793623560     -8.640934879
H       2.926731303     -0.319831078     -9.584903306
H       4.982822517      1.455205067     -8.066177989
H       4.848285124     -0.070571341     -9.250258908
H       5.090155795      1.500650676     -9.397819632
           6
  t=        67.50000    1    1
C       3.371198636      0.812490068     -9.515092697
C       4.595896675      0.798976027     -8.638605539
H       2.908559311     -0.300600738     -9.625806161
H       4.981509246      1.425796596     -8.149834863
H       4.811686031     -0.094684364     -9.253988820
H       5.068628466      1.530639647     -9.378147071
           6
  t=        68.00000    1    1
C       3.381117749      0.807396796     -9.508141564
C       4.590614080      0.802641049     -8.639113635
H       2.893637359     -0.275551376     -9.665174029
H       4.993176135      1.414795843     -8.208790206
H       4.781934528     -0.120616725     -9.250511957
H       5.046428203      1.559529867     -9.360017130
           6
  t=        68.50000    1    1
C       3.390395779      0.802331297     -9.501115150
C       4.583533627      0.803829749     -8.642735144
H       2.882288980     -0.245423201     -9.702342267
H       5.023785921      1.429735396     -8.238365425
H       4.759315834     -0.146874247     -9.239819972
H       5.023618734      1.586880588     -9.344507540
           6
  t=        69.00000    1    1
C       3.398962497      0.797437302     -9.494095811
C       4.574757704      0.802666114     -8.649036920
H       2.874702755     -0.211175765     -9.736800436
H       5.072441303      1.467579801     -8.242131018
H       4.744063943     -0.172287794     -9.222172611
H       5.000291844      1.612330008     -9.332475309
           6
  t=        69.50000    1    1
C       3.406735556      0.792874629     -9.487161813
C       4.564910060      0.799906333     -8.657212404
H       2.870917133     -0.173982446     -9.768249618
H       5.132307040      1.518076170     -8.228185843
H       4.736374239     -0.195994780     -9.197983479
H       4.976602560      1.635535049     -9.324378521
           6
  t=        70.00000    1    1
C       3.413622439      0.788821071     -9.480378212
C       4.554701443      0.796289052     -8.666523133
H       2.870813210     -0.135210073     -9.796662614
H       5.195727751      1.571428410     -8.204122971
H       4.736414067     -0.217369786     -9.167681564
H       4.952796692      1.656121360     -9.320240490
           6
  t=        70.50000    1    1
C       3.419527022      0.785471085     -9.473785773
C       4.544689152      0.792266405     -8.676442702
H       2.874112418     -0.096370469     -9.822341960
H       5.257020733      1.621401888     -8.175309952
H       4.744329021     -0.235961803     -9.131623858
H       4.929198726      1.673685519     -9.319816565
           6
  t=        71.00000    1    1
C       3.424361690      0.783029041     -9.467388945
C       4.535255816      0.788034083     -8.686627094
H       2.880385136     -0.059026398     -9.845965859
H       5.312655672      1.664875573     -8.145141849
H       4.760237055     -0.251449206     -9.090061115
H       4.906138001      1.687826235     -9.322825889
           6
  t=        71.50000    1    1
C       3.428065891      0.781692740     -9.461145244
C       4.526650728      0.783624252     -8.696860785
H       2.889069756     -0.024638229     -9.868593713
H       5.360663214      1.700698927     -8.115642246
H       4.784189454     -0.263604855     -9.043141672
H       4.883846873      1.698189125     -9.329109219
           6
  t=        72.00000    1    1
C       3.430626589      0.781621865     -9.454965576
C       4.519026642      0.778985532     -8.707020354
H       2.899493859      0.005632952     -9.891569399
H       5.400112841      1.728825815     -8.087902588
H       4.816065789     -0.272254515     -8.990964528
H       4.862385110      1.704517599     -9.338662581
           6
  t=        72.50000    1    1
C       3.432082549      0.782900280     -9.448740409
C       4.512473615      0.774047201     -8.717043730
H       2.910923745      0.031084706     -9.916264417
H       5.430763071      1.749745150     -8.062365702
H       4.855417672     -0.277216585     -8.933700165
H       4.841642422      1.706687107     -9.351544452
           6
  t=        73.00000    1    1
C       3.432495974      0.785519719     -9.442386264
C       4.507060490      0.768757007     -8.726888627
H       2.922712295      0.051526896     -9.943742813
H       5.452772508      1.764107342     -8.039101996
H       4.901372667     -0.278234188     -8.871722252
H       4.821419428      1.704701107     -9.367744155
           6
  t=        73.50000    1    1
C       3.431911979      0.789392703     -9.435881242
C       4.502870635      0.763084675     -8.736493064
H       2.934499599      0.067275471     -9.974525228
H       5.466445967      1.772528884     -8.018071452
H       4.952665726     -0.274941461     -8.805669767
H       4.801506423      1.698663320     -9.387140812
           6
  t=        74.00000    1    1
C       3.430337101      0.794376506     -9.429274181
C       4.500017631      0.757011294     -8.745756315
H       2.946313665      0.079104783    -10.008511546
H       5.472076425      1.775534854     -7.999271720
H       5.007733826     -0.266889538     -8.736449150
H       4.781715233      1.688750080     -9.409548303
           6
  t=        74.50000    1    1
C       3.427743636      0.800297742     -9.422673688
C       4.498642206      0.750523505     -8.754538624
H       2.958514210      0.088122511    -10.045033375
H       5.469881192      1.773564744     -7.982780632
H       5.064819053     -0.253629933     -8.665214707
H       4.761881005      1.675189244     -9.434773752
           6
  t=        75.00000    1    1
C       3.424089698      0.806975526     -9.416225860
C       4.498897711      0.743616309     -8.762671408
H       2.971638266      0.095576489    -10.083000986
H       5.459988832      1.766991857     -7.968750803
H       5.122076316     -0.234832028     -8.593334416
H       4.741856019      1.658242367     -9.462654045
           6
  t=        75.50000    1    1
C       3.419343182      0.814240150     -9.410088175
C       4.500929983      0.736300771     -8.769972455
H       2.986234345      0.102657495    -10.121095581
H       5.442444319      1.756138725     -7.957393749
H       5.177690511     -0.210400109     -8.522332558
H       4.721507705      1.638189334     -9.493066657
           6
  t=        76.00000    1    1
C       3.413501712      0.821944101     -9.404405894
C       4.504856417      0.728612230     -8.776262755
H       3.002742487      0.110355137    -10.157951826
H       5.417218439      1.741285131     -7.948967808
H       5.229991263     -0.180552807     -8.453809591
H       4.700726109      1.615315046     -9.525920021
           6
  t=        76.50000    1    1
C       3.406604231      0.829965132     -9.399294793
C       4.510748440      0.720616004     -8.781381942
H       3.021436318      0.119386453    -10.192297352
H       5.384217526      1.722668954     -7.943775529
H       5.277550676     -0.145846622     -8.389351604
H       4.679444992      1.589898905     -9.561128728
           6
  t=        77.00000    1    1
C       3.398733276      0.838203258     -9.394831422
C       4.518620143      0.712409383     -8.785200428
H       3.042415671      0.130186726    -10.223043206
H       5.343297743      1.700484866     -7.942169954
H       5.319251624     -0.107144834     -8.330442323
H       4.657674986      1.562206354     -9.598576521
           6
  t=        77.50000    1    1
C       3.390009706      0.846575036     -9.391050303
C       4.528422716      0.704119640     -8.787626998
H       3.065623982      0.142934129    -10.249335523
H       5.294294423      1.674886683     -7.944563489
H       5.354328485     -0.065551951     -8.278390700
H       4.635545029      1.532488009     -9.638070936
           6
  t=        78.00000    1    1
C       3.380583697      0.855007304     -9.387947294
C       4.540042651      0.695898915     -8.788613853
H       3.090867713      0.157584093    -10.270571441
H       5.237076664      1.646003000     -7.951420877
H       5.382385941     -0.022335133     -8.234274788
H       4.613338312      1.500986657     -9.679290481
           6
  t=        78.50000    1    1
C       3.370623665      0.863431608     -9.385487388
C       4.553302599      0.687916373     -8.788158961
H       3.117825168      0.173902248    -10.286394210
H       5.171626372      1.613972492     -7.963220433
H       5.403404851      0.021148761     -8.198905031
H       4.591520106      1.467955670     -9.721744189
           6
  t=        79.00000    1    1
C       3.360303857      0.871780056     -9.383613825
C       4.567963903      0.680346761     -8.786307522
H       3.146051700      0.191497461    -10.296687211
H       5.098141990      1.579016501     -7.980366555
H       5.417739986      0.063515531     -8.172801320
H       4.570748781      1.433676749     -9.764761995
           6
  t=        79.50000    1    1
C       3.349792305      0.879983708     -9.382255610
C       4.583728518      0.673352581     -8.783157310
H       3.174990563      0.209855037    -10.301577236
H       5.017165981      1.541575875     -8.003027222
H       5.426116826      0.103408831     -8.156174210
H       4.551861184      1.398466068     -9.807519735
           6
  t=        80.00000    1    1
C       3.339240156      0.887972962     -9.381332357
C       4.600239843      0.667056897     -8.778873684
H       3.203992383      0.228371056    -10.301448792
H       4.929718873      1.502555954     -8.030854721
H       5.429628360      0.139553325     -8.148905545
H       4.535839458      1.362660965     -9.849087021
           6
  t=        80.50000    1    1
C       3.328773325      0.895679845     -9.380757274
C       4.617088150      0.661505722     -8.773715787
H       3.232347630      0.246390562    -10.296959471
H       4.837364947      1.463687967     -8.062589995
H       5.429728874      0.170808598     -8.150523517
H       4.523753875      1.326587068     -9.888484972
           6
  t=        81.00000    1    1
C       3.318487387      0.903041122     -9.380440609
C       4.633833287      0.656629346     -8.768063893
H       3.259329911      0.263252270    -10.289040966
H       4.742065120      1.427900339     -8.095666779
H       5.428215004      0.196219469     -8.160172364
H       4.516676128      1.290515368     -9.924744725
           6
  t=        81.50000    1    1
C       3.308446818      0.910001295     -9.380296095
C       4.650057666      0.652237110     -8.762413820
H       3.284241842      0.278336007    -10.278868177
H       4.645678047      1.399298265     -8.126202224
H       5.427175928      0.215050846     -8.176590138
H       4.515560183      1.254626890     -9.956959698
           6
  t=        82.00000    1    1
C       3.298688508      0.916514333     -9.380251964
C       4.665432843      0.648104096     -8.757286043
H       3.306452230      0.291102751    -10.267778215
H       4.549320157      1.382074923     -8.149972225
H       5.428893920      0.226787151     -8.198125895
H       4.521110034      1.219009179     -9.984325185
           6
  t=        82.50000    1    1
C       3.289228423      0.922543051     -9.380262997
C       4.679729327      0.644153251     -8.753053107
H       3.325417469      0.301124583    -10.257131659
H       4.453425714      1.378317458     -8.164328863
H       5.435656187      0.231102559     -8.222859999
H       4.533690196      1.183689080    -10.006150741
           6
  t=        83.00000    1    1
C       3.280068385      0.928055454     -9.380316712
C       4.692739339      0.640576587     -8.749820927
H       3.340689069      0.308113805    -10.248146233
H       4.358905351      1.386528577     -8.169438835
H       5.449422034      0.227859586     -8.248889317
H       4.553331548      1.148683721    -10.021842570
           6
  t=        83.50000    1    1
C       3.271203632      0.933017578     -9.380429921
C       4.704228110      0.637742230     -8.747480134
H       3.351910313      0.311967804    -10.241747759
H       4.268040937      1.402635998     -8.167488975
H       5.471332899      0.217207163     -8.274740837
H       4.579819524      1.114040315    -10.030863110
           6
  t=        84.00000    1    1
C       3.262635108      0.937387249     -9.380637182
C       4.713996841      0.635991305     -8.745838664
H       3.358801635      0.312812188    -10.238480758
H       4.183977296      1.422251015     -8.161024714
H       5.501245570      0.199755329     -8.299716370
H       4.612787907      1.079852336    -10.032695979
           6
  t=        84.50000    1    1
C       3.254377291      0.941113818     -9.380979697
C       4.721973270      0.635513326     -8.744709550
H       3.361162561      0.311019860    -10.238484434
H       4.109649051      1.442053659     -8.152028241
H       5.537592924      0.176666919     -8.323922931
H       4.651757736      1.046250558    -10.026848364
           6
  t=        85.00000    1    1
C       3.246450667      0.944138726     -9.381498126
C       4.728235497      0.636341709     -8.743939338
H       3.358903039      0.307215429    -10.241569543
H       4.047224289      1.459983242     -8.141828232
H       5.577708896      0.149538318     -8.347972303
H       4.696143142      1.013374066    -10.012912099
           6
  t=        85.50000    1    1
C       3.238870572      0.946395048     -9.382225651
C       4.732966521      0.638406633     -8.743414859
H       3.352081760      0.302244659    -10.247349284
H       3.998105672      1.474930315     -8.131304006
H       5.618443347      0.120122363     -8.372553427
H       4.745271392      0.981361933     -9.990658083
           6
  t=        86.00000    1    1
C       3.231641440      0.947813270     -9.383183774
C       4.736390876      0.641588049     -8.743059589
H       3.340931672      0.297072770    -10.255350550
H       3.963129456      1.486374421     -8.121077037
H       5.656750904      0.090057720     -8.398120104
H       4.798392376      0.950387785     -9.960139308
           6
  t=        86.50000    1    1
C       3.224756322      0.948328366     -9.384383868
C       4.738726892      0.645750453     -8.742817565
H       3.325847894      0.292662026    -10.265089291
H       3.942779498      1.494121068     -8.111611178
H       5.690056319      0.060693183     -8.424767127
H       4.854685493      0.920722782     -9.921812090
           6
  t=        87.00000    1    1
C       3.218199697      0.947886273     -9.385832323
C       4.740160551      0.650759390     -8.742628617
H       3.307341532      0.289854813    -10.276111401
H       3.937345797      1.498138335     -8.103246424
H       5.716382991      0.033016016     -8.452246675
H       4.913296572      0.892813793     -9.876678710
           6
  t=        87.50000    1    1
C       3.211951450      0.946450355     -9.387537148
C       4.740833873      0.656485301     -8.742403857
H       3.285971063      0.289277621    -10.287998177
H       3.947005515      1.498464721     -8.096199410
H       5.734336090      0.007648565     -8.480044627
H       4.973433303      0.867352383     -9.826418368
           6
  t=        88.00000    1    1
C       3.205991054      0.944010876     -9.389511437
C       4.740840134      0.662799085     -8.742013665
H       3.262286131      0.291265701    -10.300338576
H       3.971808890      1.495156526     -8.090561687
H       5.743024659     -0.015111547     -8.507467294
H       5.034520579      0.845302474     -9.773431713
           6
  t=        88.50000    1    1
C       3.200307017      0.940596805     -9.391766304
C       4.740219804      0.669560772     -8.741304332
H       3.236809724      0.295823162    -10.312690190
H       4.011549316      1.488289507     -8.086309423
H       5.741974598     -0.035213171     -8.533710576
H       5.096371046      0.827854700     -9.720686927
           6
  t=        89.00000    1    1
C       3.194922232      0.936269519     -9.394292430
C       4.738950111      0.676613966     -8.740149378
H       3.210011520      0.302705161    -10.324611562
H       4.065639014      1.478066912     -8.083289909
H       5.731033572     -0.052768519     -8.557905340
H       5.159253711      0.816294257     -9.671264250
           6
  t=        89.50000    1    1
C       3.189893908      0.931092274     -9.397064841
C       4.736966819      0.683811508     -8.738498680
H       3.182233242      0.311605643    -10.335782576
H       4.133234126      1.464934235     -8.081106107
H       5.710251175     -0.068078066     -8.579191754
H       5.223704802      0.811781226     -9.627634848
           6
  t=        90.00000    1    1
C       3.185282722      0.925132735     -9.400055087
C       4.734240684      0.691021263     -8.736429053
H       3.153741445      0.322184938    -10.345994312
H       4.213166831      1.449653478     -8.078979340
H       5.679802368     -0.081628037     -8.596819249
H       5.290076334      0.815147076     -9.590960980
           6
  t=        90.50000    1    1
C       3.181145046      0.918476447     -9.403221799
C       4.730840279      0.698098039     -8.734185615
H       3.124820014      0.334046667    -10.355107388
H       4.303683888      1.433526723     -8.075578198
H       5.639956126     -0.094001008     -8.610217112
H       5.358081001      0.826778936     -9.560858189
           6
  t=        91.00000    1    1
C       3.177534401      0.911227672     -9.406501282
C       4.726942019      0.704860523     -8.732168983
H       3.095814949      0.346758594    -10.363051197
H       4.402420471      1.418615674     -8.068840585
H       5.591074832     -0.105800608     -8.619050848
H       5.426637422      0.846568391     -9.535781957
           6
  t=        91.50000    1    1
C       3.174499488      0.903503836     -9.409806896
C       4.722775842      0.711105569     -8.730863319
H       3.067143926      0.359884434    -10.369832823
H       4.506800533      1.407588368     -8.056075376
H       5.533658602     -0.117630985     -8.623262226
H       5.494086179      0.873908480     -9.513741354
           6
  t=        92.00000    1    1
C       3.172078889      0.895428299     -9.413035534
C       4.718534968      0.716690105     -8.730708580
H       3.039280498      0.373009898    -10.375539743
H       4.614736603      1.402795417     -8.034783691
H       5.468421549     -0.130139391     -8.623072138
H       5.558567015      0.907744820     -9.492916087
           6
  t=        92.50000    1    1
C       3.170295188      0.887123048     -9.416077981
C       4.714327410      0.721656183     -8.731943528
H       3.012722153      0.385762993    -10.380332664
H       4.724942320      1.404817893     -8.004138407
H       5.396351209     -0.144095045     -8.618932148
H       5.618326287      0.946684410     -9.471978479
           6
  t=        93.00000    1    1
C       3.169152102      0.878702415     -9.418829070
C       4.710223382      0.726281904     -8.734523614
H       2.987952261      0.397830693    -10.384429387
H       4.836300988      1.411817686     -7.965892795
H       5.318688391     -0.160430290     -8.611431149
H       5.671876239      0.989138074     -9.450151241
           6
  t=        93.50000    1    1
C       3.168636511      0.870268661     -9.421194800
C       4.706334460      0.730981779     -8.738196893
H       2.965409181      0.408973143    -10.388077995
H       4.947027069      1.420531282     -7.923617674
H       5.236791981     -0.180139301     -8.601192208
H       5.718032825      1.033450247     -9.427111510
           6
  t=        94.00000    1    1
C       3.168723414      0.861909486     -9.423095893
C       4.702831988      0.736143544     -8.742658692
H       2.945470917      0.419036849    -10.391524941
H       5.054641082      1.427850500     -7.881050805
H       5.151926707     -0.203990439     -8.588801879
H       5.755890357      1.077990017     -9.402860142
           6
  t=        94.50000    1    1
C       3.169381016      0.853697061     -9.424468765
C       4.699912536      0.742017794     -8.747654990
H       2.928454168      0.427963675    -10.394986562
H       5.156546461      1.431676092     -7.840991803
H       5.065080845     -0.232122291     -8.574803867
H       5.784778461      1.121210247     -9.377619186
           6
  t=        95.00000    1    1
C       3.170574618      0.845687880     -9.425264842
C       4.697757167      0.748684871     -8.753005397
H       2.914624238      0.435792857    -10.398628567
H       5.250521507      1.430950955     -7.805071207
H       4.976942202     -0.263724380     -8.559748978
H       5.804222992      1.161689028     -9.351767787
           6
  t=        95.50000    1    1
C       3.172269094      0.837923218     -9.425448846
C       4.696501337      0.756077724     -8.758586144
H       2.904208622      0.442652851    -10.402556973
H       5.334896327      1.425358700     -7.773978790
H       4.888066400     -0.297034767     -8.544242496
H       5.813916109      1.198159285     -9.325798642
           6
  t=        96.00000    1    1
C       3.174430994      0.830430276     -9.424996083
C       4.696216723      0.764037093     -8.764309288
H       2.897409191      0.448743186    -10.406817917
H       5.408524051      1.415014290     -7.747782862
H       4.799106788     -0.329699766     -8.528940199
H       5.813694320      1.229525234     -9.300282656
           6
  t=        96.50000    1    1
C       3.177030440      0.823224064     -9.423889434
C       4.696907088      0.772373841     -8.770110286
H       2.894410085      0.454308547    -10.411403444
H       5.470679429      1.400245611     -7.726193725
H       4.710940520     -0.359302400     -8.514493276
H       5.803532502      1.254870628     -9.275838624
           6
  t=        97.00000    1    1
C       3.180042904      0.816310011     -9.422116553
C       4.698515685      0.780915697     -8.775941324
H       2.895380154      0.459609125    -10.416260543
H       5.520954459      1.381461399     -7.708750637
H       4.624638542     -0.383798178     -8.501485474
H       5.783566617      1.273468610     -9.253112897
           6
  t=        97.50000    1    1
C       3.183450775      0.809686899     -9.419667685
C       4.700935650      0.789529029     -8.781765101
H       2.900470486      0.464892170    -10.421300123
H       5.559171163      1.359078610     -7.694949750
H       4.541344345     -0.401732419     -8.490397814
H       5.754162136      1.284805929     -9.232777653
           6
  t=        98.00000    1    1
C       3.187244589      0.803349390     -9.416534283
C       4.704014878      0.798118838     -8.787545758
H       2.909808731      0.470370821    -10.426405342
H       5.585311411      1.333485577     -7.684334148
H       4.462144447     -0.412264638     -8.481606774
H       5.716046817      1.288635324     -9.215558935
           6
  t=        98.50000    1    1
C       3.191423953      0.797289503     -9.412708260
C       4.707550355      0.806614455     -8.793235740
H       2.923491473      0.476213259    -10.431439469
H       5.599459064      1.305025198     -7.676560575
H       4.387973714     -0.415084990     -8.475403801
H       5.670527271      1.285072332     -9.202307769
           6
  t=        99.00000    1    1
C       3.195998104      0.791496869     -9.408181838
C       4.711271019      0.814947006     -8.798758227
H       2.941575716      0.482542871    -10.436251535
H       5.601752072      1.273989460     -7.671451423
H       4.319560531     -0.410295998     -8.472020752
H       5.619797668      1.274747649     -9.194128192
           6
  t=        99.50000    1    1
C       3.200985857      0.785958311     -9.402947920
C       4.714813757      0.823023587     -8.803985572
H       2.964071069      0.489445740    -10.440680270
H       5.592345065      1.240621788     -7.669034869
H       4.257400565     -0.398299084     -8.471651322
H       5.567297600      1.258996278     -9.192563955
           6
  t=       100.00000    1    1
C       3.206414639      0.780657398     -9.397000815
C       4.717709192      0.830707788     -8.808718796
H       2.990933505      0.496980671    -10.444554683
H       5.571386188      1.205127477     -7.669569371
H       4.201748665     -0.379701052     -8.474464070
H       5.517930315      1.239980754     -9.199796032
