! 1 Hamiltonian Matrix (3x3, complex)
3 3
-7.803333585E+001  0.000000000E+000  0.000000000E+000  0.000000000E+000  0.000000000E+000  0.000000000E+000 
 0.000000000E+000  0.000000000E+000 -7.765159734E+001  0.000000000E+000  0.000000000E+000  0.000000000E+000 
 0.000000000E+000  0.000000000E+000  0.000000000E+000  0.000000000E+000 -7.744657283E+001  0.000000000E+000 

! 2 Dipole Moment Matrices (3x3x3, complex)
3 3
 3.376920590E-002  0.000000000E+000 -1.385228330E+000  0.000000000E+000 -2.803525650E-003  0.000000000E+000 
-1.385228330E+000  0.000000000E+000  4.195457940E-002  0.000000000E+000 -2.001259940E+000  0.000000000E+000 
-2.803525650E-003  0.000000000E+000 -2.001259940E+000  0.000000000E+000  2.266991770E-002  0.000000000E+000 
3 3
-1.110251530E-002  0.000000000E+000 -1.590496800E-002  0.000000000E+000  9.167145610E-003  0.000000000E+000 
-1.590496800E-002  0.000000000E+000 -3.545693820E-002  0.000000000E+000 -2.289180880E-002  0.000000000E+000 
 9.167145610E-003  0.000000000E+000 -2.289180880E-002  0.000000000E+000 -6.012596640E-002  0.000000000E+000 
3 3
 5.459239620E-003  0.000000000E+000 -4.897637740E-001  0.000000000E+000  1.093479270E-004  0.000000000E+000 
-4.897637740E-001  0.000000000E+000  5.428376540E-003  0.000000000E+000 -7.075586680E-001  0.000000000E+000 
 1.093479270E-004  0.000000000E+000 -7.075586680E-001  0.000000000E+000 -4.314744790E-003  0.000000000E+000 
! 8 Runtime
 3.525159000E+000
