#                    1                    2                    3                    4                    5                    6
#               Time |           Sum c**2 |  === coeff_diab ===>
#               [fs] |                 [] |                 [] |
   0.000000000000E+000  1.000000000000E+000  0.000000000000E+000  0.000000000000E+000  1.000000000000E+000  0.000000000000E+000
   5.000000000000E-001  1.000000000000E+000  1.120090454134E-004 -3.278612223291E-003  4.301218465726E-002 -9.990691618337E-001
   1.000000000000E+000  1.000000000000E+000 -6.662308647911E-003 -2.270798239149E-004 -9.990815805148E-001 -4.232679475772E-002
   1.500000000000E+000  1.000000000000E+000 -9.011575941805E-004  9.905136635986E-003 -9.648954734836E-002  9.952843028181E-001
   2.000000000000E+000  1.000000000000E+000  1.247756886892E-002  3.416726838987E-003  9.634955401686E-001  2.674116308771E-001
   2.500000000000E+000  1.000000000000E+000  8.496458830590E-003 -1.304549797665E-002  5.471979320675E-001 -8.368584398279E-001
   3.000000000000E+000  1.000000000000E+000 -9.694064075466E-003 -1.503930477627E-002 -5.407842482901E-001 -8.409710109362E-001
   3.500000000000E+000  1.000000000000E+000 -1.998312490215E-002  1.519830835356E-003 -9.970031502217E-001  7.472003266660E-002
   4.000000000000E+000  1.000000000000E+000 -9.981876089601E-003  1.980879262434E-002 -4.514623491905E-001  8.920144175674E-001
   4.500000000000E+000  1.000000000000E+000  1.241924999510E-002  2.112993874603E-002  5.039222423870E-001  8.634012170168E-001
   5.000000000000E+000  1.000000000000E+000  2.713756845302E-002  1.870329301581E-003  9.969030978120E-001  7.378528186521E-002
   5.500000000000E+000  1.000000000000E+000  1.967855397204E-002 -2.311828034950E-002  6.536851677419E-001 -7.561573917525E-001
   6.000000000000E+000  1.000000000000E+000 -5.858698118601E-003 -3.341266633161E-002 -1.625944541234E-001 -9.861096860256E-001
   6.500000000000E+000  1.000000000000E+000 -3.085545643232E-002 -2.143450616129E-002 -8.141316210805E-001 -5.794637230329E-001
   7.000000000000E+000  1.000000000000E+000 -4.050770249960E-002  1.799283497449E-003 -9.985785144618E-001  3.459536201189E-002
   7.500000000000E+000  1.000000000000E+000 -3.642654320952E-002  1.955228940113E-002 -8.812969965124E-001  4.707509095770E-001
   8.000000000000E+000  1.000000000000E+000 -2.925722258668E-002  2.293731453938E-002 -7.723525940342E-001  6.341051687356E-001
   8.500000000000E+000  1.000000000000E+000 -2.113006703883E-002  1.024586207977E-002 -8.346726652862E-001  5.502454764935E-001
   9.000000000000E+000  1.000000000000E+000  6.106223239163E-003 -9.164587575503E-003 -9.852233194873E-001  1.709202595104E-001
   9.500000000000E+000  1.000000000001E+000  6.550394261143E-002  1.601071220292E-002 -8.731368348149E-001 -4.827887304889E-001
   1.000000000000E+001  1.000000000001E+000  6.597479392008E-002  1.480256011403E-001 -2.039672098805E-001 -9.654704165682E-001
   1.050000000000E+001  1.000000000001E+000 -1.470300367475E-001  2.522323905931E-001  6.231542157319E-001 -7.255617222854E-001
   1.100000000000E+001  1.000000000001E+000 -4.251698798244E-001  6.611487311555E-002  9.025324758458E-001 -1.716178567122E-002
   1.150000000000E+001  1.000000000001E+000 -4.537583557149E-001 -2.858496576363E-001  6.785674505042E-001  5.019357956602E-001
   1.200000000000E+001  1.000000000001E+000 -3.136952801091E-001 -5.126188841820E-001  3.904015825274E-001  6.974265231393E-001
   1.250000000000E+001  1.000000000001E+000 -2.274727091959E-001 -6.047940306870E-001  2.490728379864E-001  7.214174023369E-001
   1.300000000000E+001  1.000000000001E+000 -2.796104051629E-001 -6.180852652273E-001  2.912738572508E-001  6.744984553849E-001
   1.350000000000E+001  1.000000000001E+000 -4.722684327834E-001 -5.190901771430E-001  4.724104457250E-001  5.332319253015E-001
   1.400000000000E+001  1.000000000001E+000 -6.897872281510E-001 -2.066175054047E-001  6.627200923506E-001  2.056814661940E-001
   1.450000000000E+001  1.000000000001E+000 -6.608002901414E-001  3.201743528760E-001  6.132895523528E-001 -2.910451602161E-001
   1.500000000000E+001  1.000000000001E+000 -1.607640687535E-001  7.281639478501E-001  1.478645608755E-001 -6.496678004080E-001
   1.550000000000E+001  1.000000000001E+000  5.392759291726E-001  5.283027437583E-001 -4.659564620673E-001 -4.614783403487E-001
   1.600000000000E+001  1.000000000001E+000  7.297198201487E-001 -2.214941039136E-001 -6.198444010380E-001  1.850466549722E-001
   1.650000000000E+001  1.000000000001E+000  1.523913810089E-001 -7.539718786872E-001 -1.291488183012E-001  6.257985745232E-001
   1.700000000000E+001  1.000000000001E+000 -5.803772664384E-001 -5.140731089548E-001  4.711371183017E-001  4.206196417315E-001
   1.750000000000E+001  1.000000000001E+000 -7.531402038730E-001  2.086087060815E-001  6.019744575706E-001 -1.639786372998E-001
   1.800000000000E+001  1.000000000001E+000 -2.723871011164E-001  7.400843756678E-001  2.155266589130E-001 -5.758720720234E-001
   1.850000000000E+001  1.000000000001E+000  4.276173741906E-001  6.737529698712E-001 -3.187188856414E-001 -5.114866457849E-001
   1.900000000000E+001  1.000000000001E+000  8.068427077701E-001  8.631518959878E-002 -5.801848048511E-001 -7.028602409658E-002
   1.950000000000E+001  1.000000000001E+000  6.080238149537E-001 -5.661416318993E-001 -4.163125765772E-001  3.694245953693E-001
   2.000000000000E+001  1.000000000001E+000  5.795382431540E-002 -8.547646585238E-001 -5.506896806583E-002  5.128217444128E-001
   2.050000000000E+001  1.000000000001E+000 -4.365159411179E-001 -7.730645679319E-001  2.014086106527E-001  4.138352069529E-001
   2.100000000000E+001  1.000000000000E+000 -7.120596590858E-001 -5.829124383329E-001  2.792823371405E-001  2.741997580252E-001
   2.150000000000E+001  1.000000000001E+000 -8.223385418597E-001 -4.739926698007E-001  2.508121843883E-001  1.902196617338E-001
   2.200000000000E+001  1.000000000000E+000 -8.380140519518E-001 -4.904682388261E-001  1.833442243131E-001  1.534869728857E-001
   2.250000000000E+001  1.000000000000E+000 -7.868873130113E-001 -5.928031219253E-001  1.106579593610E-001  1.309489644406E-001
   2.300000000000E+001  1.000000000001E+000 -6.912499623590E-001 -7.136312874357E-001  4.736517150108E-002  1.032492889110E-001
   2.350000000000E+001  1.000000000001E+000 -5.957889236519E-001 -8.003885316475E-001 -4.538949898558E-003  6.628087805112E-002
   2.400000000000E+001  1.000000000001E+000 -5.527527921910E-001 -8.311897115772E-001 -5.500556143032E-002  2.371502278303E-002
   2.450000000000E+001  1.000000000000E+000 -5.936691947811E-001 -7.947949625385E-001 -1.252928807617E-001 -1.263125972289E-002
   2.500000000000E+001  1.000000000000E+000 -7.085541360689E-001 -6.641858698697E-001 -2.381879840208E-001 -8.640069074421E-003
   2.550000000000E+001  1.000000000001E+000 -8.253483004801E-001 -4.058572712469E-001 -3.785623617019E-001  1.037814847353E-001
   2.600000000000E+001  1.000000000001E+000 -8.180037039427E-001 -5.200834315695E-002 -4.362561982483E-001  3.712756416311E-001
   2.650000000000E+001  1.000000000001E+000 -7.307078298772E-001  7.365360200742E-002 -8.204844895359E-002  6.737278874237E-001
   2.700000000000E+001  1.000000000001E+000 -6.002492138099E-001 -1.395098239046E-003  2.598091202957E-001  7.564378071152E-001
   2.750000000000E+001  1.000000000001E+000 -4.615912298069E-001 -2.758962514256E-001  4.291095152392E-001  7.257270967426E-001
   2.800000000000E+001  1.000000000000E+000 -1.437919151619E-001 -6.211932562546E-001  3.573005849019E-001  6.824801209905E-001
   2.850000000000E+001  1.000000000001E+000  4.680604225001E-001 -6.796839842541E-001  9.501594362448E-002  5.567055711015E-001
   2.900000000000E+001  1.000000000001E+000  9.603893728727E-001 -9.184526629021E-002 -1.329178958131E-001  2.270452212814E-001
   2.950000000000E+001  1.000000000001E+000  6.333958227201E-001  7.525540266460E-001 -6.338314602173E-002 -1.686853447716E-001
   3.000000000000E+001  1.000000000001E+000 -3.951274538144E-001  8.419761902685E-001  2.440014041777E-001 -2.746155585959E-001
   3.050000000000E+001  1.000000000001E+000 -9.100418470405E-001 -1.897706551582E-001  3.661698542694E-001  4.160015505955E-002
   3.100000000000E+001  1.000000000001E+000  1.420200799214E-001 -9.440261539543E-001 -3.182644369061E-002  2.960270174021E-001
   3.150000000000E+001  1.000000000001E+000  8.744569671922E-001  3.596170400291E-001 -2.966879350783E-001 -1.340778364584E-001
   3.200000000000E+001  1.000000000001E+000 -7.719134364299E-001  5.475396782221E-001  2.612035228835E-001 -1.900596408113E-001
   3.250000000000E+001  1.000000000001E+000  1.910872351529E-001 -9.251165992526E-001 -6.883433520061E-002  3.207908674624E-001
   3.300000000000E+001  1.000000000001E+000  3.407229175463E-001  8.785441853146E-001 -1.204931967208E-001 -3.123289891339E-001
   3.350000000000E+001  1.000000000001E+000 -7.224326791318E-001 -6.009549990472E-001  2.621908501529E-001  2.195451464719E-001
   3.400000000000E+001  1.000000000001E+000  9.250366868356E-001  1.516080390362E-001 -3.436035612458E-001 -5.708522757816E-002
   3.450000000000E+001  1.000000000001E+000 -8.413248504746E-001  4.091616394027E-001  3.178733328356E-001 -1.539993282056E-001
   3.500000000000E+001  1.000000000001E+000  3.624904366953E-001 -8.612932172693E-001 -1.383772604444E-001  3.280646445184E-001
   3.550000000000E+001  1.000000000001E+000  3.761581370492E-001  8.551147295843E-001 -1.436051834666E-001 -3.265905792609E-001
   3.600000000000E+001  1.000000000001E+000 -8.966758012680E-001 -2.638840591876E-001  3.410144100322E-001  1.002341402821E-001
   3.650000000000E+001  1.000000000001E+000  7.771194076248E-001 -5.214857523248E-001 -2.924395160370E-001  1.965125081918E-001
   3.700000000000E+001  1.000000000001E+000 -1.411709822970E-001  9.268825129375E-001  5.210717904643E-002 -3.438668388495E-001
   3.750000000000E+001  1.000000000001E+000 -5.141777266628E-001 -7.866043053750E-001  1.872727084417E-001  2.860137493951E-001
   3.800000000000E+001  1.000000000001E+000  8.728554556360E-001  3.566821696227E-001 -3.083944320484E-001 -1.256744115643E-001
   3.850000000000E+001  1.000000000001E+000 -9.377809105719E-001  9.698554876909E-002  3.316311380159E-001 -3.437376028108E-002
   3.900000000000E+001  1.000000000001E+000  8.403614691643E-001 -4.051035237413E-001 -3.249520852438E-001  1.552091443601E-001
   3.950000000000E+001  1.000000000001E+000 -7.342007149641E-001  5.642941860382E-001  2.999324389755E-001 -2.292638519276E-001
   4.000000000000E+001  1.000000000001E+000  6.048206371266E-001 -6.947953709789E-001 -2.559423584131E-001  2.931636037144E-001
   4.050000000000E+001  1.000000000001E+000 -3.308356863645E-001  8.565517505405E-001  1.430288376269E-001 -3.693367012384E-001
   4.100000000000E+001  1.000000000001E+000 -1.878321600257E-001 -8.965827406346E-001  8.194149496490E-002  3.926118442687E-001
   4.150000000000E+001  1.000000000001E+000  7.256353354853E-001  5.550363037911E-001 -3.227477897219E-001 -2.474306480600E-001
   4.200000000000E+001  1.000000000001E+000 -9.101966257983E-001 -2.119456918996E-002  4.135027499142E-001  1.041001614688E-002
   4.250000000000E+001  1.000000000001E+000  8.452072530232E-001 -3.276693578017E-001 -3.941238400475E-001  1.514063740456E-001
   4.300000000000E+001  1.000000000001E+000 -7.598704786747E-001  4.844370191357E-001  3.667165629364E-001 -2.311635624365E-001
   4.350000000000E+001  1.000000000001E+000  6.483053250330E-001 -6.143682324823E-001 -3.292416920876E-001  3.063523929112E-001
   4.400000000000E+001  1.000000000001E+000 -3.622408480209E-001  8.024931924710E-001  2.020712181622E-001 -4.288979678828E-001
   4.450000000000E+001  1.000000000001E+000 -2.468232180734E-001 -8.239541298169E-001  1.331829783686E-001  4.923821536682E-001
   4.500000000000E+001  1.000000000001E+000  8.127710054081E-001  1.694079245255E-001 -5.411234178143E-001 -1.337523628554E-001
   4.550000000000E+001  1.000000000001E+000 -3.026099758815E-001  7.359836103028E-001  2.498667340027E-001 -5.516538254214E-001
   4.600000000000E+001  1.000000000001E+000 -7.228970573678E-001 -2.635818514354E-001  5.955968106780E-001  2.306705251081E-001
   4.650000000000E+001  1.000000000001E+000  1.279868301810E-001 -7.445795384652E-001 -1.165571855970E-001  6.446976847216E-001
   4.700000000000E+001  1.000000000001E+000  7.441696442714E-001 -5.061239539121E-002 -6.648285669975E-001  4.065590341549E-002
   4.750000000000E+001  1.000000000001E+000  2.127669112804E-001  7.060167702028E-001 -1.915984633012E-001 -6.477349693492E-001
   4.800000000000E+001  1.000000000001E+000 -6.580144621338E-001  3.179676154875E-001  6.155917865643E-001 -2.948903447708E-001
   4.850000000000E+001  1.000000000001E+000 -3.477480505394E-001 -6.383092206872E-001  3.276390496021E-001  6.035605067499E-001
   4.900000000000E+001  1.000000000001E+000  6.663335202744E-001 -2.900802491724E-001 -6.297313101887E-001  2.743930862236E-001
   4.950000000000E+001  1.000000000001E+000  1.249557653058E-001  7.197613980652E-001 -1.178766999928E-001 -6.726326413217E-001
   5.000000000000E+001  1.000000000000E+000 -7.200360930236E-001 -1.594257086640E-001  6.596957078691E-001  1.446825531288E-001
   5.050000000000E+001  1.000000000001E+000  5.151674093916E-001 -5.395346511251E-001 -4.591205073837E-001  4.824036279262E-001
   5.100000000000E+001  1.000000000001E+000  5.049184406645E-002  7.524784031678E-001 -4.453108172732E-002 -6.551670086395E-001
   5.150000000000E+001  1.000000000001E+000 -4.208352511063E-001 -6.324467813864E-001  3.603771523696E-001  5.413289833278E-001
   5.200000000000E+001  1.000000000001E+000  4.408417691678E-001  6.150631966837E-001 -3.808841900898E-001 -5.313031454662E-001
   5.250000000000E+001  1.000000000001E+000 -8.263395900714E-002 -7.459281040190E-001  7.277832845784E-002  6.568608736718E-001
   5.300000000000E+001  1.000000000000E+000 -5.536274713137E-001  5.142628775127E-001  4.798959304413E-001 -4.457916685688E-001
   5.350000000000E+001  1.000000000000E+000  6.967553769013E-001  2.939570563689E-001 -6.028553953764E-001 -2.543355382876E-001
   5.400000000000E+001  1.000000000000E+000 -3.460363945620E-003 -7.531042772762E-001  2.964098399677E-003  6.578853908933E-001
   5.450000000000E+001  1.000000000001E+000 -6.509770535020E-001  3.684179712394E-001  5.777429865986E-001 -3.266651431029E-001
   5.500000000000E+001  1.000000000000E+000  6.976694801333E-001  2.556363782545E-001 -6.282092772585E-001 -2.307822405869E-001
   5.550000000000E+001  1.000000000001E+000 -4.426226995572E-001 -5.932401558607E-001  4.016880044253E-001  5.392569057625E-001
   5.600000000000E+001  1.000000000001E+000  3.208580082226E-001  6.679520657941E-001 -2.910180585762E-001 -6.051435085530E-001
   5.650000000000E+001  1.000000000001E+000 -4.888415650735E-001 -5.647371793059E-001  4.367288825410E-001  5.013718437659E-001
   5.700000000000E+001  1.000000000001E+000  7.543967633940E-001  7.973608939434E-002 -6.484223329419E-001 -6.384479283056E-002
   5.750000000000E+001  1.000000000001E+000 -3.431430734887E-001  6.953715797860E-001  2.726640581543E-001 -5.695309548515E-001
   5.800000000000E+001  1.000000000001E+000 -7.318823522794E-001 -3.118631415459E-001  5.611820711052E-001  2.283950227957E-001
   5.850000000000E+001  1.000000000001E+000  1.244459339559E-002 -8.167349220742E-001  2.593088189922E-003  5.768730146696E-001
   5.900000000000E+001  1.000000000001E+000  6.797891303380E-001 -4.894214445998E-001 -4.360826637824E-001  3.289153358988E-001
   5.950000000000E+001  1.000000000001E+000  8.502950553143E-001  1.083805215786E-001 -5.123157612595E-001 -5.276876174623E-002
   6.000000000000E+001  1.000000000001E+000  6.408091716098E-001  5.961114653590E-001 -3.626441154521E-001 -3.201624149976E-001
   6.050000000000E+001  1.000000000001E+000  2.607528421126E-001  8.529162851901E-001 -1.444599228365E-001 -4.285709935151E-001
   6.100000000000E+001  1.000000000001E+000 -1.296584517897E-001  8.982120661463E-001  4.670493175920E-002 -4.173995920683E-001
   6.150000000000E+001  1.000000000001E+000 -4.493502305039E-001  8.055544268672E-001  1.755547598591E-001 -3.440159327592E-001
   6.200000000000E+001  1.000000000001E+000 -6.922395049183E-001  6.308145742024E-001  2.487139396869E-001 -2.470198716911E-001
   6.250000000000E+001  1.000000000001E+000 -8.803956895109E-001  3.552688825106E-001  2.854748456641E-001 -1.311166027009E-001
   6.300000000000E+001  1.000000000001E+000 -9.533964345329E-001 -1.096894786987E-001  2.803611518167E-001  2.002701763361E-002
   6.350000000000E+001  1.000000000000E+000 -6.350616527199E-001 -7.282506666335E-001  1.746340418607E-001  1.893425869065E-001
   6.400000000000E+001  1.000000000001E+000  2.781160428050E-001 -9.280249360252E-001 -6.941317131209E-002  2.379138425961E-001
   6.450000000000E+001  1.000000000001E+000  9.661212781498E-001 -6.757723960657E-002 -2.485639894981E-001  1.609147969103E-002
   6.500000000000E+001  1.000000000000E+000  3.468065626698E-001  9.034197697283E-001 -8.967097583639E-002 -2.356205505598E-001
   6.550000000000E+001  1.000000000000E+000 -7.166957585955E-001  6.525302554782E-001  1.799383454108E-001 -1.678500734225E-001
   6.600000000000E+001  1.000000000000E+000 -9.254082745026E-001 -3.062504934841E-001  2.141852136267E-001  6.288763779118E-002
   6.650000000000E+001  1.000000000000E+000 -2.531435028159E-001 -9.501367742600E-001  5.667957856984E-002  1.730488444183E-001
   6.700000000000E+001  1.000000000000E+000  7.798566575686E-001 -6.127584645075E-001 -9.428424663543E-002  8.637788291657E-002
   6.750000000000E+001  1.000000000000E+000  5.482301735444E-001  8.334743818522E-001 -4.371188825174E-002 -5.341724850212E-002
   6.800000000000E+001  1.000000000000E+000 -9.872012545236E-001 -1.588817708614E-001  1.362179041032E-002 -2.170894158288E-003
   6.850000000000E+001  1.000000000000E+000  9.942827181407E-001 -1.011383650435E-001  3.421650457840E-002 -1.462305692260E-003
   6.900000000000E+001  1.000000000000E+000 -9.972183308570E-001  2.067297708434E-002 -7.160564677400E-002  9.273465845717E-004
   6.950000000000E+001  1.000000000000E+000  9.758810495429E-001  1.972769287723E-001  9.162430337479E-002  1.851965303985E-002
   7.000000000000E+001  1.000000000000E+000 -9.456152500938E-001 -3.121599253250E-001 -8.686298668276E-002 -2.868451421975E-002
   7.050000000000E+001  1.000000000000E+000  9.856170187567E-001  1.414361490876E-001  9.155336353420E-002  1.314875257400E-002
   7.100000000000E+001  1.000000000000E+000 -9.212068400532E-001  3.765128441307E-001 -9.080184420225E-002  3.702784267866E-002
   7.150000000000E+001  1.000000000000E+000  2.665362309526E-001 -9.575780016868E-001  2.965530112387E-002 -1.054673949173E-001
   7.200000000000E+001  1.000000000000E+000  8.482183972345E-001  5.139779079498E-001  1.089880788166E-001  6.688691507887E-002
   7.250000000000E+001  1.000000000000E+000 -4.391119259039E-001  8.853538086866E-001 -6.911831817854E-002  1.362057563603E-001
   7.300000000000E+001  1.000000000000E+000 -9.797993026644E-001 -8.059550445599E-002 -1.822084073282E-001 -1.725651932445E-002
   7.350000000000E+001  1.000000000000E+000 -4.740764154059E-001 -8.529556237757E-001 -1.031536651700E-001 -1.925553883628E-001
   7.400000000000E+001  1.000000000000E+000  3.605659277989E-001 -9.073902285488E-001  7.949026862498E-002 -2.007896462443E-001
   7.450000000000E+001  1.000000000000E+000  9.248647953012E-001 -3.223917063970E-001  1.895356685378E-001 -6.902846087675E-002
   7.500000000000E+001  1.000000000000E+000  8.553667737580E-001  4.837094025039E-001  1.626654751758E-001  8.895414249005E-002
   7.550000000000E+001  1.000000000000E+000  1.856673206696E-001  9.679728706410E-001  3.475750796446E-002  1.653725593279E-001
   7.600000000000E+001  1.000000000000E+000 -6.373402013251E-001  7.550288633766E-001 -9.729932340075E-002  1.194224640048E-001
   7.650000000000E+001  1.000000000000E+000 -9.886970591713E-001 -5.301794903283E-002 -1.401493203512E-001 -5.038876018569E-003
   7.700000000000E+001  1.000000000000E+000 -4.994481526076E-001 -8.571772736035E-001 -6.545498528190E-002 -1.073047500173E-001
   7.750000000000E+001  9.999999999999E-001  5.764751951066E-001 -8.100074783636E-001  5.998633087464E-002 -8.925174804944E-002
   7.800000000000E+001  9.999999999998E-001  8.714650658959E-001  4.831202889485E-001  7.535490429910E-002  3.827615089328E-002
   7.850000000000E+001  9.999999999997E-001 -7.539681811218E-001  6.543295260742E-001 -4.200719727417E-002  4.025231099400E-002
   7.900000000000E+001  9.999999999996E-001  7.763110239839E-002 -9.964799248855E-001  1.077435616848E-005 -3.164128828303E-002
   7.950000000000E+001  9.999999999997E-001  5.391446434947E-001  8.421772345595E-001  5.753762168205E-003  5.239580255214E-003
   8.000000000000E+001  9.999999999995E-001 -9.996958207596E-001 -2.120320048148E-002  1.244515962820E-002  1.951472893556E-003
   8.050000000000E+001  9.999999999995E-001  1.214914975217E-001 -9.921885107311E-001 -4.831047544279E-003  2.790046921230E-002
   8.100000000000E+001  9.999999999997E-001  9.922241996948E-001  1.176953757500E-001 -4.005597501101E-002 -5.869832433430E-003
   8.150000000000E+001  9.999999999997E-001 -4.165098646073E-001  9.078172614918E-001  2.108293480439E-002 -4.407791149805E-002
   8.200000000000E+001  9.999999999999E-001 -5.299769702365E-001 -8.464102767478E-001  2.740174793979E-002  4.430799752180E-002
   8.250000000000E+001  9.999999999999E-001  9.973235814409E-001 -5.464203871274E-002 -4.847349066905E-002  3.200345197103E-003
   8.300000000000E+001  1.000000000000E+000 -6.518253026190E-002  9.971890020812E-001  5.165603603997E-004 -3.694678663124E-002
   8.350000000000E+001  9.999999999999E-001 -9.395253051930E-001  3.420686964753E-001  1.401874889795E-002 -9.202308016454E-003
   8.400000000000E+001  9.999999999998E-001 -9.619187273738E-001 -2.729731242941E-001 -1.050107693108E-002 -9.368176113953E-003
   8.450000000000E+001  9.999999999998E-001 -8.829596951698E-001 -4.669486187355E-001 -3.845043502676E-002 -2.937223540708E-002
   8.500000000000E+001  9.999999999998E-001 -9.015967031454E-001 -4.240794531892E-001 -7.316730623819E-002 -4.389245445042E-002
   8.550000000000E+001  9.999999999998E-001 -9.555943348128E-001 -2.689867220043E-001 -1.134682588121E-001 -4.013184397733E-002
   8.600000000000E+001  9.999999999997E-001 -9.849049397900E-001 -8.402389939377E-002 -1.500799856481E-001 -1.944843992361E-002
   8.650000000000E+001  9.999999999996E-001 -9.823007806625E-001  5.736151490953E-002 -1.782407832583E-001  5.005606876097E-003
   8.700000000000E+001  9.999999999997E-001 -9.760772123410E-001  7.958789525940E-002 -2.019741774041E-001  1.206126604195E-002
   8.750000000000E+001  9.999999999996E-001 -9.685541689753E-001 -1.074252038102E-001 -2.226258436243E-001 -2.829100735592E-002
   8.800000000000E+001  9.999999999995E-001 -7.847366067480E-001 -5.693337173148E-001 -1.966530717587E-001 -1.462024135422E-001
   8.850000000000E+001  9.999999999995E-001  5.019918265129E-003 -9.644737659299E-001  3.559080500054E-003 -2.641069635568E-001
   8.900000000000E+001  9.999999999994E-001  9.522756814144E-001 -1.185854499560E-001  2.792963830149E-001 -3.319710950938E-002
   8.950000000000E+001  9.999999999995E-001 -1.913061129000E-001  9.357619685670E-001 -6.037030450934E-002  2.900119578288E-001
   9.000000000000E+001  9.999999999995E-001 -6.613080996443E-001 -6.832716508092E-001 -2.147854029412E-001 -2.228871446007E-001
   9.050000000000E+001  9.999999999994E-001  9.404049413659E-001 -1.073940509096E-001  3.206127460297E-001 -3.622887200178E-002
   9.100000000000E+001  9.999999999996E-001 -5.904060042835E-001  7.331329854955E-001 -2.118011824700E-001  2.628251030405E-001
   9.150000000000E+001  9.999999999995E-001  5.055425007940E-001 -7.862469165825E-001  1.920820136666E-001 -2.989097958929E-001
   9.200000000000E+001  9.999999999996E-001 -9.225453096947E-001 -5.181554498067E-002 -3.817957651053E-001 -2.138444775673E-002
   9.250000000000E+001  9.999999999995E-001 -4.115807124773E-001  8.210431288404E-001 -1.773423563811E-001  3.536088040946E-001
   9.300000000000E+001  9.999999999997E-001  4.008970183558E-001  8.209728913385E-001  1.783395688007E-001  3.653492720129E-001
   9.350000000000E+001  9.999999999996E-001  8.989910647473E-001 -1.366971248488E-001  4.113675839423E-001 -6.249537937818E-002
   9.400000000000E+001  9.999999999995E-001 -5.049674100099E-001 -7.516796023046E-001 -2.365367372494E-001 -3.521875384481E-001
   9.450000000000E+001  9.999999999997E-001  2.773069866880E-001  8.591426931587E-001  1.320775941249E-001  4.093045040747E-001
   9.500000000000E+001  9.999999999996E-001 -6.161817517811E-001 -6.579533119091E-001 -2.959130038451E-001 -3.159952250824E-001
   9.550000000000E+001  9.999999999997E-001  8.919116448200E-001 -1.302584550977E-001  4.284978940424E-001 -6.257721239322E-002
   9.600000000000E+001  9.999999999998E-001 -4.655554178036E-002  9.044581121387E-001 -2.168325237861E-002  4.234594921384E-001
   9.650000000000E+001  9.999999999996E-001 -9.030802177095E-001  1.255526691951E-001 -4.067373598356E-001  5.698568024809E-002
   9.700000000000E+001  9.999999999996E-001 -5.850890495499E-001 -7.021178524625E-001 -2.601528524338E-001 -3.114832559231E-001
   9.750000000000E+001  9.999999999996E-001  6.996195349621E-003 -9.130719111744E-001  3.254001951521E-003 -4.077255814220E-001
   9.800000000000E+001  9.999999999996E-001  4.293376853610E-001 -8.020170558343E-001  1.970417980184E-001 -3.655301956243E-001
   9.850000000000E+001  9.999999999996E-001  6.925138488005E-001 -5.812419246529E-001  3.287652149021E-001 -2.729392381377E-001
   9.900000000000E+001  9.999999999997E-001  8.561236439242E-001 -2.667355732437E-001  4.234980649697E-001 -1.286616852328E-001
   9.950000000000E+001  9.999999999995E-001  8.678164944534E-001  1.894925425804E-001  4.479944819732E-001  1.014300368832E-001
   1.000000000000E+002  9.999999999995E-001  5.242661209820E-001  7.066817387859E-001  2.804511550959E-001  3.835271881652E-001
