#                    1                    2                    3                    4                    5                    6                    7                    8                    9                   10
#               Time |               Ekin |               Epot |               Etot |  Energy          1 |  Energy          2 | Spin             1 | Spin             2 | f_osc            1 | f_osc            2 |
#               [fs] |               [eV] |               [eV] |               [eV] |               [eV] |               [eV] |                 [] |                 [] |                 [] |                 [] |
   0.000000000000E+000  7.706806637773E-001  1.021472709866E+001  1.098540776244E+001  1.492172425104E+000  1.021472709866E+001  0.000000000000E+000  0.000000000000E+000  0.000000000000E+000  3.553752243645E-001
   5.000000000000E-001  6.441230053587E-001  1.034514146540E+001  1.098926447076E+001  1.661751320295E+000  1.034514146540E+001  0.000000000000E+000  0.000000000000E+000  0.000000000000E+000  3.507099945040E-001
   1.000000000000E+000  6.524184042858E-001  1.033541802161E+001  1.098783642589E+001  1.729092420389E+000  1.033541802161E+001  0.000000000000E+000  0.000000000000E+000  0.000000000000E+000  3.409657651499E-001
   1.500000000000E+000  7.782187164918E-001  1.020517971252E+001  1.098339842901E+001  1.709761725408E+000  1.020517971252E+001  0.000000000000E+000  0.000000000000E+000  0.000000000000E+000  3.270366087648E-001
   2.000000000000E+000  9.572668147647E-001  1.002216084272E+001  1.097942765749E+001  1.669114720767E+000  1.002216084272E+001  0.000000000000E+000  0.000000000000E+000  0.000000000000E+000  3.097318981013E-001
   2.500000000000E+000  1.126492526011E+000  9.851158247930E+000  1.097765077394E+001  1.670817881283E+000  9.851158247930E+000  0.000000000000E+000  0.000000000000E+000  0.000000000000E+000  2.898547952581E-001
   3.000000000000E+000  1.252104600953E+000  9.725797035170E+000  1.097790163612E+001  1.747565140436E+000  9.725797035170E+000  0.000000000000E+000  0.000000000000E+000  0.000000000000E+000  2.682923021489E-001
   3.500000000000E+000  1.331183747021E+000  9.648011389609E+000  1.097919513663E+001  1.899521399211E+000  9.648011389609E+000  0.000000000000E+000  0.000000000000E+000  0.000000000000E+000  2.460306728177E-001
   4.000000000000E+000  1.378900776869E+000  9.601676117286E+000  1.098057689416E+001  2.107396235478E+000  9.601676117286E+000  0.000000000000E+000  0.000000000000E+000  0.000000000000E+000  2.240515686975E-001
   4.500000000000E+000  1.414673587258E+000  9.566916295544E+000  1.098158988280E+001  2.346975871421E+000  9.566916295544E+000  0.000000000000E+000  0.000000000000E+000  0.000000000000E+000  2.031269819557E-001
   5.000000000000E+000  1.454765152109E+000  9.527541423098E+000  1.098230657521E+001  2.597898844840E+000  9.527541423098E+000  0.000000000000E+000  0.000000000000E+000  0.000000000000E+000  1.835956874843E-001
   5.500000000000E+000  1.512300297356E+000  9.470798884904E+000  1.098309918226E+001  2.844983380451E+000  9.470798884904E+000  0.000000000000E+000  0.000000000000E+000  0.000000000000E+000  1.652978463778E-001
   6.000000000000E+000  1.601849826614E+000  9.382485154928E+000  1.098433498154E+001  3.074492355342E+000  9.382485154928E+000  0.000000000000E+000  0.000000000000E+000  0.000000000000E+000  1.476802118553E-001
   6.500000000000E+000  1.743250398194E+000  9.242623539937E+000  1.098587393813E+001  3.270134586108E+000  9.242623539937E+000  0.000000000000E+000  0.000000000000E+000  0.000000000000E+000  1.299969675591E-001
   7.000000000000E+000  1.958491938138E+000  9.028412260825E+000  1.098690419896E+001  3.415781069194E+000  9.028412260825E+000  0.000000000000E+000  0.000000000000E+000  0.000000000000E+000  1.115144633679E-001
   7.500000000000E+000  2.259577559743E+000  8.726783322607E+000  1.098636088235E+001  3.507575679393E+000  8.726783322607E+000  0.000000000000E+000  0.000000000000E+000  0.000000000000E+000  9.171022756517E-002
   8.000000000000E+000  2.634819620871E+000  8.349111900079E+000  1.098393152095E+001  3.567292149729E+000  8.349111900079E+000  0.000000000000E+000  0.000000000000E+000  0.000000000000E+000  7.058953468146E-002
   8.500000000000E+000  3.045266365521E+000  7.934824023087E+000  1.098009038861E+001  3.640965066733E+000  7.934824023087E+000  0.000000000000E+000  0.000000000000E+000  0.000000000000E+000  4.915719391931E-002
   9.000000000000E+000  3.433365707377E+000  7.542168107809E+000  1.097553381519E+001  3.776610005682E+000  7.542168107809E+000  0.000000000000E+000  0.000000000000E+000  0.000000000000E+000  2.945722014181E-002
   9.500000000000E+000  3.736314403902E+000  7.234771716782E+000  1.097108612068E+001  3.991597625575E+000  7.234771716782E+000  0.000000000000E+000  0.000000000000E+000  0.000000000000E+000  1.356093999254E-002
   1.000000000000E+001  3.898897144445E+000  7.068889760202E+000  1.096778690465E+001  4.249329703578E+000  7.068889760202E+000  0.000000000000E+000  0.000000000000E+000  0.000000000000E+000  3.151960897876E-003
   1.050000000000E+001  3.888975155517E+000  7.079002598900E+000  1.096797775442E+001  4.470756625348E+000  7.079002598900E+000  0.000000000000E+000  0.000000000000E+000  0.000000000000E+000  4.103300996355E-004
   1.100000000000E+001  3.718681492928E+000  7.254003906553E+000  1.097268539948E+001  4.596641657247E+000  7.254003906553E+000  0.000000000000E+000  0.000000000000E+000  0.000000000000E+000  6.065064686173E-003
   1.150000000000E+001  3.442857775180E+000  7.534735318307E+000  1.097759309349E+001  4.637330295305E+000  7.534735318307E+000  0.000000000000E+000  0.000000000000E+000  0.000000000000E+000  1.669171653031E-002
   1.200000000000E+001  3.120440188441E+000  7.859801149330E+000  1.098024133777E+001  4.641094990262E+000  7.859801149330E+000  0.000000000000E+000  0.000000000000E+000  0.000000000000E+000  2.795244462854E-002
   1.250000000000E+001  2.786741610263E+000  8.194658180493E+000  1.098139979076E+001  4.648640162779E+000  8.194658180493E+000  0.000000000000E+000  0.000000000000E+000  0.000000000000E+000  3.748789357067E-002
   1.300000000000E+001  2.458040757422E+000  8.524155929604E+000  1.098219668703E+001  4.681589611154E+000  8.524155929604E+000  0.000000000000E+000  0.000000000000E+000  0.000000000000E+000  4.465874577882E-002
   1.350000000000E+001  2.144913672640E+000  8.838284961226E+000  1.098319863387E+001  4.744937712780E+000  8.838284961226E+000  0.000000000000E+000  0.000000000000E+000  0.000000000000E+000  4.974745489828E-002
   1.400000000000E+001  1.860166845719E+000  9.124270346976E+000  1.098443719269E+001  4.830392614767E+000  9.124270346976E+000  0.000000000000E+000  0.000000000000E+000  0.000000000000E+000  5.341417124890E-002
   1.450000000000E+001  1.619717035391E+000  9.365915326954E+000  1.098563236234E+001  4.920798900162E+000  9.365915326954E+000  0.000000000000E+000  0.000000000000E+000  0.000000000000E+000  5.636258306618E-002
   1.500000000000E+001  1.438838169367E+000  9.547581790970E+000  1.098641996034E+001  4.996462874123E+000  9.547581790970E+000  0.000000000000E+000  0.000000000000E+000  0.000000000000E+000  5.916075845285E-002
   1.550000000000E+001  1.327388494447E+000  9.659192275124E+000  1.098658076957E+001  5.042052554529E+000  9.659192275124E+000  0.000000000000E+000  0.000000000000E+000  0.000000000000E+000  6.217172930765E-002
   1.600000000000E+001  1.286226774138E+000  9.699750026425E+000  1.098597680056E+001  5.052310157789E+000  9.699750026425E+000  0.000000000000E+000  0.000000000000E+000  0.000000000000E+000  6.556539722294E-002
   1.650000000000E+001  1.305382442412E+000  9.679189104781E+000  1.098457154719E+001  5.036084553820E+000  9.679189104781E+000  0.000000000000E+000  0.000000000000E+000  0.000000000000E+000  6.933673762805E-002
   1.700000000000E+001  1.364016553580E+000  9.618472616088E+000  1.098248916967E+001  5.018184089176E+000  9.618472616088E+000  0.000000000000E+000  0.000000000000E+000  0.000000000000E+000  7.328535288027E-002
   1.750000000000E+001  1.433406669193E+000  9.546831845230E+000  1.098023851442E+001  5.037039401280E+000  9.546831845230E+000  0.000000000000E+000  0.000000000000E+000  0.000000000000E+000  7.691676621126E-002
   1.800000000000E+001  1.486194671850E+000  9.492761192818E+000  1.097895586467E+001  5.133953017011E+000  9.492761192818E+000  0.000000000000E+000  0.000000000000E+000  0.000000000000E+000  7.929509744682E-002
   1.850000000000E+001  1.513938258618E+000  9.466096757773E+000  1.098003501639E+001  5.329912260399E+000  9.466096757773E+000  0.000000000000E+000  0.000000000000E+000  0.000000000000E+000  7.900629172788E-002
   1.900000000000E+001  1.543921096238E+000  9.439370825001E+000  1.098329192124E+001  5.598347119901E+000  9.439370825001E+000  0.000000000000E+000  0.000000000000E+000  0.000000000000E+000  7.453184109468E-002
   1.950000000000E+001  1.630817332773E+000  9.354705325259E+000  1.098552265803E+001  5.864074990937E+000  9.354705325259E+000  0.000000000000E+000  0.000000000000E+000  0.000000000000E+000  6.518995597500E-002
   2.000000000000E+001  1.812490662955E+000  9.171215698525E+000  1.098370636148E+001  6.051174207740E+000  9.171215698525E+000  0.000000000000E+000  0.000000000000E+000  0.000000000000E+000  5.201934990350E-002
   2.050000000000E+001  2.072576757447E+000  8.906837784243E+000  1.097941454169E+001  6.136277810762E+000  8.906837784243E+000  0.000000000000E+000  0.000000000000E+000  0.000000000000E+000  3.752932003274E-002
   2.100000000000E+001  2.356574853216E+000  8.619378085715E+000  1.097595293893E+001  6.146020846753E+000  8.619378085715E+000  0.000000000000E+000  0.000000000000E+000  0.000000000000E+000  2.446131679228E-002
   2.150000000000E+001  2.611443486274E+000  8.362586433139E+000  1.097402991941E+001  6.128221608457E+000  8.362586433139E+000  0.000000000000E+000  0.000000000000E+000  0.000000000000E+000  1.461291588297E-002
   2.200000000000E+001  2.800550052462E+000  8.172538046553E+000  1.097308809901E+001  6.141737230706E+000  8.172538046553E+000  0.000000000000E+000  0.000000000000E+000  0.000000000000E+000  8.292253044838E-003
   2.250000000000E+001  2.902054924013E+000  8.071101626710E+000  1.097315655072E+001  6.241521375321E+000  8.071101626710E+000  0.000000000000E+000  0.000000000000E+000  0.000000000000E+000  4.710156167746E-003
   2.300000000000E+001  2.911020242781E+000  8.063261482793E+000  1.097428172557E+001  6.453425945423E+000  8.063261482793E+000  0.000000000000E+000  0.000000000000E+000  0.000000000000E+000  2.907566966626E-003
   2.350000000000E+001  2.840369830399E+000  8.135536278894E+000  1.097590610929E+001  6.766810201468E+000  8.135536278894E+000  0.000000000000E+000  0.000000000000E+000  0.000000000000E+000  2.291289036609E-003
   2.400000000000E+001  2.712873925298E+000  8.264165306742E+000  1.097703923204E+001  7.146411999567E+000  8.264165306742E+000  0.000000000000E+000  0.000000000000E+000  0.000000000000E+000  2.672854904293E-003
   2.450000000000E+001  2.548353904565E+000  8.428478527042E+000  1.097683243161E+001  7.543983651340E+000  8.428478527042E+000  0.000000000000E+000  0.000000000000E+000  0.000000000000E+000  4.104572132909E-003
   2.500000000000E+001  2.355750550698E+000  8.620239326014E+000  1.097598987671E+001  7.899191532264E+000  8.620239326014E+000  0.000000000000E+000  0.000000000000E+000  0.000000000000E+000  6.289630119953E-003
   2.550000000000E+001  2.151416809042E+000  8.828347908068E+000  1.097976471711E+001  8.146880160597E+000  8.828347908068E+000  0.000000000000E+000  0.000000000000E+000  0.000000000000E+000  7.487336974236E-003
   2.600000000000E+001  1.998107573247E+000  8.988769356248E+000  1.098687692950E+001  8.256414416163E+000  8.988769356248E+000  0.000000000000E+000  0.000000000000E+000  0.000000000000E+000  6.582123449232E-003
   2.650000000000E+001  2.758199349015E+000  8.228677580481E+000  1.098687692950E+001  8.228677580481E+000  9.003683099400E+000  0.000000000000E+000  0.000000000000E+000  0.000000000000E+000  4.673292578727E-003
   2.700000000000E+001  2.935354731651E+000  8.048918906588E+000  1.098427363824E+001  8.048918906588E+000  8.873862212940E+000  0.000000000000E+000  0.000000000000E+000  0.000000000000E+000  2.800920392944E-003
   2.750000000000E+001  3.218594349728E+000  7.760829536637E+000  1.097942388637E+001  7.760829536637E+000  8.692168809654E+000  0.000000000000E+000  0.000000000000E+000  0.000000000000E+000  1.852717097612E-003
   2.800000000000E+001  3.543855884547E+000  7.429583728226E+000  1.097343961277E+001  7.429583728226E+000  8.513016677507E+000  0.000000000000E+000  0.000000000000E+000  0.000000000000E+000  1.621664339328E-003
   2.850000000000E+001  3.833233502970E+000  7.135466764637E+000  1.096870026761E+001  7.135466764637E+000  8.416383611144E+000  0.000000000000E+000  0.000000000000E+000  0.000000000000E+000  2.031842652445E-003
   2.900000000000E+001  4.032388996161E+000  6.936132221195E+000  1.096852121736E+001  6.936132221195E+000  8.464892800923E+000  0.000000000000E+000  0.000000000000E+000  0.000000000000E+000  3.204346866791E-003
   2.950000000000E+001  4.154656728027E+000  6.819455249480E+000  1.097411197751E+001  6.819455249480E+000  8.650574304627E+000  0.000000000000E+000  0.000000000000E+000  0.000000000000E+000  5.379526239769E-003
   3.000000000000E+001  4.287688942264E+000  6.692736732894E+000  1.098042567516E+001  6.692736732894E+000  8.879072648721E+000  0.000000000000E+000  0.000000000000E+000  0.000000000000E+000  8.805432645862E-003
   3.050000000000E+001  4.524380585376E+000  6.456217833407E+000  1.098059841878E+001  6.456217833407E+000  9.040282410692E+000  0.000000000000E+000  0.000000000000E+000  0.000000000000E+000  1.361242007769E-002
   3.100000000000E+001  4.880236587201E+000  6.095247941951E+000  1.097548452915E+001  6.095247941951E+000  9.100168135836E+000  0.000000000000E+000  0.000000000000E+000  0.000000000000E+000  1.968966604969E-002
   3.150000000000E+001  5.295412457424E+000  5.674425251125E+000  1.096983770855E+001  5.674425251125E+000  9.097727274704E+000  0.000000000000E+000  0.000000000000E+000  0.000000000000E+000  2.667046955674E-002
   3.200000000000E+001  5.688210936541E+000  5.277140135224E+000  1.096535107177E+001  5.277140135224E+000  9.091326612992E+000  0.000000000000E+000  0.000000000000E+000  0.000000000000E+000  3.412291944067E-002
   3.250000000000E+001  5.987183368678E+000  4.975760725397E+000  1.096294409407E+001  4.975760725397E+000  9.136799284447E+000  0.000000000000E+000  0.000000000000E+000  0.000000000000E+000  4.182363643023E-002
   3.300000000000E+001  6.149457390212E+000  4.814025239489E+000  1.096348262970E+001  4.814025239489E+000  9.272615655113E+000  0.000000000000E+000  0.000000000000E+000  0.000000000000E+000  4.983579671958E-002
   3.350000000000E+001  6.173869690495E+000  4.792422121843E+000  1.096629181234E+001  4.792422121843E+000  9.502110207970E+000  0.000000000000E+000  0.000000000000E+000  0.000000000000E+000  5.830348710487E-002
   3.400000000000E+001  6.094856924786E+000  4.874995338280E+000  1.096985226307E+001  4.874995338280E+000  9.796415202222E+000  0.000000000000E+000  0.000000000000E+000  0.000000000000E+000  6.718853528015E-002
   3.450000000000E+001  5.962465356677E+000  5.010562180557E+000  1.097302753723E+001  5.010562180557E+000  1.011457233500E+001  0.000000000000E+000  0.000000000000E+000  0.000000000000E+000  7.629714195902E-002
   3.500000000000E+001  5.824917846023E+000  5.150465428965E+000  1.097538327499E+001  5.150465428965E+000  1.042134531322E+001  0.000000000000E+000  0.000000000000E+000  0.000000000000E+000  8.558014870794E-002
   3.550000000000E+001  5.720113087182E+000  5.256759625055E+000  1.097687271224E+001  5.256759625055E+000  1.069443032611E+001  0.000000000000E+000  0.000000000000E+000  0.000000000000E+000  9.529273234118E-002
   3.600000000000E+001  5.673645570761E+000  5.303871510273E+000  1.097751708103E+001  5.303871510273E+000  1.092410474621E+001  0.000000000000E+000  0.000000000000E+000  0.000000000000E+000  1.058732575093E-001
   3.650000000000E+001  5.699059861001E+000  5.278219610822E+000  1.097727947182E+001  5.278219610822E+000  1.110987251000E+001  0.000000000000E+000  0.000000000000E+000  0.000000000000E+000  1.177279152545E-001
   3.700000000000E+001  5.797060027336E+000  5.178726083787E+000  1.097578611112E+001  5.178726083787E+000  1.125404876202E+001  0.000000000000E+000  0.000000000000E+000  0.000000000000E+000  1.308414782410E-001
   3.750000000000E+001  5.951029168555E+000  5.021082917898E+000  1.097211208645E+001  5.021082917898E+000  1.134433803846E+001  0.000000000000E+000  0.000000000000E+000  0.000000000000E+000  1.430805185846E-001
   3.800000000000E+001  6.118652832962E+000  4.847143670558E+000  1.096579650352E+001  4.847143670558E+000  1.129516162555E+001  0.000000000000E+000  0.000000000000E+000  0.000000000000E+000  1.415725357186E-001
   3.850000000000E+001  6.337520845322E+000  4.721682047791E+000  1.105920289311E+001  4.721682047791E+000  1.069101366475E+001  0.000000000000E+000  0.000000000000E+000  0.000000000000E+000  1.351060198615E-001
   3.900000000000E+001  6.578611278701E+000  4.468841488152E+000  1.104745276685E+001  4.468841488152E+000  1.052607403839E+001  0.000000000000E+000  0.000000000000E+000  0.000000000000E+000  1.310291976217E-001
   3.950000000000E+001  6.691799289781E+000  4.349577530173E+000  1.104137681995E+001  4.349577530173E+000  1.057392226366E+001  0.000000000000E+000  0.000000000000E+000  0.000000000000E+000  1.431168005093E-001
   4.000000000000E+001  6.597791808857E+000  4.442745498916E+000  1.104053730777E+001  4.442745498916E+000  1.078995344012E+001  0.000000000000E+000  0.000000000000E+000  0.000000000000E+000  1.547937630837E-001
   4.050000000000E+001  6.318382260009E+000  4.732524967918E+000  1.105090722793E+001  4.732524967918E+000  1.105862395021E+001  0.000000000000E+000  0.000000000000E+000  0.000000000000E+000  1.543876983144E-001
   4.100000000000E+001  6.028776528129E+000  5.040638651023E+000  1.106941517915E+001  5.040638651023E+000  1.114568323539E+001  0.000000000000E+000  0.000000000000E+000  0.000000000000E+000  1.388591911034E-001
   4.150000000000E+001  5.974366971002E+000  5.100872409767E+000  1.107523938077E+001  5.100872409767E+000  1.082216409943E+001  0.000000000000E+000  0.000000000000E+000  0.000000000000E+000  1.145837772794E-001
   4.200000000000E+001  6.221074448441E+000  4.838390584711E+000  1.105946503315E+001  4.838390584711E+000  1.008327978778E+001  0.000000000000E+000  0.000000000000E+000  0.000000000000E+000  8.802947307962E-002
   4.250000000000E+001  6.559345658497E+000  4.481575871570E+000  1.104092153007E+001  4.481575871570E+000  9.216021691075E+000  0.000000000000E+000  0.000000000000E+000  0.000000000000E+000  6.295105138931E-002
   4.300000000000E+001  6.720052153501E+000  4.315743439709E+000  1.103579559321E+001  4.315743439709E+000  8.549614084002E+000  0.000000000000E+000  0.000000000000E+000  0.000000000000E+000  4.126331422881E-002
   4.350000000000E+001  6.591881592810E+000  4.450496389495E+000  1.104237798230E+001  4.450496389495E+000  8.226745027999E+000  0.000000000000E+000  0.000000000000E+000  0.000000000000E+000  2.392004506700E-002
   4.400000000000E+001  6.229857181713E+000  4.823114658040E+000  1.105297183975E+001  4.823114658040E+000  8.212434561227E+000  0.000000000000E+000  0.000000000000E+000  0.000000000000E+000  1.147086875779E-002
   4.450000000000E+001  5.759790690507E+000  5.302630399055E+000  1.106242108956E+001  5.302630399055E+000  8.403499020886E+000  0.000000000000E+000  0.000000000000E+000  0.000000000000E+000  4.157669251696E-003
   4.500000000000E+001  5.301517121961E+000  5.766836471283E+000  1.106835359324E+001  5.766836471283E+000  8.706446894879E+000  0.000000000000E+000  0.000000000000E+000  0.000000000000E+000  1.302829359906E-003
   4.550000000000E+001  4.933837785005E+000  6.136253048403E+000  1.107009083341E+001  6.136253048403E+000  9.054170556787E+000  0.000000000000E+000  0.000000000000E+000  0.000000000000E+000  9.851063391879E-004
   4.600000000000E+001  4.688198879372E+000  6.380684746202E+000  1.106888362557E+001  6.380684746202E+000  9.386452302581E+000  0.000000000000E+000  0.000000000000E+000  0.000000000000E+000  2.870742996188E-003
   4.650000000000E+001  4.561393113771E+000  6.505289210377E+000  1.106668232415E+001  6.505289210377E+000  9.671252904678E+000  0.000000000000E+000  0.000000000000E+000  0.000000000000E+000  7.132546796810E-003
   4.700000000000E+001  4.535131194126E+000  6.529469246075E+000  1.106460044020E+001  6.529469246075E+000  9.903284102738E+000  0.000000000000E+000  0.000000000000E+000  0.000000000000E+000  1.283248903749E-002
   4.750000000000E+001  4.589403376816E+000  6.473456245082E+000  1.106285962190E+001  6.473456245082E+000  1.008348033568E+001  0.000000000000E+000  0.000000000000E+000  0.000000000000E+000  1.954932015995E-002
   4.800000000000E+001  4.706572608478E+000  6.354718827381E+000  1.106129143586E+001  6.354718827381E+000  1.021977072866E+001  0.000000000000E+000  0.000000000000E+000  0.000000000000E+000  2.725726377762E-002
   4.850000000000E+001  4.870226681666E+000  6.189407765635E+000  1.105963444730E+001  6.189407765635E+000  1.033077902489E+001  0.000000000000E+000  0.000000000000E+000  0.000000000000E+000  3.616840491820E-002
   4.900000000000E+001  5.062387544524E+000  5.995304066513E+000  1.105769161104E+001  5.995304066513E+000  1.044796022354E+001  0.000000000000E+000  0.000000000000E+000  0.000000000000E+000  4.686495908751E-002
   4.950000000000E+001  5.263031279731E+000  5.792857629213E+000  1.105588890894E+001  5.792857629213E+000  1.061419674446E+001  0.000000000000E+000  0.000000000000E+000  0.000000000000E+000  6.067954861275E-002
   5.000000000000E+001  5.459901062642E+000  5.596105990327E+000  1.105600705297E+001  5.596105990327E+000  1.087027246552E+001  0.000000000000E+000  0.000000000000E+000  0.000000000000E+000  8.031804531396E-002
   5.050000000000E+001  5.674949687220E+000  5.385315998507E+000  1.106026568573E+001  5.385315998507E+000  1.121780047758E+001  0.000000000000E+000  0.000000000000E+000  0.000000000000E+000  1.105120463905E-001
   5.100000000000E+001  5.986106384102E+000  5.080491899597E+000  1.106659828370E+001  5.080491899597E+000  1.157875975660E+001  0.000000000000E+000  0.000000000000E+000  0.000000000000E+000  1.581742095466E-001
   5.150000000000E+001  6.489593568905E+000  4.579442702078E+000  1.106903627098E+001  4.579442702078E+000  1.184358611449E+001  0.000000000000E+000  0.000000000000E+000  0.000000000000E+000  2.338223002730E-001
   5.200000000000E+001  7.300579886922E+000  3.813814498151E+000  1.111439438507E+001  3.813814498151E+000  1.213391362076E+001  0.000000000000E+000  0.000000000000E+000  0.000000000000E+000  3.786833599331E-001
   5.250000000000E+001  8.101077992923E+000  3.137453238975E+000  1.123853123190E+001  3.137453238975E+000  1.158649894628E+001  0.000000000000E+000  0.000000000000E+000  0.000000000000E+000  4.100459461972E-001
   5.300000000000E+001  8.531837491914E+000  2.696070442847E+000  1.122790793476E+001  2.696070442847E+000  1.094499193235E+001  0.000000000000E+000  0.000000000000E+000  0.000000000000E+000  3.582339100811E-001
   5.350000000000E+001  8.680376304964E+000  2.558784385338E+000  1.123916069030E+001  2.558784385338E+000  1.030940584343E+001  0.000000000000E+000  0.000000000000E+000  0.000000000000E+000  2.856987487889E-001
   5.400000000000E+001  8.610563850286E+000  2.636835069777E+000  1.124739892006E+001  2.636835069777E+000  9.715999848525E+000  0.000000000000E+000  0.000000000000E+000  0.000000000000E+000  2.138669338252E-001
   5.450000000000E+001  8.413131273578E+000  2.834303184400E+000  1.124743445798E+001  2.834303184400E+000  9.225923097320E+000  0.000000000000E+000  0.000000000000E+000  0.000000000000E+000  1.543122746482E-001
   5.500000000000E+001  8.101365491915E+000  3.143428314643E+000  1.124479380656E+001  3.143428314643E+000  8.899061587077E+000  0.000000000000E+000  0.000000000000E+000  0.000000000000E+000  1.080744037817E-001
   5.550000000000E+001  7.657817551954E+000  3.586921625704E+000  1.124473917766E+001  3.586921625704E+000  8.783108438173E+000  0.000000000000E+000  0.000000000000E+000  0.000000000000E+000  7.343932896109E-002
   5.600000000000E+001  7.093489210244E+000  4.154517895136E+000  1.124800710538E+001  4.154517895136E+000  8.872297014140E+000  0.000000000000E+000  0.000000000000E+000  0.000000000000E+000  4.821627039422E-002
   5.650000000000E+001  6.458860687153E+000  4.793765275750E+000  1.125262596290E+001  4.793765275750E+000  9.107437657034E+000  0.000000000000E+000  0.000000000000E+000  0.000000000000E+000  3.046709308364E-002
   5.700000000000E+001  5.820708574043E+000  5.435994751922E+000  1.125670332596E+001  5.435994751922E+000  9.409647830411E+000  0.000000000000E+000  0.000000000000E+000  0.000000000000E+000  1.878586212626E-002
   5.750000000000E+001  5.237273541861E+000  6.022091769126E+000  1.125936531099E+001  6.022091769126E+000  9.712942921662E+000  0.000000000000E+000  0.000000000000E+000  0.000000000000E+000  1.191832845927E-002
   5.800000000000E+001  4.745933565950E+000  6.514542713572E+000  1.126047627952E+001  6.514542713572E+000  9.975877544145E+000  0.000000000000E+000  0.000000000000E+000  0.000000000000E+000  8.301095762763E-003
   5.850000000000E+001  4.361413513506E+000  6.898859972381E+000  1.126027348589E+001  6.898859972381E+000  1.017766383327E+001  0.000000000000E+000  0.000000000000E+000  0.000000000000E+000  6.417291431498E-003
   5.900000000000E+001  4.079039070620E+000  7.180011800016E+000  1.125905087064E+001  7.180011800016E+000  1.031337544011E+001  0.000000000000E+000  0.000000000000E+000  0.000000000000E+000  5.206552980466E-003
   5.950000000000E+001  3.879615876927E+000  7.377554201717E+000  1.125717007864E+001  7.377554201717E+000  1.039160272643E+001  0.000000000000E+000  0.000000000000E+000  0.000000000000E+000  4.066591514188E-003
   6.000000000000E+001  3.735296866769E+000  7.519815588651E+000  1.125511245542E+001  7.519815588651E+000  1.043115556133E+001  0.000000000000E+000  0.000000000000E+000  0.000000000000E+000  2.768003215729E-003
   6.050000000000E+001  3.617751832108E+000  7.635946427892E+000  1.125369826000E+001  7.635946427892E+000  1.045437040924E+001  0.000000000000E+000  0.000000000000E+000  0.000000000000E+000  1.438545569767E-003
   6.100000000000E+001  3.510393187208E+000  7.743658881308E+000  1.125405206852E+001  7.743658881308E+000  1.047558984637E+001  0.000000000000E+000  0.000000000000E+000  0.000000000000E+000  5.675968842972E-004
   6.150000000000E+001  3.423751673275E+000  7.833323656493E+000  1.125707532977E+001  7.833323656493E+000  1.048682297775E+001  0.000000000000E+000  0.000000000000E+000  0.000000000000E+000  9.139861174998E-004
   6.200000000000E+001  3.403701477874E+000  7.857967646285E+000  1.126166912416E+001  7.857967646285E+000  1.045029659296E+001  0.000000000000E+000  0.000000000000E+000  0.000000000000E+000  3.211510953024E-003
   6.250000000000E+001  3.511799907662E+000  7.752047334610E+000  1.126384724227E+001  7.752047334610E+000  1.031607834687E+001  0.000000000000E+000  0.000000000000E+000  0.000000000000E+000  7.763242483411E-003
   6.300000000000E+001  3.772722529491E+000  7.487202745095E+000  1.125992527459E+001  7.487202745095E+000  1.006793692111E+001  0.000000000000E+000  0.000000000000E+000  0.000000000000E+000  1.427163490136E-002
   6.350000000000E+001  4.130696466472E+000  7.120410161720E+000  1.125110662819E+001  7.120410161720E+000  9.758676822402E+000  0.000000000000E+000  0.000000000000E+000  0.000000000000E+000  2.201388604746E-002
   6.400000000000E+001  4.464610925927E+000  6.777588902729E+000  1.124219982866E+001  6.777588902729E+000  9.495079874836E+000  0.000000000000E+000  0.000000000000E+000  0.000000000000E+000  3.004129388642E-002
   6.450000000000E+001  4.652329285840E+000  6.585524968940E+000  1.123785425478E+001  6.585524968940E+000  9.391114973205E+000  0.000000000000E+000  0.000000000000E+000  0.000000000000E+000  3.762284248775E-002
   6.500000000000E+001  4.638232735248E+000  6.602345413760E+000  1.124057814901E+001  6.602345413760E+000  9.516610338088E+000  0.000000000000E+000  0.000000000000E+000  0.000000000000E+000  4.495903427970E-002
   6.550000000000E+001  4.469642608008E+000  6.779471658378E+000  1.124911426639E+001  6.779471658378E+000  9.853159373099E+000  0.000000000000E+000  0.000000000000E+000  0.000000000000E+000  5.306922826114E-002
   6.600000000000E+001  4.289640472332E+000  6.972001723172E+000  1.126164219550E+001  6.972001723172E+000  1.028997011251E+001  0.000000000000E+000  0.000000000000E+000  0.000000000000E+000  6.337600498007E-002
   6.650000000000E+001  4.313715243910E+000  6.962509848254E+000  1.127622509216E+001  6.962509848254E+000  1.063560285168E+001  0.000000000000E+000  0.000000000000E+000  0.000000000000E+000  7.755234597056E-002
   6.700000000000E+001  4.747757508821E+000  6.527037364699E+000  1.127479487352E+001  6.527037364699E+000  1.067507595722E+001  0.000000000000E+000  0.000000000000E+000  0.000000000000E+000  9.730216867010E-002
   6.750000000000E+001  5.560918193375E+000  5.687724542873E+000  1.124864273625E+001  5.687724542873E+000  1.042306180731E+001  0.000000000000E+000  0.000000000000E+000  0.000000000000E+000  1.241653320936E-001
   6.800000000000E+001  6.427912846806E+000  4.798761830055E+000  1.122667467686E+001  4.798761830055E+000  1.022098109101E+001  0.000000000000E+000  0.000000000000E+000  0.000000000000E+000  1.595921022459E-001
   6.850000000000E+001  7.044015304059E+000  4.181062327977E+000  1.122507763204E+001  4.181062327977E+000  1.038147437725E+001  0.000000000000E+000  0.000000000000E+000  0.000000000000E+000  2.047584633941E-001
   6.900000000000E+001  7.348335646264E+000  3.887400066612E+000  1.123573571288E+001  3.887400066612E+000  1.095374855568E+001  0.000000000000E+000  0.000000000000E+000  0.000000000000E+000  2.573306258421E-001
   6.950000000000E+001  7.393128861488E+000  3.806509874267E+000  1.119963873576E+001  3.806509874267E+000  1.174888260735E+001  0.000000000000E+000  0.000000000000E+000  0.000000000000E+000  2.801955784265E-001
   7.000000000000E+001  7.141600340007E+000  4.137263156630E+000  1.127886349664E+001  4.137263156630E+000  1.183498405182E+001  0.000000000000E+000  0.000000000000E+000  0.000000000000E+000  2.194129168074E-001
   7.050000000000E+001  6.698837961740E+000  4.580566804346E+000  1.127940476609E+001  4.580566804346E+000  1.184208867203E+001  0.000000000000E+000  0.000000000000E+000  0.000000000000E+000  1.907405260988E-001
   7.100000000000E+001  6.212670358149E+000  5.067991806193E+000  1.128066216434E+001  5.067991806193E+000  1.196382070253E+001  0.000000000000E+000  0.000000000000E+000  0.000000000000E+000  1.889695459567E-001
   7.150000000000E+001  5.701422944064E+000  5.581894300878E+000  1.128331724494E+001  5.581894300878E+000  1.216594958298E+001  0.000000000000E+000  0.000000000000E+000  0.000000000000E+000  2.051717627453E-001
   7.200000000000E+001  5.202312263786E+000  6.084751694854E+000  1.128706395864E+001  6.084751694854E+000  1.239669994120E+001  0.000000000000E+000  0.000000000000E+000  0.000000000000E+000  2.312052939584E-001
   7.250000000000E+001  4.764798213390E+000  6.525546725092E+000  1.129034493848E+001  6.525546725092E+000  1.259193046373E+001  0.000000000000E+000  0.000000000000E+000  0.000000000000E+000  2.600290633285E-001
   7.300000000000E+001  4.429146174749E+000  6.862369234511E+000  1.129151540926E+001  6.862369234511E+000  1.269157038801E+001  0.000000000000E+000  0.000000000000E+000  0.000000000000E+000  2.870555498311E-001
   7.350000000000E+001  4.204678861424E+000  7.084991824488E+000  1.128967068591E+001  7.084991824488E+000  1.263967610207E+001  0.000000000000E+000  0.000000000000E+000  0.000000000000E+000  3.095473410835E-001
   7.400000000000E+001  4.079989061647E+000  7.126655990657E+000  1.120664505230E+001  7.126655990657E+000  1.226688939506E+001  0.000000000000E+000  0.000000000000E+000  0.000000000000E+000  1.493234243493E-002
   7.450000000000E+001  4.043931488376E+000  7.159078898754E+000  1.120301038713E+001  7.159078898754E+000  1.186858004267E+001  0.000000000000E+000  0.000000000000E+000  0.000000000000E+000  1.284957398265E-002
   7.500000000000E+001  4.055352401140E+000  7.145595930165E+000  1.120094833131E+001  7.145595930165E+000  1.154034843925E+001  0.000000000000E+000  0.000000000000E+000  0.000000000000E+000  7.378698157683E-003
   7.550000000000E+001  4.083495482748E+000  7.116424238212E+000  1.119991972096E+001  7.116424238212E+000  1.129878699822E+001  0.000000000000E+000  0.000000000000E+000  0.000000000000E+000  2.392518661701E-003
   7.600000000000E+001  4.117652394193E+000  7.082468784976E+000  1.120012117917E+001  7.082468784976E+000  1.116248544858E+001  0.000000000000E+000  0.000000000000E+000  0.000000000000E+000  2.361782296379E-004
   7.650000000000E+001  4.171591525911E+000  7.031090154769E+000  1.120268168068E+001  7.031090154769E+000  1.112856917974E+001  0.000000000000E+000  0.000000000000E+000  0.000000000000E+000  2.608230739272E-003
   7.700000000000E+001  4.297627620456E+000  6.910618283461E+000  1.120824590392E+001  6.910618283461E+000  1.114194275857E+001  0.000000000000E+000  0.000000000000E+000  0.000000000000E+000  1.055950068479E-002
   7.750000000000E+001  4.587583345466E+000  6.625699856071E+000  1.121328320154E+001  6.625699856071E+000  1.108059741479E+001  0.000000000000E+000  0.000000000000E+000  0.000000000000E+000  2.396388973422E-002
   7.800000000000E+001  5.109336680959E+000  6.097656965764E+000  1.120699364672E+001  6.097656965764E+000  1.082107836521E+001  0.000000000000E+000  0.000000000000E+000  0.000000000000E+000  4.149225392292E-002
   7.850000000000E+001  5.766422652856E+000  5.414763341779E+000  1.118118599464E+001  5.414763341779E+000  1.040503399339E+001  0.000000000000E+000  0.000000000000E+000  0.000000000000E+000  6.115885599695E-002
   7.900000000000E+001  6.222998643534E+000  4.924361686651E+000  1.114736033018E+001  4.924361686651E+000  1.014298265243E+001  0.000000000000E+000  0.000000000000E+000  0.000000000000E+000  8.041487144236E-002
   7.950000000000E+001  6.093993085482E+000  5.045299961078E+000  1.113929304656E+001  5.045299961078E+000  1.042826952196E+001  0.000000000000E+000  0.000000000000E+000  0.000000000000E+000  9.615676837304E-002
   8.000000000000E+001  5.413695009425E+000  5.776805633874E+000  1.119050064330E+001  5.776805633874E+000  1.124118730144E+001  0.000000000000E+000  0.000000000000E+000  0.000000000000E+000  1.056359983334E-001
   8.050000000000E+001  4.898547022898E+000  6.342278326908E+000  1.124082534981E+001  6.342278326908E+000  1.179586442215E+001  0.000000000000E+000  0.000000000000E+000  0.000000000000E+000  1.079999397408E-001
   8.100000000000E+001  5.116568528279E+000  6.084776729327E+000  1.120134525761E+001  6.084776729327E+000  1.144879927574E+001  0.000000000000E+000  0.000000000000E+000  0.000000000000E+000  1.047435891707E-001
   8.150000000000E+001  5.634640535986E+000  5.522963695308E+000  1.115760423129E+001  5.522963695308E+000  1.074508867099E+001  0.000000000000E+000  0.000000000000E+000  0.000000000000E+000  9.798850299242E-002
   8.200000000000E+001  5.798682526380E+000  5.360322614546E+000  1.115900514093E+001  5.360322614546E+000  1.040330879165E+001  0.000000000000E+000  0.000000000000E+000  0.000000000000E+000  8.902939051586E-002
   8.250000000000E+001  5.472044552114E+000  5.704252193201E+000  1.117629674532E+001  5.704252193201E+000  1.053306137754E+001  0.000000000000E+000  0.000000000000E+000  0.000000000000E+000  7.865581874940E-002
   8.300000000000E+001  4.831609033548E+000  6.360548050032E+000  1.119215708358E+001  6.360548050032E+000  1.094183786085E+001  0.000000000000E+000  0.000000000000E+000  0.000000000000E+000  6.774777134655E-002
   8.350000000000E+001  4.097170938383E+000  7.107430603732E+000  1.120460154212E+001  7.107430603732E+000  1.142188014214E+001  0.000000000000E+000  0.000000000000E+000  0.000000000000E+000  5.744041060085E-002
   8.400000000000E+001  3.451280085191E+000  7.760918245749E+000  1.121219833094E+001  7.760918245749E+000  1.182326655782E+001  0.000000000000E+000  0.000000000000E+000  0.000000000000E+000  4.900779508161E-002
   8.450000000000E+001  3.003119378075E+000  8.209671517310E+000  1.121279089538E+001  8.209671517310E+000  1.208114666575E+001  0.000000000000E+000  0.000000000000E+000  0.000000000000E+000  4.349703984183E-002
   8.500000000000E+001  2.763481893190E+000  8.445355027312E+000  1.120883692050E+001  8.445355027312E+000  1.222221673829E+001  0.000000000000E+000  0.000000000000E+000  0.000000000000E+000  4.128485787018E-002
   8.550000000000E+001  2.677387337507E+000  8.528149200186E+000  1.120553653769E+001  8.528149200186E+000  1.231361732766E+001  0.000000000000E+000  0.000000000000E+000  0.000000000000E+000  4.204068093549E-002
   8.600000000000E+001  2.692303717270E+000  8.512974499862E+000  1.120527821713E+001  8.512974499862E+000  1.239565339138E+001  0.000000000000E+000  0.000000000000E+000  0.000000000000E+000  4.508532593107E-002
   8.650000000000E+001  2.795935595174E+000  8.411182427233E+000  1.120711802241E+001  8.411182427233E+000  1.245966653922E+001  0.000000000000E+000  0.000000000000E+000  0.000000000000E+000  4.972515570902E-002
   8.700000000000E+001  3.008808488730E+000  8.200418830456E+000  1.120922731919E+001  8.200418830456E+000  1.246723184816E+001  0.000000000000E+000  0.000000000000E+000  0.000000000000E+000  5.546634045189E-002
   8.750000000000E+001  3.358979753744E+000  7.851081533486E+000  1.121006128723E+001  7.851081533486E+000  1.237617820395E+001  0.000000000000E+000  0.000000000000E+000  0.000000000000E+000  6.217893753795E-002
   8.800000000000E+001  3.858364621762E+000  7.349894102137E+000  1.120825872390E+001  7.349894102137E+000  1.216153725708E+001  0.000000000000E+000  0.000000000000E+000  0.000000000000E+000  7.019753500929E-002
   8.850000000000E+001  4.480780249047E+000  6.721009088610E+000  1.120178933766E+001  6.721009088610E+000  1.183949243390E+001  0.000000000000E+000  0.000000000000E+000  0.000000000000E+000  8.035535013249E-002
   8.900000000000E+001  5.135684654678E+000  6.052633554257E+000  1.118831820894E+001  6.052633554257E+000  1.149915421368E+001  0.000000000000E+000  0.000000000000E+000  0.000000000000E+000  9.395071545527E-002
   8.950000000000E+001  5.651358071477E+000  5.518642527551E+000  1.117000059903E+001  5.518642527551E+000  1.132500979251E+001  0.000000000000E+000  0.000000000000E+000  0.000000000000E+000  1.126062208007E-001
   9.000000000000E+001  5.850059619789E+000  5.316554464176E+000  1.116661408397E+001  5.316554464176E+000  1.153361035638E+001  0.000000000000E+000  0.000000000000E+000  0.000000000000E+000  1.381603997397E-001
   9.050000000000E+001  5.845986194196E+000  5.363056542282E+000  1.120904273648E+001  5.363056542282E+000  1.207529186439E+001  0.000000000000E+000  0.000000000000E+000  0.000000000000E+000  1.737277973662E-001
   9.100000000000E+001  6.273760857634E+000  4.974866831437E+000  1.124862768907E+001  4.974866831437E+000  1.232969054787E+001  0.000000000000E+000  0.000000000000E+000  0.000000000000E+000  2.280633408989E-001
   9.150000000000E+001  7.574888562481E+000  3.630189086611E+000  1.120507764909E+001  3.630189086611E+000  1.188735453697E+001  0.000000000000E+000  0.000000000000E+000  0.000000000000E+000  3.243872146587E-001
   9.200000000000E+001  8.972921668932E+000  1.928054167871E+000  1.090097583680E+001  1.928054167871E+000  1.142964409418E+001  0.000000000000E+000  0.000000000000E+000  0.000000000000E+000  5.123666675660E-001
   9.250000000000E+001  9.702751163714E+000  1.161842823987E+000  1.086459398770E+001  1.161842823987E+000  1.059378602965E+001  0.000000000000E+000  0.000000000000E+000  0.000000000000E+000  4.677887656424E-001
   9.300000000000E+001  9.626415368529E+000  1.253525867513E+000  1.087994123604E+001  1.253525867513E+000  1.065641112481E+001  0.000000000000E+000  0.000000000000E+000  0.000000000000E+000  4.189215935773E-001
   9.350000000000E+001  8.854317551915E+000  2.051235748784E+000  1.090555330070E+001  2.051235748784E+000  1.132243913308E+001  0.000000000000E+000  0.000000000000E+000  0.000000000000E+000  3.448105786489E-001
   9.400000000000E+001  7.735790466784E+000  3.198463610614E+000  1.093425407740E+001  3.198463610614E+000  1.220210562082E+001  0.000000000000E+000  0.000000000000E+000  0.000000000000E+000  2.473763544548E-001
   9.450000000000E+001  6.657010352358E+000  4.293562896497E+000  1.095057324886E+001  4.293562896497E+000  1.292121868518E+001  0.000000000000E+000  0.000000000000E+000  0.000000000000E+000  1.501301493499E-001
   9.500000000000E+001  5.841412222647E+000  5.104850441973E+000  1.094626266462E+001  5.104850441973E+000  1.331282750641E+001  0.000000000000E+000  0.000000000000E+000  0.000000000000E+000  8.139641218196E-002
   9.550000000000E+001  5.254604856736E+000  5.679446023561E+000  1.093405088030E+001  5.679446023561E+000  1.344315942266E+001  0.000000000000E+000  0.000000000000E+000  0.000000000000E+000  5.175258094786E-002
   9.600000000000E+001  4.740947748670E+000  6.189862195746E+000  1.093080994442E+001  6.189862195746E+000  1.339940106839E+001  0.000000000000E+000  0.000000000000E+000  0.000000000000E+000  7.249566473047E-002
   9.650000000000E+001  4.235726804012E+000  6.695989309606E+000  1.093171611362E+001  6.695989309606E+000  1.336000687586E+001  0.000000000000E+000  0.000000000000E+000  0.000000000000E+000  6.654270044020E-002
   9.700000000000E+001  3.778356151068E+000  7.157913163070E+000  1.093626931414E+001  7.157913163070E+000  1.330638357860E+001  0.000000000000E+000  0.000000000000E+000  0.000000000000E+000  4.864017275507E-002
   9.750000000000E+001  3.419354180490E+000  7.520341312587E+000  1.093969549308E+001  7.520341312587E+000  1.318451249793E+001  0.000000000000E+000  0.000000000000E+000  0.000000000000E+000  3.507003280480E-002
   9.800000000000E+001  3.202486858842E+000  7.738473479999E+000  1.094096033884E+001  7.738473479999E+000  1.297302126875E+001  0.000000000000E+000  0.000000000000E+000  0.000000000000E+000  2.590483295668E-002
   9.850000000000E+001  3.143467298230E+000  7.797214150110E+000  1.094068144834E+001  7.797214150110E+000  1.267805667055E+001  0.000000000000E+000  0.000000000000E+000  0.000000000000E+000  2.011271466832E-002
   9.900000000000E+001  3.234781828425E+000  7.704629865551E+000  1.093941169398E+001  7.704629865551E+000  1.232115270407E+001  0.000000000000E+000  0.000000000000E+000  0.000000000000E+000  1.720386232836E-002
   9.950000000000E+001  3.452029438612E+000  7.484754809003E+000  1.093678424761E+001  7.484754809003E+000  1.193068975422E+001  0.000000000000E+000  0.000000000000E+000  0.000000000000E+000  1.722129153150E-002
   1.000000000000E+002  3.750810001060E+000  7.180855352916E+000  1.093166535398E+001  7.180855352916E+000  1.154492675459E+001  0.000000000000E+000  0.000000000000E+000  0.000000000000E+000  2.048476576661E-002
