#                    1                    2                    3                    4                    5
#               Time |      dE          1 |      dE          2 | f_osc            1 | f_osc            2 |
#               [fs] |               [eV] |               [eV] |                 [] |                 [] |
   0.000000000000E+000  8.722554673555E+000  0.000000000000E+000 -3.553752243645E-001  0.000000000000E+000
   5.000000000000E-001  8.683390145107E+000  0.000000000000E+000 -3.507099945040E-001  0.000000000000E+000
   1.000000000000E+000  8.606325601218E+000  0.000000000000E+000 -3.409657651499E-001  0.000000000000E+000
   1.500000000000E+000  8.495417987110E+000  0.000000000000E+000 -3.270366087648E-001  0.000000000000E+000
   2.000000000000E+000  8.353046121957E+000  0.000000000000E+000 -3.097318981013E-001  0.000000000000E+000
   2.500000000000E+000  8.180340366647E+000  0.000000000000E+000 -2.898547952581E-001  0.000000000000E+000
   3.000000000000E+000  7.978231894735E+000  0.000000000000E+000 -2.682923021489E-001  0.000000000000E+000
   3.500000000000E+000  7.748489990398E+000  0.000000000000E+000 -2.460306728177E-001  0.000000000000E+000
   4.000000000000E+000  7.494279881809E+000  0.000000000000E+000 -2.240515686975E-001  0.000000000000E+000
   4.500000000000E+000  7.219940424123E+000  0.000000000000E+000 -2.031269819557E-001  0.000000000000E+000
   5.000000000000E+000  6.929642578259E+000  0.000000000000E+000 -1.835956874843E-001  0.000000000000E+000
   5.500000000000E+000  6.625815504453E+000  0.000000000000E+000 -1.652978463778E-001  0.000000000000E+000
   6.000000000000E+000  6.307992799586E+000  0.000000000000E+000 -1.476802118553E-001  0.000000000000E+000
   6.500000000000E+000  5.972488953829E+000  0.000000000000E+000 -1.299969675591E-001  0.000000000000E+000
   7.000000000000E+000  5.612631191631E+000  0.000000000000E+000 -1.115144633679E-001  0.000000000000E+000
   7.500000000000E+000  5.219207643214E+000  0.000000000000E+000 -9.171022756517E-002  0.000000000000E+000
   8.000000000000E+000  4.781819750350E+000  0.000000000000E+000 -7.058953468146E-002  0.000000000000E+000
   8.500000000000E+000  4.293858956354E+000  0.000000000000E+000 -4.915719391931E-002  0.000000000000E+000
   9.000000000000E+000  3.765558102127E+000  0.000000000000E+000 -2.945722014181E-002  0.000000000000E+000
   9.500000000000E+000  3.243174091207E+000  0.000000000000E+000 -1.356093999254E-002  0.000000000000E+000
   1.000000000000E+001  2.819560056625E+000  0.000000000000E+000 -3.151960897876E-003  0.000000000000E+000
   1.050000000000E+001  2.608245973552E+000  0.000000000000E+000 -4.103300996355E-004  0.000000000000E+000
   1.100000000000E+001  2.657362249306E+000  0.000000000000E+000 -6.065064686173E-003  0.000000000000E+000
   1.150000000000E+001  2.897405023002E+000  0.000000000000E+000 -1.669171653031E-002  0.000000000000E+000
   1.200000000000E+001  3.218706159068E+000  0.000000000000E+000 -2.795244462854E-002  0.000000000000E+000
   1.250000000000E+001  3.546018017714E+000  0.000000000000E+000 -3.748789357067E-002  0.000000000000E+000
   1.300000000000E+001  3.842566318451E+000  0.000000000000E+000 -4.465874577882E-002  0.000000000000E+000
   1.350000000000E+001  4.093347248446E+000  0.000000000000E+000 -4.974745489828E-002  0.000000000000E+000
   1.400000000000E+001  4.293877732209E+000  0.000000000000E+000 -5.341417124890E-002  0.000000000000E+000
   1.450000000000E+001  4.445116426792E+000  0.000000000000E+000 -5.636258306618E-002  0.000000000000E+000
   1.500000000000E+001  4.551118916846E+000  0.000000000000E+000 -5.916075845285E-002  0.000000000000E+000
   1.550000000000E+001  4.617139720595E+000  0.000000000000E+000 -6.217172930765E-002  0.000000000000E+000
   1.600000000000E+001  4.647439868637E+000  0.000000000000E+000 -6.556539722294E-002  0.000000000000E+000
   1.650000000000E+001  4.643104550960E+000  0.000000000000E+000 -6.933673762805E-002  0.000000000000E+000
   1.700000000000E+001  4.600288526912E+000  0.000000000000E+000 -7.328535288027E-002  0.000000000000E+000
   1.750000000000E+001  4.509792443950E+000  0.000000000000E+000 -7.691676621126E-002  0.000000000000E+000
   1.800000000000E+001  4.358808175806E+000  0.000000000000E+000 -7.929509744682E-002  0.000000000000E+000
   1.850000000000E+001  4.136184497374E+000  0.000000000000E+000 -7.900629172788E-002  0.000000000000E+000
   1.900000000000E+001  3.841023705100E+000  0.000000000000E+000 -7.453184109468E-002  0.000000000000E+000
   1.950000000000E+001  3.490630334322E+000  0.000000000000E+000 -6.518995597500E-002  0.000000000000E+000
   2.000000000000E+001  3.120041490785E+000  0.000000000000E+000 -5.201934990350E-002  0.000000000000E+000
   2.050000000000E+001  2.770559973480E+000  0.000000000000E+000 -3.752932003274E-002  0.000000000000E+000
   2.100000000000E+001  2.473357238961E+000  0.000000000000E+000 -2.446131679228E-002  0.000000000000E+000
   2.150000000000E+001  2.234364824682E+000  0.000000000000E+000 -1.461291588297E-002  0.000000000000E+000
   2.200000000000E+001  2.030800815847E+000  0.000000000000E+000 -8.292253044838E-003  0.000000000000E+000
   2.250000000000E+001  1.829580251390E+000  0.000000000000E+000 -4.710156167746E-003  0.000000000000E+000
   2.300000000000E+001  1.609835537370E+000  0.000000000000E+000 -2.907566966626E-003  0.000000000000E+000
   2.350000000000E+001  1.368726077426E+000  0.000000000000E+000 -2.291289036609E-003  0.000000000000E+000
   2.400000000000E+001  1.117753307174E+000  0.000000000000E+000 -2.672854904293E-003  0.000000000000E+000
   2.450000000000E+001  8.844948757019E-001  0.000000000000E+000 -4.104572132909E-003  0.000000000000E+000
   2.500000000000E+001  7.210477937500E-001  0.000000000000E+000 -6.289630119953E-003  0.000000000000E+000
   2.550000000000E+001  6.814677474702E-001  0.000000000000E+000 -7.487336974236E-003  0.000000000000E+000
   2.600000000000E+001  7.323549400853E-001  0.000000000000E+000 -6.582123449232E-003  0.000000000000E+000
   2.650000000000E+001  0.000000000000E+000  7.750055189198E-001  0.000000000000E+000  4.673292578727E-003
   2.700000000000E+001  0.000000000000E+000  8.249433063520E-001  0.000000000000E+000  2.800920392944E-003
   2.750000000000E+001  0.000000000000E+000  9.313392730169E-001  0.000000000000E+000  1.852717097612E-003
   2.800000000000E+001  0.000000000000E+000  1.083432949281E+000  0.000000000000E+000  1.621664339328E-003
   2.850000000000E+001  0.000000000000E+000  1.280916846507E+000  0.000000000000E+000  2.031842652445E-003
   2.900000000000E+001  0.000000000000E+000  1.528760579728E+000  0.000000000000E+000  3.204346866791E-003
   2.950000000000E+001  0.000000000000E+000  1.831119055147E+000  0.000000000000E+000  5.379526239769E-003
   3.000000000000E+001  0.000000000000E+000  2.186335915828E+000  0.000000000000E+000  8.805432645862E-003
   3.050000000000E+001  0.000000000000E+000  2.584064577285E+000  0.000000000000E+000  1.361242007769E-002
   3.100000000000E+001  0.000000000000E+000  3.004920193885E+000  0.000000000000E+000  1.968966604969E-002
   3.150000000000E+001  0.000000000000E+000  3.423302023579E+000  0.000000000000E+000  2.667046955674E-002
   3.200000000000E+001  0.000000000000E+000  3.814186477768E+000  0.000000000000E+000  3.412291944067E-002
   3.250000000000E+001  0.000000000000E+000  4.161038559050E+000  0.000000000000E+000  4.182363643023E-002
   3.300000000000E+001  0.000000000000E+000  4.458590415624E+000  0.000000000000E+000  4.983579671958E-002
   3.350000000000E+001  0.000000000000E+000  4.709688086127E+000  0.000000000000E+000  5.830348710487E-002
   3.400000000000E+001  0.000000000000E+000  4.921419863942E+000  0.000000000000E+000  6.718853528015E-002
   3.450000000000E+001  0.000000000000E+000  5.104010154439E+000  0.000000000000E+000  7.629714195902E-002
   3.500000000000E+001  0.000000000000E+000  5.270879884253E+000  0.000000000000E+000  8.558014870794E-002
   3.550000000000E+001  0.000000000000E+000  5.437670701054E+000  0.000000000000E+000  9.529273234118E-002
   3.600000000000E+001  0.000000000000E+000  5.620233235940E+000  0.000000000000E+000  1.058732575093E-001
   3.650000000000E+001  0.000000000000E+000  5.831652899182E+000  0.000000000000E+000  1.177279152545E-001
   3.700000000000E+001  0.000000000000E+000  6.075322678233E+000  0.000000000000E+000  1.308414782410E-001
   3.750000000000E+001  0.000000000000E+000  6.323255120566E+000  0.000000000000E+000  1.430805185846E-001
   3.800000000000E+001  0.000000000000E+000  6.448017954995E+000  0.000000000000E+000  1.415725357186E-001
   3.850000000000E+001  0.000000000000E+000  5.969331616960E+000  0.000000000000E+000  1.351060198615E-001
   3.900000000000E+001  0.000000000000E+000  6.057232550243E+000  0.000000000000E+000  1.310291976217E-001
   3.950000000000E+001  0.000000000000E+000  6.224344733487E+000  0.000000000000E+000  1.431168005093E-001
   4.000000000000E+001  0.000000000000E+000  6.347207941208E+000  0.000000000000E+000  1.547937630837E-001
   4.050000000000E+001  0.000000000000E+000  6.326098982293E+000  0.000000000000E+000  1.543876983144E-001
   4.100000000000E+001  0.000000000000E+000  6.105044584368E+000  0.000000000000E+000  1.388591911034E-001
   4.150000000000E+001  0.000000000000E+000  5.721291689661E+000  0.000000000000E+000  1.145837772794E-001
   4.200000000000E+001  0.000000000000E+000  5.244889203073E+000  0.000000000000E+000  8.802947307962E-002
   4.250000000000E+001  0.000000000000E+000  4.734445819505E+000  0.000000000000E+000  6.295105138931E-002
   4.300000000000E+001  0.000000000000E+000  4.233870644293E+000  0.000000000000E+000  4.126331422881E-002
   4.350000000000E+001  0.000000000000E+000  3.776248638504E+000  0.000000000000E+000  2.392004506700E-002
   4.400000000000E+001  0.000000000000E+000  3.389319903187E+000  0.000000000000E+000  1.147086875779E-002
   4.450000000000E+001  0.000000000000E+000  3.100868621831E+000  0.000000000000E+000  4.157669251696E-003
   4.500000000000E+001  0.000000000000E+000  2.939610423597E+000  0.000000000000E+000  1.302829359906E-003
   4.550000000000E+001  0.000000000000E+000  2.917917508384E+000  0.000000000000E+000  9.851063391879E-004
   4.600000000000E+001  0.000000000000E+000  3.005767556379E+000  0.000000000000E+000  2.870742996188E-003
   4.650000000000E+001  0.000000000000E+000  3.165963694301E+000  0.000000000000E+000  7.132546796810E-003
   4.700000000000E+001  0.000000000000E+000  3.373814856663E+000  0.000000000000E+000  1.283248903749E-002
   4.750000000000E+001  0.000000000000E+000  3.610024090602E+000  0.000000000000E+000  1.954932015995E-002
   4.800000000000E+001  0.000000000000E+000  3.865051901276E+000  0.000000000000E+000  2.725726377762E-002
   4.850000000000E+001  0.000000000000E+000  4.141371259251E+000  0.000000000000E+000  3.616840491820E-002
   4.900000000000E+001  0.000000000000E+000  4.452656157032E+000  0.000000000000E+000  4.686495908751E-002
   4.950000000000E+001  0.000000000000E+000  4.821339115243E+000  0.000000000000E+000  6.067954861275E-002
   5.000000000000E+001  0.000000000000E+000  5.274166475196E+000  0.000000000000E+000  8.031804531396E-002
   5.050000000000E+001  0.000000000000E+000  5.832484479072E+000  0.000000000000E+000  1.105120463905E-001
   5.100000000000E+001  0.000000000000E+000  6.498267857000E+000  0.000000000000E+000  1.581742095466E-001
   5.150000000000E+001  0.000000000000E+000  7.264143412407E+000  0.000000000000E+000  2.338223002730E-001
   5.200000000000E+001  0.000000000000E+000  8.320099122607E+000  0.000000000000E+000  3.786833599331E-001
   5.250000000000E+001  0.000000000000E+000  8.449045707305E+000  0.000000000000E+000  4.100459461972E-001
   5.300000000000E+001  0.000000000000E+000  8.248921489503E+000  0.000000000000E+000  3.582339100811E-001
   5.350000000000E+001  0.000000000000E+000  7.750621458096E+000  0.000000000000E+000  2.856987487889E-001
   5.400000000000E+001  0.000000000000E+000  7.079164778748E+000  0.000000000000E+000  2.138669338252E-001
   5.450000000000E+001  0.000000000000E+000  6.391619912920E+000  0.000000000000E+000  1.543122746482E-001
   5.500000000000E+001  0.000000000000E+000  5.755633272434E+000  0.000000000000E+000  1.080744037817E-001
   5.550000000000E+001  0.000000000000E+000  5.196186812468E+000  0.000000000000E+000  7.343932896109E-002
   5.600000000000E+001  0.000000000000E+000  4.717779119004E+000  0.000000000000E+000  4.821627039422E-002
   5.650000000000E+001  0.000000000000E+000  4.313672381284E+000  0.000000000000E+000  3.046709308364E-002
   5.700000000000E+001  0.000000000000E+000  3.973653078489E+000  0.000000000000E+000  1.878586212626E-002
   5.750000000000E+001  0.000000000000E+000  3.690851152536E+000  0.000000000000E+000  1.191832845927E-002
   5.800000000000E+001  0.000000000000E+000  3.461334830572E+000  0.000000000000E+000  8.301095762763E-003
   5.850000000000E+001  0.000000000000E+000  3.278803860892E+000  0.000000000000E+000  6.417291431498E-003
   5.900000000000E+001  0.000000000000E+000  3.133363640095E+000  0.000000000000E+000  5.206552980466E-003
   5.950000000000E+001  0.000000000000E+000  3.014048524715E+000  0.000000000000E+000  4.066591514188E-003
   6.000000000000E+001  0.000000000000E+000  2.911339972677E+000  0.000000000000E+000  2.768003215729E-003
   6.050000000000E+001  0.000000000000E+000  2.818423981349E+000  0.000000000000E+000  1.438545569767E-003
   6.100000000000E+001  0.000000000000E+000  2.731930965067E+000  0.000000000000E+000  5.675968842972E-004
   6.150000000000E+001  0.000000000000E+000  2.653499321253E+000  0.000000000000E+000  9.139861174998E-004
   6.200000000000E+001  0.000000000000E+000  2.592328946677E+000  0.000000000000E+000  3.211510953024E-003
   6.250000000000E+001  0.000000000000E+000  2.564031012260E+000  0.000000000000E+000  7.763242483411E-003
   6.300000000000E+001  0.000000000000E+000  2.580734176015E+000  0.000000000000E+000  1.427163490136E-002
   6.350000000000E+001  0.000000000000E+000  2.638266660682E+000  0.000000000000E+000  2.201388604746E-002
   6.400000000000E+001  0.000000000000E+000  2.717490972107E+000  0.000000000000E+000  3.004129388642E-002
   6.450000000000E+001  0.000000000000E+000  2.805590004265E+000  0.000000000000E+000  3.762284248775E-002
   6.500000000000E+001  0.000000000000E+000  2.914264924328E+000  0.000000000000E+000  4.495903427970E-002
   6.550000000000E+001  0.000000000000E+000  3.073687714721E+000  0.000000000000E+000  5.306922826114E-002
   6.600000000000E+001  0.000000000000E+000  3.317968389340E+000  0.000000000000E+000  6.337600498007E-002
   6.650000000000E+001  0.000000000000E+000  3.673093003429E+000  0.000000000000E+000  7.755234597056E-002
   6.700000000000E+001  0.000000000000E+000  4.148038592525E+000  0.000000000000E+000  9.730216867010E-002
   6.750000000000E+001  0.000000000000E+000  4.735337264440E+000  0.000000000000E+000  1.241653320936E-001
   6.800000000000E+001  0.000000000000E+000  5.422219260957E+000  0.000000000000E+000  1.595921022459E-001
   6.850000000000E+001  0.000000000000E+000  6.200412049268E+000  0.000000000000E+000  2.047584633941E-001
   6.900000000000E+001  0.000000000000E+000  7.066348489064E+000  0.000000000000E+000  2.573306258421E-001
   6.950000000000E+001  0.000000000000E+000  7.942372733084E+000  0.000000000000E+000  2.801955784265E-001
   7.000000000000E+001  0.000000000000E+000  7.697720895189E+000  0.000000000000E+000  2.194129168074E-001
   7.050000000000E+001  0.000000000000E+000  7.261521867686E+000  0.000000000000E+000  1.907405260988E-001
   7.100000000000E+001  0.000000000000E+000  6.895828896333E+000  0.000000000000E+000  1.889695459567E-001
   7.150000000000E+001  0.000000000000E+000  6.584055282098E+000  0.000000000000E+000  2.051717627453E-001
   7.200000000000E+001  0.000000000000E+000  6.311948246344E+000  0.000000000000E+000  2.312052939584E-001
   7.250000000000E+001  0.000000000000E+000  6.066383738635E+000  0.000000000000E+000  2.600290633285E-001
   7.300000000000E+001  0.000000000000E+000  5.829201153496E+000  0.000000000000E+000  2.870555498311E-001
   7.350000000000E+001  0.000000000000E+000  5.554684277587E+000  0.000000000000E+000  3.095473410835E-001
   7.400000000000E+001  0.000000000000E+000  5.140233404406E+000  0.000000000000E+000  1.493234243493E-002
   7.450000000000E+001  0.000000000000E+000  4.709501143920E+000  0.000000000000E+000  1.284957398265E-002
   7.500000000000E+001  0.000000000000E+000  4.394752509088E+000  0.000000000000E+000  7.378698157683E-003
   7.550000000000E+001  0.000000000000E+000  4.182362760012E+000  0.000000000000E+000  2.392518661701E-003
   7.600000000000E+001  0.000000000000E+000  4.080016663607E+000  0.000000000000E+000  2.361782296379E-004
   7.650000000000E+001  0.000000000000E+000  4.097479024971E+000  0.000000000000E+000  2.608230739272E-003
   7.700000000000E+001  0.000000000000E+000  4.231324475105E+000  0.000000000000E+000  1.055950068479E-002
   7.750000000000E+001  0.000000000000E+000  4.454897558720E+000  0.000000000000E+000  2.396388973422E-002
   7.800000000000E+001  0.000000000000E+000  4.723421399448E+000  0.000000000000E+000  4.149225392292E-002
   7.850000000000E+001  0.000000000000E+000  4.990270651612E+000  0.000000000000E+000  6.115885599695E-002
   7.900000000000E+001  0.000000000000E+000  5.218620965778E+000  0.000000000000E+000  8.041487144236E-002
   7.950000000000E+001  0.000000000000E+000  5.382969560877E+000  0.000000000000E+000  9.615676837304E-002
   8.000000000000E+001  0.000000000000E+000  5.464381667565E+000  0.000000000000E+000  1.056359983334E-001
   8.050000000000E+001  0.000000000000E+000  5.453586095246E+000  0.000000000000E+000  1.079999397408E-001
   8.100000000000E+001  0.000000000000E+000  5.364022546409E+000  0.000000000000E+000  1.047435891707E-001
   8.150000000000E+001  0.000000000000E+000  5.222124975678E+000  0.000000000000E+000  9.798850299242E-002
   8.200000000000E+001  0.000000000000E+000  5.042986177109E+000  0.000000000000E+000  8.902939051586E-002
   8.250000000000E+001  0.000000000000E+000  4.828809184341E+000  0.000000000000E+000  7.865581874940E-002
   8.300000000000E+001  0.000000000000E+000  4.581289810815E+000  0.000000000000E+000  6.774777134655E-002
   8.350000000000E+001  0.000000000000E+000  4.314449538407E+000  0.000000000000E+000  5.744041060085E-002
   8.400000000000E+001  0.000000000000E+000  4.062348312067E+000  0.000000000000E+000  4.900779508161E-002
   8.450000000000E+001  0.000000000000E+000  3.871475148436E+000  0.000000000000E+000  4.349703984183E-002
   8.500000000000E+001  0.000000000000E+000  3.776861710982E+000  0.000000000000E+000  4.128485787018E-002
   8.550000000000E+001  0.000000000000E+000  3.785468127470E+000  0.000000000000E+000  4.204068093549E-002
   8.600000000000E+001  0.000000000000E+000  3.882678891513E+000  0.000000000000E+000  4.508532593107E-002
   8.650000000000E+001  0.000000000000E+000  4.048484111990E+000  0.000000000000E+000  4.972515570902E-002
   8.700000000000E+001  0.000000000000E+000  4.266813017708E+000  0.000000000000E+000  5.546634045189E-002
   8.750000000000E+001  0.000000000000E+000  4.525096670461E+000  0.000000000000E+000  6.217893753795E-002
   8.800000000000E+001  0.000000000000E+000  4.811643154946E+000  0.000000000000E+000  7.019753500929E-002
   8.850000000000E+001  0.000000000000E+000  5.118483345287E+000  0.000000000000E+000  8.035535013249E-002
   8.900000000000E+001  0.000000000000E+000  5.446520659427E+000  0.000000000000E+000  9.395071545527E-002
   8.950000000000E+001  0.000000000000E+000  5.806367264958E+000  0.000000000000E+000  1.126062208007E-001
   9.000000000000E+001  0.000000000000E+000  6.217055892206E+000  0.000000000000E+000  1.381603997397E-001
   9.050000000000E+001  0.000000000000E+000  6.712235322112E+000  0.000000000000E+000  1.737277973662E-001
   9.100000000000E+001  0.000000000000E+000  7.354823716437E+000  0.000000000000E+000  2.280633408989E-001
   9.150000000000E+001  0.000000000000E+000  8.257165450358E+000  0.000000000000E+000  3.243872146587E-001
   9.200000000000E+001  0.000000000000E+000  9.501589926311E+000  0.000000000000E+000  5.123666675660E-001
   9.250000000000E+001  0.000000000000E+000  9.431943205663E+000  0.000000000000E+000  4.677887656424E-001
   9.300000000000E+001  0.000000000000E+000  9.402885257294E+000  0.000000000000E+000  4.189215935773E-001
   9.350000000000E+001  0.000000000000E+000  9.271203384291E+000  0.000000000000E+000  3.448105786489E-001
   9.400000000000E+001  0.000000000000E+000  9.003642010211E+000  0.000000000000E+000  2.473763544548E-001
   9.450000000000E+001  0.000000000000E+000  8.627655788685E+000  0.000000000000E+000  1.501301493499E-001
   9.500000000000E+001  0.000000000000E+000  8.207977064437E+000  0.000000000000E+000  8.139641218196E-002
   9.550000000000E+001  0.000000000000E+000  7.763713399099E+000  0.000000000000E+000  5.175258094786E-002
   9.600000000000E+001  0.000000000000E+000  7.209538872643E+000  0.000000000000E+000  7.249566473047E-002
   9.650000000000E+001  0.000000000000E+000  6.664017566254E+000  0.000000000000E+000  6.654270044020E-002
   9.700000000000E+001  0.000000000000E+000  6.148470415528E+000  0.000000000000E+000  4.864017275507E-002
   9.750000000000E+001  0.000000000000E+000  5.664171185345E+000  0.000000000000E+000  3.507003280480E-002
   9.800000000000E+001  0.000000000000E+000  5.234547788751E+000  0.000000000000E+000  2.590483295668E-002
   9.850000000000E+001  0.000000000000E+000  4.880842520444E+000  0.000000000000E+000  2.011271466832E-002
   9.900000000000E+001  0.000000000000E+000  4.616522838523E+000  0.000000000000E+000  1.720386232836E-002
   9.950000000000E+001  0.000000000000E+000  4.445934945218E+000  0.000000000000E+000  1.722129153150E-002
   1.000000000000E+002  0.000000000000E+000  4.364071401672E+000  0.000000000000E+000  2.048476576661E-002
