#                    1                    2                    3                    4
#               Time |      Random Number |   === cumu Prob ===>
#               [fs] |                 [] |                 [] |
   0.000000000000E+000  0.000000000000E+000  0.000000000000E+000  0.000000000000E+000
   5.000000000000E-001  1.965262772072E-002  2.779507142765E-008  2.779507142765E-008
   1.000000000000E+000  6.134826336736E-001  4.735039039323E-008  4.735039039323E-008
   1.500000000000E+000  9.938881106118E-001  3.803997197998E-008  3.803997197998E-008
   2.000000000000E+000  6.456429180129E-001  1.668703638958E-008  1.668703638958E-008
   2.500000000000E+000  4.035905628955E-003  2.429921096917E-009  2.429921096917E-009
   3.000000000000E+000  4.469273202069E-001  2.053652569945E-009  2.053652569945E-009
   3.500000000000E+000  4.281998362378E-002  1.547797725836E-008  1.547797725836E-008
   4.000000000000E+000  3.875307594147E-001  4.708948522425E-008  4.708948522425E-008
   4.500000000000E+000  6.873554109713E-001  1.147240610233E-007  1.147240610233E-007
   5.000000000000E+000  8.015950900203E-001  2.558617442324E-007  2.558617442324E-007
   5.500000000000E+000  3.970501826840E-001  5.143026800392E-007  5.143026800392E-007
   6.000000000000E+000  6.770963680712E-001  8.676367644919E-007  8.676367644919E-007
   6.500000000000E+000  6.703657591627E-001  1.095869171237E-006  1.095869171237E-006
   7.000000000000E+000  2.150401856184E-001  7.507538493898E-007  7.507538493898E-007
   7.500000000000E+000  7.203265415634E-001  0.000000000000E+000  0.000000000000E+000
   8.000000000000E+000  3.784726300138E-001  4.479504707705E-006  4.479504707705E-006
   8.500000000000E+000  8.305678174823E-001  5.229401276179E-005  5.229401276179E-005
   9.000000000000E+000  3.833942909672E-001  3.091768727270E-004  3.091768727270E-004
   9.500000000000E+000  2.309786591833E-001  1.308794613714E-003  1.308794613714E-003
   1.000000000000E+001  2.121664039018E-001  4.031689651240E-003  4.031689651240E-003
   1.050000000000E+001  3.715543330564E-001  7.555190931120E-003  7.555190931120E-003
   1.100000000000E+001  9.156118481546E-001  6.157276967849E-003  6.157276967849E-003
   1.150000000000E+001  6.292545616099E-001  1.213111394538E-003  1.213111394538E-003
   1.200000000000E+001  7.515130345144E-001  1.288602799283E-004  1.288602799283E-004
   1.250000000000E+001  3.493458403714E-001  3.619882945850E-004  3.619882945850E-004
   1.300000000000E+001  5.301465303928E-001  1.157823904936E-004  1.157823904936E-004
   1.350000000000E+001  3.541663894915E-002  9.862572848739E-005  9.862572848739E-005
   1.400000000000E+001  7.323917729097E-001  4.966062227204E-005  4.966062227204E-005
   1.450000000000E+001  2.632896105664E-001  3.329864995629E-005  3.329864995629E-005
   1.500000000000E+001  4.996924514295E-001  1.843709186509E-005  1.843709186509E-005
   1.550000000000E+001  4.955269001051E-001  1.273443334656E-005  1.273443334656E-005
   1.600000000000E+001  5.941977317011E-001  8.681348949130E-006  8.681348949130E-006
   1.650000000000E+001  3.193664309318E-001  7.646158109461E-006  7.646158109461E-006
   1.700000000000E+001  8.117806408561E-001  7.877655060699E-006  7.877655060699E-006
   1.750000000000E+001  4.231903939374E-001  1.048697743381E-005  1.048697743381E-005
   1.800000000000E+001  1.634716591309E-001  1.832213946336E-005  1.832213946336E-005
   1.850000000000E+001  4.225953411873E-001  4.174502422770E-005  4.174502422770E-005
   1.900000000000E+001  7.488109220978E-001  1.109220361196E-004  1.109220361196E-004
   1.950000000000E+001  9.950458032912E-001  2.924733823400E-004  2.924733823400E-004
   2.000000000000E+001  9.756176024338E-001  6.802289806114E-004  6.802289806114E-004
   2.050000000000E+001  8.202179743529E-001  1.318067863238E-003  1.318067863238E-003
   2.100000000000E+001  7.574438761839E-001  2.017726782819E-003  2.017726782819E-003
   2.150000000000E+001  2.447393433204E-001  2.291962410595E-003  2.291962410595E-003
   2.200000000000E+001  1.707289058305E-001  1.921586113161E-003  1.921586113161E-003
   2.250000000000E+001  3.554528589423E-001  1.424419864854E-003  1.424419864854E-003
   2.300000000000E+001  7.871339036647E-002  1.378385741767E-003  1.378385741767E-003
   2.350000000000E+001  8.731012759794E-001  2.186564545141E-003  2.186564545141E-003
   2.400000000000E+001  6.444965236737E-001  5.256776914484E-003  5.256776914484E-003
   2.450000000000E+001  8.432064390148E-001  1.656410770546E-002  1.656410770546E-002
   2.500000000000E+001  6.672841351103E-001  5.240814997711E-002  5.240814997711E-002
   2.550000000000E+001  5.376772730158E-001  1.062596380266E-001  1.062596380266E-001
   2.600000000000E+001  6.532359148958E-001  1.009923041338E-001  1.009923041338E-001
   2.650000000000E+001  2.222074702790E-002  4.377664606527E-002  4.377664606527E-002
   2.700000000000E+001  7.636155760415E-001  0.000000000000E+000  3.301686813875E-002
   2.750000000000E+001  3.148581379852E-001  0.000000000000E+000  9.478167946984E-002
   2.800000000000E+001  3.278829990281E-001  0.000000000000E+000  6.887248232780E-002
   2.850000000000E+001  7.507659945707E-001  0.000000000000E+000  2.271143496473E-002
   2.900000000000E+001  4.790135471691E-001  0.000000000000E+000  0.000000000000E+000
   2.950000000000E+001  1.706513019769E-001  0.000000000000E+000  0.000000000000E+000
   3.000000000000E+001  2.937186923651E-001  0.000000000000E+000  0.000000000000E+000
   3.050000000000E+001  4.234880376591E-001  0.000000000000E+000  4.778857218699E-004
   3.100000000000E+001  9.886617460457E-001  0.000000000000E+000  1.130444369436E-005
   3.150000000000E+001  5.395667729262E-001  0.000000000000E+000  0.000000000000E+000
   3.200000000000E+001  1.848447400666E-001  0.000000000000E+000  0.000000000000E+000
   3.250000000000E+001  3.793778457898E-001  0.000000000000E+000  3.614742968579E-005
   3.300000000000E+001  2.892438501984E-001  0.000000000000E+000  0.000000000000E+000
   3.350000000000E+001  6.646262302498E-001  0.000000000000E+000  1.354868511713E-005
   3.400000000000E+001  3.661596449667E-001  0.000000000000E+000  5.957096684321E-006
   3.450000000000E+001  5.954787598996E-001  0.000000000000E+000  3.353793186346E-006
   3.500000000000E+001  1.371452592580E-001  0.000000000000E+000  8.607001987535E-007
   3.550000000000E+001  9.505000947008E-002  0.000000000000E+000  0.000000000000E+000
   3.600000000000E+001  7.310793162984E-001  0.000000000000E+000  3.621721432390E-007
   3.650000000000E+001  4.692726111450E-001  0.000000000000E+000  1.375745760890E-006
   3.700000000000E+001  7.870611436200E-001  0.000000000000E+000  2.352607312933E-006
   3.750000000000E+001  6.853254550382E-001  0.000000000000E+000  3.263359781520E-006
   3.800000000000E+001  6.083219585509E-001  0.000000000000E+000  6.258066077272E-006
   3.850000000000E+001  1.576002470199E-001  0.000000000000E+000  0.000000000000E+000
   3.900000000000E+001  6.693373601389E-001  0.000000000000E+000  8.333013198124E-005
   3.950000000000E+001  4.873035868727E-001  0.000000000000E+000  3.372604680540E-005
   4.000000000000E+001  4.350226824064E-001  0.000000000000E+000  1.140725826895E-005
   4.050000000000E+001  7.730216205618E-001  0.000000000000E+000  4.077630277277E-006
   4.100000000000E+001  6.262317226407E-001  0.000000000000E+000  2.484685033789E-006
   4.150000000000E+001  8.660098815387E-001  0.000000000000E+000  4.109812752367E-006
   4.200000000000E+001  3.922235599435E-001  0.000000000000E+000  8.773894062550E-006
   4.250000000000E+001  8.571293977350E-001  0.000000000000E+000  1.730104891348E-005
   4.300000000000E+001  8.198576083816E-001  0.000000000000E+000  3.794218137787E-005
   4.350000000000E+001  7.594586250158E-001  0.000000000000E+000  9.934667835661E-005
   4.400000000000E+001  3.498100981740E-001  0.000000000000E+000  2.731237318322E-004
   4.450000000000E+001  2.372950586351E-001  0.000000000000E+000  6.778432084611E-004
   4.500000000000E+001  4.128520191146E-001  0.000000000000E+000  1.179679770998E-003
   4.550000000000E+001  5.926873490114E-002  0.000000000000E+000  9.074231549106E-004
   4.600000000000E+001  9.968545398361E-001  0.000000000000E+000  1.192108141028E-004
   4.650000000000E+001  8.107771970872E-001  0.000000000000E+000  0.000000000000E+000
   4.700000000000E+001  4.087661438366E-001  0.000000000000E+000  3.887231025791E-005
   4.750000000000E+001  6.992957645283E-001  0.000000000000E+000  2.490088423684E-005
   4.800000000000E+001  4.406310703855E-001  0.000000000000E+000  1.207315468876E-005
   4.850000000000E+001  3.800194260206E-001  0.000000000000E+000  1.467457962868E-006
   4.900000000000E+001  1.357052575494E-001  0.000000000000E+000  0.000000000000E+000
   4.950000000000E+001  2.756090343123E-001  0.000000000000E+000  7.857141089039E-006
   5.000000000000E+001  9.314361830112E-001  0.000000000000E+000  1.704840100326E-005
   5.050000000000E+001  5.307177482690E-001  0.000000000000E+000  1.833661747961E-005
   5.100000000000E+001  4.781349439367E-001  0.000000000000E+000  1.138611706884E-005
   5.150000000000E+001  1.205936261688E-002  0.000000000000E+000  2.738938024226E-006
   5.200000000000E+001  9.188505900569E-001  0.000000000000E+000  1.631228990329E-007
   5.250000000000E+001  1.645144307910E-001  0.000000000000E+000  2.480195028868E-008
   5.300000000000E+001  9.071684624577E-001  0.000000000000E+000  1.323065026925E-008
   5.350000000000E+001  2.781242056007E-001  0.000000000000E+000  1.820235289701E-009
   5.400000000000E+001  5.644526425649E-001  0.000000000000E+000  3.239492756075E-007
   5.450000000000E+001  7.203620370621E-001  0.000000000000E+000  2.959821736362E-006
   5.500000000000E+001  5.204818696906E-002  0.000000000000E+000  5.881087548166E-006
   5.550000000000E+001  9.652642030490E-002  0.000000000000E+000  2.663930355526E-006
   5.600000000000E+001  5.054893526093E-001  0.000000000000E+000  6.741119083545E-007
   5.650000000000E+001  3.040335666588E-001  0.000000000000E+000  2.405641244984E-005
   5.700000000000E+001  8.726057704405E-001  0.000000000000E+000  9.561650735524E-005
   5.750000000000E+001  9.994489480523E-001  0.000000000000E+000  2.040915516461E-004
   5.800000000000E+001  3.476018540310E-001  0.000000000000E+000  2.980700416764E-004
   5.850000000000E+001  1.678060084877E-001  0.000000000000E+000  3.441207725067E-004
   5.900000000000E+001  2.810297738237E-001  0.000000000000E+000  3.497294842576E-004
   5.950000000000E+001  4.022823396111E-001  0.000000000000E+000  3.383089348792E-004
   6.000000000000E+001  6.161077611005E-002  0.000000000000E+000  3.284575562137E-004
   6.050000000000E+001  9.151855813296E-001  0.000000000000E+000  3.316213376201E-004
   6.100000000000E+001  6.600646544739E-001  0.000000000000E+000  3.543574146968E-004
   6.150000000000E+001  1.131554830904E-001  0.000000000000E+000  3.961329919053E-004
   6.200000000000E+001  3.243921262088E-001  0.000000000000E+000  4.323227908982E-004
   6.250000000000E+001  3.233301003850E-001  0.000000000000E+000  3.945926076390E-004
   6.300000000000E+001  6.647568650098E-001  0.000000000000E+000  2.261266032435E-004
   6.350000000000E+001  9.184913072138E-001  0.000000000000E+000  2.591157612016E-005
   6.400000000000E+001  2.506039483945E-002  0.000000000000E+000  0.000000000000E+000
   6.450000000000E+001  2.253841548961E-001  0.000000000000E+000  3.249596847826E-006
   6.500000000000E+001  2.118230606452E-001  0.000000000000E+000  4.948963437047E-007
   6.550000000000E+001  8.192510961724E-001  0.000000000000E+000  3.991553704433E-005
   6.600000000000E+001  5.014455284098E-001  0.000000000000E+000  2.497549949617E-004
   6.650000000000E+001  5.532518616069E-001  0.000000000000E+000  5.040315714388E-004
   6.700000000000E+001  8.778216087328E-001  0.000000000000E+000  5.990899669575E-004
   6.750000000000E+001  4.860556681243E-001  0.000000000000E+000  5.314473535891E-004
   6.800000000000E+001  2.264728277224E-001  0.000000000000E+000  3.686376919138E-004
   6.850000000000E+001  4.830245729802E-001  0.000000000000E+000  1.932626948303E-004
   6.900000000000E+001  4.851500360471E-001  0.000000000000E+000  6.852578749943E-005
   6.950000000000E+001  8.206140900739E-001  0.000000000000E+000  7.663119902251E-006
   7.000000000000E+001  9.191219504575E-001  0.000000000000E+000  0.000000000000E+000
   7.050000000000E+001  2.428176731986E-001  0.000000000000E+000  1.807579916451E-008
   7.100000000000E+001  6.978535551194E-001  0.000000000000E+000  8.392335347542E-007
   7.150000000000E+001  4.816034123936E-001  0.000000000000E+000  6.316567237635E-006
   7.200000000000E+001  7.975395437287E-001  0.000000000000E+000  2.344362003526E-005
   7.250000000000E+001  3.870629053099E-001  0.000000000000E+000  5.617998956970E-005
   7.300000000000E+001  2.650776754746E-001  0.000000000000E+000  1.004972635023E-004
   7.350000000000E+001  9.373309373265E-001  0.000000000000E+000  1.616179280294E-004
   7.400000000000E+001  6.761386718004E-001  0.000000000000E+000  0.000000000000E+000
   7.450000000000E+001  4.842597139823E-001  0.000000000000E+000  6.329342615542E-005
   7.500000000000E+001  6.596496068268E-001  0.000000000000E+000  4.209683638813E-005
   7.550000000000E+001  7.489328606330E-001  0.000000000000E+000  5.154929890508E-005
   7.600000000000E+001  7.073349333943E-001  0.000000000000E+000  3.674678022476E-005
   7.650000000000E+001  2.700695344042E-001  0.000000000000E+000  3.260073882967E-005
   7.700000000000E+001  5.784925279077E-001  0.000000000000E+000  3.975059921297E-005
   7.750000000000E+001  6.043628530441E-001  0.000000000000E+000  6.433532239732E-005
   7.800000000000E+001  7.549606217871E-001  0.000000000000E+000  9.436714129282E-005
   7.850000000000E+001  3.127042281348E-002  0.000000000000E+000  1.087460238860E-004
   7.900000000000E+001  5.995304779895E-001  0.000000000000E+000  9.846694546343E-005
   7.950000000000E+001  9.470758282121E-001  0.000000000000E+000  7.355978536252E-005
   8.000000000000E+001  5.051849730968E-001  0.000000000000E+000  4.765718497413E-005
   8.050000000000E+001  8.577791023586E-001  0.000000000000E+000  2.866961809016E-005
   8.100000000000E+001  2.719284957805E-001  0.000000000000E+000  1.706360218130E-005
   8.150000000000E+001  9.242120425021E-001  0.000000000000E+000  7.993681656720E-006
   8.200000000000E+001  7.235684066561E-001  0.000000000000E+000  4.901111797628E-007
   8.250000000000E+001  8.780569888814E-001  0.000000000000E+000  3.819258901157E-006
   8.300000000000E+001  3.574275548483E-001  0.000000000000E+000  3.386450042524E-005
   8.350000000000E+001  5.834076593582E-001  0.000000000000E+000  1.030514367448E-004
   8.400000000000E+001  9.693882681420E-001  0.000000000000E+000  1.971440269379E-004
   8.450000000000E+001  1.296312417922E-001  0.000000000000E+000  2.602961459593E-004
   8.500000000000E+001  5.341831587281E-001  0.000000000000E+000  2.462062731583E-004
   8.550000000000E+001  5.069722156472E-001  0.000000000000E+000  1.823266355592E-004
   8.600000000000E+001  2.256704350850E-002  0.000000000000E+000  1.250472310679E-004
   8.650000000000E+001  8.171061982652E-001  0.000000000000E+000  9.198183241883E-005
   8.700000000000E+001  1.809060379756E-001  0.000000000000E+000  7.484374015004E-005
   8.750000000000E+001  2.698896280213E-002  0.000000000000E+000  6.503547261647E-005
   8.800000000000E+001  4.356315392203E-001  0.000000000000E+000  5.688066113293E-005
   8.850000000000E+001  7.306782212610E-002  0.000000000000E+000  4.720264389679E-005
   8.900000000000E+001  4.762958909781E-001  0.000000000000E+000  3.557819070486E-005
   8.950000000000E+001  3.251666080389E-001  0.000000000000E+000  2.435076948042E-005
   9.000000000000E+001  1.686177534668E-001  0.000000000000E+000  1.616301968682E-005
   9.050000000000E+001  6.799538558331E-001  0.000000000000E+000  1.151702223959E-005
   9.100000000000E+001  6.468165502788E-001  0.000000000000E+000  7.966863577784E-006
   9.150000000000E+001  9.007433771916E-001  0.000000000000E+000  2.705771129189E-006
   9.200000000000E+001  2.403078528243E-001  0.000000000000E+000  7.371690020976E-006
   9.250000000000E+001  7.761890524887E-001  0.000000000000E+000  3.636185601915E-006
   9.300000000000E+001  5.111270344098E-001  0.000000000000E+000  2.201145345485E-006
   9.350000000000E+001  3.854516561904E-001  0.000000000000E+000  1.498472294196E-006
   9.400000000000E+001  7.739626000574E-001  0.000000000000E+000  8.233504493492E-007
   9.450000000000E+001  9.755721040646E-001  0.000000000000E+000  2.275868799637E-007
   9.500000000000E+001  3.806155875103E-001  0.000000000000E+000  1.661320064388E-008
   9.550000000000E+001  1.553913164922E-001  0.000000000000E+000  7.296223653725E-012
   9.600000000000E+001  8.839679877913E-001  0.000000000000E+000  1.165455162080E-006
   9.650000000000E+001  5.798599274308E-001  0.000000000000E+000  7.929345254602E-006
   9.700000000000E+001  4.439489160365E-001  0.000000000000E+000  2.735814188865E-006
   9.750000000000E+001  3.212794434786E-001  0.000000000000E+000  5.537624542029E-007
   9.800000000000E+001  3.666488249624E-001  0.000000000000E+000  1.187444891637E-005
   9.850000000000E+001  1.745707294152E-001  0.000000000000E+000  3.129167436723E-005
   9.900000000000E+001  5.488946571276E-001  0.000000000000E+000  4.939702713618E-005
   9.950000000000E+001  7.334841170097E-001  0.000000000000E+000  5.733799147604E-005
   1.000000000000E+002  2.945788316611E-001  0.000000000000E+000  4.722651395367E-005
