! 1 Hamiltonian Matrix (3x3, complex)
3 3
-7.801749973E+001  0.000000000E+000  0.000000000E+000  0.000000000E+000  0.000000000E+000  0.000000000E+000 
 0.000000000E+000  0.000000000E+000 -7.767529101E+001  0.000000000E+000  0.000000000E+000  0.000000000E+000 
 0.000000000E+000  0.000000000E+000  0.000000000E+000  0.000000000E+000 -7.747729082E+001  0.000000000E+000 

! 2 Dipole Moment Matrices (3x3x3, complex)
3 3
 1.995425350E-002  0.000000000E+000  1.167610430E+000  0.000000000E+000  1.025348220E-002  0.000000000E+000 
 1.167610430E+000  0.000000000E+000 -8.888691240E-003  0.000000000E+000  1.605471290E+000  0.000000000E+000 
 1.025348220E-002  0.000000000E+000  1.605471290E+000  0.000000000E+000  3.108474390E-002  0.000000000E+000 
3 3
 9.241520220E-003  0.000000000E+000 -5.972230340E-002  0.000000000E+000 -7.607207980E-003  0.000000000E+000 
-5.972230340E-002  0.000000000E+000  3.258486580E-002  0.000000000E+000 -8.234428300E-002  0.000000000E+000 
-7.607207980E-003  0.000000000E+000 -8.234428300E-002  0.000000000E+000  5.240198140E-002  0.000000000E+000 
3 3
 5.385244130E-002  0.000000000E+000  3.046719880E-001  0.000000000E+000 -3.277754710E-003  0.000000000E+000 
 3.046719880E-001  0.000000000E+000  6.470701170E-002  0.000000000E+000  4.187360410E-001  0.000000000E+000 
-3.277754710E-003  0.000000000E+000  4.187360410E-001  0.000000000E+000  9.351295620E-002  0.000000000E+000 
! 8 Runtime
 3.623512000E+000
