#                    1                    2                    3                    4                    5                    6
#               Time |           Sum c**2 |  === coeff_diab ===>
#               [fs] |                 [] |                 [] |
   0.000000000000E+000  1.000000000000E+000  0.000000000000E+000  1.000000000000E+000
   5.000000000000E-001  1.000000000000E+000  4.664881158833E-007  9.999995618735E-001
   1.000000000000E+000  1.000000000000E+000  4.881990131719E-006  9.999951426285E-001
   1.500000000000E+000  1.000000000000E+000  1.956796931303E-005  9.999804075289E-001
   2.000000000000E+000  1.000000000000E+000  5.231833652992E-005  9.999477021417E-001
   2.500000000000E+000  1.000000000000E+000  1.125031696511E-004  9.998875246827E-001
   3.000000000000E+000  1.000000000000E+000  2.099892812108E-004  9.997899953083E-001
   3.500000000000E+000  1.000000000000E+000  3.533128982108E-004  9.996467060775E-001
   4.000000000000E+000  1.000000000000E+000  5.463656501211E-004  9.994536255605E-001
   4.500000000000E+000  1.000000000000E+000  7.808556913676E-004  9.992191554263E-001
   5.000000000000E+000  1.000000000000E+000  1.027633887256E-003  9.989723810139E-001
   5.500000000000E+000  1.000000000000E+000  1.236021729046E-003  9.987639866529E-001
   6.000000000000E+000  1.000000000000E+000  1.344452743250E-003  9.986555705398E-001
   6.500000000000E+000  1.000000000000E+000  1.291925233723E-003  9.987080529966E-001
   7.000000000000E+000  1.000000000000E+000  1.024185824579E-003  9.989757853044E-001
   7.500000000000E+000  1.000000000000E+000  5.348617403621E-004  9.994651427998E-001
   8.000000000000E+000  1.000000000000E+000  3.681320581016E-005  9.999632096698E-001
   8.500000000000E+000  1.000000000000E+000  6.591001009928E-004  9.993408874426E-001
   9.000000000000E+000  1.000000000000E+000  6.882638448177E-003  9.931173354748E-001
   9.500000000000E+000  1.000000000000E+000  2.980418953814E-002  9.701958346762E-001
   1.000000000000E+001  1.000000000000E+000  7.555840231598E-002  9.244415827829E-001
   1.050000000000E+001  1.000000000000E+000  1.195648615721E-001  8.804351086256E-001
   1.100000000000E+001  1.000000000000E+000  1.412145872579E-001  8.587854425444E-001
   1.150000000000E+001  1.000000000000E+000  1.495483117185E-001  8.504517180838E-001
   1.200000000000E+001  1.000000000000E+000  1.512029416335E-001  8.487970732677E-001
   1.250000000000E+001  1.000000000000E+000  1.502783461342E-001  8.497216687670E-001
   1.300000000000E+001  1.000000000000E+000  1.483668176746E-001  8.516331674243E-001
   1.350000000000E+001  1.000000000000E+000  1.462304104524E-001  8.537696044487E-001
   1.400000000000E+001  1.000000000000E+000  1.442005317454E-001  8.557994831558E-001
   1.450000000000E+001  1.000000000000E+000  1.424731873200E-001  8.575268424823E-001
   1.500000000000E+001  1.000000000000E+000  1.412007555236E-001  8.587992146741E-001
   1.550000000000E+001  1.000000000000E+000  1.404477650000E-001  8.595522350000E-001
   1.600000000000E+001  1.000000000000E+000  1.401381400406E-001  8.598618450583E-001
   1.650000000000E+001  1.000000000000E+000  1.400767979184E-001  8.599232318839E-001
   1.700000000000E+001  1.000000000000E+000  1.400363658060E-001  8.599636490951E-001
   1.750000000000E+001  1.000000000000E+000  1.398566664377E-001  8.601433633646E-001
   1.800000000000E+001  1.000000000000E+000  1.395016502384E-001  8.604983348605E-001
   1.850000000000E+001  1.000000000000E+000  1.390420261756E-001  8.609579589232E-001
   1.900000000000E+001  1.000000000000E+000  1.385551220032E-001  8.614448928980E-001
   1.950000000000E+001  1.000000000000E+000  1.380928168123E-001  8.619071980889E-001
   2.000000000000E+001  1.000000000000E+000  1.377515694551E-001  8.622484454461E-001
   2.050000000000E+001  1.000000000000E+000  1.376965059025E-001  8.623035238999E-001
   2.100000000000E+001  1.000000000000E+000  1.381486853551E-001  8.618513146449E-001
   2.150000000000E+001  1.000000000000E+000  1.393609218236E-001  8.606390781764E-001
   2.200000000000E+001  1.000000000000E+000  1.415864994744E-001  8.584135154267E-001
   2.250000000000E+001  1.000000000000E+000  1.450325347491E-001  8.549674801521E-001
   2.300000000000E+001  1.000000000000E+000  1.498384933398E-001  8.501614768579E-001
   2.350000000000E+001  1.000000000000E+000  1.561445378954E-001  8.438554770058E-001
   2.400000000000E+001  1.000000000000E+000  1.642113080089E-001  8.357887068922E-001
   2.450000000000E+001  1.000000000000E+000  1.742557725357E-001  8.257442423655E-001
   2.500000000000E+001  1.000000000000E+000  1.863190167296E-001  8.136809683692E-001
   2.550000000000E+001  1.000000000000E+000  2.003605284801E-001  7.996394566187E-001
   2.600000000000E+001  1.000000000000E+000  2.162174259808E-001  7.837825889204E-001
   2.650000000000E+001  1.000000000000E+000  2.336640317791E-001  7.663359533197E-001
   2.700000000000E+001  1.000000000000E+000  2.523865636345E-001  7.476134065632E-001
   2.750000000000E+001  1.000000000000E+000  2.719159752391E-001  7.280839949586E-001
   2.800000000000E+001  1.000000000000E+000  2.914689916494E-001  7.085310083506E-001
   2.850000000000E+001  1.000000000000E+000  3.096851232513E-001  6.903149065510E-001
   2.900000000000E+001  1.000000000000E+000  3.243120140816E-001  6.756879561161E-001
   2.950000000000E+001  1.000000000000E+000  3.320939639011E-001  6.679060360989E-001
   3.000000000000E+001  1.000000000000E+000  3.292103784964E-001  6.707896215036E-001
   3.050000000000E+001  1.000000000000E+000  3.112976512076E-001  6.887023487924E-001
   3.100000000000E+001  1.000000000000E+000  2.576684972110E-001  7.423314878878E-001
   3.150000000000E+001  1.000000000000E+000 -2.667853281692E-002  1.026678537357E+000
   3.200000000000E+001  1.000000000000E+000 -1.282635071588E-001  1.128263536961E+000
   3.250000000000E+001  1.000000000000E+000  3.995999392536E-001  6.004000607464E-001
   3.300000000000E+001  1.000000000000E+000  5.577235476549E-001  4.422764523451E-001
   3.350000000000E+001  1.000000000000E+000  7.028622117997E-001  2.971377882003E-001
   3.400000000000E+001  1.000000000000E+000  6.323900341658E-001  3.676099658342E-001
   3.450000000000E+001  1.000000000000E+000  3.594763559487E-001  6.405236142489E-001
   3.500000000000E+001  1.000000000000E+000  2.288197469945E-001  7.711802530055E-001
   3.550000000000E+001  1.000000000000E+000  3.205236565497E-001  6.794763434503E-001
   3.600000000000E+001  1.000000000000E+000  2.942502124273E-001  7.057497875727E-001
   3.650000000000E+001  1.000000000000E+000  2.127213024726E-001  7.872786826262E-001
   3.700000000000E+001  1.000000000000E+000  1.706010801686E-001  8.293989049302E-001
   3.750000000000E+001  1.000000000000E+000  1.739642776373E-001  8.260357372639E-001
   3.800000000000E+001  1.000000000000E+000  1.781143995444E-001  8.218856302579E-001
   3.850000000000E+001  1.000000000000E+000  1.500718560057E-001  8.499281141920E-001
   3.900000000000E+001  1.000000000000E+000  1.432454965026E-001  8.567545332997E-001
   3.950000000000E+001  1.000000000000E+000  1.269629339143E-001  8.730370809869E-001
   4.000000000000E+001  1.000000000000E+000  1.141054509605E-001  8.858945564901E-001
   4.050000000000E+001  1.000000000000E+000  1.037292153487E-001  8.962707921019E-001
   4.100000000000E+001  1.000000000000E+000  9.206406408655E-002  9.079359508146E-001
   4.150000000000E+001  1.000000000000E+000  8.248306294162E-002  9.175169370584E-001
   4.200000000000E+001  1.000000000000E+000  7.231140780834E-002  9.276885698399E-001
   4.250000000000E+001  1.000000000000E+000  6.144060064166E-002  9.385593770066E-001
   4.300000000000E+001  1.000000000000E+000  4.883378532003E-002  9.511661886029E-001
   4.350000000000E+001  1.000000000000E+000  3.404728174534E-002  9.659527070788E-001
   4.400000000000E+001  1.000000000000E+000  1.842016610232E-002  9.815798338977E-001
   4.450000000000E+001  1.000000000000E+000  4.898326796337E-003  9.951016755320E-001
   4.500000000000E+001  1.000000000000E+000  4.944625074849E-004  9.995055228824E-001
   4.550000000000E+001  1.000000000000E+000  4.902040924282E-002  9.509795609549E-001
   4.600000000000E+001  1.000000000000E+000  5.634402857415E-002  9.436559677006E-001
   4.650000000000E+001  1.000000000000E+000  3.504442532406E-002  9.649555933024E-001
   4.700000000000E+001  1.000000000000E+000  3.676438285493E-002  9.632356022439E-001
   4.750000000000E+001  1.000000000000E+000  2.778126171008E-002  9.722187289767E-001
   4.800000000000E+001  1.000000000000E+000  1.933756393697E-002  9.806624360630E-001
   4.850000000000E+001  1.000000000000E+000  1.302753870740E-002  9.869724454601E-001
   4.900000000000E+001  1.000000000000E+000  7.034487674318E-003  9.929655132570E-001
   4.950000000000E+001  1.000000000000E+000  2.604657195790E-003  9.973953679499E-001
   5.000000000000E+001  1.000000000000E+000  3.307172192246E-004  9.996692623935E-001
   5.050000000000E+001  1.000000000000E+000  6.605223976590E-005  9.999339318113E-001
   5.100000000000E+001  1.000000000000E+000  1.368734645537E-003  9.986312707096E-001
   5.150000000000E+001  1.000000000000E+000  3.467245423909E-003  9.965327452629E-001
   5.200000000000E+001  1.000000000000E+000  5.311782069822E-003  9.946882384193E-001
   5.250000000000E+001  1.000000000000E+000  5.327569332620E-003  9.946724497595E-001
   5.300000000000E+001  1.000000000000E+000 -4.663068408502E-003  1.004663091459E+000
   5.350000000000E+001  1.000000000000E+000  6.860126345230E-001  3.139873505759E-001
   5.400000000000E+001  1.000000000000E+000 -1.421863371449E-002  1.014218633714E+000
   5.450000000000E+001  1.000000000000E+000 -2.384149903592E-003  1.002384164805E+000
   5.500000000000E+001  1.000000000000E+000 -1.610943335228E-001  1.161094333523E+000
   5.550000000000E+001  1.000000000000E+000 -1.275140919061E-002  1.012751409191E+000
   5.600000000000E+001  1.000000000000E+000  5.941015363223E-004  9.994059282660E-001
   5.650000000000E+001  1.000000000000E+000  6.964825487943E-002  9.303517451206E-001
   5.700000000000E+001  1.000000000000E+000  2.119382198407E-001  7.880618099616E-001
   5.750000000000E+001  1.000000000000E+000  4.131895654073E-001  5.868104345927E-001
   5.800000000000E+001  1.000000000000E+000  5.925161814240E-001  4.074838483784E-001
   5.850000000000E+001  1.000000000000E+000  6.702920761836E-001  3.297079238164E-001
   5.900000000000E+001  1.000000000000E+000  6.589576850461E-001  3.410422851516E-001
   5.950000000000E+001  1.000000000000E+000  6.411282736815E-001  3.588717263185E-001
   6.000000000000E+001  1.000000000000E+000  6.691728880579E-001  3.308271417444E-001
   6.050000000000E+001  1.000000000000E+000  7.230192597244E-001  2.769807402756E-001
   6.100000000000E+001  1.000000000000E+000  7.573450145589E-001  2.426549854411E-001
   6.150000000000E+001  1.000000000000E+000  7.573980329343E-001  2.426019968680E-001
   6.200000000000E+001  1.000000000000E+000  7.420405591238E-001  2.579594408762E-001
   6.250000000000E+001  1.000000000000E+000  7.314504177855E-001  2.685495822145E-001
   6.300000000000E+001  1.000000000000E+000  7.249530043204E-001  2.750469956796E-001
   6.350000000000E+001  1.000000000000E+000  7.118835187449E-001  2.881165110574E-001
   6.400000000000E+001  1.000000000000E+000  6.915824119495E-001  3.084175880505E-001
   6.450000000000E+001  1.000000000000E+000  6.721534567864E-001  3.278465730159E-001
   6.500000000000E+001  1.000000000000E+000  6.578278056472E-001  3.421721943528E-001
   6.550000000000E+001  1.000000000000E+000  6.469566049426E-001  3.530434248597E-001
   6.600000000000E+001  1.000000000000E+000  6.392440532119E-001  3.607559765904E-001
   6.650000000000E+001  1.000000000000E+000  6.369844280779E-001  3.630155719221E-001
   6.700000000000E+001  1.000000000000E+000  6.399192644306E-001  3.600807355694E-001
   6.750000000000E+001  1.000000000000E+000  6.454607405480E-001  3.545392594520E-001
   6.800000000000E+001  1.000000000000E+000  6.516312167559E-001  3.483687832441E-001
   6.850000000000E+001  1.000000000000E+000  6.551045249486E-001  3.448955048537E-001
   6.900000000000E+001  1.000000000000E+000  6.499841548599E-001  3.500158749424E-001
   6.950000000000E+001  1.000000000000E+000  6.284246130847E-001  3.715753869153E-001
   7.000000000000E+001  1.000000000000E+000  5.871895028959E-001  4.128104673018E-001
   7.050000000000E+001  1.000000000000E+000  5.268905518481E-001  4.731094481519E-001
   7.100000000000E+001  1.000000000000E+000  4.464661987989E-001  5.535338012011E-001
   7.150000000000E+001  1.000000000000E+000  3.491203983086E-001  6.508795718891E-001
   7.200000000000E+001  1.000000000000E+000  2.456285825612E-001  7.543714174388E-001
   7.250000000000E+001  1.000000000000E+000  1.504122253955E-001  8.495877597033E-001
   7.300000000000E+001  1.000000000000E+000  7.474934565802E-002  9.252506319902E-001
   7.350000000000E+001  1.000000000000E+000  2.427589112459E-002  9.757241386777E-001
   7.400000000000E+001  1.000000000000E+000  1.214203379363E-003  9.987858109397E-001
   7.450000000000E+001  1.000000000000E+000  6.668303283677E-003  9.933317032356E-001
   7.500000000000E+001  1.000000000000E+000  4.066004237073E-002  9.593399688051E-001
   7.550000000000E+001  1.000000000000E+000  9.981256798295E-002  9.001874245665E-001
   7.600000000000E+001  1.000000000000E+000  1.750815600391E-001  8.249184697632E-001
   7.650000000000E+001  1.000000000000E+000  2.536649415412E-001  7.463350882611E-001
   7.700000000000E+001  1.000000000000E+000  3.253654098183E-001  6.746345901817E-001
   7.750000000000E+001  1.000000000000E+000  3.866342067161E-001  6.133657634816E-001
   7.800000000000E+001  1.000000000000E+000  4.379596941848E-001  5.620403356176E-001
   7.850000000000E+001  1.000000000000E+000  4.804661030383E-001  5.195338671594E-001
   7.900000000000E+001  1.000000000000E+000  5.156828150152E-001  4.843171551824E-001
   7.950000000000E+001  1.000000000000E+000  5.447970272874E-001  4.552029727126E-001
   8.000000000000E+001  1.000000000000E+000  5.682455615306E-001  4.317544086671E-001
   8.050000000000E+001  1.000000000000E+000  5.863076202445E-001  4.136924095578E-001
   8.100000000000E+001  1.000000000000E+000  5.990420493205E-001  4.009579804818E-001
   8.150000000000E+001  1.000000000000E+000  6.062119919185E-001  3.937879782792E-001
   8.200000000000E+001  1.000000000000E+000  6.075259876451E-001  3.924740421572E-001
   8.250000000000E+001  1.000000000000E+000  6.037741732371E-001  3.962258267629E-001
   8.300000000000E+001  1.000000000000E+000  5.971312620480E-001  4.028687379520E-001
   8.350000000000E+001  1.000000000000E+000  5.900600476550E-001  4.099399821473E-001
   8.400000000000E+001  1.000000000000E+000  5.842249704782E-001  4.157750295218E-001
   8.450000000000E+001  1.000000000000E+000  5.800000225510E-001  4.200000072513E-001
   8.500000000000E+001  1.000000000000E+000  5.767692979943E-001  4.232307020057E-001
   8.550000000000E+001  1.000000000000E+000  5.742370624229E-001  4.257629375771E-001
   8.600000000000E+001  1.000000000000E+000  5.749249892904E-001  4.250749809073E-001
   8.650000000000E+001  1.000000000000E+000  5.869538313382E-001  4.130461388595E-001
   8.700000000000E+001  1.000000000000E+000  6.224985479839E-001  3.775014222138E-001
   8.750000000000E+001  1.000000000000E+000  6.840082636993E-001  3.159917363007E-001
   8.800000000000E+001  1.000000000000E+000  7.455218676001E-001  2.544781323999E-001
   8.850000000000E+001  1.000000000000E+000  7.729003205049E-001  2.270996943963E-001
   8.900000000000E+001  1.000000000000E+000  7.793610788309E-001  2.206389509715E-001
   8.950000000000E+001  1.000000000000E+000  7.988345913014E-001  2.011654235998E-001
   9.000000000000E+001  1.000000000000E+000  8.269974508291E-001  1.730025491709E-001
   9.050000000000E+001  1.000000000000E+000  8.564341252054E-001  1.435658598934E-001
   9.100000000000E+001  1.000000000000E+000  8.842396242869E-001  1.157603757131E-001
   9.150000000000E+001  1.000000000000E+000  9.047291698801E-001  9.527080031757E-002
   9.200000000000E+001  1.000000000000E+000  9.140627210747E-001  8.593730127706E-002
   9.250000000000E+001  1.000000000000E+000  9.140729792587E-001  8.592700584009E-002
   9.300000000000E+001  1.000000000000E+000  9.104257826075E-001  8.957421739251E-002
   9.350000000000E+001  1.000000000000E+000  9.067814169199E-001  9.321859798131E-002
   9.400000000000E+001  1.000000000000E+000  9.035893529421E-001  9.641064705788E-002
   9.450000000000E+001  1.000000000000E+000  9.013553734473E-001  9.864461910207E-002
   9.500000000000E+001  1.000000000000E+000  8.998624377697E-001  1.001375324280E-001
   9.550000000000E+001  1.000000000000E+000  8.983972692520E-001  1.016027381986E-001
   9.600000000000E+001  1.000000000000E+000  8.963851880878E-001  1.036148119122E-001
   9.650000000000E+001  1.000000000000E+000  8.930979420836E-001  1.069020281141E-001
   9.700000000000E+001  1.000000000000E+000  8.879805423630E-001  1.120194725382E-001
   9.750000000000E+001  1.000000000000E+000  8.808014194003E-001  1.191985955009E-001
   9.800000000000E+001  1.000000000000E+000  8.718675574587E-001  1.281324276401E-001
   9.850000000000E+001  1.000000000000E+000  8.618710315592E-001  1.381289535397E-001
   9.900000000000E+001  1.000000000000E+000  8.509520736122E-001  1.490479114866E-001
   9.950000000000E+001  1.000000000000E+000  8.386176671540E-001  1.613823030437E-001
   1.000000000000E+002  1.000000000000E+000  8.250170524723E-001  1.749829624288E-001
