#                    1                    2                    3                    4                    5                    6
#               Time |           Sum c**2 |  === coeff_diag ===>
#               [fs] |                 [] |                 [] |
   0.000000000000E+000  1.000000000000E+000  0.000000000000E+000  0.000000000000E+000  1.000000000000E+000  0.000000000000E+000
   5.000000000000E-001  1.000000000000E+000  6.160841349956E-006 -3.371383979801E-005 -4.544593354006E-001 -8.907674844159E-001
   1.000000000000E+000  9.999999999999E-001 -6.325748339803E-005 -2.185510216750E-006 -7.548963273108E-001  6.558441362140E-001
   1.500000000000E+000  1.000000000000E+000 -1.806779684614E-006  7.633885711100E-005  6.739668938666E-001  7.387615448444E-001
   2.000000000000E+000  1.000000000000E+000  7.986214574760E-005  7.554372822201E-006  8.028385103172E-001 -5.961965447037E-001
   2.500000000000E+000  9.999999999999E-001  1.940474403495E-005 -6.831169592903E-005 -4.351985362630E-001 -9.003345094971E-001
   3.000000000000E+000  1.000000000000E+000 -3.086357673377E-005 -3.302702690965E-005 -9.907151861820E-001  1.359537341344E-001
   3.500000000000E+000  1.000000000000E+000 -2.522743975332E-005 -3.642760148628E-005 -3.351534505106E-001  9.421635540857E-001
   4.000000000000E+000  1.000000000000E+000 -1.094549526049E-004 -4.537989210883E-005  5.670104181747E-001  8.237106115874E-001
   4.500000000000E+000  1.000000000000E+000 -1.869620731493E-004  1.196920139653E-004  9.944028824109E-001  1.056544280757E-001
   5.000000000000E+000  1.000000000000E+000  2.102614224052E-005  3.160647164636E-004  7.321027806464E-001 -6.811941120054E-001
   5.500000000000E+000  1.000000000000E+000  3.181760230880E-004  1.092653051460E-004 -8.014344107897E-002 -9.967832842083E-001
   6.000000000000E+000  1.000000000000E+000  1.021037304556E-004 -1.765589732428E-004 -8.652372225550E-001 -5.013626502913E-001
   6.500000000000E+000  1.000000000000E+000 -3.073164053485E-005  1.854098713621E-004 -8.837977548955E-001  4.678690982747E-001
   7.000000000000E+000  1.000000000000E+000  7.972833150687E-004  2.151883226908E-004 -6.864937370376E-002  9.976405071585E-001
   7.500000000000E+000  1.000000000000E+000  1.352880418413E-003 -1.480088398840E-003  7.767651617685E-001  6.297871565185E-001
   8.000000000000E+000  9.999999999999E-001 -7.884418001104E-004 -4.206733935448E-003  9.884473321319E-001 -1.515043014253E-001
   8.500000000000E+000  1.000000000000E+000 -6.968481317559E-003 -5.511867936783E-003  7.018689847657E-001 -7.122506495637E-001
   9.000000000000E+000  1.000000000000E+000 -1.698302327149E-002 -3.941750249853E-003  3.786161838735E-001 -9.253895530179E-001
   9.500000000000E+000  1.000000000000E+000 -2.678508198936E-002 -3.694875237688E-003  2.721042710516E-001 -9.618878172403E-001
   1.000000000000E+001  1.000000000000E+000 -2.376888221258E-002 -1.051028221270E-002  3.968741512342E-001 -9.175050312060E-001
   1.050000000000E+001  9.999999999999E-001 -7.885930644630E-003 -1.012000882455E-002  6.541104962226E-001 -7.562901931472E-001
   1.100000000000E+001  9.999999999999E-001 -1.253427055573E-003 -3.727574494183E-003  8.934705994247E-001 -4.491044667698E-001
   1.150000000000E+001  9.999999999999E-001  1.733083340138E-004 -1.122780937658E-003  9.959212403523E-001 -9.021968932703E-002
   1.200000000000E+001  1.000000000000E+000 -3.613309514577E-005 -1.376534265828E-004  9.886739454560E-001  1.500793434236E-001
   1.250000000000E+001  9.999999999999E-001 -1.482128013441E-004  9.909609438870E-005  9.865013574267E-001  1.637529847305E-001
   1.300000000000E+001  1.000000000000E+000 -1.458484312478E-004  1.383073670206E-004  9.962946872923E-001 -8.600497469643E-002
   1.350000000000E+001  1.000000000000E+000 -7.748819247533E-005  1.405638489449E-004  8.315713262805E-001 -5.554179539279E-001
   1.400000000000E+001  1.000000000000E+000 -3.437914375212E-006  1.031384531873E-004  2.562120540335E-001 -9.666205939864E-001
   1.450000000000E+001  1.000000000000E+000  2.587776910573E-005  4.272370298551E-005 -6.123259518508E-001 -7.906054175093E-001
   1.500000000000E+001  1.000000000000E+000  1.011254884504E-005  9.308773601918E-006 -9.811637359839E-001  1.931779568203E-001
   1.550000000000E+001  1.000000000000E+000  3.178540092561E-006  1.249507267257E-005 -7.480761922691E-002  9.971979843238E-001
   1.600000000000E+001  1.000000000000E+000  1.248797630428E-005  4.437674159492E-006  9.908628047274E-001  1.348736521048E-001
   1.650000000000E+001  1.000000000000E+000  4.098836172824E-006 -5.606239685502E-006 -2.253325928065E-002 -9.997460938548E-001
   1.700000000000E+001  1.000000000000E+000 -3.894383623944E-006 -2.445640714273E-006 -9.248401061943E-001  3.803561199105E-001
   1.750000000000E+001  9.999999999999E-001  3.954343898099E-006  1.309322067897E-005  8.015134007566E-001  5.979768124438E-001
   1.800000000000E+001  1.000000000000E+000  1.938541628666E-005 -2.457897606166E-005 -7.176835397108E-004 -9.999997419752E-001
   1.850000000000E+001  1.000000000000E+000 -4.163915678764E-005 -4.813150230650E-006 -7.949343851330E-001  6.066954108746E-001
   1.900000000000E+001  1.000000000000E+000  1.428227562601E-005  3.578430281480E-005  9.381245459592E-001  3.462980432870E-001
   1.950000000000E+001  1.000000000000E+000  1.946325627427E-005 -1.828287809142E-005 -4.721080494688E-002 -9.988849479210E-001
   2.000000000000E+001  1.000000000000E+000 -1.017893255813E-005 -8.634230676155E-006 -9.731840630109E-001  2.300277794604E-001
   2.050000000000E+001  1.000000000000E+000 -2.984580270246E-006  2.966516133254E-006  1.801392903225E-001  9.836411114143E-001
   2.100000000000E+001  9.999999999999E-001  1.287243390615E-005 -4.044762887610E-006  9.961180420807E-001  8.802753012090E-002
   2.150000000000E+001  9.999999999999E-001 -1.632570561254E-006 -6.696511902614E-005  4.936917500497E-001 -8.696369653170E-001
   2.200000000000E+001  9.999999999999E-001 -1.966179647619E-004 -5.913929080059E-005 -5.331877375943E-001 -8.459969233531E-001
   2.250000000000E+001  1.000000000000E+000 -2.423021382952E-004  4.219358631956E-004 -9.938146405613E-001  1.110505446443E-001
   2.300000000000E+001  1.000000000000E+000  7.687020038200E-004  5.527433587297E-004 -2.244557431200E-001  9.744838238537E-001
   2.350000000000E+001  9.999999999999E-001  9.240019083248E-004 -1.237318775329E-003  9.019412676597E-001  4.318559539419E-001
   2.400000000000E+001  1.000000000000E+000 -1.733959224304E-003 -1.402353791013E-003  5.758469891435E-001 -8.175544458222E-001
   2.450000000000E+001  1.000000000000E+000 -2.213835635662E-003  2.120469792848E-003 -6.808160009104E-001 -7.324480701347E-001
   2.500000000000E+001  1.000000000000E+000  1.986407453448E-003  3.543719937923E-003 -9.102206453032E-001  4.141036984842E-001
   2.550000000000E+001  9.999999999999E-001  5.220101365012E-003 -6.019861072509E-004 -2.441210818864E-002  9.996881699451E-001
   2.600000000000E+001  1.000000000000E+000  2.460859670520E-003 -6.207548718556E-003  8.463577678759E-001  5.325729426705E-001
   2.650000000000E+001  1.000000000000E+000 -5.261949320856E-003 -6.482290584625E-003  8.940357571343E-001 -4.479178013469E-001
   2.700000000000E+001  1.000000000000E+000 -9.966981050018E-003  2.348614600620E-003  7.263020436246E-003 -9.999211928109E-001
   2.750000000000E+001  9.999999999999E-001 -1.239095848814E-003  1.214733225837E-002 -9.401673406147E-001 -3.404941682348E-001
   2.800000000000E+001  1.000000000000E+000  1.325887809497E-002  4.090133276165E-003 -5.056288583316E-001  8.626395136926E-001
   2.850000000000E+001  1.000000000000E+000  5.565212234497E-003 -1.328227512399E-002  8.452103515003E-001  5.342397133283E-001
   2.900000000000E+001  1.000000000000E+000 -1.073711060836E-002 -6.518667349177E-003  4.692535814701E-001 -8.829741206339E-001
   2.950000000000E+001  1.000000000000E+000 -1.043016840895E-002  2.816221451329E-003 -9.314766933923E-001 -3.636405507512E-001
   3.000000000000E+001  1.000000000000E+000 -1.451519428713E-002  2.357490108117E-002 -2.944103665869E-001  9.552780062474E-001
   3.050000000000E+001  1.000000000000E+000  5.445541044362E-002  5.340699520978E-002  9.359237699227E-001  3.438444387070E-001
   3.100000000000E+001  1.000000000000E+000  1.658364639671E-001 -1.141241769350E-001  5.450030319847E-001 -8.139076327111E-001
   3.150000000000E+001  1.000000000000E+000 -1.351843719725E-001 -5.122175470924E-001 -4.626928260931E-001 -7.108260818984E-001
   3.200000000000E+001  1.000000000000E+000 -7.151198390276E-001 -3.009346899758E-001 -6.239994498036E-001  9.309465528758E-002
   3.250000000000E+001  1.000000000000E+000 -8.601759169389E-001  2.196924010512E-001 -1.446120077056E-001  4.369439415600E-001
   3.300000000000E+001  1.000000000000E+000 -6.976968507645E-001  6.156657100287E-001  2.739477497211E-001  2.431614039090E-001
   3.350000000000E+001  1.000000000000E+000 -4.115271017660E-001  8.570963471719E-001  2.636784212945E-001 -1.628035206018E-001
   3.400000000000E+001  1.000000000000E+000 -1.475741094756E-002  9.653531404470E-001 -1.125895271759E-001 -2.349449540244E-001
   3.450000000000E+001  1.000000000000E+000  4.764727866056E-001  8.569474345348E-001 -1.647313081593E-001  1.071371745969E-001
   3.500000000000E+001  1.000000000000E+000  8.880484640852E-001  4.450940039960E-001  9.765686063190E-002  6.102778559243E-002
   3.550000000000E+001  1.000000000000E+000  9.895624770680E-001 -1.324300304562E-001 -2.712122653704E-002 -4.992824935447E-002
   3.600000000000E+001  1.000000000000E+000  7.883869272563E-001 -6.131937504612E-001  1.827384008360E-003  4.935724865109E-002
   3.650000000000E+001  1.000000000000E+000  4.070009501004E-001 -9.130378712374E-001  2.432679598673E-002 -1.096719201178E-002
   3.700000000000E+001  9.999999999999E-001 -9.624088171393E-002 -9.950712364150E-001  2.153452544926E-002  1.035332603917E-002
   3.750000000000E+001  1.000000000000E+000 -6.143614649780E-001 -7.887684377318E-001 -2.009890046730E-002  6.133418854774E-004
   3.800000000000E+001  1.000000000000E+000 -9.803358523102E-001 -1.966711819706E-001  1.310286303486E-002 -9.506725922765E-003
   3.850000000000E+001  9.999999999999E-001 -7.425333026881E-001  6.697473640104E-001 -9.097349099868E-003  3.224125977381E-005
   3.900000000000E+001  1.000000000000E+000  2.890950992606E-001  9.572863909116E-001 -4.474357281487E-003 -2.601823571590E-003
   3.950000000000E+001  1.000000000000E+000  9.999560702888E-001  2.503045399458E-003  2.199215019424E-004  9.030165608295E-003
   4.000000000000E+001  1.000000000000E+000  2.205423798036E-001 -9.753662473960E-001  4.655956213229E-003  2.534225867563E-004
   4.050000000000E+001  1.000000000000E+000 -9.043084881210E-001 -4.268354099947E-001  3.570155566271E-003 -4.994504605635E-003
   4.100000000000E+001  1.000000000000E+000 -6.679246794632E-001  7.442082985657E-001 -4.492253679213E-003 -3.232733644595E-003
   4.150000000000E+001  1.000000000000E+000  3.989688326181E-001  9.169523552146E-001 -4.424014558551E-003  1.636142088843E-003
   4.200000000000E+001  1.000000000000E+000  9.768053121144E-001  2.140634853230E-001 -1.199157167528E-003  5.173828228213E-003
   4.250000000000E+001  9.999999999999E-001  8.859726353515E-001 -4.637032983002E-001  2.525349626824E-003  5.036185362429E-003
   4.300000000000E+001  1.000000000000E+000  6.247187023155E-001 -7.808173057899E-001  5.410786027040E-003  4.647725334676E-003
   4.350000000000E+001  1.000000000000E+000  5.312232027981E-001 -8.471822748677E-001  7.620480643540E-003  5.101983313704E-003
   4.400000000000E+001  1.000000000000E+000  6.611264654222E-001 -7.501815193812E-001  8.589813745838E-003  8.105541133983E-003
   4.450000000000E+001  9.999999999999E-001  8.888759303774E-001 -4.578864726425E-001  6.689556155313E-003  1.395737815852E-002
   4.500000000000E+001  1.000000000000E+000  9.997236751920E-001  1.031128845245E-002 -3.816412654746E-004  2.112119648479E-002
   4.550000000000E+001  1.000000000000E+000  8.831734677548E-001  4.651354006284E-001 -3.746539510387E-002  4.743447170463E-002
   4.600000000000E+001  9.999999999999E-001  6.464804453824E-001  7.621635069619E-001  3.420142194288E-002 -2.917716939982E-004
   4.650000000000E+001  1.000000000000E+000  3.922272049507E-001  9.197406929462E-001 -3.129718739756E-003 -1.500274294821E-002
   4.700000000000E+001  1.000000000000E+000  4.864713643995E-002  9.987925243860E-001 -1.307538179121E-007  6.851959339680E-003
   4.750000000000E+001  1.000000000000E+000 -5.285789566428E-001  8.488042205163E-001  8.144174181642E-003  8.327920211243E-003
   4.800000000000E+001  9.999999999999E-001 -9.996012152346E-001  2.691292925701E-002  1.182708046082E-004  8.549312970690E-003
   4.850000000000E+001  1.000000000000E+000 -2.258023628874E-001 -9.741168171547E-001 -1.036448129721E-002 -1.515578530677E-003
   4.900000000000E+001  9.999999999999E-001  9.894323880447E-001 -1.442787943943E-001  2.960250890415E-003 -1.408601756701E-002
   4.950000000000E+001  9.999999999999E-001 -7.889211754388E-002  9.967434378663E-001  1.538578829024E-002  6.467640876162E-003
   5.000000000000E+001  9.999999999999E-001 -9.547470482564E-001 -2.968290756628E-001 -1.120894416329E-002  1.499777508549E-002
   5.050000000000E+001  9.999999999999E-001  3.966983869758E-001 -9.177116567907E-001 -1.502941114861E-002 -1.448521873208E-002
   5.100000000000E+001  9.999999999999E-001  9.473654064599E-001  3.193754176757E-001  1.384913001359E-002 -1.750230914259E-002
   5.150000000000E+001  1.000000000000E+000 -2.319981307223E-002  9.994925800340E-001  2.096676875922E-002  6.061826315183E-003
   5.200000000000E+001  1.000000000000E+000 -8.832740653224E-001  4.684914219978E-001  1.033871530494E-002  1.535656241505E-002
   5.250000000000E+001  1.000000000000E+000 -9.185984686048E-001 -3.942414702657E-001  1.900874556627E-002  1.972775181593E-002
   5.300000000000E+001  1.000000000000E+000 -3.632707705054E-001 -9.263935592750E-001  4.127450278352E-002  9.014286466591E-002
   5.350000000000E+001  9.999999999999E-001  3.526422230353E-001 -8.297178313336E-001 -1.295624582339E-001  4.128260557621E-001
   5.400000000000E+001  1.000000000000E+000  5.078690249788E-001 -1.407722164555E-001 -7.705729065535E-001  3.584266064720E-001
   5.450000000000E+001  1.000000000000E+000  1.366424847932E-001  1.812000817154E-001 -8.641580323368E-001 -4.491394626212E-001
   5.500000000000E+001  1.000000000000E+000 -1.221938186488E-001 -5.033796983135E-001 -2.592237076044E-002 -8.549886436111E-001
   5.550000000000E+001  1.000000000000E+000  6.807443228492E-001 -5.571506629203E-001  4.009091534427E-001 -2.558166460610E-001
   5.600000000000E+001  1.000000000000E+000  8.983722962163E-001  2.215250070550E-001  3.753518587973E-001  5.445062660558E-002
   5.650000000000E+001  1.000000000000E+000  5.191337739007E-001  7.844235862718E-001  2.945830305529E-001  1.685247762389E-001
   5.700000000000E+001  1.000000000000E+000 -3.905108596615E-002  9.498270991168E-001  2.414229890027E-001  1.949831655536E-001
   5.750000000000E+001  9.999999999999E-001 -6.145039794117E-001  7.426530725317E-001  1.847166997671E-001  1.916533693247E-001
   5.800000000000E+001  1.000000000000E+000 -9.764010310430E-001  8.603128363492E-002  1.040314328117E-001  1.685737399520E-001
   5.850000000000E+001  1.000000000000E+000 -6.192330354622E-001 -7.764896986328E-001  2.648593900060E-002  1.136340210706E-001
   5.900000000000E+001  1.000000000000E+000  4.678859038574E-001 -8.826297572129E-001  2.655906666318E-003  4.517121664965E-002
   5.950000000000E+001  1.000000000000E+000  9.880678555864E-001  1.507382915585E-001  2.580414210491E-002  1.827639092462E-002
   6.000000000000E+001  1.000000000000E+000  2.779809479751E-001  9.594485217502E-001  3.719488240634E-002  2.831373159853E-002
   6.050000000000E+001  9.999999999999E-001 -5.272862387396E-001  8.486691690998E-001  3.223402112965E-002  2.628367814944E-002
   6.100000000000E+001  1.000000000000E+000 -7.973915767869E-001  6.029050552368E-001  2.567094937517E-002  3.629049096107E-003
   6.150000000000E+001  1.000000000000E+000 -6.907736069314E-001  7.229151507182E-001  4.134430453587E-003 -1.443659634280E-002
   6.200000000000E+001  1.000000000000E+000 -1.822201378526E-001  9.831862120182E-001 -1.182289895439E-002 -9.554677679048E-004
   6.250000000000E+001  1.000000000000E+000  5.624943791046E-001  8.267776467481E-001 -1.907878346237E-003  5.929275978226E-003
   6.300000000000E+001  1.000000000000E+000  9.855785913244E-001  1.691438812199E-001 -3.562281870818E-003  3.535239271621E-003
   6.350000000000E+001  1.000000000000E+000  8.245413638302E-001 -5.656857561124E-001  1.143021479058E-003  1.139553274345E-002
   6.400000000000E+001  9.999999999999E-001  1.964072698749E-001 -9.804360160672E-001  1.226207310760E-002  4.363977726556E-003
   6.450000000000E+001  1.000000000000E+000 -5.809400502471E-001 -8.138836338001E-001  7.663464023524E-003 -6.584828803956E-003
   6.500000000000E+001  1.000000000000E+000 -9.974288824076E-001 -7.134957009374E-002  1.525333702491E-004 -6.696276586248E-003
   6.550000000000E+001  1.000000000000E+000 -6.593240186370E-001  7.518418454188E-001 -3.702080866961E-003 -3.460133352589E-003
   6.600000000000E+001  1.000000000000E+000  1.989470556315E-001  9.800054263268E-001 -2.748610808162E-003  1.370607239339E-003
   6.650000000000E+001  1.000000000000E+000  8.703986655961E-001  4.923463900268E-001  9.415850798279E-004  5.554940941918E-004
   6.700000000000E+001  1.000000000000E+000  9.803284088645E-001 -1.973650219145E-001  1.252366816347E-004 -1.800892469617E-003
   6.750000000000E+001  1.000000000000E+000  7.808270105089E-001 -6.247433613162E-001 -1.182115130886E-003 -1.874767942542E-003
   6.800000000000E+001  9.999999999999E-001  6.945080738114E-001 -7.194821515480E-001 -1.388904021183E-003 -1.428271753258E-003
   6.850000000000E+001  1.000000000000E+000  8.900383346906E-001 -4.558851969080E-001 -5.591272037393E-004 -3.706724407510E-004
   6.900000000000E+001  1.000000000000E+000  9.262407406453E-001  3.769256890346E-001 -1.374934120242E-003  1.795792556218E-003
   6.950000000000E+001  1.000000000000E+000 -1.835349021423E-001  9.829910880302E-001 -6.222090008545E-003 -2.178564849373E-003
   7.000000000000E+001  1.000000000000E+000 -9.454533281103E-001 -3.255639908469E-001  5.100685724204E-003 -1.000376099725E-002
   7.050000000000E+001  9.999999999999E-001  5.204518526460E-001 -8.537272170786E-001  1.253519638210E-002  1.107143839616E-002
   7.100000000000E+001  1.000000000000E+000  8.406732248796E-001  5.409919071305E-001 -1.727816920118E-002  1.725544142788E-002
   7.150000000000E+001  9.999999999999E-001 -3.848118302401E-001  9.224203384875E-001 -2.641522900292E-002 -1.904757539789E-002
   7.200000000000E+001  1.000000000000E+000 -9.459339656140E-001 -3.220144999584E-001  2.075075384467E-002 -3.293934925300E-002
   7.250000000000E+001  1.000000000000E+000  6.548499430475E-001 -7.545369117012E-001  2.488837932834E-002  3.501670380699E-002
   7.300000000000E+001  9.999999999999E-001 -3.315980798785E-002  9.984051724944E-001 -4.391821390402E-002 -1.259877605295E-002
   7.350000000000E+001  9.999999999999E-001 -3.828726382447E-001 -9.225394934301E-001  4.780767471636E-002 -6.622098111931E-003
   7.400000000000E+001  1.000000000000E+000  7.788054383131E-001  6.251726006750E-001 -4.127830065769E-002  3.028878528482E-002
   7.450000000000E+001  9.999999999999E-001 -9.871633659513E-001  1.502723082578E-001  5.604078848176E-003 -5.380814617492E-002
   7.500000000000E+001  1.000000000000E+000  1.282216251287E-001 -9.901890945068E-001  5.205739184447E-002  1.935975008868E-002
   7.550000000000E+001  9.999999999999E-001  9.934014267158E-001 -1.013847691964E-001 -3.903851958308E-003  5.347423598150E-002
   7.600000000000E+001  1.000000000000E+000  7.395411562484E-001  6.714426173463E-001 -3.531421928835E-002  3.156890466879E-002
   7.650000000000E+001  9.999999999999E-001  4.388441222018E-001  8.977548627796E-001 -3.486321488180E-002  1.538177533772E-002
   7.700000000000E+001  1.000000000000E+000  4.537124057326E-001  8.906818581647E-001 -2.576176162911E-002  1.293105016576E-002
   7.750000000000E+001  9.999999999999E-001  7.151616482751E-001  6.986244670702E-001 -1.509227445947E-002  1.548851506461E-002
   7.800000000000E+001  1.000000000000E+000  9.700613518535E-001  2.423113861746E-001 -3.775245627269E-003  1.587177654866E-002
   7.850000000000E+001  9.999999999999E-001  9.335146604390E-001 -3.583289552695E-001  4.588556272128E-003  1.138787566653E-002
   7.900000000000E+001  1.000000000000E+000  5.906113430996E-001 -8.069021779529E-001  7.624877374607E-003  5.383108949895E-003
   7.950000000000E+001  1.000000000000E+000  2.033348863047E-001 -9.790840379096E-001  6.917026353071E-003  1.235098577170E-003
   8.000000000000E+001  9.999999999999E-001  4.500581060065E-003 -9.999767183047E-001  5.126054444342E-003 -1.765911699841E-004
   8.050000000000E+001  1.000000000000E+000  8.338896432483E-002 -9.965106776061E-001  3.569075178669E-003  1.083895567319E-004
   8.100000000000E+001  1.000000000000E+000  4.473968848950E-001 -8.943326992697E-001  2.073980799173E-003  8.654518642217E-004
   8.150000000000E+001  1.000000000000E+000  9.067356137459E-001 -4.216982447515E-001  5.265493646059E-004  9.164519558471E-004
   8.200000000000E+001  1.000000000000E+000  8.846536753658E-001  4.662487236941E-001  3.290423826784E-005 -3.511038417410E-005
   8.250000000000E+001  1.000000000000E+000 -1.999224339071E-002  9.997997275117E-001  9.027972544918E-004 -5.367122544357E-006
   8.300000000000E+001  1.000000000000E+000 -9.514983016633E-001  3.076509330346E-001  4.010868314480E-004  1.313188526928E-003
   8.350000000000E+001  1.000000000000E+000 -5.001264912411E-001 -8.659511388466E-001 -1.307345620196E-003  6.393250757924E-004
   8.400000000000E+001  1.000000000000E+000  8.289351870759E-001 -5.593432341408E-001 -5.891305803570E-004 -1.120256046587E-003
   8.450000000000E+001  1.000000000000E+000  5.160907825329E-001  8.565332576207E-001  9.594393563141E-004 -4.028031938196E-004
   8.500000000000E+001  1.000000000000E+000 -8.784131798728E-001  4.779008842104E-001  2.715188257558E-004  9.780461141569E-004
   8.550000000000E+001  1.000000000000E+000 -6.383511457970E-001 -7.697447093084E-001 -8.362413360986E-004  4.448053833099E-004
   8.600000000000E+001  1.000000000000E+000  2.274459517790E-001 -9.737890464666E-001  5.005437830189E-004  1.726689604005E-003
   8.650000000000E+001  1.000000000000E+000  6.258942232791E-001 -7.798073980620E-001  1.377947275455E-003  1.244766865611E-002
   8.700000000000E+001  9.999999999999E-001  7.725319054280E-001 -6.341439068173E-001  1.529142669939E-003  3.245954813174E-002
   8.750000000000E+001  9.999999999999E-001  9.076230631347E-001 -4.174938141900E-001  3.797080155361E-003  4.364484575829E-002
   8.800000000000E+001  1.000000000000E+000  9.994090939683E-001 -1.182720454217E-002  6.351008315444E-003  3.164245280618E-002
   8.850000000000E+001  1.000000000000E+000  8.663836645498E-001  4.992563196860E-001  4.787042097434E-003  9.977839587150E-003
   8.900000000000E+001  1.000000000000E+000  4.485125489091E-001  8.937681599930E-001 -3.419207820578E-003 -1.810710267375E-003
   8.950000000000E+001  9.999999999999E-001 -1.510416734720E-001  9.884497965298E-001 -1.045512000992E-002 -6.641015018883E-003
   9.000000000000E+001  1.000000000000E+000 -7.363805881016E-001  6.763743488887E-001 -7.242111250725E-003 -1.445411558279E-002
   9.050000000000E+001  1.000000000000E+000 -9.995027799809E-001 -2.455851794889E-002  6.565203582696E-003 -1.865395691316E-002
   9.100000000000E+001  1.000000000000E+000 -6.213548101740E-001 -7.832681563453E-001  1.807510150803E-002 -9.082171248577E-003
   9.150000000000E+001  9.999999999999E-001  3.006814107925E-001 -9.536169288759E-001  1.395841399995E-002  3.256507890923E-003
   9.200000000000E+001  1.000000000000E+000  9.750074947590E-001 -2.220923790396E-001  4.594959911994E-003  3.774477409789E-003
   9.250000000000E+001  9.999999999999E-001  6.802603526687E-001  7.329665438303E-001  2.421751150834E-003  1.825754541339E-004
   9.300000000000E+001  9.999999999999E-001 -2.309629577033E-001  9.729594067888E-001  2.409829761112E-003  5.455552915156E-004
   9.350000000000E+001  9.999999999999E-001 -8.918065047535E-001  4.524133539344E-001  7.852496463841E-004  1.642755029973E-003
   9.400000000000E+001  1.000000000000E+000 -9.532225543670E-001 -3.022662375389E-001 -3.874766334247E-004  1.316568259640E-003
   9.450000000000E+001  1.000000000000E+000 -4.554654589714E-001 -8.902531714999E-001 -5.803563880647E-004  4.117097219531E-004
   9.500000000000E+001  1.000000000000E+000  4.484311865082E-001 -8.938172425721E-001 -4.156253526624E-004 -1.873586369570E-004
   9.550000000000E+001  1.000000000000E+000  9.995053631715E-001  3.144616248103E-002 -4.542224132417E-005 -4.071774015153E-004
   9.600000000000E+001  1.000000000000E+000  2.911178636223E-001  9.566870603863E-001  4.403401275943E-004 -2.531205735602E-004
   9.650000000000E+001  1.000000000000E+000 -7.647057212412E-001  6.443793036130E-001  6.025573367910E-004  3.315131148391E-004
   9.700000000000E+001  1.000000000000E+000 -9.569209668980E-001 -2.903472822637E-001  1.798481800676E-004  8.285214275464E-004
   9.750000000000E+001  1.000000000000E+000 -2.679878207130E-001 -9.634218874271E-001 -5.430360706704E-004  7.070273861001E-004
   9.800000000000E+001  1.000000000000E+000  8.898576410865E-001 -4.562375739338E-001 -7.644286784783E-004 -2.652918422493E-004
   9.850000000000E+001  9.999999999999E-001  1.298397423839E-001  9.915347509294E-001  3.864478962250E-004 -5.741558879093E-004
   9.900000000000E+001  9.999999999999E-001 -8.044120578424E-001 -5.940714131830E-001  1.665173788621E-004  6.078719995967E-004
   9.950000000000E+001  9.999999999999E-001  9.998442861027E-001 -1.763500332212E-002 -5.243328801145E-004 -3.678050366511E-004
   1.000000000000E+002  9.999999999999E-001 -7.044611343279E-001  7.097422497767E-001  6.591980267294E-004 -1.206700681733E-004
