#                    1                    2                    3                    4                    5                    6                    7                    8                    9                   10
#               Time |               Ekin |               Epot |               Etot |  Energy          1 |  Energy          2 | Spin             1 | Spin             2 | f_osc            1 | f_osc            2 |
#               [fs] |               [eV] |               [eV] |               [eV] |               [eV] |               [eV] |                 [] |                 [] |                 [] |                 [] |
   0.000000000000E+000  7.898118933764E-001  1.108569655601E+001  1.187550844939E+001  1.494285661174E+000  1.108569655601E+001  0.000000000000E+000  0.000000000000E+000  0.000000000000E+000  5.022106916516E-001
   5.000000000000E-001  1.015355811261E+000  1.084437974532E+001  1.185973555659E+001  1.357591179151E+000  1.084437974532E+001  0.000000000000E+000  0.000000000000E+000  0.000000000000E+000  4.900221516992E-001
   1.000000000000E+000  1.354693015324E+000  1.048935526913E+001  1.184404828445E+001  1.145993553458E+000  1.048935526913E+001  0.000000000000E+000  0.000000000000E+000  0.000000000000E+000  4.698367531837E-001
   1.500000000000E+000  1.585293691027E+000  1.026197612925E+001  1.184726982028E+001  1.109916156509E+000  1.026197612925E+001  0.000000000000E+000  0.000000000000E+000  0.000000000000E+000  4.399883979796E-001
   2.000000000000E+000  1.703612690264E+000  1.015523321744E+001  1.185884590771E+001  1.252191421249E+000  1.015523321744E+001  0.000000000000E+000  0.000000000000E+000  0.000000000000E+000  3.996370155586E-001
   2.500000000000E+000  1.832286337875E+000  1.003178741399E+001  1.186407375187E+001  1.439775817026E+000  1.003178741399E+001  0.000000000000E+000  0.000000000000E+000  0.000000000000E+000  3.500496341515E-001
   3.000000000000E+000  2.032212704789E+000  9.828318100773E+000  1.186053080556E+001  1.603796242836E+000  9.828318100773E+000  0.000000000000E+000  0.000000000000E+000  0.000000000000E+000  2.950780762402E-001
   3.500000000000E+000  2.254542970997E+000  9.600298677035E+000  1.185484164803E+001  1.785828155736E+000  9.600298677035E+000  0.000000000000E+000  0.000000000000E+000  0.000000000000E+000  2.401315850908E-001
   4.000000000000E+000  2.416371476414E+000  9.436073893733E+000  1.185244537015E+001  2.057618178868E+000  9.436073893733E+000  0.000000000000E+000  0.000000000000E+000  0.000000000000E+000  1.901369467698E-001
   4.500000000000E+000  2.475192666920E+000  9.378635288339E+000  1.185382795526E+001  2.448112693927E+000  9.378635288339E+000  0.000000000000E+000  0.000000000000E+000  0.000000000000E+000  1.479235826321E-001
   5.000000000000E+000  2.442733577209E+000  9.414360842095E+000  1.185709441930E+001  2.934081614624E+000  9.414360842095E+000  0.000000000000E+000  0.000000000000E+000  0.000000000000E+000  1.140474993972E-001
   5.500000000000E+000  2.361719665251E+000  9.498808378653E+000  1.186052804390E+001  3.465039388371E+000  9.498808378653E+000  0.000000000000E+000  0.000000000000E+000  0.000000000000E+000  8.758544121262E-002
   6.000000000000E+000  2.281022414500E+000  9.582261339130E+000  1.186328375363E+001  3.987173326673E+000  9.582261339130E+000  0.000000000000E+000  0.000000000000E+000  0.000000000000E+000  6.704267605002E-002
   6.500000000000E+000  2.241810828265E+000  9.623341276888E+000  1.186515210515E+001  4.455910910655E+000  9.623341276888E+000  0.000000000000E+000  0.000000000000E+000  0.000000000000E+000  5.090715880901E-002
   7.000000000000E+000  2.272711389221E+000  9.593443040986E+000  1.186615443021E+001  4.839675506257E+000  9.593443040986E+000  0.000000000000E+000  0.000000000000E+000  0.000000000000E+000  3.788016128739E-002
   7.500000000000E+000  2.389668458930E+000  9.476795185452E+000  1.186646364438E+001  5.119182949966E+000  9.476795185452E+000  0.000000000000E+000  0.000000000000E+000  0.000000000000E+000  2.693014983159E-002
   8.000000000000E+000  2.597696341562E+000  9.268517348590E+000  1.186621369015E+001  5.283928014928E+000  9.268517348590E+000  0.000000000000E+000  0.000000000000E+000  0.000000000000E+000  1.733243048466E-002
   8.500000000000E+000  2.891932394089E+000  8.973124987439E+000  1.186505738153E+001  5.326744311090E+000  8.973124987439E+000  0.000000000000E+000  0.000000000000E+000  0.000000000000E+000  8.926568809519E-003
   9.000000000000E+000  3.249475644411E+000  8.610924597205E+000  1.186040024162E+001  5.236949465491E+000  8.610924597205E+000  0.000000000000E+000  0.000000000000E+000  0.000000000000E+000  2.723287768550E-003
   9.500000000000E+000  3.608410674438E+000  8.244061808460E+000  1.185247248290E+001  4.997121661727E+000  8.244061808460E+000  0.000000000000E+000  0.000000000000E+000  0.000000000000E+000  1.779531856901E-004
   1.000000000000E+001  3.890674503501E+000  7.961147227378E+000  1.185182173088E+001  4.602788164633E+000  7.961147227378E+000  0.000000000000E+000  0.000000000000E+000  0.000000000000E+000  1.918922992004E-003
   1.050000000000E+001  4.066309224130E+000  7.786569056744E+000  1.185287828087E+001  4.102220064381E+000  7.786569056744E+000  0.000000000000E+000  0.000000000000E+000  0.000000000000E+000  1.061737162884E-002
   1.100000000000E+001  4.122042895245E+000  7.727035174794E+000  1.184907807004E+001  3.586042153778E+000  7.727035174794E+000  0.000000000000E+000  0.000000000000E+000  0.000000000000E+000  2.654001063900E-002
   1.150000000000E+001  4.025321902257E+000  7.823440209761E+000  1.184876211202E+001  3.134146511609E+000  7.823440209761E+000  0.000000000000E+000  0.000000000000E+000  0.000000000000E+000  4.784271556227E-002
   1.200000000000E+001  3.778323611461E+000  8.074693257266E+000  1.185301686873E+001  2.773961940691E+000  8.074693257266E+000  0.000000000000E+000  0.000000000000E+000  0.000000000000E+000  7.406150037906E-002
   1.250000000000E+001  3.440826211899E+000  8.417800780015E+000  1.185862699191E+001  2.475858781480E+000  8.417800780015E+000  0.000000000000E+000  0.000000000000E+000  0.000000000000E+000  1.045367409260E-001
   1.300000000000E+001  3.091266214348E+000  8.770572969970E+000  1.186183918432E+001  2.194307490729E+000  8.770572969970E+000  0.000000000000E+000  0.000000000000E+000  0.000000000000E+000  1.374881151562E-001
   1.350000000000E+001  2.778685332536E+000  9.083278846215E+000  1.186196417875E+001  1.914238676172E+000  9.083278846215E+000  0.000000000000E+000  0.000000000000E+000  0.000000000000E+000  1.700550935462E-001
   1.400000000000E+001  2.508716447795E+000  9.351767312144E+000  1.186048375994E+001  1.657562944091E+000  9.351767312144E+000  0.000000000000E+000  0.000000000000E+000  0.000000000000E+000  1.990811167703E-001
   1.450000000000E+001  2.260820867018E+000  9.598274422190E+000  1.185909528921E+001  1.460153878171E+000  9.598274422190E+000  0.000000000000E+000  0.000000000000E+000  0.000000000000E+000  2.221301727406E-001
   1.500000000000E+001  2.011598481385E+000  9.846906197088E+000  1.185850467847E+001  1.348633463698E+000  9.846906197088E+000  0.000000000000E+000  0.000000000000E+000  0.000000000000E+000  2.380797733845E-001
   1.550000000000E+001  1.746742988079E+000  1.011186779555E+001  1.185861078363E+001  1.333428558738E+000  1.011186779555E+001  0.000000000000E+000  0.000000000000E+000  0.000000000000E+000  2.471035035053E-001
   1.600000000000E+001  1.463670914840E+000  1.039605559729E+001  1.185972651213E+001  1.411837889217E+000  1.039605559729E+001  0.000000000000E+000  0.000000000000E+000  0.000000000000E+000  2.504019269788E-001
   1.650000000000E+001  1.175895931042E+000  1.068619425656E+001  1.186209018760E+001  1.565359346792E+000  1.068619425656E+001  0.000000000000E+000  0.000000000000E+000  0.000000000000E+000  2.500513283592E-001
   1.700000000000E+001  9.156014848163E-001  1.094956371695E+001  1.186516520177E+001  1.757168037800E+000  1.094956371695E+001  0.000000000000E+000  0.000000000000E+000  0.000000000000E+000  2.489721388542E-001
   1.750000000000E+001  7.260736017532E-001  1.114187173685E+001  1.186794533861E+001  1.941426114014E+000  1.114187173685E+001  0.000000000000E+000  0.000000000000E+000  0.000000000000E+000  2.504985329983E-001
   1.800000000000E+001  6.467002728022E-001  1.122270968334E+001  1.186940995614E+001  2.079982943149E+000  1.122270968334E+001  0.000000000000E+000  0.000000000000E+000  0.000000000000E+000  2.568691613451E-001
   1.850000000000E+001  6.965157891374E-001  1.117210766603E+001  1.186862345517E+001  2.154682817780E+000  1.117210766603E+001  0.000000000000E+000  0.000000000000E+000  0.000000000000E+000  2.669475105036E-001
   1.900000000000E+001  8.651541071617E-001  1.100134942946E+001  1.186650353662E+001  2.169853164282E+000  1.100134942946E+001  0.000000000000E+000  0.000000000000E+000  0.000000000000E+000  2.761328984587E-001
   1.950000000000E+001  1.121496187019E+000  1.074271175661E+001  1.186420794362E+001  2.148152629882E+000  1.074271175661E+001  0.000000000000E+000  0.000000000000E+000  0.000000000000E+000  2.800902218724E-001
   2.000000000000E+001  1.426822647229E+000  1.043470093253E+001  1.186152357976E+001  2.125608270467E+000  1.043470093253E+001  0.000000000000E+000  0.000000000000E+000  0.000000000000E+000  2.771414759805E-001
   2.050000000000E+001  1.736169726039E+000  1.012192866051E+001  1.185809838655E+001  2.148549099744E+000  1.012192866051E+001  0.000000000000E+000  0.000000000000E+000  0.000000000000E+000  2.674181169499E-001
   2.100000000000E+001  1.996222783664E+000  9.858019054143E+000  1.185424183781E+001  2.270932026541E+000  9.858019054143E+000  0.000000000000E+000  0.000000000000E+000  0.000000000000E+000  2.518316698561E-001
   2.150000000000E+001  2.151982881624E+000  9.699316821194E+000  1.185129970282E+001  2.545344138622E+000  9.699316821194E+000  0.000000000000E+000  0.000000000000E+000  0.000000000000E+000  2.317012699634E-001
   2.200000000000E+001  2.167365720406E+000  9.684017764847E+000  1.185138348525E+001  3.001525301635E+000  9.684017764847E+000  0.000000000000E+000  0.000000000000E+000  0.000000000000E+000  2.086014817181E-001
   2.250000000000E+001  2.053734002430E+000  9.801998706076E+000  1.185573270851E+001  3.616694961355E+000  9.801998706076E+000  0.000000000000E+000  0.000000000000E+000  0.000000000000E+000  1.841998960246E-001
   2.300000000000E+001  1.882237030110E+000  9.980247692393E+000  1.186248472250E+001  4.302986198728E+000  9.980247692393E+000  0.000000000000E+000  0.000000000000E+000  0.000000000000E+000  1.600184476844E-001
   2.350000000000E+001  1.754224538924E+000  1.011319707166E+001  1.186742161058E+001  4.940693415016E+000  1.011319707166E+001  0.000000000000E+000  0.000000000000E+000  0.000000000000E+000  1.371999219035E-001
   2.400000000000E+001  1.742965233737E+000  1.012486150346E+001  1.186782673720E+001  5.442769570162E+000  1.012486150346E+001  0.000000000000E+000  0.000000000000E+000  0.000000000000E+000  1.164104922558E-001
   2.450000000000E+001  1.854226553626E+000  1.000985068478E+001  1.186407723841E+001  5.796378238056E+000  1.000985068478E+001  0.000000000000E+000  0.000000000000E+000  0.000000000000E+000  9.790063168593E-002
   2.500000000000E+001  2.030314513218E+000  9.828306944106E+000  1.185862145732E+001  6.056847237047E+000  9.828306944106E+000  0.000000000000E+000  0.000000000000E+000  0.000000000000E+000  8.165155842394E-002
   2.550000000000E+001  2.186405705659E+000  9.668114887891E+000  1.185452059355E+001  6.309009144773E+000  9.668114887891E+000  0.000000000000E+000  0.000000000000E+000  0.000000000000E+000  6.748452053400E-002
   2.600000000000E+001  2.254904090311E+000  9.598549257167E+000  1.185345334748E+001  6.620284518569E+000  9.598549257167E+000  0.000000000000E+000  0.000000000000E+000  0.000000000000E+000  5.513598174825E-002
   2.650000000000E+001  2.211242100826E+000  9.643782468444E+000  1.185502456927E+001  7.014146986608E+000  9.643782468444E+000  0.000000000000E+000  0.000000000000E+000  0.000000000000E+000  4.431771614070E-002
   2.700000000000E+001  2.071251471779E+000  9.786638152001E+000  1.185788962378E+001  7.473904269688E+000  9.786638152001E+000  0.000000000000E+000  0.000000000000E+000  0.000000000000E+000  3.478490896532E-002
   2.750000000000E+001  1.873464782891E+000  9.987549595138E+000  1.186101437803E+001  7.961786422785E+000  9.987549595138E+000  0.000000000000E+000  0.000000000000E+000  0.000000000000E+000  2.639501214105E-002
   2.800000000000E+001  1.663286318279E+000  1.020070616101E+001  1.186399247929E+001  8.435296883496E+000  1.020070616101E+001  0.000000000000E+000  0.000000000000E+000  0.000000000000E+000  1.913200476837E-002
   2.850000000000E+001  1.485102442514E+000  1.038159437945E+001  1.186669682196E+001  8.855202278571E+000  1.038159437945E+001  0.000000000000E+000  0.000000000000E+000  0.000000000000E+000  1.307899991369E-002
   2.900000000000E+001  1.378875282075E+000  1.048994521193E+001  1.186882049400E+001  9.189063645199E+000  1.048994521193E+001  0.000000000000E+000  0.000000000000E+000  0.000000000000E+000  8.336680224778E-003
   2.950000000000E+001  1.375262477718E+000  1.049438202807E+001  1.186964450579E+001  9.415276233048E+000  1.049438202807E+001  0.000000000000E+000  0.000000000000E+000  0.000000000000E+000  4.901330622319E-003
   3.000000000000E+001  1.487145144092E+000  1.038144281204E+001  1.186858795613E+001  9.528619810241E+000  1.038144281204E+001  0.000000000000E+000  0.000000000000E+000  0.000000000000E+000  2.575016768395E-003
   3.050000000000E+001  1.702134336878E+000  1.016346357261E+001  1.186559790948E+001  9.543012727506E+000  1.016346357261E+001  0.000000000000E+000  0.000000000000E+000  0.000000000000E+000  1.069367619125E-003
   3.100000000000E+001  1.978711686619E+000  9.881021381147E+000  1.185973306777E+001  9.484462809196E+000  9.881021381147E+000  0.000000000000E+000  0.000000000000E+000  0.000000000000E+000  4.133686064213E-004
   3.150000000000E+001  2.226599750188E+000  9.619546105181E+000  1.184614585537E+001  9.356262088530E+000  9.619546105181E+000  0.000000000000E+000  0.000000000000E+000  0.000000000000E+000  1.832658739170E-003
   3.200000000000E+001  2.356530129361E+000  9.496535411759E+000  1.185306554112E+001  9.127791500047E+000  9.496535411759E+000  0.000000000000E+000  0.000000000000E+000  0.000000000000E+000  3.977113625587E-003
   3.250000000000E+001  2.948364394738E+000  8.904701146382E+000  1.185306554112E+001  8.904701146382E+000  9.487796747946E+000  0.000000000000E+000  0.000000000000E+000  0.000000000000E+000  4.998153164383E-003
   3.300000000000E+001  3.084649756213E+000  8.765698594779E+000  1.185034835099E+001  8.765698594779E+000  9.622036763146E+000  0.000000000000E+000  0.000000000000E+000  0.000000000000E+000  6.101521067530E-003
   3.350000000000E+001  3.077945859316E+000  8.773870173352E+000  1.185181603267E+001  8.773870173352E+000  9.939307076920E+000  0.000000000000E+000  0.000000000000E+000  0.000000000000E+000  7.525243758139E-003
   3.400000000000E+001  2.961080703537E+000  8.896636508547E+000  1.185771721208E+001  8.896636508547E+000  1.039584498118E+001  0.000000000000E+000  0.000000000000E+000  0.000000000000E+000  9.254856224925E-003
   3.450000000000E+001  2.826230905285E+000  9.038828778566E+000  1.186505968385E+001  9.038828778566E+000  1.088700202432E+001  0.000000000000E+000  0.000000000000E+000  0.000000000000E+000  1.117498195484E-002
   3.500000000000E+001  2.776142108648E+000  9.091215318432E+000  1.186735742708E+001  9.091215318432E+000  1.129218633284E+001  0.000000000000E+000  0.000000000000E+000  0.000000000000E+000  1.306300309722E-002
   3.550000000000E+001  2.840068759977E+000  9.021246687113E+000  1.186131544709E+001  9.021246687113E+000  1.156424493233E+001  0.000000000000E+000  0.000000000000E+000  0.000000000000E+000  1.460916897934E-002
   3.600000000000E+001  2.937501230607E+000  8.914345132936E+000  1.185184636354E+001  8.914345132936E+000  1.176780104987E+001  0.000000000000E+000  0.000000000000E+000  0.000000000000E+000  1.539027949828E-002
   3.650000000000E+001  2.895398755366E+000  8.923098763010E+000  1.181849751838E+001  8.923098763010E+000  1.194162002289E+001  0.000000000000E+000  0.000000000000E+000  0.000000000000E+000  1.279249817185E-002
   3.700000000000E+001  2.810285180757E+000  8.971949727771E+000  1.178223490853E+001  8.971949727771E+000  1.212523346142E+001  0.000000000000E+000  0.000000000000E+000  0.000000000000E+000  1.736689628154E-002
   3.750000000000E+001  2.656327575883E+000  9.054430153389E+000  1.171075772927E+001  9.054430153389E+000  1.271568593272E+001  0.000000000000E+000  0.000000000000E+000  0.000000000000E+000  5.276652253829E-002
   3.800000000000E+001  2.369640945468E+000  9.348029828571E+000  1.171767077404E+001  9.348029828571E+000  1.281070209866E+001  0.000000000000E+000  0.000000000000E+000  0.000000000000E+000  4.632456610133E-002
   3.850000000000E+001  2.083963897930E+000  9.637040575978E+000  1.172100447391E+001  9.637040575978E+000  1.294767250412E+001  0.000000000000E+000  0.000000000000E+000  0.000000000000E+000  4.227689552292E-002
   3.900000000000E+001  1.851425445107E+000  9.871540935010E+000  1.172296638012E+001  9.871540935010E+000  1.308607422836E+001  0.000000000000E+000  0.000000000000E+000  0.000000000000E+000  4.041331680404E-002
   3.950000000000E+001  1.701770419553E+000  1.002209580752E+001  1.172386622707E+001  1.002209580752E+001  1.319568032198E+001  0.000000000000E+000  0.000000000000E+000  0.000000000000E+000  4.054136317337E-002
   4.000000000000E+001  1.648735435370E+000  1.007526467467E+001  1.172400011004E+001  1.007526467467E+001  1.325703981568E+001  0.000000000000E+000  0.000000000000E+000  0.000000000000E+000  4.257095884054E-002
   4.050000000000E+001  1.694369610654E+000  1.002925022456E+001  1.172361983522E+001  1.002925022456E+001  1.325820772827E+001  0.000000000000E+000  0.000000000000E+000  0.000000000000E+000  4.643758320795E-002
   4.100000000000E+001  1.832952971737E+000  9.890021818473E+000  1.172297479021E+001  9.890021818473E+000  1.319182201986E+001  0.000000000000E+000  0.000000000000E+000  0.000000000000E+000  5.199074171975E-002
   4.150000000000E+001  2.054526500586E+000  9.667748078437E+000  1.172227457902E+001  9.667748078437E+000  1.305358519660E+001  0.000000000000E+000  0.000000000000E+000  0.000000000000E+000  5.888426284113E-002
   4.200000000000E+001  2.347787432039E+000  9.373784042825E+000  1.172157147486E+001  9.373784042825E+000  1.284245696728E+001  0.000000000000E+000  0.000000000000E+000  0.000000000000E+000  6.648785018678E-002
   4.250000000000E+001  2.700001011161E+000  9.020426536003E+000  1.172042754716E+001  9.020426536003E+000  1.256244230338E+001  0.000000000000E+000  0.000000000000E+000  0.000000000000E+000  7.378964141041E-002
   4.300000000000E+001  3.090623217973E+000  8.627311020452E+000  1.171793423842E+001  8.627311020452E+000  1.222699342462E+001  0.000000000000E+000  0.000000000000E+000  0.000000000000E+000  7.931039693872E-002
   4.350000000000E+001  3.481070169783E+000  8.232799833022E+000  1.171387000280E+001  8.232799833022E+000  1.186786438328E+001  0.000000000000E+000  0.000000000000E+000  0.000000000000E+000  8.144440847177E-002
   4.400000000000E+001  3.814306718234E+000  7.895310100470E+000  1.170961681870E+001  7.895310100470E+000  1.154653059355E+001  0.000000000000E+000  0.000000000000E+000  0.000000000000E+000  7.925624436243E-002
   4.450000000000E+001  4.034030740668E+000  7.673546029654E+000  1.170757677032E+001  7.673546029654E+000  1.134898193323E+001  0.000000000000E+000  0.000000000000E+000  0.000000000000E+000  7.219400732463E-002
   4.500000000000E+001  4.120587022354E+000  7.590164635116E+000  1.171075165747E+001  7.590164635116E+000  1.133973169540E+001  0.000000000000E+000  0.000000000000E+000  0.000000000000E+000  5.873337128215E-002
   4.550000000000E+001  4.064391419032E+000  7.684792494603E+000  1.174918391364E+001  7.684792494603E+000  1.114735972875E+001  0.000000000000E+000  0.000000000000E+000  0.000000000000E+000  1.863455726604E-002
   4.600000000000E+001  3.918817652799E+000  7.843277036481E+000  1.176209468928E+001  7.843277036481E+000  1.110955549738E+001  0.000000000000E+000  0.000000000000E+000  0.000000000000E+000  1.517033522172E-002
   4.650000000000E+001  3.866407350963E+000  7.906902966336E+000  1.177331031730E+001  7.906902966336E+000  1.098132348362E+001  0.000000000000E+000  0.000000000000E+000  0.000000000000E+000  1.266040659109E-002
   4.700000000000E+001  4.062825938633E+000  7.709945881502E+000  1.177277182013E+001  7.709945881502E+000  1.059939565643E+001  0.000000000000E+000  0.000000000000E+000  0.000000000000E+000  1.073457041871E-002
   4.750000000000E+001  4.504794284019E+000  7.256498101997E+000  1.176129238602E+001  7.256498101997E+000  9.962544782395E+000  0.000000000000E+000  0.000000000000E+000  0.000000000000E+000  9.198585190586E-003
   4.800000000000E+001  5.039836661714E+000  6.710023308718E+000  1.174985997043E+001  6.710023308718E+000  9.228586547573E+000  0.000000000000E+000  0.000000000000E+000  0.000000000000E+000  7.917695947293E-003
   4.850000000000E+001  5.499382634273E+000  6.244673269913E+000  1.174405590419E+001  6.244673269913E+000  8.568273746257E+000  0.000000000000E+000  0.000000000000E+000  0.000000000000E+000  6.800598759336E-003
   4.900000000000E+001  5.786885949033E+000  5.955988514884E+000  1.174287446392E+001  5.955988514884E+000  8.075947702062E+000  0.000000000000E+000  0.000000000000E+000  0.000000000000E+000  5.789738037970E-003
   4.950000000000E+001  5.878084320399E+000  5.866362651978E+000  1.174444697238E+001  5.866362651978E+000  7.773910320973E+000  0.000000000000E+000  0.000000000000E+000  0.000000000000E+000  4.852548492606E-003
   5.000000000000E+001  5.794930107953E+000  5.952727502642E+000  1.174765761059E+001  5.952727502642E+000  7.639197371921E+000  0.000000000000E+000  0.000000000000E+000  0.000000000000E+000  3.976578742942E-003
   5.050000000000E+001  5.585071349989E+000  6.166460949854E+000  1.175153229984E+001  6.166460949854E+000  7.623297488218E+000  0.000000000000E+000  0.000000000000E+000  0.000000000000E+000  3.165278000088E-003
   5.100000000000E+001  5.306556621709E+000  6.448783683336E+000  1.175534030505E+001  6.448783683336E+000  7.668092324101E+000  0.000000000000E+000  0.000000000000E+000  0.000000000000E+000  2.429768506290E-003
   5.150000000000E+001  5.016030959034E+000  6.742548803732E+000  1.175857976277E+001  6.742548803732E+000  7.718514746280E+000  0.000000000000E+000  0.000000000000E+000  0.000000000000E+000  1.777537809634E-003
   5.200000000000E+001  4.761512281986E+000  6.999595426975E+000  1.176110770896E+001  6.999595426975E+000  7.731176203190E+000  0.000000000000E+000  0.000000000000E+000  0.000000000000E+000  1.208055064825E-003
   5.250000000000E+001  4.579409248074E+000  7.183525333900E+000  1.176293458197E+001  7.183525333900E+000  7.678734968442E+000  0.000000000000E+000  0.000000000000E+000  0.000000000000E+000  7.220365188475E-004
   5.300000000000E+001  4.494266991863E+000  7.270049643274E+000  1.176431663514E+001  7.270049643274E+000  7.553412395847E+000  0.000000000000E+000  0.000000000000E+000  0.000000000000E+000  3.389203034623E-004
   5.350000000000E+001  4.388532806054E+000  7.375783829083E+000  1.176431663514E+001  7.243865217040E+000  7.375783829083E+000  0.000000000000E+000  0.000000000000E+000  0.000000000000E+000  9.448736008507E-005
   5.400000000000E+001  4.564800989060E+000  7.202109620621E+000  1.176691060968E+001  7.101153753817E+000  7.202109620621E+000  0.000000000000E+000  0.000000000000E+000  0.000000000000E+000  1.142764873363E-005
   5.450000000000E+001  4.730562082896E+000  7.032757668372E+000  1.176331975127E+001  6.940809313853E+000  7.032757668372E+000  0.000000000000E+000  0.000000000000E+000  0.000000000000E+000  1.585380812502E-005
   5.500000000000E+001  4.795145380124E+000  6.941295853397E+000  1.173644123352E+001  6.885338363627E+000  6.941295853397E+000  0.000000000000E+000  0.000000000000E+000  0.000000000000E+000  6.100567226435E-007
   5.550000000000E+001  4.800202887928E+000  6.936238345592E+000  1.173644123352E+001  6.936238345592E+000  7.124803167530E+000  0.000000000000E+000  0.000000000000E+000  0.000000000000E+000  1.335725670665E-004
   5.600000000000E+001  4.586203910732E+000  7.159666120418E+000  1.174587003115E+001  7.159666120418E+000  7.544758903666E+000  0.000000000000E+000  0.000000000000E+000  0.000000000000E+000  4.007025596933E-004
   5.650000000000E+001  4.343912634153E+000  7.415810414172E+000  1.175972304832E+001  7.415810414172E+000  8.007642774752E+000  0.000000000000E+000  0.000000000000E+000  0.000000000000E+000  7.120779398162E-004
   5.700000000000E+001  4.257874325687E+000  7.502872964718E+000  1.176074729041E+001  7.502872964718E+000  8.289326040714E+000  0.000000000000E+000  0.000000000000E+000  0.000000000000E+000  1.085231309273E-003
   5.750000000000E+001  4.372868232830E+000  7.380764872899E+000  1.175363310573E+001  7.380764872899E+000  8.340416502366E+000  0.000000000000E+000  0.000000000000E+000  0.000000000000E+000  1.605625518416E-003
   5.800000000000E+001  4.616385156387E+000  7.131317572826E+000  1.174770272921E+001  7.131317572826E+000  8.241140666402E+000  0.000000000000E+000  0.000000000000E+000  0.000000000000E+000  2.270766849979E-003
   5.850000000000E+001  4.892539706886E+000  6.848215777424E+000  1.174075548431E+001  6.848215777424E+000  8.086618374129E+000  0.000000000000E+000  0.000000000000E+000  0.000000000000E+000  2.954837192391E-003
   5.900000000000E+001  5.087481320892E+000  6.646550578954E+000  1.173403189985E+001  6.646550578954E+000  7.995964465141E+000  0.000000000000E+000  0.000000000000E+000  0.000000000000E+000  3.538237408533E-003
   5.950000000000E+001  5.089860333133E+000  6.640657953779E+000  1.173051828691E+001  6.640657953779E+000  8.089413527479E+000  0.000000000000E+000  0.000000000000E+000  0.000000000000E+000  4.013044738070E-003
   6.000000000000E+001  4.833100261815E+000  6.897298855289E+000  1.173039911710E+001  6.897298855289E+000  8.437598966570E+000  0.000000000000E+000  0.000000000000E+000  0.000000000000E+000  4.442149120804E-003
   6.050000000000E+001  4.314249443248E+000  7.421112008089E+000  1.173536145134E+001  7.421112008089E+000  9.044438949577E+000  0.000000000000E+000  0.000000000000E+000  0.000000000000E+000  4.861315546823E-003
   6.100000000000E+001  3.621197667135E+000  8.127236806817E+000  1.174843447395E+001  8.127236806817E+000  9.821691040348E+000  0.000000000000E+000  0.000000000000E+000  0.000000000000E+000  5.251699606316E-003
   6.150000000000E+001  2.953104981065E+000  8.811323377870E+000  1.176442835893E+001  8.811323377870E+000  1.056290138108E+001  0.000000000000E+000  0.000000000000E+000  0.000000000000E+000  5.578925390489E-003
   6.200000000000E+001  2.528808144547E+000  9.239804984796E+000  1.176861312934E+001  9.239804984796E+000  1.103616340186E+001  0.000000000000E+000  0.000000000000E+000  0.000000000000E+000  5.827037349726E-003
   6.250000000000E+001  2.404425693746E+000  9.353878099190E+000  1.175830379294E+001  9.353878099190E+000  1.118765244117E+001  0.000000000000E+000  0.000000000000E+000  0.000000000000E+000  5.997797113281E-003
   6.300000000000E+001  2.441723037344E+000  9.306027424900E+000  1.174775046224E+001  9.306027424900E+000  1.117583344871E+001  0.000000000000E+000  0.000000000000E+000  0.000000000000E+000  6.095823046976E-003
   6.350000000000E+001  2.476348961439E+000  9.268957084553E+000  1.174530604599E+001  9.268957084553E+000  1.117883921817E+001  0.000000000000E+000  0.000000000000E+000  0.000000000000E+000  6.125070440609E-003
   6.400000000000E+001  2.443591483903E+000  9.304731074573E+000  1.174832255848E+001  9.304731074573E+000  1.126338335514E+001  0.000000000000E+000  0.000000000000E+000  0.000000000000E+000  6.092913502927E-003
   6.450000000000E+001  2.364610896869E+000  9.387759809575E+000  1.175237070644E+001  9.387759809575E+000  1.140764232976E+001  0.000000000000E+000  0.000000000000E+000  0.000000000000E+000  6.011840641776E-003
   6.500000000000E+001  2.287921768288E+000  9.467455150055E+000  1.175537691834E+001  9.467455150055E+000  1.156359458026E+001  0.000000000000E+000  0.000000000000E+000  0.000000000000E+000  5.902085175909E-003
   6.550000000000E+001  2.255016154300E+000  9.502158644234E+000  1.175717479853E+001  9.502158644234E+000  1.169073922712E+001  0.000000000000E+000  0.000000000000E+000  0.000000000000E+000  5.801312330510E-003
   6.600000000000E+001  2.293514834476E+000  9.464843945660E+000  1.175835878014E+001  9.464843945660E+000  1.176216502804E+001  0.000000000000E+000  0.000000000000E+000  0.000000000000E+000  5.783018920057E-003
   6.650000000000E+001  2.423573436081E+000  9.335987430643E+000  1.175956086672E+001  9.335987430643E+000  1.175821856104E+001  0.000000000000E+000  0.000000000000E+000  0.000000000000E+000  5.973231472027E-003
   6.700000000000E+001  2.666266181383E+000  9.094749260854E+000  1.176101544224E+001  9.094749260854E+000  1.165860938562E+001  0.000000000000E+000  0.000000000000E+000  0.000000000000E+000  6.547163118390E-003
   6.750000000000E+001  3.045333369184E+000  8.716647626347E+000  1.176198099553E+001  8.716647626347E+000  1.144038497162E+001  0.000000000000E+000  0.000000000000E+000  0.000000000000E+000  7.693778970370E-003
   6.800000000000E+001  3.575710068027E+000  8.184972560522E+000  1.176068262855E+001  8.184972560522E+000  1.108759318947E+001  0.000000000000E+000  0.000000000000E+000  0.000000000000E+000  9.563869041078E-003
   6.850000000000E+001  4.238538019276E+000  7.516415254124E+000  1.175495327340E+001  7.516415254124E+000  1.061053218739E+001  0.000000000000E+000  0.000000000000E+000  0.000000000000E+000  1.222842679827E-002
   6.900000000000E+001  4.951717723395E+000  6.791411469388E+000  1.174312919278E+001  6.791411469388E+000  1.006059066381E+001  0.000000000000E+000  0.000000000000E+000  0.000000000000E+000  1.552731112974E-002
   6.950000000000E+001  5.555767895242E+000  6.171825946295E+000  1.172759384154E+001  6.171825946295E+000  9.534909449506E+000  0.000000000000E+000  0.000000000000E+000  0.000000000000E+000  1.838054636826E-002
   7.000000000000E+001  5.856815439312E+000  5.860196552396E+000  1.171701199171E+001  5.860196552396E+000  9.186071209316E+000  0.000000000000E+000  0.000000000000E+000  0.000000000000E+000  1.909450562077E-002
   7.050000000000E+001  5.750929668388E+000  5.973573871704E+000  1.172450354009E+001  5.973573871704E+000  9.156873666548E+000  0.000000000000E+000  0.000000000000E+000  0.000000000000E+000  1.813740318638E-002
   7.100000000000E+001  5.404159029608E+000  6.354005617011E+000  1.175816464662E+001  6.354005617011E+000  9.348414869652E+000  0.000000000000E+000  0.000000000000E+000  0.000000000000E+000  1.651117471328E-002
   7.150000000000E+001  5.271976311836E+000  6.512804178258E+000  1.178478049009E+001  6.512804178258E+000  9.312205225377E+000  0.000000000000E+000  0.000000000000E+000  0.000000000000E+000  1.460321029378E-002
   7.200000000000E+001  5.674911112650E+000  6.091265555923E+000  1.176617666857E+001  6.091265555923E+000  8.712145230773E+000  0.000000000000E+000  0.000000000000E+000  0.000000000000E+000  1.258664054498E-002
   7.250000000000E+001  6.395798830708E+000  5.333847026505E+000  1.172964585721E+001  5.333847026505E+000  7.800910816608E+000  0.000000000000E+000  0.000000000000E+000  0.000000000000E+000  1.061837913593E-002
   7.300000000000E+001  6.951985749580E+000  4.762515178298E+000  1.171450092788E+001  4.762515178298E+000  7.098971672946E+000  0.000000000000E+000  0.000000000000E+000  0.000000000000E+000  8.833538017457E-003
   7.350000000000E+001  7.075255699807E+000  4.645669496003E+000  1.172092519581E+001  4.645669496003E+000  6.871560151523E+000  0.000000000000E+000  0.000000000000E+000  0.000000000000E+000  7.306103439997E-003
   7.400000000000E+001  6.790808222685E+000  4.943108969561E+000  1.173391719225E+001  4.943108969561E+000  7.080189831578E+000  0.000000000000E+000  0.000000000000E+000  0.000000000000E+000  6.051056817099E-003
   7.450000000000E+001  6.248516188173E+000  5.496193952208E+000  1.174471014038E+001  5.496193952208E+000  7.574284071496E+000  0.000000000000E+000  0.000000000000E+000  0.000000000000E+000  5.053169017214E-003
   7.500000000000E+001  5.591620323890E+000  6.159812664549E+000  1.175143298844E+001  6.159812664549E+000  8.220159873105E+000  0.000000000000E+000  0.000000000000E+000  0.000000000000E+000  4.293732715042E-003
   7.550000000000E+001  4.916149556602E+000  6.838924450405E+000  1.175507400701E+001  6.838924450405E+000  8.932340021082E+000  0.000000000000E+000  0.000000000000E+000  0.000000000000E+000  3.766013944005E-003
   7.600000000000E+001  4.277522518387E+000  7.479638252495E+000  1.175716077088E+001  7.479638252495E+000  9.659552553846E+000  0.000000000000E+000  0.000000000000E+000  0.000000000000E+000  3.474306840240E-003
   7.650000000000E+001  3.709325015146E+000  8.049522727195E+000  1.175884774234E+001  8.049522727195E+000  1.036289036264E+001  0.000000000000E+000  0.000000000000E+000  0.000000000000E+000  3.418476559643E-003
   7.700000000000E+001  3.239075169943E+000  8.521609760417E+000  1.176068493036E+001  8.521609760417E+000  1.100186154771E+001  0.000000000000E+000  0.000000000000E+000  0.000000000000E+000  3.582489778877E-003
   7.750000000000E+001  2.895006355469E+000  8.867386447809E+000  1.176239280328E+001  8.867386447809E+000  1.153217441166E+001  0.000000000000E+000  0.000000000000E+000  0.000000000000E+000  3.943832092576E-003
   7.800000000000E+001  2.702239379247E+000  9.061001430477E+000  1.176324080972E+001  9.061001430477E+000  1.191472293051E+001  0.000000000000E+000  0.000000000000E+000  0.000000000000E+000  4.499431020006E-003
   7.850000000000E+001  2.672397631417E+000  9.090262647883E+000  1.176266027930E+001  9.090262647883E+000  1.212941503478E+001  0.000000000000E+000  0.000000000000E+000  0.000000000000E+000  5.294629515568E-003
   7.900000000000E+001  2.796187463632E+000  8.964651090392E+000  1.176083855402E+001  8.964651090392E+000  1.218315642945E+001  0.000000000000E+000  0.000000000000E+000  0.000000000000E+000  6.443120971861E-003
   7.950000000000E+001  3.045968210192E+000  8.712491631690E+000  1.175845984188E+001  8.712491631690E+000  1.210469349254E+001  0.000000000000E+000  0.000000000000E+000  0.000000000000E+000  8.131888372824E-003
   8.000000000000E+001  3.384949533041E+000  8.371017064086E+000  1.175596659713E+001  8.371017064086E+000  1.193131806507E+001  0.000000000000E+000  0.000000000000E+000  0.000000000000E+000  1.060812470261E-002
   8.050000000000E+001  3.774026983641E+000  7.979276267647E+000  1.175330325129E+001  7.979276267647E+000  1.169920142327E+001  0.000000000000E+000  0.000000000000E+000  0.000000000000E+000  1.414118124954E-002
   8.100000000000E+001  4.172353259350E+000  7.577938288234E+000  1.175029154758E+001  7.577938288234E+000  1.144215371157E+001  0.000000000000E+000  0.000000000000E+000  0.000000000000E+000  1.886898421834E-002
   8.150000000000E+001  4.536155596057E+000  7.211095908027E+000  1.174725150408E+001  7.211095908027E+000  1.119165550785E+001  0.000000000000E+000  0.000000000000E+000  0.000000000000E+000  2.434268999628E-002
   8.200000000000E+001  4.825805003134E+000  6.920038320325E+000  1.174584332346E+001  6.920038320325E+000  1.096537244252E+001  0.000000000000E+000  0.000000000000E+000  0.000000000000E+000  2.908401076212E-002
   8.250000000000E+001  5.029019802291E+000  6.719393276637E+000  1.174841307893E+001  6.719393276637E+000  1.074575181241E+001  0.000000000000E+000  0.000000000000E+000  0.000000000000E+000  3.133169539924E-002
   8.300000000000E+001  5.184027085832E+000  6.569573111494E+000  1.175360019733E+001  6.569573111494E+000  1.047108717869E+001  0.000000000000E+000  0.000000000000E+000  0.000000000000E+000  3.048793234675E-002
   8.350000000000E+001  5.354668107826E+000  6.399788770355E+000  1.175445687818E+001  6.399788770355E+000  1.007256965921E+001  0.000000000000E+000  0.000000000000E+000  0.000000000000E+000  2.729105664130E-002
   8.400000000000E+001  5.547001062512E+000  6.199131753657E+000  1.174613281617E+001  6.199131753657E+000  9.562953229598E+000  0.000000000000E+000  0.000000000000E+000  0.000000000000E+000  2.294501191729E-002
   8.450000000000E+001  5.655327546903E+000  6.077631019926E+000  1.173295856683E+001  6.077631019926E+000  9.086532511384E+000  0.000000000000E+000  0.000000000000E+000  0.000000000000E+000  1.843051958741E-002
   8.500000000000E+001  5.516152386956E+000  6.208257363349E+000  1.172440975030E+001  6.208257363349E+000  8.850082456698E+000  0.000000000000E+000  0.000000000000E+000  0.000000000000E+000  1.435725365016E-002
   8.550000000000E+001  5.040997262207E+000  6.690471113073E+000  1.173146837528E+001  6.690471113073E+000  8.981766778726E+000  0.000000000000E+000  0.000000000000E+000  0.000000000000E+000  1.108294417668E-002
   8.600000000000E+001  4.361372801959E+000  7.396951020360E+000  1.175832382232E+001  7.396951020360E+000  9.382336580772E+000  0.000000000000E+000  0.000000000000E+000  0.000000000000E+000  8.749931000583E-003
   8.650000000000E+001  3.833090954508E+000  7.947183161523E+000  1.178027411603E+001  7.947183161523E+000  9.709821231706E+000  0.000000000000E+000  0.000000000000E+000  0.000000000000E+000  7.183454552596E-003
   8.700000000000E+001  3.721352397372E+000  8.047475614788E+000  1.176882801216E+001  8.047475614788E+000  9.727593530732E+000  0.000000000000E+000  0.000000000000E+000  0.000000000000E+000  5.998160438525E-003
   8.750000000000E+001  3.911364623805E+000  7.833797950913E+000  1.174516257472E+001  7.833797950913E+000  9.617534639686E+000  0.000000000000E+000  0.000000000000E+000  0.000000000000E+000  5.021658763508E-003
   8.800000000000E+001  4.119172113886E+000  7.618203517160E+000  1.173737563105E+001  7.618203517160E+000  9.669846348246E+000  0.000000000000E+000  0.000000000000E+000  0.000000000000E+000  4.285513124874E-003
   8.850000000000E+001  4.220521445874E+000  7.521984608058E+000  1.174250605393E+001  7.521984608058E+000  9.922888272126E+000  0.000000000000E+000  0.000000000000E+000  0.000000000000E+000  3.662429702380E-003
   8.900000000000E+001  4.261261946378E+000  7.487156213628E+000  1.174841816001E+001  7.487156213628E+000  1.013117726566E+001  0.000000000000E+000  0.000000000000E+000  0.000000000000E+000  3.434521717688E-003
   8.950000000000E+001  4.316393961319E+000  7.433987618590E+000  1.175038157991E+001  7.433987618590E+000  9.921834647343E+000  0.000000000000E+000  0.000000000000E+000  0.000000000000E+000  3.950650326033E-003
   9.000000000000E+001  4.416503528092E+000  7.333091616831E+000  1.174959514492E+001  7.333091616831E+000  9.575337402507E+000  0.000000000000E+000  0.000000000000E+000  0.000000000000E+000  3.960643105355E-003
   9.050000000000E+001  4.552354568356E+000  7.195540792557E+000  1.174789536091E+001  7.195540792557E+000  9.258207499473E+000  0.000000000000E+000  0.000000000000E+000  0.000000000000E+000  4.084805057002E-003
   9.100000000000E+001  4.696547115147E+000  7.049231712274E+000  1.174577882742E+001  7.049231712274E+000  9.037831753462E+000  0.000000000000E+000  0.000000000000E+000  0.000000000000E+000  4.420562490513E-003
   9.150000000000E+001  4.814031831488E+000  6.929499990607E+000  1.174353182210E+001  6.929499990607E+000  8.952046777388E+000  0.000000000000E+000  0.000000000000E+000  0.000000000000E+000  4.975000756740E-003
   9.200000000000E+001  4.867827380739E+000  6.873869581671E+000  1.174169696241E+001  6.873869581671E+000  9.022354462550E+000  0.000000000000E+000  0.000000000000E+000  0.000000000000E+000  5.764460111650E-003
   9.250000000000E+001  4.829967123985E+000  6.911648506454E+000  1.174161563044E+001  6.911648506454E+000  9.256625973843E+000  0.000000000000E+000  0.000000000000E+000  0.000000000000E+000  6.824995871420E-003
   9.300000000000E+001  4.702828622407E+000  7.042489819809E+000  1.174531844222E+001  7.042489819809E+000  9.633541464128E+000  0.000000000000E+000  0.000000000000E+000  0.000000000000E+000  8.259993717626E-003
   9.350000000000E+001  4.545846546962E+000  7.207597340404E+000  1.175344388737E+001  7.207597340404E+000  1.007558576900E+001  0.000000000000E+000  0.000000000000E+000  0.000000000000E+000  1.037108853007E-002
   9.400000000000E+001  4.473611580655E+000  7.287373498694E+000  1.176098507935E+001  7.287373498694E+000  1.044892513922E+001  0.000000000000E+000  0.000000000000E+000  0.000000000000E+000  1.382558841229E-002
   9.450000000000E+001  4.581679944553E+000  7.177549169777E+000  1.175922911433E+001  7.177549169777E+000  1.064353986813E+001  0.000000000000E+000  0.000000000000E+000  0.000000000000E+000  1.971041133359E-002
   9.500000000000E+001  4.840028243881E+000  6.906596440926E+000  1.174662468481E+001  6.906596440926E+000  1.069423249935E+001  0.000000000000E+000  0.000000000000E+000  0.000000000000E+000  2.929646679625E-002
   9.550000000000E+001  5.079503698135E+000  6.652076122561E+000  1.173157982070E+001  6.652076122561E+000  1.079435052764E+001  0.000000000000E+000  0.000000000000E+000  0.000000000000E+000  4.376392763281E-002
   9.600000000000E+001  5.109089498952E+000  6.616864591846E+000  1.172595409080E+001  6.616864591846E+000  1.116114528793E+001  0.000000000000E+000  0.000000000000E+000  0.000000000000E+000  6.427487801785E-002
   9.650000000000E+001  4.895718249870E+000  6.846740104077E+000  1.174245835395E+001  6.846740104077E+000  1.184074715081E+001  0.000000000000E+000  0.000000000000E+000  0.000000000000E+000  9.189384254209E-002
   9.700000000000E+001  4.706622280835E+000  7.067858720868E+000  1.177448100170E+001  7.067858720868E+000  1.253692782142E+001  0.000000000000E+000  0.000000000000E+000  0.000000000000E+000  1.266553555782E-001
   9.750000000000E+001  4.938462846827E+000  6.838095863766E+000  1.177655871059E+001  6.838095863766E+000  1.276057519211E+001  0.000000000000E+000  0.000000000000E+000  0.000000000000E+000  1.660890310913E-001
   9.800000000000E+001  5.611897144467E+000  6.130016199222E+000  1.174191334369E+001  6.130016199222E+000  1.242325335380E+001  0.000000000000E+000  0.000000000000E+000  0.000000000000E+000  2.051011618657E-001
   9.850000000000E+001  6.317561101945E+000  5.401274930914E+000  1.171883603286E+001  5.401274930914E+000  1.193670591908E+001  0.000000000000E+000  0.000000000000E+000  0.000000000000E+000  2.383454761175E-001
   9.900000000000E+001  6.714808167191E+000  5.003643958324E+000  1.171845212552E+001  5.003643958324E+000  1.166344212740E+001  0.000000000000E+000  0.000000000000E+000  0.000000000000E+000  2.630760076847E-001
   9.950000000000E+001  6.734777974080E+000  4.989017839499E+000  1.172379581358E+001  4.989017839499E+000  1.171260493462E+001  0.000000000000E+000  0.000000000000E+000  0.000000000000E+000  2.800883115165E-001
   1.000000000000E+002  6.427334854394E+000  5.300541381116E+000  1.172787623551E+001  5.300541381116E+000  1.207290950774E+001  0.000000000000E+000  0.000000000000E+000  0.000000000000E+000  2.917530053053E-001
