#                    1                    2                    3                    4                    5
#               Time |      dE          1 |      dE          2 | f_osc            1 | f_osc            2 |
#               [fs] |               [eV] |               [eV] |                 [] |                 [] |
   0.000000000000E+000  9.591410894839E+000  0.000000000000E+000 -5.022106916516E-001  0.000000000000E+000
   5.000000000000E-001  9.486788566174E+000  0.000000000000E+000 -4.900221516992E-001  0.000000000000E+000
   1.000000000000E+000  9.343361715669E+000  0.000000000000E+000 -4.698367531837E-001  0.000000000000E+000
   1.500000000000E+000  9.152059972743E+000  0.000000000000E+000 -4.399883979796E-001  0.000000000000E+000
   2.000000000000E+000  8.903041796194E+000  0.000000000000E+000 -3.996370155586E-001  0.000000000000E+000
   2.500000000000E+000  8.592011596967E+000  0.000000000000E+000 -3.500496341515E-001  0.000000000000E+000
   3.000000000000E+000  8.224521857937E+000  0.000000000000E+000 -2.950780762402E-001  0.000000000000E+000
   3.500000000000E+000  7.814470521299E+000  0.000000000000E+000 -2.401315850908E-001  0.000000000000E+000
   4.000000000000E+000  7.378455714864E+000  0.000000000000E+000 -1.901369467698E-001  0.000000000000E+000
   4.500000000000E+000  6.930522594412E+000  0.000000000000E+000 -1.479235826321E-001  0.000000000000E+000
   5.000000000000E+000  6.480279227471E+000  0.000000000000E+000 -1.140474993972E-001  0.000000000000E+000
   5.500000000000E+000  6.033768990282E+000  0.000000000000E+000 -8.758544121262E-002  0.000000000000E+000
   6.000000000000E+000  5.595088012456E+000  0.000000000000E+000 -6.704267605002E-002  0.000000000000E+000
   6.500000000000E+000  5.167430366233E+000  0.000000000000E+000 -5.090715880901E-002  0.000000000000E+000
   7.000000000000E+000  4.753767534728E+000  0.000000000000E+000 -3.788016128739E-002  0.000000000000E+000
   7.500000000000E+000  4.357612235486E+000  0.000000000000E+000 -2.693014983159E-002  0.000000000000E+000
   8.000000000000E+000  3.984589333662E+000  0.000000000000E+000 -1.733243048466E-002  0.000000000000E+000
   8.500000000000E+000  3.646380676349E+000  0.000000000000E+000 -8.926568809519E-003  0.000000000000E+000
   9.000000000000E+000  3.373975131714E+000  0.000000000000E+000 -2.723287768550E-003  0.000000000000E+000
   9.500000000000E+000  3.246940146733E+000  0.000000000000E+000 -1.779531856901E-004  0.000000000000E+000
   1.000000000000E+001  3.358359062745E+000  0.000000000000E+000 -1.918922992004E-003  0.000000000000E+000
   1.050000000000E+001  3.684348992363E+000  0.000000000000E+000 -1.061737162884E-002  0.000000000000E+000
   1.100000000000E+001  4.140993021016E+000  0.000000000000E+000 -2.654001063900E-002  0.000000000000E+000
   1.150000000000E+001  4.689293698152E+000  0.000000000000E+000 -4.784271556227E-002  0.000000000000E+000
   1.200000000000E+001  5.300731316575E+000  0.000000000000E+000 -7.406150037906E-002  0.000000000000E+000
   1.250000000000E+001  5.941941998535E+000  0.000000000000E+000 -1.045367409260E-001  0.000000000000E+000
   1.300000000000E+001  6.576265479241E+000  0.000000000000E+000 -1.374881151562E-001  0.000000000000E+000
   1.350000000000E+001  7.169040170043E+000  0.000000000000E+000 -1.700550935462E-001  0.000000000000E+000
   1.400000000000E+001  7.694204368053E+000  0.000000000000E+000 -1.990811167703E-001  0.000000000000E+000
   1.450000000000E+001  8.138120544019E+000  0.000000000000E+000 -2.221301727406E-001  0.000000000000E+000
   1.500000000000E+001  8.498272733390E+000  0.000000000000E+000 -2.380797733845E-001  0.000000000000E+000
   1.550000000000E+001  8.778439236816E+000  0.000000000000E+000 -2.471035035053E-001  0.000000000000E+000
   1.600000000000E+001  8.984217708070E+000  0.000000000000E+000 -2.504019269788E-001  0.000000000000E+000
   1.650000000000E+001  9.120834909764E+000  0.000000000000E+000 -2.500513283592E-001  0.000000000000E+000
   1.700000000000E+001  9.192395679152E+000  0.000000000000E+000 -2.489721388542E-001  0.000000000000E+000
   1.750000000000E+001  9.200445622840E+000  0.000000000000E+000 -2.504985329983E-001  0.000000000000E+000
   1.800000000000E+001  9.142726740193E+000  0.000000000000E+000 -2.568691613451E-001  0.000000000000E+000
   1.850000000000E+001  9.017424848249E+000  0.000000000000E+000 -2.669475105036E-001  0.000000000000E+000
   1.900000000000E+001  8.831496265180E+000  0.000000000000E+000 -2.761328984587E-001  0.000000000000E+000
   1.950000000000E+001  8.594559126724E+000  0.000000000000E+000 -2.800902218724E-001  0.000000000000E+000
   2.000000000000E+001  8.309092662063E+000  0.000000000000E+000 -2.771414759805E-001  0.000000000000E+000
   2.050000000000E+001  7.973379560765E+000  0.000000000000E+000 -2.674181169499E-001  0.000000000000E+000
   2.100000000000E+001  7.587087027602E+000  0.000000000000E+000 -2.518316698561E-001  0.000000000000E+000
   2.150000000000E+001  7.153972682572E+000  0.000000000000E+000 -2.317012699634E-001  0.000000000000E+000
   2.200000000000E+001  6.682492463212E+000  0.000000000000E+000 -2.086014817181E-001  0.000000000000E+000
   2.250000000000E+001  6.185303744721E+000  0.000000000000E+000 -1.841998960246E-001  0.000000000000E+000
   2.300000000000E+001  5.677261493665E+000  0.000000000000E+000 -1.600184476844E-001  0.000000000000E+000
   2.350000000000E+001  5.172503656640E+000  0.000000000000E+000 -1.371999219035E-001  0.000000000000E+000
   2.400000000000E+001  4.682091933300E+000  0.000000000000E+000 -1.164104922558E-001  0.000000000000E+000
   2.450000000000E+001  4.213472446724E+000  0.000000000000E+000 -9.790063168593E-002  0.000000000000E+000
   2.500000000000E+001  3.771459707059E+000  0.000000000000E+000 -8.165155842394E-002  0.000000000000E+000
   2.550000000000E+001  3.359105743118E+000  0.000000000000E+000 -6.748452053400E-002  0.000000000000E+000
   2.600000000000E+001  2.978264738598E+000  0.000000000000E+000 -5.513598174825E-002  0.000000000000E+000
   2.650000000000E+001  2.629635481835E+000  0.000000000000E+000 -4.431771614070E-002  0.000000000000E+000
   2.700000000000E+001  2.312733882313E+000  0.000000000000E+000 -3.478490896532E-002  0.000000000000E+000
   2.750000000000E+001  2.025763172353E+000  0.000000000000E+000 -2.639501214105E-002  0.000000000000E+000
   2.800000000000E+001  1.765409277516E+000  0.000000000000E+000 -1.913200476837E-002  0.000000000000E+000
   2.850000000000E+001  1.526392100877E+000  0.000000000000E+000 -1.307899991369E-002  0.000000000000E+000
   2.900000000000E+001  1.300881566731E+000  0.000000000000E+000 -8.336680224778E-003  0.000000000000E+000
   2.950000000000E+001  1.079105795020E+000  0.000000000000E+000 -4.901330622319E-003  0.000000000000E+000
   3.000000000000E+001  8.528230017996E-001  0.000000000000E+000 -2.575016768395E-003  0.000000000000E+000
   3.050000000000E+001  6.204508450994E-001  0.000000000000E+000 -1.069367619125E-003  0.000000000000E+000
   3.100000000000E+001  3.965585719516E-001  0.000000000000E+000 -4.133686064213E-004  0.000000000000E+000
   3.150000000000E+001  2.632840166513E-001  0.000000000000E+000 -1.832658739170E-003  0.000000000000E+000
   3.200000000000E+001  3.687439117114E-001  0.000000000000E+000 -3.977113625587E-003  0.000000000000E+000
   3.250000000000E+001  0.000000000000E+000  5.830956015641E-001  0.000000000000E+000  4.998153164383E-003
   3.300000000000E+001  0.000000000000E+000  8.563381683666E-001  0.000000000000E+000  6.101521067530E-003
   3.350000000000E+001  0.000000000000E+000  1.165436903568E+000  0.000000000000E+000  7.525243758139E-003
   3.400000000000E+001  0.000000000000E+000  1.499208472628E+000  0.000000000000E+000  9.254856224925E-003
   3.450000000000E+001  0.000000000000E+000  1.848173245753E+000  0.000000000000E+000  1.117498195484E-002
   3.500000000000E+001  0.000000000000E+000  2.200971014409E+000  0.000000000000E+000  1.306300309722E-002
   3.550000000000E+001  0.000000000000E+000  2.542998245219E+000  0.000000000000E+000  1.460916897934E-002
   3.600000000000E+001  0.000000000000E+000  2.853455916930E+000  0.000000000000E+000  1.539027949828E-002
   3.650000000000E+001  0.000000000000E+000  3.018521259880E+000  0.000000000000E+000  1.279249817185E-002
   3.700000000000E+001  0.000000000000E+000  3.153283733650E+000  0.000000000000E+000  1.736689628154E-002
   3.750000000000E+001  0.000000000000E+000  3.661255779336E+000  0.000000000000E+000  5.276652253829E-002
   3.800000000000E+001  0.000000000000E+000  3.462672270089E+000  0.000000000000E+000  4.632456610133E-002
   3.850000000000E+001  0.000000000000E+000  3.310631928137E+000  0.000000000000E+000  4.227689552292E-002
   3.900000000000E+001  0.000000000000E+000  3.214533293353E+000  0.000000000000E+000  4.041331680404E-002
   3.950000000000E+001  0.000000000000E+000  3.173584514465E+000  0.000000000000E+000  4.054136317337E-002
   4.000000000000E+001  0.000000000000E+000  3.181775141007E+000  0.000000000000E+000  4.257095884054E-002
   4.050000000000E+001  0.000000000000E+000  3.228957503709E+000  0.000000000000E+000  4.643758320795E-002
   4.100000000000E+001  0.000000000000E+000  3.301800201392E+000  0.000000000000E+000  5.199074171975E-002
   4.150000000000E+001  0.000000000000E+000  3.385837118167E+000  0.000000000000E+000  5.888426284113E-002
   4.200000000000E+001  0.000000000000E+000  3.468672924458E+000  0.000000000000E+000  6.648785018678E-002
   4.250000000000E+001  0.000000000000E+000  3.542015767376E+000  0.000000000000E+000  7.378964141041E-002
   4.300000000000E+001  0.000000000000E+000  3.599682404166E+000  0.000000000000E+000  7.931039693872E-002
   4.350000000000E+001  0.000000000000E+000  3.635064550257E+000  0.000000000000E+000  8.144440847177E-002
   4.400000000000E+001  0.000000000000E+000  3.651220493083E+000  0.000000000000E+000  7.925624436243E-002
   4.450000000000E+001  0.000000000000E+000  3.675435903580E+000  0.000000000000E+000  7.219400732463E-002
   4.500000000000E+001  0.000000000000E+000  3.749567060288E+000  0.000000000000E+000  5.873337128215E-002
   4.550000000000E+001  0.000000000000E+000  3.462567234147E+000  0.000000000000E+000  1.863455726604E-002
   4.600000000000E+001  0.000000000000E+000  3.266278460901E+000  0.000000000000E+000  1.517033522172E-002
   4.650000000000E+001  0.000000000000E+000  3.074420517288E+000  0.000000000000E+000  1.266040659109E-002
   4.700000000000E+001  0.000000000000E+000  2.889449774931E+000  0.000000000000E+000  1.073457041871E-002
   4.750000000000E+001  0.000000000000E+000  2.706046680397E+000  0.000000000000E+000  9.198585190586E-003
   4.800000000000E+001  0.000000000000E+000  2.518563238854E+000  0.000000000000E+000  7.917695947293E-003
   4.850000000000E+001  0.000000000000E+000  2.323600476343E+000  0.000000000000E+000  6.800598759336E-003
   4.900000000000E+001  0.000000000000E+000  2.119959187178E+000  0.000000000000E+000  5.789738037970E-003
   4.950000000000E+001  0.000000000000E+000  1.907547668994E+000  0.000000000000E+000  4.852548492606E-003
   5.000000000000E+001  0.000000000000E+000  1.686469869279E+000  0.000000000000E+000  3.976578742942E-003
   5.050000000000E+001  0.000000000000E+000  1.456836538365E+000  0.000000000000E+000  3.165278000088E-003
   5.100000000000E+001  0.000000000000E+000  1.219308640764E+000  0.000000000000E+000  2.429768506290E-003
   5.150000000000E+001  0.000000000000E+000  9.759659425473E-001  0.000000000000E+000  1.777537809634E-003
   5.200000000000E+001  0.000000000000E+000  7.315807762145E-001  0.000000000000E+000  1.208055064825E-003
   5.250000000000E+001  0.000000000000E+000  4.952096345423E-001  0.000000000000E+000  7.220365188475E-004
   5.300000000000E+001  0.000000000000E+000  2.833627525739E-001  0.000000000000E+000  3.389203034623E-004
   5.350000000000E+001  1.319186120426E-001  0.000000000000E+000 -9.448736008507E-005  0.000000000000E+000
   5.400000000000E+001  1.009558668036E-001  0.000000000000E+000 -1.142764873363E-005  0.000000000000E+000
   5.450000000000E+001  9.194835451829E-002  0.000000000000E+000 -1.585380812502E-005  0.000000000000E+000
   5.500000000000E+001  5.595748976970E-002  0.000000000000E+000 -6.100567226435E-007  0.000000000000E+000
   5.550000000000E+001  0.000000000000E+000  1.885648219378E-001  0.000000000000E+000  1.335725670665E-004
   5.600000000000E+001  0.000000000000E+000  3.850927832483E-001  0.000000000000E+000  4.007025596933E-004
   5.650000000000E+001  0.000000000000E+000  5.918323605800E-001  0.000000000000E+000  7.120779398162E-004
   5.700000000000E+001  0.000000000000E+000  7.864530759959E-001  0.000000000000E+000  1.085231309273E-003
   5.750000000000E+001  0.000000000000E+000  9.596516294679E-001  0.000000000000E+000  1.605625518416E-003
   5.800000000000E+001  0.000000000000E+000  1.109823093576E+000  0.000000000000E+000  2.270766849979E-003
   5.850000000000E+001  0.000000000000E+000  1.238402596705E+000  0.000000000000E+000  2.954837192391E-003
   5.900000000000E+001  0.000000000000E+000  1.349413886187E+000  0.000000000000E+000  3.538237408533E-003
   5.950000000000E+001  0.000000000000E+000  1.448755573700E+000  0.000000000000E+000  4.013044738070E-003
   6.000000000000E+001  0.000000000000E+000  1.540300111281E+000  0.000000000000E+000  4.442149120804E-003
   6.050000000000E+001  0.000000000000E+000  1.623326941487E+000  0.000000000000E+000  4.861315546823E-003
   6.100000000000E+001  0.000000000000E+000  1.694454233531E+000  0.000000000000E+000  5.251699606316E-003
   6.150000000000E+001  0.000000000000E+000  1.751578003213E+000  0.000000000000E+000  5.578925390489E-003
   6.200000000000E+001  0.000000000000E+000  1.796358417063E+000  0.000000000000E+000  5.827037349726E-003
   6.250000000000E+001  0.000000000000E+000  1.833774341984E+000  0.000000000000E+000  5.997797113281E-003
   6.300000000000E+001  0.000000000000E+000  1.869806023808E+000  0.000000000000E+000  6.095823046976E-003
   6.350000000000E+001  0.000000000000E+000  1.909882133616E+000  0.000000000000E+000  6.125070440609E-003
   6.400000000000E+001  0.000000000000E+000  1.958652280567E+000  0.000000000000E+000  6.092913502927E-003
   6.450000000000E+001  0.000000000000E+000  2.019882520187E+000  0.000000000000E+000  6.011840641776E-003
   6.500000000000E+001  0.000000000000E+000  2.096139430202E+000  0.000000000000E+000  5.902085175909E-003
   6.550000000000E+001  0.000000000000E+000  2.188580582882E+000  0.000000000000E+000  5.801312330510E-003
   6.600000000000E+001  0.000000000000E+000  2.297321082380E+000  0.000000000000E+000  5.783018920057E-003
   6.650000000000E+001  0.000000000000E+000  2.422231130396E+000  0.000000000000E+000  5.973231472027E-003
   6.700000000000E+001  0.000000000000E+000  2.563860124769E+000  0.000000000000E+000  6.547163118390E-003
   6.750000000000E+001  0.000000000000E+000  2.723737345272E+000  0.000000000000E+000  7.693778970370E-003
   6.800000000000E+001  0.000000000000E+000  2.902620628947E+000  0.000000000000E+000  9.563869041078E-003
   6.850000000000E+001  0.000000000000E+000  3.094116933268E+000  0.000000000000E+000  1.222842679827E-002
   6.900000000000E+001  0.000000000000E+000  3.269179194420E+000  0.000000000000E+000  1.552731112974E-002
   6.950000000000E+001  0.000000000000E+000  3.363083503210E+000  0.000000000000E+000  1.838054636826E-002
   7.000000000000E+001  0.000000000000E+000  3.325874656920E+000  0.000000000000E+000  1.909450562077E-002
   7.050000000000E+001  0.000000000000E+000  3.183299794844E+000  0.000000000000E+000  1.813740318638E-002
   7.100000000000E+001  0.000000000000E+000  2.994409252642E+000  0.000000000000E+000  1.651117471328E-002
   7.150000000000E+001  0.000000000000E+000  2.799401047120E+000  0.000000000000E+000  1.460321029378E-002
   7.200000000000E+001  0.000000000000E+000  2.620879674851E+000  0.000000000000E+000  1.258664054498E-002
   7.250000000000E+001  0.000000000000E+000  2.467063790102E+000  0.000000000000E+000  1.061837913593E-002
   7.300000000000E+001  0.000000000000E+000  2.336456494648E+000  0.000000000000E+000  8.833538017457E-003
   7.350000000000E+001  0.000000000000E+000  2.225890655520E+000  0.000000000000E+000  7.306103439997E-003
   7.400000000000E+001  0.000000000000E+000  2.137080862016E+000  0.000000000000E+000  6.051056817099E-003
   7.450000000000E+001  0.000000000000E+000  2.078090119288E+000  0.000000000000E+000  5.053169017214E-003
   7.500000000000E+001  0.000000000000E+000  2.060347208556E+000  0.000000000000E+000  4.293732715042E-003
   7.550000000000E+001  0.000000000000E+000  2.093415570678E+000  0.000000000000E+000  3.766013944005E-003
   7.600000000000E+001  0.000000000000E+000  2.179914301350E+000  0.000000000000E+000  3.474306840240E-003
   7.650000000000E+001  0.000000000000E+000  2.313367635443E+000  0.000000000000E+000  3.418476559643E-003
   7.700000000000E+001  0.000000000000E+000  2.480251787290E+000  0.000000000000E+000  3.582489778877E-003
   7.750000000000E+001  0.000000000000E+000  2.664787963847E+000  0.000000000000E+000  3.943832092576E-003
   7.800000000000E+001  0.000000000000E+000  2.853721500036E+000  0.000000000000E+000  4.499431020006E-003
   7.850000000000E+001  0.000000000000E+000  3.039152386895E+000  0.000000000000E+000  5.294629515568E-003
   7.900000000000E+001  0.000000000000E+000  3.218505339055E+000  0.000000000000E+000  6.443120971861E-003
   7.950000000000E+001  0.000000000000E+000  3.392201860851E+000  0.000000000000E+000  8.131888372824E-003
   8.000000000000E+001  0.000000000000E+000  3.560301000988E+000  0.000000000000E+000  1.060812470261E-002
   8.050000000000E+001  0.000000000000E+000  3.719925155621E+000  0.000000000000E+000  1.414118124954E-002
   8.100000000000E+001  0.000000000000E+000  3.864215423336E+000  0.000000000000E+000  1.886898421834E-002
   8.150000000000E+001  0.000000000000E+000  3.980559599826E+000  0.000000000000E+000  2.434268999628E-002
   8.200000000000E+001  0.000000000000E+000  4.045334122194E+000  0.000000000000E+000  2.908401076212E-002
   8.250000000000E+001  0.000000000000E+000  4.026358535773E+000  0.000000000000E+000  3.133169539924E-002
   8.300000000000E+001  0.000000000000E+000  3.901514067193E+000  0.000000000000E+000  3.048793234675E-002
   8.350000000000E+001  0.000000000000E+000  3.672780888856E+000  0.000000000000E+000  2.729105664130E-002
   8.400000000000E+001  0.000000000000E+000  3.363821475941E+000  0.000000000000E+000  2.294501191729E-002
   8.450000000000E+001  0.000000000000E+000  3.008901491458E+000  0.000000000000E+000  1.843051958741E-002
   8.500000000000E+001  0.000000000000E+000  2.641825093349E+000  0.000000000000E+000  1.435725365016E-002
   8.550000000000E+001  0.000000000000E+000  2.291295665652E+000  0.000000000000E+000  1.108294417668E-002
   8.600000000000E+001  0.000000000000E+000  1.985385560412E+000  0.000000000000E+000  8.749931000583E-003
   8.650000000000E+001  0.000000000000E+000  1.762638070183E+000  0.000000000000E+000  7.183454552596E-003
   8.700000000000E+001  0.000000000000E+000  1.680117915945E+000  0.000000000000E+000  5.998160438525E-003
   8.750000000000E+001  0.000000000000E+000  1.783736688773E+000  0.000000000000E+000  5.021658763508E-003
   8.800000000000E+001  0.000000000000E+000  2.051642831087E+000  0.000000000000E+000  4.285513124874E-003
   8.850000000000E+001  0.000000000000E+000  2.400903664068E+000  0.000000000000E+000  3.662429702380E-003
   8.900000000000E+001  0.000000000000E+000  2.644021052027E+000  0.000000000000E+000  3.434521717688E-003
   8.950000000000E+001  0.000000000000E+000  2.487847028753E+000  0.000000000000E+000  3.950650326033E-003
   9.000000000000E+001  0.000000000000E+000  2.242245785676E+000  0.000000000000E+000  3.960643105355E-003
   9.050000000000E+001  0.000000000000E+000  2.062666706916E+000  0.000000000000E+000  4.084805057002E-003
   9.100000000000E+001  0.000000000000E+000  1.988600041187E+000  0.000000000000E+000  4.420562490513E-003
   9.150000000000E+001  0.000000000000E+000  2.022546786781E+000  0.000000000000E+000  4.975000756740E-003
   9.200000000000E+001  0.000000000000E+000  2.148484880878E+000  0.000000000000E+000  5.764460111650E-003
   9.250000000000E+001  0.000000000000E+000  2.344977467390E+000  0.000000000000E+000  6.824995871420E-003
   9.300000000000E+001  0.000000000000E+000  2.591051644319E+000  0.000000000000E+000  8.259993717626E-003
   9.350000000000E+001  0.000000000000E+000  2.867988428594E+000  0.000000000000E+000  1.037108853007E-002
   9.400000000000E+001  0.000000000000E+000  3.161551640522E+000  0.000000000000E+000  1.382558841229E-002
   9.450000000000E+001  0.000000000000E+000  3.465990698351E+000  0.000000000000E+000  1.971041133359E-002
   9.500000000000E+001  0.000000000000E+000  3.787636058422E+000  0.000000000000E+000  2.929646679625E-002
   9.550000000000E+001  0.000000000000E+000  4.142274405082E+000  0.000000000000E+000  4.376392763281E-002
   9.600000000000E+001  0.000000000000E+000  4.544280696082E+000  0.000000000000E+000  6.427487801785E-002
   9.650000000000E+001  0.000000000000E+000  4.994007046730E+000  0.000000000000E+000  9.189384254209E-002
   9.700000000000E+001  0.000000000000E+000  5.469069100549E+000  0.000000000000E+000  1.266553555782E-001
   9.750000000000E+001  0.000000000000E+000  5.922479328343E+000  0.000000000000E+000  1.660890310913E-001
   9.800000000000E+001  0.000000000000E+000  6.293237154574E+000  0.000000000000E+000  2.051011618657E-001
   9.850000000000E+001  0.000000000000E+000  6.535430988165E+000  0.000000000000E+000  2.383454761175E-001
   9.900000000000E+001  0.000000000000E+000  6.659798169073E+000  0.000000000000E+000  2.630760076847E-001
   9.950000000000E+001  0.000000000000E+000  6.723587095117E+000  0.000000000000E+000  2.800883115165E-001
   1.000000000000E+002  0.000000000000E+000  6.772368126621E+000  0.000000000000E+000  2.917530053053E-001
