#                    1                    2                    3                    4
#               Time |      Random Number |   === cumu Prob ===>
#               [fs] |                 [] |                 [] |
   0.000000000000E+000  0.000000000000E+000  0.000000000000E+000  0.000000000000E+000
   5.000000000000E-001  4.396859134423E-001  8.324489757655E-009  8.324489757655E-009
   1.000000000000E+000  6.685185594596E-001  4.121435159803E-008  4.121435159803E-008
   1.500000000000E+000  4.093680809235E-001  7.136557062369E-008  7.136557062369E-008
   2.000000000000E+000  5.486837609849E-001  8.114745447275E-008  8.114745447275E-008
   2.500000000000E+000  6.268959959439E-001  6.327664668016E-008  6.327664668016E-008
   3.000000000000E+000  9.567320949036E-001  2.449420117218E-008  2.449420117218E-008
   3.500000000000E+000  5.122666612932E-001  2.687312686694E-008  2.687312686694E-008
   4.000000000000E+000  9.633627864001E-001  1.940347726215E-007  1.940347726215E-007
   4.500000000000E+000  8.408354769792E-001  5.909904097740E-007  5.909904097740E-007
   5.000000000000E+000  5.345145307638E-001  9.805753542259E-007  9.805753542259E-007
   5.500000000000E+000  8.798699475773E-001  8.517031858538E-007  8.517031858538E-007
   6.000000000000E+000  2.364773117474E-002  1.757563974623E-007  1.757563974623E-007
   6.500000000000E+000  2.920334901767E-001  1.664155884170E-007  1.664155884170E-007
   7.000000000000E+000  9.239967770594E-001  3.492409853360E-006  3.492409853360E-006
   7.500000000000E+000  7.281007444898E-001  1.822005636076E-005  1.822005636076E-005
   8.000000000000E+000  1.728311119092E-001  7.631297907472E-005  7.631297907472E-005
   8.500000000000E+000  6.236383216499E-001  3.105999327637E-004  3.105999327637E-004
   9.000000000000E+000  8.185474898557E-002  1.147489955730E-003  1.147489955730E-003
   9.500000000000E+000  5.869356896214E-001  2.679774886011E-003  2.679774886011E-003
   1.000000000000E+001  5.238384103990E-001  2.301243360292E-003  2.301243360292E-003
   1.050000000000E+001  9.390857414446E-001  2.049989816915E-004  2.049989816915E-004
   1.100000000000E+001  4.018949494516E-001  0.000000000000E+000  0.000000000000E+000
   1.150000000000E+001  1.370609880659E-001  0.000000000000E+000  0.000000000000E+000
   1.200000000000E+001  9.293703017740E-001  0.000000000000E+000  0.000000000000E+000
   1.250000000000E+001  5.820788938909E-001  3.749881741905E-007  3.749881741905E-007
   1.300000000000E+001  9.640502878205E-001  5.439663786646E-007  5.439663786646E-007
   1.350000000000E+001  4.204081188583E-001  3.631645445277E-007  3.631645445277E-007
   1.400000000000E+001  7.841700299897E-002  1.500096935322E-007  1.500096935322E-007
   1.450000000000E+001  5.808219147706E-001  3.060164808050E-008  3.060164808050E-008
   1.500000000000E+001  7.870683324993E-001  4.421314005227E-010  4.421314005227E-010
   1.550000000000E+001  4.965190539156E-001  2.064988421988E-009  2.064988421988E-009
   1.600000000000E+001  3.728719133391E-001  1.744900796871E-009  1.744900796871E-009
   1.650000000000E+001  6.773691911140E-001  2.145381242296E-010  2.145381242296E-010
   1.700000000000E+001  2.039767258512E-001  7.444777959626E-011  7.444777959626E-011
   1.750000000000E+001  3.070827369122E-001  7.941395177015E-010  7.941395177015E-010
   1.800000000000E+001  2.355831684659E-001  3.531485797555E-009  3.531485797555E-009
   1.850000000000E+001  9.066661964481E-001  6.116663257934E-009  6.116663257934E-009
   1.900000000000E+001  7.260553919313E-001  5.732345371920E-009  5.732345371920E-009
   1.950000000000E+001  5.998812890565E-001  3.309125549578E-009  3.309125549578E-009
   2.000000000000E+001  6.861316218605E-001  8.491235397150E-010  8.491235397150E-010
   2.050000000000E+001  3.135733113874E-001  9.237332687735E-012  9.237332687735E-012
   2.100000000000E+001  6.983579831945E-001  2.068717929389E-009  2.068717929389E-009
   2.150000000000E+001  6.750801002522E-001  4.927117243648E-008  4.927117243648E-008
   2.200000000000E+001  6.311790769222E-001  3.957201759755E-007  3.957201759755E-007
   2.250000000000E+001  2.975272640073E-001  1.744099625508E-006  1.744099625508E-006
   2.300000000000E+001  9.326331486338E-001  4.991231436970E-006  4.991231436970E-006
   2.350000000000E+001  3.722799497860E-001  1.022903226032E-005  1.022903226032E-005
   2.400000000000E+001  8.678515384753E-001  1.755543780097E-005  1.755543780097E-005
   2.450000000000E+001  5.230253634309E-001  2.940997748957E-005  2.940997748957E-005
   2.500000000000E+001  6.228088270588E-001  4.673933643593E-005  4.673933643593E-005
   2.550000000000E+001  5.684673508255E-001  6.955974452559E-005  6.955974452559E-005
   2.600000000000E+001  8.082135932977E-001  9.669172459855E-005  9.669172459855E-005
   2.650000000000E+001  1.338616588052E-001  1.261057446971E-004  1.261057446971E-004
   2.700000000000E+001  7.629842897196E-001  1.543571721306E-004  1.543571721306E-004
   2.750000000000E+001  3.372469668584E-001  1.743918987592E-004  1.743918987592E-004
   2.800000000000E+001  8.090252069603E-001  1.711454154656E-004  1.711454154656E-004
   2.850000000000E+001  4.547216164187E-001  1.198036898955E-004  1.198036898955E-004
   2.900000000000E+001  6.013017707088E-001  1.259115020356E-005  1.259115020356E-005
   2.950000000000E+001  2.549419797352E-001  0.000000000000E+000  0.000000000000E+000
   3.000000000000E+001  7.466000208915E-001  8.470273444086E-004  8.470273444086E-004
   3.050000000000E+001  7.831084549260E-001  6.212883183397E-003  6.212883183397E-003
   3.100000000000E+001  4.408596788873E-001  4.042347052017E-002  4.042347052017E-002
   3.150000000000E+001  8.870335753997E-001  2.778044976943E-001  2.778044976943E-001
   3.200000000000E+001  8.154169480831E-001  5.628406968813E-001  5.628406968813E-001
   3.250000000000E+001  3.152612013729E-001  3.299581124537E-001  3.299581124537E-001
   3.300000000000E+001  4.784635494786E-001  0.000000000000E+000  0.000000000000E+000
   3.350000000000E+001  7.071557804515E-001  0.000000000000E+000  2.247279584258E-002
   3.400000000000E+001  2.446346403071E-001  0.000000000000E+000  2.969237165157E-002
   3.450000000000E+001  3.122439852640E-001  0.000000000000E+000  1.188819133330E-002
   3.500000000000E+001  3.549593664573E-001  0.000000000000E+000  0.000000000000E+000
   3.550000000000E+001  4.936109790378E-001  0.000000000000E+000  0.000000000000E+000
   3.600000000000E+001  7.898866343966E-001  0.000000000000E+000  4.301346264782E-003
   3.650000000000E+001  3.748590046833E-001  0.000000000000E+000  0.000000000000E+000
   3.700000000000E+001  2.752678610374E-001  0.000000000000E+000  1.216785958071E-003
   3.750000000000E+001  2.209460366426E-001  0.000000000000E+000  1.027019675935E-003
   3.800000000000E+001  9.435163178476E-001  0.000000000000E+000  4.874019032451E-004
   3.850000000000E+001  7.466470051859E-001  0.000000000000E+000  0.000000000000E+000
   3.900000000000E+001  6.459163478123E-001  0.000000000000E+000  0.000000000000E+000
   3.950000000000E+001  7.677931186102E-001  0.000000000000E+000  1.795101494546E-004
   4.000000000000E+001  7.012222430687E-001  0.000000000000E+000  0.000000000000E+000
   4.050000000000E+001  5.188447814909E-002  0.000000000000E+000  7.486636226698E-005
   4.100000000000E+001  1.495814126518E-001  0.000000000000E+000  4.636855216072E-005
   4.150000000000E+001  5.112448564990E-001  0.000000000000E+000  3.664482554285E-005
   4.200000000000E+001  4.832845833521E-001  0.000000000000E+000  7.333384178658E-005
   4.250000000000E+001  5.408400604368E-002  0.000000000000E+000  9.302342702052E-005
   4.300000000000E+001  7.792285951946E-001  0.000000000000E+000  1.860641029166E-004
   4.350000000000E+001  7.752508138755E-002  0.000000000000E+000  3.453143699314E-004
   4.400000000000E+001  4.102748594588E-001  0.000000000000E+000  6.199063367699E-004
   4.450000000000E+001  6.574892820262E-001  0.000000000000E+000  1.129828378108E-003
   4.500000000000E+001  6.861956405112E-001  0.000000000000E+000  2.241772058233E-003
   4.550000000000E+001  6.411696046122E-001  0.000000000000E+000  1.722000313125E-002
   4.600000000000E+001  3.111844879811E-001  0.000000000000E+000  1.410678444461E-003
   4.650000000000E+001  2.567843356294E-001  0.000000000000E+000  0.000000000000E+000
   4.700000000000E+001  8.084926403695E-001  0.000000000000E+000  0.000000000000E+000
   4.750000000000E+001  1.445687218981E-001  0.000000000000E+000  4.418054891588E-004
   4.800000000000E+001  8.685859999758E-001  0.000000000000E+000  1.175598768890E-004
   4.850000000000E+001  3.691276215836E-001  0.000000000000E+000  2.842738335193E-004
   4.900000000000E+001  1.330252388991E-001  0.000000000000E+000  5.098413807061E-004
   4.950000000000E+001  1.812970230404E-001  0.000000000000E+000  5.429625963098E-004
   5.000000000000E+001  7.943145239338E-001  0.000000000000E+000  5.598568332906E-004
   5.050000000000E+001  2.462411373530E-001  0.000000000000E+000  5.666010095097E-004
   5.100000000000E+001  5.571308961865E-001  0.000000000000E+000  4.833579192163E-004
   5.150000000000E+001  6.565219298025E-001  0.000000000000E+000  2.723156907725E-004
   5.200000000000E+001  2.080036092924E-001  0.000000000000E+000  1.175876914186E-005
   5.250000000000E+001  9.546809490527E-001  0.000000000000E+000  6.077467110816E-004
   5.300000000000E+001  8.205165270455E-001  0.000000000000E+000  1.049696999539E-002
   5.350000000000E+001  9.290452622663E-002  0.000000000000E+000  1.267653609961E-001
   5.400000000000E+001  5.954051453664E-001  0.000000000000E+000  0.000000000000E+000
   5.450000000000E+001  5.161256449626E-001  0.000000000000E+000  0.000000000000E+000
   5.500000000000E+001  5.804032079569E-001  2.363678376116E-001  2.363678376116E-001
   5.550000000000E+001  2.364951102538E-001  6.612978424217E-001  6.612978424217E-001
   5.600000000000E+001  1.455393994091E-001  0.000000000000E+000  0.000000000000E+000
   5.650000000000E+001  9.940660910195E-001  0.000000000000E+000  9.343279689635E-003
   5.700000000000E+001  3.191247056823E-002  0.000000000000E+000  2.653071391316E-002
   5.750000000000E+001  6.722917888056E-001  0.000000000000E+000  1.631314305460E-002
   5.800000000000E+001  8.529735438073E-001  0.000000000000E+000  0.000000000000E+000
   5.850000000000E+001  2.993548817212E-001  0.000000000000E+000  0.000000000000E+000
   5.900000000000E+001  3.063445906338E-001  0.000000000000E+000  0.000000000000E+000
   5.950000000000E+001  1.542882794116E-001  0.000000000000E+000  8.117948976369E-007
   6.000000000000E+001  9.927903648406E-001  0.000000000000E+000  3.623143406547E-003
   6.050000000000E+001  1.275626694983E-001  0.000000000000E+000  1.502996108180E-003
   6.100000000000E+001  6.896952775419E-001  0.000000000000E+000  0.000000000000E+000
   6.150000000000E+001  8.706755163183E-002  0.000000000000E+000  0.000000000000E+000
   6.200000000000E+001  4.855642119762E-001  0.000000000000E+000  4.597875182515E-005
   6.250000000000E+001  1.826263058573E-002  0.000000000000E+000  0.000000000000E+000
   6.300000000000E+001  6.191985707878E-001  0.000000000000E+000  1.051311852625E-005
   6.350000000000E+001  3.599886612962E-001  0.000000000000E+000  2.366478501149E-004
   6.400000000000E+001  6.059916068377E-001  0.000000000000E+000  2.113488734697E-004
   6.450000000000E+001  6.408390209411E-001  0.000000000000E+000  3.895918163588E-005
   6.500000000000E+001  9.341544548064E-001  0.000000000000E+000  0.000000000000E+000
   6.550000000000E+001  2.191304930607E-001  0.000000000000E+000  9.682072287235E-006
   6.600000000000E+001  8.726257608147E-001  0.000000000000E+000  0.000000000000E+000
   6.650000000000E+001  7.881201868831E-001  0.000000000000E+000  0.000000000000E+000
   6.700000000000E+001  4.377404470965E-001  0.000000000000E+000  7.349184147113E-006
   6.750000000000E+001  2.387552909992E-001  0.000000000000E+000  1.139047378904E-005
   6.800000000000E+001  8.326572663038E-001  0.000000000000E+000  8.970021253383E-006
   6.850000000000E+001  4.735555179660E-001  0.000000000000E+000  0.000000000000E+000
   6.900000000000E+001  6.525381577507E-001  0.000000000000E+000  2.495383472229E-005
   6.950000000000E+001  4.277937888924E-002  0.000000000000E+000  2.363380688692E-004
   7.000000000000E+001  6.088835935831E-001  0.000000000000E+000  6.642604947633E-004
   7.050000000000E+001  1.854803910320E-001  0.000000000000E+000  1.318123120464E-003
   7.100000000000E+001  3.354466890511E-001  0.000000000000E+000  2.427977824360E-003
   7.150000000000E+001  2.221426492939E-001  0.000000000000E+000  3.717871860278E-003
   7.200000000000E+001  7.893894571336E-001  0.000000000000E+000  4.765456384622E-003
   7.250000000000E+001  6.752495562640E-001  0.000000000000E+000  5.364958231989E-003
   7.300000000000E+001  9.605735338520E-001  0.000000000000E+000  5.639740303556E-003
   7.350000000000E+001  2.480967254789E-002  0.000000000000E+000  5.824234427438E-003
   7.400000000000E+001  7.591630991217E-001  0.000000000000E+000  6.037944116117E-003
   7.450000000000E+001  9.005216264838E-001  0.000000000000E+000  6.184527663691E-003
   7.500000000000E+001  3.429391701472E-001  0.000000000000E+000  5.930367402670E-003
   7.550000000000E+001  8.745208202555E-001  0.000000000000E+000  4.931679907615E-003
   7.600000000000E+001  1.299871537131E-001  0.000000000000E+000  3.307968673847E-003
   7.650000000000E+001  6.032803111145E-001  0.000000000000E+000  1.761697462883E-003
   7.700000000000E+001  3.416418209856E-001  0.000000000000E+000  8.624159803713E-004
   7.750000000000E+001  3.196751229336E-001  0.000000000000E+000  4.972686045566E-004
   7.800000000000E+001  5.108612721894E-001  0.000000000000E+000  3.163398084994E-004
   7.850000000000E+001  8.428053537563E-001  0.000000000000E+000  2.070509114218E-004
   7.900000000000E+001  6.238535372669E-001  0.000000000000E+000  1.500458494024E-004
   7.950000000000E+001  5.855723064270E-001  0.000000000000E+000  1.054400212922E-004
   8.000000000000E+001  4.142331034922E-001  0.000000000000E+000  6.844930463891E-005
   8.050000000000E+001  8.435162574513E-001  0.000000000000E+000  3.954870804286E-005
   8.100000000000E+001  5.530718332208E-001  0.000000000000E+000  1.709885727309E-005
   8.150000000000E+001  1.711811933436E-001  0.000000000000E+000  2.344354268938E-006
   8.200000000000E+001  7.127493990509E-001  0.000000000000E+000  0.000000000000E+000
   8.250000000000E+001  3.627564682785E-001  0.000000000000E+000  5.928704966772E-006
   8.300000000000E+001  5.570044826462E-001  0.000000000000E+000  1.235105496921E-005
   8.350000000000E+001  5.541249998382E-001  0.000000000000E+000  1.158260090798E-005
   8.400000000000E+001  6.461575496585E-001  0.000000000000E+000  6.777989208600E-006
   8.450000000000E+001  9.633786114339E-001  0.000000000000E+000  3.464609091059E-006
   8.500000000000E+001  1.466002466441E-002  0.000000000000E+000  2.867269554151E-006
   8.550000000000E+001  6.166555501594E-001  0.000000000000E+000  1.748005649252E-006
   8.600000000000E+001  2.740035389039E-001  0.000000000000E+000  7.283917981316E-006
   8.650000000000E+001  2.457915185449E-001  0.000000000000E+000  3.399666780414E-004
   8.700000000000E+001  8.625323587634E-001  0.000000000000E+000  2.050536644101E-003
   8.750000000000E+001  8.871575539971E-001  0.000000000000E+000  3.214931199246E-003
   8.800000000000E+001  2.937958398706E-001  0.000000000000E+000  7.446017025429E-004
   8.850000000000E+001  7.141332843813E-002  0.000000000000E+000  0.000000000000E+000
   8.900000000000E+001  5.934890701652E-001  0.000000000000E+000  0.000000000000E+000
   8.950000000000E+001  7.817226790108E-001  0.000000000000E+000  4.739832801236E-004
   9.000000000000E+001  7.294681007065E-001  0.000000000000E+000  5.965224174358E-004
   9.050000000000E+001  7.761165248090E-002  0.000000000000E+000  7.815355128788E-004
   9.100000000000E+001  7.887953478133E-001  0.000000000000E+000  6.740972971846E-004
   9.150000000000E+001  7.108895296350E-001  0.000000000000E+000  1.391103985817E-004
   9.200000000000E+001  2.843255569076E-002  0.000000000000E+000  0.000000000000E+000
   9.250000000000E+001  8.867992718601E-001  0.000000000000E+000  0.000000000000E+000
   9.300000000000E+001  4.420904696815E-001  0.000000000000E+000  1.534243755583E-005
   9.350000000000E+001  2.768662877072E-001  0.000000000000E+000  6.848656791239E-006
   9.400000000000E+001  3.954154423486E-001  0.000000000000E+000  5.069607509226E-006
   9.450000000000E+001  1.018438840549E-001  0.000000000000E+000  7.577359509423E-007
   9.500000000000E+001  2.887230266544E-001  0.000000000000E+000  8.047003653726E-007
   9.550000000000E+001  9.484788503594E-001  0.000000000000E+000  1.094694436733E-006
   9.600000000000E+001  3.082496301277E-001  0.000000000000E+000  2.285482135302E-006
   9.650000000000E+001  8.905307206768E-001  0.000000000000E+000  5.159501622775E-006
   9.700000000000E+001  4.523554329994E-001  0.000000000000E+000  9.524406509971E-006
   9.750000000000E+001  5.977511945222E-001  0.000000000000E+000  1.373480132205E-005
   9.800000000000E+001  7.960003533680E-001  0.000000000000E+000  1.558329552851E-005
   9.850000000000E+001  3.462499368150E-001  0.000000000000E+000  1.473776332244E-005
   9.900000000000E+001  1.118788446811E-001  0.000000000000E+000  1.406048469600E-005
   9.950000000000E+001  5.706513959474E-001  0.000000000000E+000  1.519210510151E-005
   1.000000000000E+002  3.093511780234E-002  0.000000000000E+000  1.626332655160E-005
