! 1 Hamiltonian Matrix (3x3, complex)
3 3
-7.802118365E+001  0.000000000E+000  0.000000000E+000  0.000000000E+000  0.000000000E+000  0.000000000E+000 
 0.000000000E+000  0.000000000E+000 -7.767551755E+001  0.000000000E+000  0.000000000E+000  0.000000000E+000 
 0.000000000E+000  0.000000000E+000  0.000000000E+000  0.000000000E+000 -7.749644681E+001  0.000000000E+000 

! 2 Dipole Moment Matrices (3x3x3, complex)
3 3
 2.712377110E-002  0.000000000E+000  1.319953990E+000  0.000000000E+000 -1.185923790E-002  0.000000000E+000 
 1.319953990E+000  0.000000000E+000  5.931611540E-002  0.000000000E+000  1.936392360E+000  0.000000000E+000 
-1.185923790E-002  0.000000000E+000  1.936392360E+000  0.000000000E+000  4.629176280E-002  0.000000000E+000 
3 3
 4.492028770E-002  0.000000000E+000  6.717752770E-002  0.000000000E+000 -5.860076470E-003  0.000000000E+000 
 6.717752770E-002  0.000000000E+000  5.994644370E-002  0.000000000E+000  9.863255400E-002  0.000000000E+000 
-5.860076470E-003  0.000000000E+000  9.863255400E-002  0.000000000E+000  7.267003930E-002  0.000000000E+000 
3 3
-1.294884340E-001  0.000000000E+000  3.791247350E-001  0.000000000E+000  2.897434390E-002  0.000000000E+000 
 3.791247350E-001  0.000000000E+000 -2.027118490E-001  0.000000000E+000  5.556758870E-001  0.000000000E+000 
 2.897434390E-002  0.000000000E+000  5.556758870E-001  0.000000000E+000 -2.889145990E-001  0.000000000E+000 
! 8 Runtime
 3.640203000E+000
