#                    1                    2                    3                    4                    5                    6                    7                    8                    9                   10
#               Time |               Ekin |               Epot |               Etot |  Energy          1 |  Energy          2 | Spin             1 | Spin             2 | f_osc            1 | f_osc            2 |
#               [fs] |               [eV] |               [eV] |               [eV] |               [eV] |               [eV] |                 [] |                 [] |                 [] |                 [] |
   0.000000000000E+000  6.125944317802E-001  1.039883197478E+001  1.101142640656E+001  9.668566596866E-001  1.039883197478E+001  0.000000000000E+000  0.000000000000E+000  0.000000000000E+000  5.069364601229E-001
   5.000000000000E-001  4.950124134306E-001  1.051825566358E+001  1.101326807701E+001  1.037622584553E+000  1.051825566358E+001  0.000000000000E+000  0.000000000000E+000  0.000000000000E+000  5.111658788640E-001
   1.000000000000E+000  4.020736531808E-001  1.061271290769E+001  1.101478656087E+001  1.093331362274E+000  1.061271290769E+001  0.000000000000E+000  0.000000000000E+000  0.000000000000E+000  5.146602403420E-001
   1.500000000000E+000  3.548812382881E-001  1.066063487581E+001  1.101551611410E+001  1.107830131822E+000  1.066063487581E+001  0.000000000000E+000  0.000000000000E+000  0.000000000000E+000  5.178256062126E-001
   2.000000000000E+000  3.639248676878E-001  1.065152722563E+001  1.101545209332E+001  1.069193232107E+000  1.065152722563E+001  0.000000000000E+000  0.000000000000E+000  0.000000000000E+000  5.207401996748E-001
   2.500000000000E+000  4.279938821354E-001  1.058669855261E+001  1.101469243475E+001  9.817260482831E-001  1.058669855261E+001  0.000000000000E+000  0.000000000000E+000  0.000000000000E+000  5.230426627491E-001
   3.000000000000E+000  5.349835201691E-001  1.047815370296E+001  1.101313722313E+001  8.636721805448E-001  1.047815370296E+001  0.000000000000E+000  0.000000000000E+000  0.000000000000E+000  5.240440741441E-001
   3.500000000000E+000  6.612472383337E-001  1.034943596600E+001  1.101068320434E+001  7.453807574255E-001  1.034943596600E+001  0.000000000000E+000  0.000000000000E+000  0.000000000000E+000  5.229753328151E-001
   4.000000000000E+000  7.719155558938E-001  1.023583306432E+001  1.100774862022E+001  6.669110176746E-001  1.023583306432E+001  0.000000000000E+000  0.000000000000E+000  0.000000000000E+000  5.192063559427E-001
   4.500000000000E+000  8.287405383109E-001  1.017692422786E+001  1.100566476617E+001  6.698003224129E-001  1.017692422786E+001  0.000000000000E+000  0.000000000000E+000  0.000000000000E+000  5.122940406560E-001
   5.000000000000E+000  8.103196257943E-001  1.019606743640E+001  1.100638706220E+001  7.777263851922E-001  1.019606743640E+001  0.000000000000E+000  0.000000000000E+000  0.000000000000E+000  5.018778659891E-001
   5.500000000000E+000  7.380274051976E-001  1.027278340247E+001  1.101081080766E+001  9.708733320582E-001  1.027278340247E+001  0.000000000000E+000  0.000000000000E+000  0.000000000000E+000  4.875430349203E-001
   6.000000000000E+000  6.830480052535E-001  1.033353907555E+001  1.101658708080E+001  1.178117952674E+000  1.033353907555E+001  0.000000000000E+000  0.000000000000E+000  0.000000000000E+000  4.687597681248E-001
   6.500000000000E+000  7.303000335127E-001  1.028885172464E+001  1.101915175815E+001  1.314346303693E+000  1.028885172464E+001  0.000000000000E+000  0.000000000000E+000  0.000000000000E+000  4.449111345607E-001
   7.000000000000E+000  9.181538765196E-001  1.009848469274E+001  1.101663856926E+001  1.344822237274E+000  1.009848469274E+001  0.000000000000E+000  0.000000000000E+000  0.000000000000E+000  4.154111884248E-001
   7.500000000000E+000  1.214110211157E+000  9.797744750437E+000  1.101185496159E+001  1.310178608141E+000  9.797744750437E+000  0.000000000000E+000  0.000000000000E+000  0.000000000000E+000  3.799306672426E-001
   8.000000000000E+000  1.548703393749E+000  9.459389967993E+000  1.100809336174E+001  1.286715048179E+000  9.459389967993E+000  0.000000000000E+000  0.000000000000E+000  0.000000000000E+000  3.387408241628E-001
   8.500000000000E+000  1.860296166006E+000  9.145722169328E+000  1.100601833533E+001  1.336837600908E+000  9.145722169328E+000  0.000000000000E+000  0.000000000000E+000  0.000000000000E+000  2.930439401728E-001
   9.000000000000E+000  2.110731191178E+000  8.894421774015E+000  1.100515296519E+001  1.493981437903E+000  8.894421774015E+000  0.000000000000E+000  0.000000000000E+000  0.000000000000E+000  2.450469925036E-001
   9.500000000000E+000  2.282734940137E+000  8.722692907385E+000  1.100542784752E+001  1.767101009250E+000  8.722692907385E+000  0.000000000000E+000  0.000000000000E+000  0.000000000000E+000  1.976153943151E-001
   1.000000000000E+001  2.377640456253E+000  8.629020439586E+000  1.100666089584E+001  2.143783297975E+000  8.629020439586E+000  0.000000000000E+000  0.000000000000E+000  0.000000000000E+000  1.535912385427E-001
   1.050000000000E+001  2.412143849120E+000  8.596161605119E+000  1.100830545424E+001  2.594730623417E+000  8.596161605119E+000  0.000000000000E+000  0.000000000000E+000  0.000000000000E+000  1.151087351341E-001
   1.100000000000E+001  2.410630057306E+000  8.599203565721E+000  1.100983362303E+001  3.083130609148E+000  8.599203565721E+000  0.000000000000E+000  0.000000000000E+000  0.000000000000E+000  8.321596210849E-002
   1.150000000000E+001  2.397307864760E+000  8.613723015921E+000  1.101103088068E+001  3.573701519084E+000  8.613723015921E+000  0.000000000000E+000  0.000000000000E+000  0.000000000000E+000  5.791585797399E-002
   1.200000000000E+001  2.392314839146E+000  8.619602851746E+000  1.101191769089E+001  4.036559267241E+000  8.619602851746E+000  0.000000000000E+000  0.000000000000E+000  0.000000000000E+000  3.849074249173E-002
   1.250000000000E+001  2.411196650289E+000  8.601376394722E+000  1.101257304501E+001  4.446315088251E+000  8.601376394722E+000  0.000000000000E+000  0.000000000000E+000  0.000000000000E+000  2.390013950727E-002
   1.300000000000E+001  2.465393755268E+000  8.547644251925E+000  1.101303800719E+001  4.778656971204E+000  8.547644251925E+000  0.000000000000E+000  0.000000000000E+000  0.000000000000E+000  1.312470940834E-002
   1.350000000000E+001  2.562778185085E+000  8.450673764401E+000  1.101345194949E+001  5.005645355607E+000  8.450673764401E+000  0.000000000000E+000  0.000000000000E+000  0.000000000000E+000  5.479377997840E-003
   1.400000000000E+001  2.705825566893E+000  8.306511662305E+000  1.101233722920E+001  5.091429515339E+000  8.306511662305E+000  0.000000000000E+000  0.000000000000E+000  0.000000000000E+000  1.033906047535E-003
   1.450000000000E+001  2.872138336201E+000  8.135899550868E+000  1.100803788707E+001  4.997131457825E+000  8.135899550868E+000  0.000000000000E+000  0.000000000000E+000  0.000000000000E+000  2.494753508569E-004
   1.500000000000E+001  3.031871112874E+000  7.977368477525E+000  1.100923959040E+001  4.707885331947E+000  7.977368477525E+000  0.000000000000E+000  0.000000000000E+000  0.000000000000E+000  3.284880663880E-003
   1.550000000000E+001  3.171068701753E+000  7.836377317989E+000  1.100744601974E+001  4.260750593497E+000  7.836377317989E+000  0.000000000000E+000  0.000000000000E+000  0.000000000000E+000  1.031462296436E-002
   1.600000000000E+001  3.266054716658E+000  7.738889269945E+000  1.100494398660E+001  3.727189234543E+000  7.738889269945E+000  0.000000000000E+000  0.000000000000E+000  0.000000000000E+000  2.072838072487E-002
   1.650000000000E+001  3.279687870741E+000  7.722961358516E+000  1.100264922926E+001  3.183546874210E+000  7.722961358516E+000  0.000000000000E+000  0.000000000000E+000  0.000000000000E+000  3.493783872723E-002
   1.700000000000E+001  3.177579452176E+000  7.823579259932E+000  1.100115871211E+001  2.697954286951E+000  7.823579259932E+000  0.000000000000E+000  0.000000000000E+000  0.000000000000E+000  5.380505132827E-002
   1.750000000000E+001  2.939715707225E+000  8.061782544080E+000  1.100149825130E+001  2.322435012773E+000  8.061782544080E+000  0.000000000000E+000  0.000000000000E+000  0.000000000000E+000  7.781894553130E-002
   1.800000000000E+001  2.576198063511E+000  8.428646149166E+000  1.100484421268E+001  2.078432166383E+000  8.428646149166E+000  0.000000000000E+000  0.000000000000E+000  0.000000000000E+000  1.065397587009E-001
   1.850000000000E+001  2.141530340949E+000  8.869490976236E+000  1.101102131719E+001  1.939512609501E+000  8.869490976236E+000  0.000000000000E+000  0.000000000000E+000  0.000000000000E+000  1.384294098293E-001
   1.900000000000E+001  1.726972534000E+000  9.289901686710E+000  1.101687422071E+001  1.834291630391E+000  9.289901686710E+000  0.000000000000E+000  0.000000000000E+000  0.000000000000E+000  1.711664924592E-001
   1.950000000000E+001  1.414984562828E+000  9.603154511771E+000  1.101813907460E+001  1.691105600634E+000  9.603154511771E+000  0.000000000000E+000  0.000000000000E+000  0.000000000000E+000  2.023061245740E-001
   2.000000000000E+001  1.224794148340E+000  9.789701065368E+000  1.101449521371E+001  1.497203809980E+000  9.789701065368E+000  0.000000000000E+000  0.000000000000E+000  0.000000000000E+000  2.298992197025E-001
   2.050000000000E+001  1.108574262344E+000  9.901608697834E+000  1.101018296018E+001  1.305513760605E+000  9.901608697834E+000  0.000000000000E+000  0.000000000000E+000  0.000000000000E+000  2.527723232540E-001
   2.100000000000E+001  1.004557646169E+000  1.000422500328E+001  1.100878264945E+001  1.179596619273E+000  1.000422500328E+001  0.000000000000E+000  0.000000000000E+000  0.000000000000E+000  2.704795643003E-001
   2.150000000000E+001  8.864069878601E-001  1.012378474900E+001  1.101019173686E+001  1.143341531987E+000  1.012378474900E+001  0.000000000000E+000  0.000000000000E+000  0.000000000000E+000  2.831238060280E-001
   2.200000000000E+001  7.671672313531E-001  1.024522643403E+001  1.101239366538E+001  1.179036881107E+000  1.024522643403E+001  0.000000000000E+000  0.000000000000E+000  0.000000000000E+000  2.912081876838E-001
   2.250000000000E+001  6.745402771814E-001  1.033939659804E+001  1.101393687522E+001  1.254084517224E+000  1.033939659804E+001  0.000000000000E+000  0.000000000000E+000  0.000000000000E+000  2.955106465874E-001
   2.300000000000E+001  6.299643766251E-001  1.038465239477E+001  1.101461677139E+001  1.341938102699E+000  1.038465239477E+001  0.000000000000E+000  0.000000000000E+000  0.000000000000E+000  2.969324292745E-001
   2.350000000000E+001  6.429415695655E-001  1.037176780451E+001  1.101470937407E+001  1.427016399134E+000  1.037176780451E+001  0.000000000000E+000  0.000000000000E+000  0.000000000000E+000  2.962797414294E-001
   2.400000000000E+001  7.139153485526E-001  1.030054200726E+001  1.101445735581E+001  1.501814234747E+000  1.030054200726E+001  0.000000000000E+000  0.000000000000E+000  0.000000000000E+000  2.940368244523E-001
   2.450000000000E+001  8.373738097553E-001  1.017649183897E+001  1.101386564872E+001  1.564561781131E+000  1.017649183897E+001  0.000000000000E+000  0.000000000000E+000  0.000000000000E+000  2.902659007036E-001
   2.500000000000E+001  1.002317624452E+000  1.001052770401E+001  1.101284532846E+001  1.619933681920E+000  1.001052770401E+001  0.000000000000E+000  0.000000000000E+000  0.000000000000E+000  2.846753322360E-001
   2.550000000000E+001  1.191098344713E+000  9.820203938220E+000  1.101130228293E+001  1.680684456957E+000  9.820203938220E+000  0.000000000000E+000  0.000000000000E+000  0.000000000000E+000  2.768481730812E-001
   2.600000000000E+001  1.378610729984E+000  9.630697330287E+000  1.100930806027E+001  1.768238717210E+000  9.630697330287E+000  0.000000000000E+000  0.000000000000E+000  0.000000000000E+000  2.664479361207E-001
   2.650000000000E+001  1.534125028208E+000  9.473124641883E+000  1.100724967009E+001  1.910068259482E+000  9.473124641883E+000  0.000000000000E+000  0.000000000000E+000  0.000000000000E+000  2.533637439939E-001
   2.700000000000E+001  1.628080705160E+000  9.377893778129E+000  1.100597448329E+001  2.132292474799E+000  9.377893778129E+000  0.000000000000E+000  0.000000000000E+000  0.000000000000E+000  2.377344769519E-001
   2.750000000000E+001  1.645123954293E+000  9.361504361630E+000  1.100662831592E+001  2.445967348424E+000  9.361504361630E+000  0.000000000000E+000  0.000000000000E+000  0.000000000000E+000  2.199015722721E-001
   2.800000000000E+001  1.600296391452E+000  9.409657082281E+000  1.100995347373E+001  2.830486243586E+000  9.409657082281E+000  0.000000000000E+000  0.000000000000E+000  0.000000000000E+000  2.002921701463E-001
   2.850000000000E+001  1.546215596073E+000  9.468647552896E+000  1.101486314897E+001  3.225794180335E+000  9.468647552896E+000  0.000000000000E+000  0.000000000000E+000  0.000000000000E+000  1.793076976498E-001
   2.900000000000E+001  1.554048298178E+000  9.464031957966E+000  1.101808025614E+001  3.552247247707E+000  9.464031957966E+000  0.000000000000E+000  0.000000000000E+000  0.000000000000E+000  1.572402610531E-001
   2.950000000000E+001  1.668054024364E+000  9.348690793085E+000  1.101674481745E+001  3.759399621732E+000  9.348690793085E+000  0.000000000000E+000  0.000000000000E+000  0.000000000000E+000  1.342817338554E-001
   3.000000000000E+001  1.868775322665E+000  9.142904702643E+000  1.101168002531E+001  3.865768377013E+000  9.142904702643E+000  0.000000000000E+000  0.000000000000E+000  0.000000000000E+000  1.106380328020E-001
   3.050000000000E+001  2.084364578932E+000  8.922301741576E+000  1.100666632051E+001  3.945455826192E+000  8.922301741576E+000  0.000000000000E+000  0.000000000000E+000  0.000000000000E+000  8.670544944614E-002
   3.100000000000E+001  2.240029913364E+000  8.764462925838E+000  1.100449283920E+001  4.072804014201E+000  8.764462925838E+000  0.000000000000E+000  0.000000000000E+000  0.000000000000E+000  6.323398799420E-002
   3.150000000000E+001  2.298434761542E+000  8.706853977182E+000  1.100528873872E+001  4.278727522131E+000  8.706853977182E+000  0.000000000000E+000  0.000000000000E+000  0.000000000000E+000  4.140358236593E-002
   3.200000000000E+001  2.265750223177E+000  8.741925913498E+000  1.100767613667E+001  4.544884516690E+000  8.741925913498E+000  0.000000000000E+000  0.000000000000E+000  0.000000000000E+000  2.279295120905E-002
   3.250000000000E+001  2.174564558017E+000  8.835713213337E+000  1.101027777135E+001  4.822667847117E+000  8.835713213337E+000  0.000000000000E+000  0.000000000000E+000  0.000000000000E+000  9.149139568999E-003
   3.300000000000E+001  2.064418561245E+000  8.948180311855E+000  1.101259887310E+001  5.056595406519E+000  8.948180311855E+000  0.000000000000E+000  0.000000000000E+000  0.000000000000E+000  1.690264096383E-003
   3.350000000000E+001  1.972773346944E+000  9.042294692529E+000  1.101506803947E+001  5.201841065921E+000  9.042294692529E+000  0.000000000000E+000  0.000000000000E+000  0.000000000000E+000  1.165424432297E-004
   3.400000000000E+001  1.929555108871E+000  9.086007603789E+000  1.101556271266E+001  5.232963814097E+000  9.086007603789E+000  0.000000000000E+000  0.000000000000E+000  0.000000000000E+000  3.026493265352E-003
   3.450000000000E+001  1.946557521383E+000  9.068205100126E+000  1.101476262151E+001  5.144794576569E+000  9.068205100126E+000  0.000000000000E+000  0.000000000000E+000  0.000000000000E+000  9.222853198083E-003
   3.500000000000E+001  2.018632197115E+000  8.995279679837E+000  1.101391187695E+001  4.948063074107E+000  8.995279679837E+000  0.000000000000E+000  0.000000000000E+000  0.000000000000E+000  1.787092688342E-002
   3.550000000000E+001  2.134466164849E+000  8.878413044776E+000  1.101287920963E+001  4.662172383973E+000  8.878413044776E+000  0.000000000000E+000  0.000000000000E+000  0.000000000000E+000  2.828524370065E-002
   3.600000000000E+001  2.278716415171E+000  8.732843842020E+000  1.101156025719E+001  4.310806750449E+000  8.732843842020E+000  0.000000000000E+000  0.000000000000E+000  0.000000000000E+000  4.005281545954E-002
   3.650000000000E+001  2.431076430760E+000  8.578838293926E+000  1.100991472469E+001  3.921176468942E+000  8.578838293926E+000  0.000000000000E+000  0.000000000000E+000  0.000000000000E+000  5.302552776827E-002
   3.700000000000E+001  2.566158187791E+000  8.441881766276E+000  1.100803995407E+001  3.524603202844E+000  8.441881766276E+000  0.000000000000E+000  0.000000000000E+000  0.000000000000E+000  6.717948626645E-002
   3.750000000000E+001  2.655391993787E+000  8.350851795963E+000  1.100624378975E+001  3.155672076811E+000  8.350851795963E+000  0.000000000000E+000  0.000000000000E+000  0.000000000000E+000  8.246862714635E-002
   3.800000000000E+001  2.672385625294E+000  8.332738266183E+000  1.100512389148E+001  2.847835949821E+000  8.332738266183E+000  0.000000000000E+000  0.000000000000E+000  0.000000000000E+000  9.870144421343E-002
   3.850000000000E+001  2.602140201311E+000  8.403285955750E+000  1.100542615706E+001  2.624705595422E+000  8.403285955750E+000  0.000000000000E+000  0.000000000000E+000  0.000000000000E+000  1.154271472999E-001
   3.900000000000E+001  2.450980628654E+000  8.556475162329E+000  1.100745579098E+001  2.489841623190E+000  8.556475162329E+000  0.000000000000E+000  0.000000000000E+000  0.000000000000E+000  1.318438801664E-001
   3.950000000000E+001  2.249436026181E+000  8.761016059845E+000  1.101045208603E+001  2.423080669800E+000  8.761016059845E+000  0.000000000000E+000  0.000000000000E+000  0.000000000000E+000  1.467704247487E-001
   4.000000000000E+001  2.040345402094E+000  8.972409600158E+000  1.101275500225E+001  2.392033297158E+000  8.972409600158E+000  0.000000000000E+000  0.000000000000E+000  0.000000000000E+000  1.587383554808E-001
   4.050000000000E+001  1.856155326150E+000  9.157062513552E+000  1.101321783970E+001  2.375316255597E+000  9.157062513552E+000  0.000000000000E+000  0.000000000000E+000  0.000000000000E+000  1.662570662902E-001
   4.100000000000E+001  1.703563468171E+000  9.308690875152E+000  1.101225434332E+001  2.377902969747E+000  9.308690875152E+000  0.000000000000E+000  0.000000000000E+000  0.000000000000E+000  1.682160538572E-001
   4.150000000000E+001  1.568426377710E+000  9.442723539607E+000  1.101114991732E+001  2.424348992402E+000  9.442723539607E+000  0.000000000000E+000  0.000000000000E+000  0.000000000000E+000  1.643095118595E-001
   4.200000000000E+001  1.433628781895E+000  9.577293084665E+000  1.101092186656E+001  2.538520339891E+000  9.577293084665E+000  0.000000000000E+000  0.000000000000E+000  0.000000000000E+000  1.552718333416E-001
   4.250000000000E+001  1.294406507377E+000  9.717472256506E+000  1.101187876388E+001  2.726760802133E+000  9.717472256506E+000  0.000000000000E+000  0.000000000000E+000  0.000000000000E+000  1.427652512340E-001
   4.300000000000E+001  1.163685685038E+000  9.850007478507E+000  1.101369316354E+001  2.972389256595E+000  9.850007478507E+000  0.000000000000E+000  0.000000000000E+000  0.000000000000E+000  1.289064436948E-001
   4.350000000000E+001  1.067740732290E+000  9.947924105847E+000  1.101566483814E+001  3.241573517608E+000  9.947924105847E+000  0.000000000000E+000  0.000000000000E+000  0.000000000000E+000  1.156225050227E-001
   4.400000000000E+001  1.035023635525E+000  9.981862415911E+000  1.101688605144E+001  3.497193992223E+000  9.981862415911E+000  0.000000000000E+000  0.000000000000E+000  0.000000000000E+000  1.041865851568E-001
   4.450000000000E+001  1.083746420185E+000  9.933182338641E+000  1.101692875883E+001  3.714578390807E+000  9.933182338641E+000  0.000000000000E+000  0.000000000000E+000  0.000000000000E+000  9.505261664885E-002
   4.500000000000E+001  1.215584615921E+000  9.800478133946E+000  1.101606274987E+001  3.889954399215E+000  9.800478133946E+000  0.000000000000E+000  0.000000000000E+000  0.000000000000E+000  8.798211039757E-002
   4.550000000000E+001  1.418825113343E+000  9.596078463513E+000  1.101490357686E+001  4.037576428770E+000  9.596078463513E+000  0.000000000000E+000  0.000000000000E+000  0.000000000000E+000  8.226198644178E-002
   4.600000000000E+001  1.676743369858E+000  9.337124050147E+000  1.101386742001E+001  4.179872918389E+000  9.337124050147E+000  0.000000000000E+000  0.000000000000E+000  0.000000000000E+000  7.686300851571E-002
   4.650000000000E+001  1.973477276638E+000  9.039317495020E+000  1.101279477166E+001  4.337695951525E+000  9.039317495020E+000  0.000000000000E+000  0.000000000000E+000  0.000000000000E+000  7.048703381665E-002
   4.700000000000E+001  2.292326881762E+000  8.718680316721E+000  1.101100719848E+001  4.523183438062E+000  8.718680316721E+000  0.000000000000E+000  0.000000000000E+000  0.000000000000E+000  6.160506992675E-002
   4.750000000000E+001  2.609324576979E+000  8.399360169401E+000  1.100868474638E+001  4.733901863941E+000  8.399360169401E+000  0.000000000000E+000  0.000000000000E+000  0.000000000000E+000  4.915680532412E-002
   4.800000000000E+001  2.898153243676E+000  8.109720022684E+000  1.100787326636E+001  4.956444452450E+000  8.109720022684E+000  0.000000000000E+000  0.000000000000E+000  0.000000000000E+000  3.462515301129E-002
   4.850000000000E+001  3.142720138991E+000  7.864716341596E+000  1.100743648059E+001  5.181898114803E+000  7.864716341596E+000  0.000000000000E+000  0.000000000000E+000  0.000000000000E+000  2.158520190871E-002
   4.900000000000E+001  3.333885274732E+000  7.673033911410E+000  1.100691918614E+001  5.405057585384E+000  7.673033911410E+000  0.000000000000E+000  0.000000000000E+000  0.000000000000E+000  1.207083647987E-002
   4.950000000000E+001  3.464086617129E+000  7.542782812970E+000  1.100686943010E+001  5.617403524132E+000  7.542782812970E+000  0.000000000000E+000  0.000000000000E+000  0.000000000000E+000  6.209450229762E-003
   5.000000000000E+001  3.531077630238E+000  7.476247441953E+000  1.100732507219E+001  5.811072657455E+000  7.476247441953E+000  0.000000000000E+000  0.000000000000E+000  0.000000000000E+000  3.275481074525E-003
   5.050000000000E+001  3.538031186279E+000  7.469761336496E+000  1.100779252277E+001  5.988250059475E+000  7.469761336496E+000  0.000000000000E+000  0.000000000000E+000  0.000000000000E+000  2.202960702848E-003
   5.100000000000E+001  3.487926066703E+000  7.519813411740E+000  1.100773947844E+001  6.168298262492E+000  7.519813411740E+000  0.000000000000E+000  0.000000000000E+000  0.000000000000E+000  1.934435910640E-003
   5.150000000000E+001  3.378831369386E+000  7.628387649683E+000  1.100721901907E+001  6.384551755963E+000  7.628387649683E+000  0.000000000000E+000  0.000000000000E+000  0.000000000000E+000  1.764190800291E-003
   5.200000000000E+001  3.205972922130E+000  7.800859659206E+000  1.100683258134E+001  6.669317799602E+000  7.800859659206E+000  0.000000000000E+000  0.000000000000E+000  0.000000000000E+000  1.444469424713E-003
   5.250000000000E+001  2.969905150165E+000  8.037356789586E+000  1.100726193975E+001  7.036594201382E+000  8.037356789586E+000  0.000000000000E+000  0.000000000000E+000  0.000000000000E+000  1.024033228567E-003
   5.300000000000E+001  2.685161056118E+000  8.323722046255E+000  1.100888310237E+001  7.471876749477E+000  8.323722046255E+000  0.000000000000E+000  0.000000000000E+000  0.000000000000E+000  6.310992818766E-004
   5.350000000000E+001  2.385130629644E+000  8.626722982446E+000  1.101185361209E+001  7.931494438158E+000  8.626722982446E+000  0.000000000000E+000  0.000000000000E+000  0.000000000000E+000  3.449140572088E-004
   5.400000000000E+001  2.123197736742E+000  8.892881609689E+000  1.101607934643E+001  8.347591600063E+000  8.892881609689E+000  0.000000000000E+000  0.000000000000E+000  0.000000000000E+000  1.721710952594E-004
   5.450000000000E+001  1.968730441754E+000  9.051836636393E+000  1.102056707815E+001  8.637827131858E+000  9.051836636393E+000  0.000000000000E+000  0.000000000000E+000  0.000000000000E+000  8.095827988301E-005
   5.500000000000E+001  1.988634461115E+000  9.034001479070E+000  1.102263594018E+001  8.727322652235E+000  9.034001479070E+000  0.000000000000E+000  0.000000000000E+000  0.000000000000E+000  3.670428705653E-005
   5.550000000000E+001  2.211197847971E+000  8.808773943316E+000  1.101997179129E+001  8.587177222510E+000  8.808773943316E+000  0.000000000000E+000  0.000000000000E+000  0.000000000000E+000  1.621045018141E-005
   5.600000000000E+001  2.599005257340E+000  8.414623034608E+000  1.101362829195E+001  8.261026473613E+000  8.414623034608E+000  0.000000000000E+000  0.000000000000E+000  0.000000000000E+000  6.902625231637E-006
   5.650000000000E+001  3.064055570853E+000  7.943028255321E+000  1.100708382617E+001  7.844724682102E+000  7.943028255321E+000  0.000000000000E+000  0.000000000000E+000  0.000000000000E+000  2.694490836677E-006
   5.700000000000E+001  3.512569434909E+000  7.490107016094E+000  1.100267645100E+001  7.435894320257E+000  7.490107016094E+000  0.000000000000E+000  0.000000000000E+000  0.000000000000E+000  8.510134194119E-007
   5.750000000000E+001  3.878194874565E+000  7.122456185672E+000  1.100065106024E+001  7.100429931007E+000  7.122456185672E+000  0.000000000000E+000  0.000000000000E+000  0.000000000000E+000  1.596534711754E-007
   5.800000000000E+001  4.132523624788E+000  6.868127435449E+000  1.100065106024E+001  6.868127435449E+000  6.872362887347E+000  0.000000000000E+000  0.000000000000E+000  0.000000000000E+000  5.539689530884E-009
   5.850000000000E+001  4.260251470017E+000  6.739153367254E+000  1.099940483727E+001  6.739153367254E+000  6.747350796642E+000  0.000000000000E+000  0.000000000000E+000  0.000000000000E+000  1.447265386362E-009
   5.900000000000E+001  4.292938556816E+000  6.708819749210E+000  1.100175830603E+001  6.708819749210E+000  6.720388669058E+000  0.000000000000E+000  0.000000000000E+000  0.000000000000E+000  1.216595032369E-008
   5.950000000000E+001  4.256052560134E+000  6.747373654205E+000  1.100342621434E+001  6.747373654205E+000  6.769335690004E+000  0.000000000000E+000  0.000000000000E+000  0.000000000000E+000  1.303849944815E-007
   6.000000000000E+001  4.130107118963E+000  6.873319095376E+000  1.100342621434E+001  6.829924557307E+000  6.873319095376E+000  0.000000000000E+000  0.000000000000E+000  0.000000000000E+000  9.036299296005E-007
   6.050000000000E+001  3.982574672977E+000  7.020775951830E+000  1.100335062481E+001  6.946480710477E+000  7.020775951830E+000  0.000000000000E+000  0.000000000000E+000  0.000000000000E+000  3.638207597548E-006
   6.100000000000E+001  3.790055750926E+000  7.213293499388E+000  1.100334925031E+001  7.099032898559E+000  7.213293499388E+000  0.000000000000E+000  0.000000000000E+000  0.000000000000E+000  1.066611437028E-005
   6.150000000000E+001  3.552261863861E+000  7.451895158195E+000  1.100415702206E+001  7.288049157355E+000  7.451895158195E+000  0.000000000000E+000  0.000000000000E+000  0.000000000000E+000  2.565773189597E-005
   6.200000000000E+001  3.279878902250E+000  7.726044680421E+000  1.100592358267E+001  7.502025330111E+000  7.726044680421E+000  0.000000000000E+000  0.000000000000E+000  0.000000000000E+000  5.383427250700E-005
   6.250000000000E+001  2.997302619917E+000  8.010980523096E+000  1.100828314301E+001  7.715153868259E+000  8.010980523096E+000  0.000000000000E+000  0.000000000000E+000  0.000000000000E+000  1.019983833751E-004
   6.300000000000E+001  2.737959915394E+000  8.272679204524E+000  1.101063911992E+001  7.892692637457E+000  8.272679204524E+000  0.000000000000E+000  0.000000000000E+000  0.000000000000E+000  1.782048920191E-004
   6.350000000000E+001  2.535507188039E+000  8.476792611199E+000  1.101229979924E+001  8.000332164364E+000  8.476792611199E+000  0.000000000000E+000  0.000000000000E+000  0.000000000000E+000  2.909296367482E-004
   6.400000000000E+001  2.414073234329E+000  8.598717570405E+000  1.101279080473E+001  8.014627392761E+000  8.598717570405E+000  0.000000000000E+000  0.000000000000E+000  0.000000000000E+000  4.477214125724E-004
   6.450000000000E+001  2.380921692233E+000  8.631017483047E+000  1.101193917528E+001  7.930533604194E+000  8.631017483047E+000  0.000000000000E+000  0.000000000000E+000  0.000000000000E+000  6.536771958499E-004
   6.500000000000E+001  2.423858227084E+000  8.586002507069E+000  1.100986073415E+001  7.763792039998E+000  8.586002507069E+000  0.000000000000E+000  0.000000000000E+000  0.000000000000E+000  9.101526151407E-004
   6.550000000000E+001  2.512286804972E+000  8.494308306876E+000  1.100659511185E+001  7.549032723615E+000  8.494308306876E+000  0.000000000000E+000  0.000000000000E+000  0.000000000000E+000  1.214040462667E-003
   6.600000000000E+001  2.598661839092E+000  8.403437795272E+000  1.100209963436E+001  7.337761906643E+000  8.403437795272E+000  0.000000000000E+000  0.000000000000E+000  0.000000000000E+000  1.557514540548E-003
   6.650000000000E+001  2.620746167302E+000  8.376156206042E+000  1.099690237334E+001  7.196221621381E+000  8.376156206042E+000  0.000000000000E+000  0.000000000000E+000  0.000000000000E+000  1.928325507853E-003
   6.700000000000E+001  2.514764291451E+000  8.478718632949E+000  1.099348292440E+001  7.193335309895E+000  8.478718632949E+000  0.000000000000E+000  0.000000000000E+000  0.000000000000E+000  2.310402186857E-003
   6.750000000000E+001  2.256423694934E+000  8.740353367624E+000  1.099677706256E+001  7.360108711410E+000  8.740353367624E+000  0.000000000000E+000  0.000000000000E+000  0.000000000000E+000  2.684898984265E-003
   6.800000000000E+001  1.925761297365E+000  9.083728378277E+000  1.100948967564E+001  7.620383149007E+000  9.083728378277E+000  0.000000000000E+000  0.000000000000E+000  0.000000000000E+000  3.030831971852E-003
   6.850000000000E+001  1.722321740648E+000  9.300775355701E+000  1.102309709635E+001  7.767190197615E+000  9.300775355701E+000  0.000000000000E+000  0.000000000000E+000  0.000000000000E+000  3.325503075477E-003
   6.900000000000E+001  1.839393019864E+000  9.184425192706E+000  1.102381821257E+001  7.594870299727E+000  9.184425192706E+000  0.000000000000E+000  0.000000000000E+000  0.000000000000E+000  3.546509576570E-003
   6.950000000000E+001  2.295276400946E+000  8.717409817209E+000  1.101268621816E+001  7.087778814423E+000  8.717409817209E+000  0.000000000000E+000  0.000000000000E+000  0.000000000000E+000  3.676871960968E-003
   7.000000000000E+001  2.934479265227E+000  8.065633227010E+000  1.100011249224E+001  6.413299222441E+000  8.065633227010E+000  0.000000000000E+000  0.000000000000E+000  0.000000000000E+000  3.711100061128E-003
   7.050000000000E+001  3.557811910696E+000  7.433482575306E+000  1.099129448600E+001  5.776735972731E+000  7.433482575306E+000  0.000000000000E+000  0.000000000000E+000  0.000000000000E+000  3.659337475625E-003
   7.100000000000E+001  4.013578769519E+000  6.974096455501E+000  1.098767522502E+001  5.331299496748E+000  6.974096455501E+000  0.000000000000E+000  0.000000000000E+000  0.000000000000E+000  3.546954059624E-003
   7.150000000000E+001  4.228507656832E+000  6.760529269845E+000  1.098903692668E+001  5.149354660276E+000  6.760529269845E+000  0.000000000000E+000  0.000000000000E+000  0.000000000000E+000  3.408004578418E-003
   7.200000000000E+001  4.205860928469E+000  6.787663645489E+000  1.099352457396E+001  5.224651280555E+000  6.787663645489E+000  0.000000000000E+000  0.000000000000E+000  0.000000000000E+000  3.275319356821E-003
   7.250000000000E+001  4.000780586322E+000  6.998312138112E+000  1.099909272443E+001  5.498728420501E+000  6.998312138112E+000  0.000000000000E+000  0.000000000000E+000  0.000000000000E+000  3.171677021238E-003
   7.300000000000E+001  3.690144155991E+000  7.314173718544E+000  1.100431787454E+001  5.892029789804E+000  7.314173718544E+000  0.000000000000E+000  0.000000000000E+000  0.000000000000E+000  3.103542242938E-003
   7.350000000000E+001  3.349501503544E+000  7.658810521066E+000  1.100831202461E+001  6.326808110956E+000  7.658810521066E+000  0.000000000000E+000  0.000000000000E+000  0.000000000000E+000  3.057162161282E-003
   7.400000000000E+001  3.037853184706E+000  7.972716147226E+000  1.101056933193E+001  6.742085121751E+000  7.972716147226E+000  0.000000000000E+000  0.000000000000E+000  0.000000000000E+000  2.996932619087E-003
   7.450000000000E+001  2.789909266886E+000  8.221366153751E+000  1.101127542064E+001  7.101875399717E+000  8.221366153751E+000  0.000000000000E+000  0.000000000000E+000  0.000000000000E+000  2.869893975439E-003
   7.500000000000E+001  2.618014201183E+000  8.393155429653E+000  1.101116963084E+001  7.393284286385E+000  8.393155429653E+000  0.000000000000E+000  0.000000000000E+000  0.000000000000E+000  2.621595870696E-003
   7.550000000000E+001  2.522391083163E+000  8.488676910986E+000  1.101106799415E+001  7.615564557153E+000  8.488676910986E+000  0.000000000000E+000  0.000000000000E+000  0.000000000000E+000  2.222556933004E-003
   7.600000000000E+001  2.502505739208E+000  8.508816872522E+000  1.101132261173E+001  7.767264484692E+000  8.508816872522E+000  0.000000000000E+000  0.000000000000E+000  0.000000000000E+000  1.694815484397E-003
   7.650000000000E+001  2.562926429678E+000  8.448977406731E+000  1.101190383641E+001  7.839139001337E+000  8.448977406731E+000  0.000000000000E+000  0.000000000000E+000  0.000000000000E+000  1.121999437621E-003
   7.700000000000E+001  2.713503206535E+000  8.299264182327E+000  1.101276738886E+001  7.814738009202E+000  8.299264182327E+000  0.000000000000E+000  0.000000000000E+000  0.000000000000E+000  6.244080618915E-004
   7.750000000000E+001  2.968159200494E+000  8.045849190374E+000  1.101400839087E+001  7.678489249646E+000  8.045849190374E+000  0.000000000000E+000  0.000000000000E+000  0.000000000000E+000  2.969764906108E-004
   7.800000000000E+001  3.340273888557E+000  7.673591200551E+000  1.101386508911E+001  7.431353284519E+000  7.673591200551E+000  0.000000000000E+000  0.000000000000E+000  0.000000000000E+000  1.505665943627E-004
   7.850000000000E+001  3.912332552828E+000  7.101532536281E+000  1.101386508911E+001  7.101532536281E+000  7.195598480691E+000  0.000000000000E+000  0.000000000000E+000  0.000000000000E+000  6.269892482510E-005
   7.900000000000E+001  4.355947768363E+000  6.630818861603E+000  1.098676662997E+001  6.630818861603E+000  6.813483711292E+000  0.000000000000E+000  0.000000000000E+000  0.000000000000E+000  2.384068882465E-004
   7.950000000000E+001  4.818431026476E+000  6.157838206536E+000  1.097626923301E+001  6.157838206536E+000  6.601264849707E+000  0.000000000000E+000  0.000000000000E+000  0.000000000000E+000  7.603205226443E-004
   8.000000000000E+001  5.114765827770E+000  5.858333661056E+000  1.097309948883E+001  5.858333661056E+000  6.588975916642E+000  0.000000000000E+000  0.000000000000E+000  0.000000000000E+000  1.482074302520E-003
   8.050000000000E+001  5.216549172414E+000  5.763174363243E+000  1.097972353566E+001  5.763174363243E+000  6.781076313684E+000  0.000000000000E+000  0.000000000000E+000  0.000000000000E+000  2.360535512929E-003
   8.100000000000E+001  5.222317612321E+000  5.768161393563E+000  1.099047900588E+001  5.768161393563E+000  7.059979120444E+000  0.000000000000E+000  0.000000000000E+000  0.000000000000E+000  3.367547112883E-003
   8.150000000000E+001  5.269114344489E+000  5.723336897272E+000  1.099245124176E+001  5.723336897272E+000  7.270990068700E+000  0.000000000000E+000  0.000000000000E+000  0.000000000000E+000  4.456882651199E-003
   8.200000000000E+001  5.378024399742E+000  5.606200325283E+000  1.098422472503E+001  5.606200325283E+000  7.392107394033E+000  0.000000000000E+000  0.000000000000E+000  0.000000000000E+000  5.570105492746E-003
   8.250000000000E+001  5.436384474597E+000  5.540818444828E+000  1.097720291942E+001  5.540818444828E+000  7.551002011465E+000  0.000000000000E+000  0.000000000000E+000  0.000000000000E+000  6.721130396048E-003
   8.300000000000E+001  5.332608438678E+000  5.645027160458E+000  1.097763559914E+001  5.645027160458E+000  7.871925997750E+000  0.000000000000E+000  0.000000000000E+000  0.000000000000E+000  8.184547055132E-003
   8.350000000000E+001  5.048866066918E+000  5.934131515026E+000  1.098299758194E+001  5.934131515026E+000  8.378208760727E+000  0.000000000000E+000  0.000000000000E+000  0.000000000000E+000  1.065413350633E-002
   8.400000000000E+001  4.642963120146E+000  6.346255814887E+000  1.098921893503E+001  6.346255814887E+000  9.011691953898E+000  0.000000000000E+000  0.000000000000E+000  0.000000000000E+000  1.502641479698E-002
   8.450000000000E+001  4.194840659838E+000  6.799390663477E+000  1.099423132332E+001  6.799390663477E+000  9.682941826729E+000  0.000000000000E+000  0.000000000000E+000  0.000000000000E+000  2.176497747723E-002
   8.500000000000E+001  3.772859728219E+000  7.224653707921E+000  1.099751343614E+001  7.224653707921E+000  1.030258558218E+001  0.000000000000E+000  0.000000000000E+000  0.000000000000E+000  3.036561595251E-002
   8.550000000000E+001  3.422715145715E+000  7.576450641879E+000  1.099916578759E+001  7.576450641879E+000  1.079497584524E+001  0.000000000000E+000  0.000000000000E+000  0.000000000000E+000  3.937203002018E-002
   8.600000000000E+001  3.168012202076E+000  7.831520902312E+000  1.099953310439E+001  7.831520902312E+000  1.110855248577E+001  0.000000000000E+000  0.000000000000E+000  0.000000000000E+000  4.701410673876E-002
   8.650000000000E+001  3.015372459274E+000  7.983652674513E+000  1.099902513379E+001  7.983652674513E+000  1.122667383774E+001  0.000000000000E+000  0.000000000000E+000  0.000000000000E+000  5.211342822320E-002
   8.700000000000E+001  2.959721082429E+000  8.038171770532E+000  1.099789285296E+001  8.038171770532E+000  1.116782078462E+001  0.000000000000E+000  0.000000000000E+000  0.000000000000E+000  5.449393214196E-002
   8.750000000000E+001  2.988130358711E+000  8.008304283494E+000  1.099643464220E+001  8.008304283494E+000  1.097319027310E+001  0.000000000000E+000  0.000000000000E+000  0.000000000000E+000  5.479331605006E-002
   8.800000000000E+001  3.083320736671E+000  7.911627951030E+000  1.099494868770E+001  7.911627951030E+000  1.069433699106E+001  0.000000000000E+000  0.000000000000E+000  0.000000000000E+000  5.421773019672E-002
   8.850000000000E+001  3.225183642217E+000  7.767842454486E+000  1.099302609670E+001  7.767842454486E+000  1.038443470370E+001  0.000000000000E+000  0.000000000000E+000  0.000000000000E+000  5.406277354075E-002
   8.900000000000E+001  3.384423657265E+000  7.604519456444E+000  1.098894311371E+001  7.604519456444E+000  1.008847335251E+001  0.000000000000E+000  0.000000000000E+000  0.000000000000E+000  5.515800516059E-002
   8.950000000000E+001  3.502086880200E+000  7.478999873430E+000  1.098108675363E+001  7.478999873430E+000  9.829488462393E+000  0.000000000000E+000  0.000000000000E+000  0.000000000000E+000  5.730901486845E-002
   9.000000000000E+001  3.512744828297E+000  7.470547201262E+000  1.098329202956E+001  7.470547201262E+000  9.620845176647E+000  0.000000000000E+000  0.000000000000E+000  0.000000000000E+000  5.760322769524E-002
   9.050000000000E+001  3.424298077710E+000  7.564521715422E+000  1.098881979313E+001  7.564521715422E+000  9.511414324340E+000  0.000000000000E+000  0.000000000000E+000  0.000000000000E+000  5.438858427893E-002
   9.100000000000E+001  3.308769885897E+000  7.684524462472E+000  1.099329434837E+001  7.684524462472E+000  9.522228400400E+000  0.000000000000E+000  0.000000000000E+000  0.000000000000E+000  5.045090126892E-002
   9.150000000000E+001  3.244486079565E+000  7.753041366463E+000  1.099752744603E+001  7.753041366463E+000  9.599975677909E+000  0.000000000000E+000  0.000000000000E+000  0.000000000000E+000  4.780162171520E-002
   9.200000000000E+001  3.297933981314E+000  7.701173475573E+000  1.099910745689E+001  7.701173475573E+000  9.665703959281E+000  0.000000000000E+000  0.000000000000E+000  0.000000000000E+000  4.672806100366E-002
   9.250000000000E+001  3.491325072980E+000  7.504523879377E+000  1.099584895236E+001  7.504523879377E+000  9.683672724499E+000  0.000000000000E+000  0.000000000000E+000  0.000000000000E+000  4.721501879447E-002
   9.300000000000E+001  3.780162162022E+000  7.209913301284E+000  1.099007546331E+001  7.209913301284E+000  9.687874162167E+000  0.000000000000E+000  0.000000000000E+000  0.000000000000E+000  4.956922436049E-002
   9.350000000000E+001  4.083508530535E+000  6.902356363093E+000  1.098586489363E+001  6.902356363093E+000  9.745088001530E+000  0.000000000000E+000  0.000000000000E+000  0.000000000000E+000  5.443139435460E-002
   9.400000000000E+001  4.338428535985E+000  6.646631940992E+000  1.098506047698E+001  6.646631940992E+000  9.895796346242E+000  0.000000000000E+000  0.000000000000E+000  0.000000000000E+000  6.250739046110E-002
   9.450000000000E+001  4.528151027195E+000  6.458617333236E+000  1.098676836043E+001  6.458617333236E+000  1.013093073052E+001  0.000000000000E+000  0.000000000000E+000  0.000000000000E+000  7.400601532583E-002
   9.500000000000E+001  4.674673470728E+000  6.314741222784E+000  1.098941469351E+001  6.314741222784E+000  1.041533023682E+001  0.000000000000E+000  0.000000000000E+000  0.000000000000E+000  8.835568988467E-002
   9.550000000000E+001  4.817584499024E+000  6.174321502309E+000  1.099190600133E+001  6.174321502309E+000  1.072138456239E+001  0.000000000000E+000  0.000000000000E+000  0.000000000000E+000  1.052038969084E-001
   9.600000000000E+001  4.997635442312E+000  5.996211021937E+000  1.099384646425E+001  5.996211021937E+000  1.103793350238E+001  0.000000000000E+000  0.000000000000E+000  0.000000000000E+000  1.256482775399E-001
   9.650000000000E+001  5.249864079840E+000  5.745483970481E+000  1.099534805032E+001  5.745483970481E+000  1.136361675970E+001  0.000000000000E+000  0.000000000000E+000  0.000000000000E+000  1.529565508032E-001
   9.700000000000E+001  5.604226882549E+000  5.392676949955E+000  1.099690383250E+001  5.392676949955E+000  1.170559936384E+001  0.000000000000E+000  0.000000000000E+000  0.000000000000E+000  1.945339363789E-001
   9.750000000000E+001  6.092799038388E+000  4.906780411539E+000  1.099957944993E+001  4.906780411539E+000  1.208369392339E+001  0.000000000000E+000  0.000000000000E+000  0.000000000000E+000  2.680871174237E-001
   9.800000000000E+001  6.649182808606E+000  4.270108316293E+000  1.091929112490E+001  4.270108316293E+000  1.246298197423E+001  0.000000000000E+000  0.000000000000E+000  0.000000000000E+000  4.217377588897E-001
   9.850000000000E+001  7.198870016595E+000  3.760756109217E+000  1.095962612581E+001  3.760756109217E+000  1.216496915682E+001  0.000000000000E+000  0.000000000000E+000  0.000000000000E+000  3.829057057601E-001
   9.900000000000E+001  7.738743519207E+000  3.214125394709E+000  1.095286891392E+001  3.214125394709E+000  1.170245998649E+001  0.000000000000E+000  0.000000000000E+000  0.000000000000E+000  3.137045542551E-001
   9.950000000000E+001  8.213168539149E+000  2.735945460527E+000  1.094911399968E+001  2.735945460527E+000  1.118037176331E+001  0.000000000000E+000  0.000000000000E+000  0.000000000000E+000  2.622518289282E-001
   1.000000000000E+002  8.553645833802E+000  2.391155457914E+000  1.094480129172E+001  2.391155457914E+000  1.072414842265E+001  0.000000000000E+000  0.000000000000E+000  0.000000000000E+000  2.255196608878E-001
