#                    1                    2                    3                    4                    5
#               Time |      dE          1 |      dE          2 | f_osc            1 | f_osc            2 |
#               [fs] |               [eV] |               [eV] |                 [] |                 [] |
   0.000000000000E+000  9.431975315095E+000  0.000000000000E+000 -5.069364601229E-001  0.000000000000E+000
   5.000000000000E-001  9.480633079031E+000  0.000000000000E+000 -5.111658788640E-001  0.000000000000E+000
   1.000000000000E+000  9.519381545420E+000  0.000000000000E+000 -5.146602403420E-001  0.000000000000E+000
   1.500000000000E+000  9.552804743987E+000  0.000000000000E+000 -5.178256062126E-001  0.000000000000E+000
   2.000000000000E+000  9.582333993525E+000  0.000000000000E+000 -5.207401996748E-001  0.000000000000E+000
   2.500000000000E+000  9.604972504327E+000  0.000000000000E+000 -5.230426627491E-001  0.000000000000E+000
   3.000000000000E+000  9.614481522417E+000  0.000000000000E+000 -5.240440741441E-001  0.000000000000E+000
   3.500000000000E+000  9.604055208577E+000  0.000000000000E+000 -5.229753328151E-001  0.000000000000E+000
   4.000000000000E+000  9.568922046648E+000  0.000000000000E+000 -5.192063559427E-001  0.000000000000E+000
   4.500000000000E+000  9.507123905446E+000  0.000000000000E+000 -5.122940406560E-001  0.000000000000E+000
   5.000000000000E+000  9.418341051212E+000  0.000000000000E+000 -5.018778659891E-001  0.000000000000E+000
   5.500000000000E+000  9.301910070408E+000  0.000000000000E+000 -4.875430349203E-001  0.000000000000E+000
   6.000000000000E+000  9.155421122877E+000  0.000000000000E+000 -4.687597681248E-001  0.000000000000E+000
   6.500000000000E+000  8.974505420942E+000  0.000000000000E+000 -4.449111345607E-001  0.000000000000E+000
   7.000000000000E+000  8.753662455470E+000  0.000000000000E+000 -4.154111884248E-001  0.000000000000E+000
   7.500000000000E+000  8.487566142297E+000  0.000000000000E+000 -3.799306672426E-001  0.000000000000E+000
   8.000000000000E+000  8.172674919814E+000  0.000000000000E+000 -3.387408241628E-001  0.000000000000E+000
   8.500000000000E+000  7.808884568420E+000  0.000000000000E+000 -2.930439401728E-001  0.000000000000E+000
   9.000000000000E+000  7.400440336112E+000  0.000000000000E+000 -2.450469925036E-001  0.000000000000E+000
   9.500000000000E+000  6.955591898135E+000  0.000000000000E+000 -1.976153943151E-001  0.000000000000E+000
   1.000000000000E+001  6.485237141611E+000  0.000000000000E+000 -1.535912385427E-001  0.000000000000E+000
   1.050000000000E+001  6.001430981702E+000  0.000000000000E+000 -1.151087351341E-001  0.000000000000E+000
   1.100000000000E+001  5.516072956573E+000  0.000000000000E+000 -8.321596210849E-002  0.000000000000E+000
   1.150000000000E+001  5.040021496837E+000  0.000000000000E+000 -5.791585797399E-002  0.000000000000E+000
   1.200000000000E+001  4.583043584505E+000  0.000000000000E+000 -3.849074249173E-002  0.000000000000E+000
   1.250000000000E+001  4.155061306471E+000  0.000000000000E+000 -2.390013950727E-002  0.000000000000E+000
   1.300000000000E+001  3.768987280721E+000  0.000000000000E+000 -1.312470940834E-002  0.000000000000E+000
   1.350000000000E+001  3.445028408794E+000  0.000000000000E+000 -5.479377997840E-003  0.000000000000E+000
   1.400000000000E+001  3.215082146965E+000  0.000000000000E+000 -1.033906047535E-003  0.000000000000E+000
   1.450000000000E+001  3.138768093044E+000  0.000000000000E+000 -2.494753508569E-004  0.000000000000E+000
   1.500000000000E+001  3.269483145578E+000  0.000000000000E+000 -3.284880663880E-003  0.000000000000E+000
   1.550000000000E+001  3.575626724492E+000  0.000000000000E+000 -1.031462296436E-002  0.000000000000E+000
   1.600000000000E+001  4.011700035402E+000  0.000000000000E+000 -2.072838072487E-002  0.000000000000E+000
   1.650000000000E+001  4.539414484306E+000  0.000000000000E+000 -3.493783872723E-002  0.000000000000E+000
   1.700000000000E+001  5.125624972981E+000  0.000000000000E+000 -5.380505132827E-002  0.000000000000E+000
   1.750000000000E+001  5.739347531307E+000  0.000000000000E+000 -7.781894553130E-002  0.000000000000E+000
   1.800000000000E+001  6.350213982783E+000  0.000000000000E+000 -1.065397587009E-001  0.000000000000E+000
   1.850000000000E+001  6.929978366735E+000  0.000000000000E+000 -1.384294098293E-001  0.000000000000E+000
   1.900000000000E+001  7.455610056319E+000  0.000000000000E+000 -1.711664924592E-001  0.000000000000E+000
   1.950000000000E+001  7.912048911138E+000  0.000000000000E+000 -2.023061245740E-001  0.000000000000E+000
   2.000000000000E+001  8.292497255389E+000  0.000000000000E+000 -2.298992197025E-001  0.000000000000E+000
   2.050000000000E+001  8.596094937229E+000  0.000000000000E+000 -2.527723232540E-001  0.000000000000E+000
   2.100000000000E+001  8.824628384008E+000  0.000000000000E+000 -2.704795643003E-001  0.000000000000E+000
   2.150000000000E+001  8.980443217015E+000  0.000000000000E+000 -2.831238060280E-001  0.000000000000E+000
   2.200000000000E+001  9.066189552923E+000  0.000000000000E+000 -2.912081876838E-001  0.000000000000E+000
   2.250000000000E+001  9.085312080817E+000  0.000000000000E+000 -2.955106465874E-001  0.000000000000E+000
   2.300000000000E+001  9.042714292067E+000  0.000000000000E+000 -2.969324292745E-001  0.000000000000E+000
   2.350000000000E+001  8.944751405375E+000  0.000000000000E+000 -2.962797414294E-001  0.000000000000E+000
   2.400000000000E+001  8.798727772508E+000  0.000000000000E+000 -2.940368244523E-001  0.000000000000E+000
   2.450000000000E+001  8.611930057839E+000  0.000000000000E+000 -2.902659007036E-001  0.000000000000E+000
   2.500000000000E+001  8.390594022090E+000  0.000000000000E+000 -2.846753322360E-001  0.000000000000E+000
   2.550000000000E+001  8.139519481263E+000  0.000000000000E+000 -2.768481730812E-001  0.000000000000E+000
   2.600000000000E+001  7.862458613077E+000  0.000000000000E+000 -2.664479361207E-001  0.000000000000E+000
   2.650000000000E+001  7.563056382401E+000  0.000000000000E+000 -2.533637439939E-001  0.000000000000E+000
   2.700000000000E+001  7.245601303330E+000  0.000000000000E+000 -2.377344769519E-001  0.000000000000E+000
   2.750000000000E+001  6.915537013207E+000  0.000000000000E+000 -2.199015722721E-001  0.000000000000E+000
   2.800000000000E+001  6.579170838695E+000  0.000000000000E+000 -2.002921701463E-001  0.000000000000E+000
   2.850000000000E+001  6.242853372561E+000  0.000000000000E+000 -1.793076976498E-001  0.000000000000E+000
   2.900000000000E+001  5.911784710259E+000  0.000000000000E+000 -1.572402610531E-001  0.000000000000E+000
   2.950000000000E+001  5.589291171353E+000  0.000000000000E+000 -1.342817338554E-001  0.000000000000E+000
   3.000000000000E+001  5.277136325630E+000  0.000000000000E+000 -1.106380328020E-001  0.000000000000E+000
   3.050000000000E+001  4.976845915385E+000  0.000000000000E+000 -8.670544944614E-002  0.000000000000E+000
   3.100000000000E+001  4.691658911637E+000  0.000000000000E+000 -6.323398799420E-002  0.000000000000E+000
   3.150000000000E+001  4.428126455051E+000  0.000000000000E+000 -4.140358236593E-002  0.000000000000E+000
   3.200000000000E+001  4.197041396808E+000  0.000000000000E+000 -2.279295120905E-002  0.000000000000E+000
   3.250000000000E+001  4.013045366220E+000  0.000000000000E+000 -9.149139568999E-003  0.000000000000E+000
   3.300000000000E+001  3.891584905336E+000  0.000000000000E+000 -1.690264096383E-003  0.000000000000E+000
   3.350000000000E+001  3.840453626608E+000  0.000000000000E+000 -1.165424432297E-004  0.000000000000E+000
   3.400000000000E+001  3.853043789692E+000  0.000000000000E+000 -3.026493265352E-003  0.000000000000E+000
   3.450000000000E+001  3.923410523557E+000  0.000000000000E+000 -9.222853198083E-003  0.000000000000E+000
   3.500000000000E+001  4.047216605730E+000  0.000000000000E+000 -1.787092688342E-002  0.000000000000E+000
   3.550000000000E+001  4.216240660804E+000  0.000000000000E+000 -2.828524370065E-002  0.000000000000E+000
   3.600000000000E+001  4.422037091571E+000  0.000000000000E+000 -4.005281545954E-002  0.000000000000E+000
   3.650000000000E+001  4.657661824984E+000  0.000000000000E+000 -5.302552776827E-002  0.000000000000E+000
   3.700000000000E+001  4.917278563432E+000  0.000000000000E+000 -6.717948626645E-002  0.000000000000E+000
   3.750000000000E+001  5.195179719152E+000  0.000000000000E+000 -8.246862714635E-002  0.000000000000E+000
   3.800000000000E+001  5.484902316361E+000  0.000000000000E+000 -9.870144421343E-002  0.000000000000E+000
   3.850000000000E+001  5.778580360329E+000  0.000000000000E+000 -1.154271472999E-001  0.000000000000E+000
   3.900000000000E+001  6.066633539138E+000  0.000000000000E+000 -1.318438801664E-001  0.000000000000E+000
   3.950000000000E+001  6.337935390044E+000  0.000000000000E+000 -1.467704247487E-001  0.000000000000E+000
   4.000000000000E+001  6.580376303000E+000  0.000000000000E+000 -1.587383554808E-001  0.000000000000E+000
   4.050000000000E+001  6.781746257955E+000  0.000000000000E+000 -1.662570662902E-001  0.000000000000E+000
   4.100000000000E+001  6.930787905405E+000  0.000000000000E+000 -1.682160538572E-001  0.000000000000E+000
   4.150000000000E+001  7.018374547205E+000  0.000000000000E+000 -1.643095118595E-001  0.000000000000E+000
   4.200000000000E+001  7.038772744774E+000  0.000000000000E+000 -1.552718333416E-001  0.000000000000E+000
   4.250000000000E+001  6.990711454373E+000  0.000000000000E+000 -1.427652512340E-001  0.000000000000E+000
   4.300000000000E+001  6.877618221912E+000  0.000000000000E+000 -1.289064436948E-001  0.000000000000E+000
   4.350000000000E+001  6.706350588239E+000  0.000000000000E+000 -1.156225050227E-001  0.000000000000E+000
   4.400000000000E+001  6.484668423688E+000  0.000000000000E+000 -1.041865851568E-001  0.000000000000E+000
   4.450000000000E+001  6.218603947834E+000  0.000000000000E+000 -9.505261664885E-002  0.000000000000E+000
   4.500000000000E+001  5.910523734731E+000  0.000000000000E+000 -8.798211039757E-002  0.000000000000E+000
   4.550000000000E+001  5.558502034743E+000  0.000000000000E+000 -8.226198644178E-002  0.000000000000E+000
   4.600000000000E+001  5.157251131758E+000  0.000000000000E+000 -7.686300851571E-002  0.000000000000E+000
   4.650000000000E+001  4.701621543496E+000  0.000000000000E+000 -7.048703381665E-002  0.000000000000E+000
   4.700000000000E+001  4.195496878660E+000  0.000000000000E+000 -6.160506992675E-002  0.000000000000E+000
   4.750000000000E+001  3.665458305460E+000  0.000000000000E+000 -4.915680532412E-002  0.000000000000E+000
   4.800000000000E+001  3.153275570235E+000  0.000000000000E+000 -3.462515301129E-002  0.000000000000E+000
   4.850000000000E+001  2.682818226793E+000  0.000000000000E+000 -2.158520190871E-002  0.000000000000E+000
   4.900000000000E+001  2.267976326026E+000  0.000000000000E+000 -1.207083647987E-002  0.000000000000E+000
   4.950000000000E+001  1.925379288838E+000  0.000000000000E+000 -6.209450229762E-003  0.000000000000E+000
   5.000000000000E+001  1.665174784498E+000  0.000000000000E+000 -3.275481074525E-003  0.000000000000E+000
   5.050000000000E+001  1.481511277021E+000  0.000000000000E+000 -2.202960702848E-003  0.000000000000E+000
   5.100000000000E+001  1.351515149248E+000  0.000000000000E+000 -1.934435910640E-003  0.000000000000E+000
   5.150000000000E+001  1.243835893721E+000  0.000000000000E+000 -1.764190800291E-003  0.000000000000E+000
   5.200000000000E+001  1.131541859604E+000  0.000000000000E+000 -1.444469424713E-003  0.000000000000E+000
   5.250000000000E+001  1.000762588204E+000  0.000000000000E+000 -1.024033228567E-003  0.000000000000E+000
   5.300000000000E+001  8.518452967775E-001  0.000000000000E+000 -6.310992818766E-004  0.000000000000E+000
   5.350000000000E+001  6.952285442882E-001  0.000000000000E+000 -3.449140572088E-004  0.000000000000E+000
   5.400000000000E+001  5.452900096259E-001  0.000000000000E+000 -1.721710952594E-004  0.000000000000E+000
   5.450000000000E+001  4.140095045348E-001  0.000000000000E+000 -8.095827988301E-005  0.000000000000E+000
   5.500000000000E+001  3.066788268343E-001  0.000000000000E+000 -3.670428705653E-005  0.000000000000E+000
   5.550000000000E+001  2.215967208054E-001  0.000000000000E+000 -1.621045018141E-005  0.000000000000E+000
   5.600000000000E+001  1.535965609946E-001  0.000000000000E+000 -6.902625231637E-006  0.000000000000E+000
   5.650000000000E+001  9.830357321880E-002  0.000000000000E+000 -2.694490836677E-006  0.000000000000E+000
   5.700000000000E+001  5.421269583660E-002  0.000000000000E+000 -8.510134194119E-007  0.000000000000E+000
   5.750000000000E+001  2.202625466548E-002  0.000000000000E+000 -1.596534711754E-007  0.000000000000E+000
   5.800000000000E+001  0.000000000000E+000  4.235451897809E-003  0.000000000000E+000  5.539689530884E-009
   5.850000000000E+001  0.000000000000E+000  8.197429387825E-003  0.000000000000E+000  1.447265386362E-009
   5.900000000000E+001  0.000000000000E+000  1.156891984808E-002  0.000000000000E+000  1.216595032369E-008
   5.950000000000E+001  0.000000000000E+000  2.196203579957E-002  0.000000000000E+000  1.303849944815E-007
   6.000000000000E+001  4.339453806922E-002  0.000000000000E+000 -9.036299296005E-007  0.000000000000E+000
   6.050000000000E+001  7.429524135296E-002  0.000000000000E+000 -3.638207597548E-006  0.000000000000E+000
   6.100000000000E+001  1.142606008281E-001  0.000000000000E+000 -1.066611437028E-005  0.000000000000E+000
   6.150000000000E+001  1.638460008393E-001  0.000000000000E+000 -2.565773189597E-005  0.000000000000E+000
   6.200000000000E+001  2.240193503105E-001  0.000000000000E+000 -5.383427250700E-005  0.000000000000E+000
   6.250000000000E+001  2.958266548371E-001  0.000000000000E+000 -1.019983833751E-004  0.000000000000E+000
   6.300000000000E+001  3.799865670670E-001  0.000000000000E+000 -1.782048920191E-004  0.000000000000E+000
   6.350000000000E+001  4.764604468351E-001  0.000000000000E+000 -2.909296367482E-004  0.000000000000E+000
   6.400000000000E+001  5.840901776442E-001  0.000000000000E+000 -4.477214125724E-004  0.000000000000E+000
   6.450000000000E+001  7.004838788531E-001  0.000000000000E+000 -6.536771958499E-004  0.000000000000E+000
   6.500000000000E+001  8.222104670709E-001  0.000000000000E+000 -9.101526151407E-004  0.000000000000E+000
   6.550000000000E+001  9.452755832608E-001  0.000000000000E+000 -1.214040462667E-003  0.000000000000E+000
   6.600000000000E+001  1.065675888629E+000  0.000000000000E+000 -1.557514540548E-003  0.000000000000E+000
   6.650000000000E+001  1.179934584661E+000  0.000000000000E+000 -1.928325507853E-003  0.000000000000E+000
   6.700000000000E+001  1.285383323053E+000  0.000000000000E+000 -2.310402186857E-003  0.000000000000E+000
   6.750000000000E+001  1.380244656214E+000  0.000000000000E+000 -2.684898984265E-003  0.000000000000E+000
   6.800000000000E+001  1.463345229270E+000  0.000000000000E+000 -3.030831971852E-003  0.000000000000E+000
   6.850000000000E+001  1.533585158086E+000  0.000000000000E+000 -3.325503075477E-003  0.000000000000E+000
   6.900000000000E+001  1.589554892979E+000  0.000000000000E+000 -3.546509576570E-003  0.000000000000E+000
   6.950000000000E+001  1.629631002786E+000  0.000000000000E+000 -3.676871960968E-003  0.000000000000E+000
   7.000000000000E+001  1.652334004568E+000  0.000000000000E+000 -3.711100061128E-003  0.000000000000E+000
   7.050000000000E+001  1.656746602575E+000  0.000000000000E+000 -3.659337475625E-003  0.000000000000E+000
   7.100000000000E+001  1.642796958753E+000  0.000000000000E+000 -3.546954059624E-003  0.000000000000E+000
   7.150000000000E+001  1.611174609569E+000  0.000000000000E+000 -3.408004578418E-003  0.000000000000E+000
   7.200000000000E+001  1.563012364934E+000  0.000000000000E+000 -3.275319356821E-003  0.000000000000E+000
   7.250000000000E+001  1.499583717612E+000  0.000000000000E+000 -3.171677021238E-003  0.000000000000E+000
   7.300000000000E+001  1.422143928740E+000  0.000000000000E+000 -3.103542242938E-003  0.000000000000E+000
   7.350000000000E+001  1.332002410110E+000  0.000000000000E+000 -3.057162161282E-003  0.000000000000E+000
   7.400000000000E+001  1.230631025475E+000  0.000000000000E+000 -2.996932619087E-003  0.000000000000E+000
   7.450000000000E+001  1.119490754034E+000  0.000000000000E+000 -2.869893975439E-003  0.000000000000E+000
   7.500000000000E+001  9.998711432683E-001  0.000000000000E+000 -2.621595870696E-003  0.000000000000E+000
   7.550000000000E+001  8.731123538333E-001  0.000000000000E+000 -2.222556933004E-003  0.000000000000E+000
   7.600000000000E+001  7.415523878300E-001  0.000000000000E+000 -1.694815484397E-003  0.000000000000E+000
   7.650000000000E+001  6.098384053940E-001  0.000000000000E+000 -1.121999437621E-003  0.000000000000E+000
   7.700000000000E+001  4.845261731250E-001  0.000000000000E+000 -6.244080618915E-004  0.000000000000E+000
   7.750000000000E+001  3.673599407283E-001  0.000000000000E+000 -2.969764906108E-004  0.000000000000E+000
   7.800000000000E+001  2.422379160324E-001  0.000000000000E+000 -1.505665943627E-004  0.000000000000E+000
   7.850000000000E+001  0.000000000000E+000  9.406594441028E-002  0.000000000000E+000  6.269892482510E-005
   7.900000000000E+001  0.000000000000E+000  1.826648496892E-001  0.000000000000E+000  2.384068882465E-004
   7.950000000000E+001  0.000000000000E+000  4.434266431705E-001  0.000000000000E+000  7.603205226443E-004
   8.000000000000E+001  0.000000000000E+000  7.306422555852E-001  0.000000000000E+000  1.482074302520E-003
   8.050000000000E+001  0.000000000000E+000  1.017901950442E+000  0.000000000000E+000  2.360535512929E-003
   8.100000000000E+001  0.000000000000E+000  1.291817726881E+000  0.000000000000E+000  3.367547112883E-003
   8.150000000000E+001  0.000000000000E+000  1.547653171428E+000  0.000000000000E+000  4.456882651199E-003
   8.200000000000E+001  0.000000000000E+000  1.785907068750E+000  0.000000000000E+000  5.570105492746E-003
   8.250000000000E+001  0.000000000000E+000  2.010183566638E+000  0.000000000000E+000  6.721130396048E-003
   8.300000000000E+001  0.000000000000E+000  2.226898837292E+000  0.000000000000E+000  8.184547055132E-003
   8.350000000000E+001  0.000000000000E+000  2.444077245700E+000  0.000000000000E+000  1.065413350633E-002
   8.400000000000E+001  0.000000000000E+000  2.665436139011E+000  0.000000000000E+000  1.502641479698E-002
   8.450000000000E+001  0.000000000000E+000  2.883551163251E+000  0.000000000000E+000  2.176497747723E-002
   8.500000000000E+001  0.000000000000E+000  3.077931874262E+000  0.000000000000E+000  3.036561595251E-002
   8.550000000000E+001  0.000000000000E+000  3.218525203365E+000  0.000000000000E+000  3.937203002018E-002
   8.600000000000E+001  0.000000000000E+000  3.277031583461E+000  0.000000000000E+000  4.701410673876E-002
   8.650000000000E+001  0.000000000000E+000  3.243021163230E+000  0.000000000000E+000  5.211342822320E-002
   8.700000000000E+001  0.000000000000E+000  3.129649014084E+000  0.000000000000E+000  5.449393214196E-002
   8.750000000000E+001  0.000000000000E+000  2.964885989609E+000  0.000000000000E+000  5.479331605006E-002
   8.800000000000E+001  0.000000000000E+000  2.782709040032E+000  0.000000000000E+000  5.421773019672E-002
   8.850000000000E+001  0.000000000000E+000  2.616592249210E+000  0.000000000000E+000  5.406277354075E-002
   8.900000000000E+001  0.000000000000E+000  2.483953896064E+000  0.000000000000E+000  5.515800516059E-002
   8.950000000000E+001  0.000000000000E+000  2.350488588963E+000  0.000000000000E+000  5.730901486845E-002
   9.000000000000E+001  0.000000000000E+000  2.150297975385E+000  0.000000000000E+000  5.760322769524E-002
   9.050000000000E+001  0.000000000000E+000  1.946892608918E+000  0.000000000000E+000  5.438858427893E-002
   9.100000000000E+001  0.000000000000E+000  1.837703937927E+000  0.000000000000E+000  5.045090126892E-002
   9.150000000000E+001  0.000000000000E+000  1.846934311446E+000  0.000000000000E+000  4.780162171520E-002
   9.200000000000E+001  0.000000000000E+000  1.964530483708E+000  0.000000000000E+000  4.672806100366E-002
   9.250000000000E+001  0.000000000000E+000  2.179148845122E+000  0.000000000000E+000  4.721501879447E-002
   9.300000000000E+001  0.000000000000E+000  2.477960860883E+000  0.000000000000E+000  4.956922436049E-002
   9.350000000000E+001  0.000000000000E+000  2.842731638437E+000  0.000000000000E+000  5.443139435460E-002
   9.400000000000E+001  0.000000000000E+000  3.249164405250E+000  0.000000000000E+000  6.250739046110E-002
   9.450000000000E+001  0.000000000000E+000  3.672313397282E+000  0.000000000000E+000  7.400601532583E-002
   9.500000000000E+001  0.000000000000E+000  4.100589014033E+000  0.000000000000E+000  8.835568988467E-002
   9.550000000000E+001  0.000000000000E+000  4.547063060082E+000  0.000000000000E+000  1.052038969084E-001
   9.600000000000E+001  0.000000000000E+000  5.041722480442E+000  0.000000000000E+000  1.256482775399E-001
   9.650000000000E+001  0.000000000000E+000  5.618132789220E+000  0.000000000000E+000  1.529565508032E-001
   9.700000000000E+001  0.000000000000E+000  6.312922413886E+000  0.000000000000E+000  1.945339363789E-001
   9.750000000000E+001  0.000000000000E+000  7.176913511850E+000  0.000000000000E+000  2.680871174237E-001
   9.800000000000E+001  0.000000000000E+000  8.192873657939E+000  0.000000000000E+000  4.217377588897E-001
   9.850000000000E+001  0.000000000000E+000  8.404213047599E+000  0.000000000000E+000  3.829057057601E-001
   9.900000000000E+001  0.000000000000E+000  8.488334591777E+000  0.000000000000E+000  3.137045542551E-001
   9.950000000000E+001  0.000000000000E+000  8.444426302781E+000  0.000000000000E+000  2.622518289282E-001
   1.000000000000E+002  0.000000000000E+000  8.332992964735E+000  0.000000000000E+000  2.255196608878E-001
