#                    1                    2                    3                    4
#               Time |      Random Number |   === cumu Prob ===>
#               [fs] |                 [] |                 [] |
   0.000000000000E+000  0.000000000000E+000  0.000000000000E+000  0.000000000000E+000
   5.000000000000E-001  6.693652634956E-001  3.687273257933E-009  3.687273257933E-009
   1.000000000000E+000  5.464550915401E-001  5.633216186386E-009  5.633216186386E-009
   1.500000000000E+000  8.492442426205E-001  2.590637002636E-009  2.590637002636E-009
   2.000000000000E+000  4.527761430880E-001  6.542385083678E-012  6.542385083678E-012
   2.500000000000E+000  9.054042384770E-001  0.000000000000E+000  0.000000000000E+000
   3.000000000000E+000  6.151465923933E-001  0.000000000000E+000  0.000000000000E+000
   3.500000000000E+000  1.175339119464E-001  9.551632443911E-010  9.551632443911E-010
   4.000000000000E+000  8.393892959450E-001  6.299706515748E-009  6.299706515748E-009
   4.500000000000E+000  6.810352969393E-001  1.350521746393E-008  1.350521746393E-008
   5.000000000000E+000  5.233403679374E-001  1.725143649342E-008  1.725143649342E-008
   5.500000000000E+000  5.467792095040E-001  1.382014937069E-008  1.382014937069E-008
   6.000000000000E+000  4.717607237863E-003  5.386202657047E-009  5.386202657047E-009
   6.500000000000E+000  9.083097121708E-001  0.000000000000E+000  0.000000000000E+000
   7.000000000000E+000  4.173675670644E-001  2.277477687562E-009  2.277477687562E-009
   7.500000000000E+000  9.031063773502E-001  5.205130399788E-009  5.205130399788E-009
   8.000000000000E+000  9.155245860198E-004  2.386206850508E-009  2.386206850508E-009
   8.500000000000E+000  5.881806900703E-001  6.084130149623E-009  6.084130149623E-009
   9.000000000000E+000  8.089565428725E-001  4.641693918539E-008  4.641693918539E-008
   9.500000000000E+000  6.258367929590E-001  1.616044087394E-007  1.616044087394E-007
   1.000000000000E+001  4.876422814324E-001  3.843005542515E-007  3.843005542515E-007
   1.050000000000E+001  7.396206510569E-001  7.042757147778E-007  7.042757147778E-007
   1.100000000000E+001  5.439455915407E-001  1.012924878237E-006  1.012924878237E-006
   1.150000000000E+001  4.330688159963E-001  1.125744266725E-006  1.125744266725E-006
   1.200000000000E+001  9.270158357901E-001  8.433496193894E-007  8.433496193894E-007
   1.250000000000E+001  9.546350422986E-001  5.492071456052E-008  5.492071456052E-008
   1.300000000000E+001  1.001584383256E-003  1.158480758916E-006  1.158480758916E-006
   1.350000000000E+001  1.842582848212E-001  3.655157021211E-005  3.655157021211E-005
   1.400000000000E+001  3.130406507330E-001  3.966984088493E-004  3.966984088493E-004
   1.450000000000E+001  3.590762761987E-001  1.339501140579E-003  1.339501140579E-003
   1.500000000000E+001  6.972729299535E-001  6.213796287852E-004  6.213796287852E-004
   1.550000000000E+001  6.524387991323E-001  0.000000000000E+000  0.000000000000E+000
   1.600000000000E+001  2.564232758228E-002  7.732376630168E-006  7.732376630168E-006
   1.650000000000E+001  5.786047159608E-001  0.000000000000E+000  0.000000000000E+000
   1.700000000000E+001  6.521716501725E-001  4.404603973241E-007  4.404603973241E-007
   1.750000000000E+001  3.050898466877E-001  0.000000000000E+000  0.000000000000E+000
   1.800000000000E+001  5.422231262033E-001  0.000000000000E+000  0.000000000000E+000
   1.850000000000E+001  9.756875889997E-001  1.114271731444E-009  1.114271731444E-009
   1.900000000000E+001  9.283391618677E-001  5.270108483262E-011  5.270108483262E-011
   1.950000000000E+001  6.666531398266E-002  2.139208524101E-010  2.139208524101E-010
   2.000000000000E+001  3.104430834705E-001  1.929225986258E-010  1.929225986258E-010
   2.050000000000E+001  2.248549564335E-001  4.085498279971E-011  4.085498279971E-011
   2.100000000000E+001  2.210022671079E-001  1.626917475643E-011  1.626917475643E-011
   2.150000000000E+001  4.994243194587E-001  6.177975527019E-010  6.177975527019E-010
   2.200000000000E+001  4.362210589828E-001  7.726081610023E-009  7.726081610023E-009
   2.250000000000E+001  6.357747777555E-001  2.929410449483E-008  2.929410449483E-008
   2.300000000000E+001  1.308575166030E-001  6.343668286103E-008  6.343668286103E-008
   2.350000000000E+001  9.383220732014E-001  9.303574530845E-008  9.303574530845E-008
   2.400000000000E+001  8.223861730205E-001  9.756315632500E-008  9.756315632500E-008
   2.450000000000E+001  6.389796865700E-001  7.249814598784E-008  7.249814598784E-008
   2.500000000000E+001  7.251747113838E-001  3.405616697111E-008  3.405616697111E-008
   2.550000000000E+001  7.207540698648E-001  6.907103587156E-009  6.907103587156E-009
   2.600000000000E+001  8.024630500979E-002  6.176485732804E-009  6.176485732804E-009
   2.650000000000E+001  1.402151956774E-001  2.590507865400E-008  2.590507865400E-008
   2.700000000000E+001  8.008185392570E-001  4.424919412629E-008  4.424919412629E-008
   2.750000000000E+001  8.373207399492E-001  4.432507421413E-008  4.432507421413E-008
   2.800000000000E+001  6.984084143139E-002  2.857255806381E-008  2.857255806381E-008
   2.850000000000E+001  3.478015850126E-001  1.053542117999E-008  1.053542117999E-008
   2.900000000000E+001  4.829694302997E-001  0.000000000000E+000  0.000000000000E+000
   2.950000000000E+001  9.777083341522E-001  1.347528140418E-008  1.347528140418E-008
   3.000000000000E+001  3.139011173889E-002  1.719824210352E-007  1.719824210352E-007
   3.050000000000E+001  2.910659279398E-001  9.555088114369E-007  9.555088114369E-007
   3.100000000000E+001  6.041705190923E-001  3.711781358511E-006  3.711781358511E-006
   3.150000000000E+001  9.615146195184E-001  1.141433823708E-005  1.141433823708E-005
   3.200000000000E+001  6.731958502073E-001  2.860003986164E-005  2.860003986164E-005
   3.250000000000E+001  3.642057296622E-001  5.531603346674E-005  5.531603346674E-005
   3.300000000000E+001  7.574703564797E-002  6.455645914607E-005  6.455645914607E-005
   3.350000000000E+001  8.189209958577E-001  1.073353828562E-005  1.073353828562E-005
   3.400000000000E+001  8.378138603709E-001  0.000000000000E+000  0.000000000000E+000
   3.450000000000E+001  5.896991105398E-001  4.398027675567E-005  4.398027675567E-005
   3.500000000000E+001  3.195740949194E-001  4.622704264837E-005  4.622704264837E-005
   3.550000000000E+001  4.296147467183E-001  4.142203735256E-005  4.142203735256E-005
   3.600000000000E+001  4.189614465515E-001  3.233518388800E-005  3.233518388800E-005
   3.650000000000E+001  8.995385526031E-001  2.543247208383E-005  2.543247208383E-005
   3.700000000000E+001  8.295916232817E-001  1.859202765335E-005  1.859202765335E-005
   3.750000000000E+001  7.094146964607E-002  1.300957470443E-005  1.300957470443E-005
   3.800000000000E+001  6.818821001612E-001  8.631372466628E-006  8.631372466628E-006
   3.850000000000E+001  8.905874815304E-001  5.568202154787E-006  5.568202154787E-006
   3.900000000000E+001  8.490410173165E-001  3.681339936093E-006  3.681339936093E-006
   3.950000000000E+001  6.140982965931E-001  2.681554437295E-006  2.681554437295E-006
   4.000000000000E+001  2.073420899101E-001  2.285539313782E-006  2.285539313782E-006
   4.050000000000E+001  9.131200726215E-001  2.291371139031E-006  2.291371139031E-006
   4.100000000000E+001  9.379327379746E-001  2.592772117906E-006  2.592772117906E-006
   4.150000000000E+001  2.088121174597E-002  3.173360005331E-006  3.173360005331E-006
   4.200000000000E+001  6.701033566886E-001  4.116137659528E-006  4.116137659528E-006
   4.250000000000E+001  1.609085852640E-001  5.597662354782E-006  5.597662354782E-006
   4.300000000000E+001  6.611353960803E-001  7.807428123766E-006  7.807428123766E-006
   4.350000000000E+001  1.733423903278E-001  1.073013511848E-005  1.073013511848E-005
   4.400000000000E+001  3.443580890402E-001  1.392038396152E-005  1.392038396152E-005
   4.450000000000E+001  8.735560468641E-001  1.692186601718E-005  1.692186601718E-005
   4.500000000000E+001  9.006787289668E-001  2.098192709733E-005  2.098192709733E-005
   4.550000000000E+001  8.025121587392E-001  3.030862563601E-005  3.030862563601E-005
   4.600000000000E+001  2.758066786656E-001  5.210612446696E-005  5.210612446696E-005
   4.650000000000E+001  3.876702366173E-001  1.057511525086E-004  1.057511525086E-004
   4.700000000000E+001  4.396701726932E-001  2.563468494968E-004  2.563468494968E-004
   4.750000000000E+001  5.507874851194E-001  6.219545481191E-004  6.219545481191E-004
   4.800000000000E+001  9.998216871102E-001  1.094432572963E-003  1.094432572963E-003
   4.850000000000E+001  1.108665933943E-001  1.460889337931E-003  1.460889337931E-003
   4.900000000000E+001  8.156743586680E-001  2.012456394287E-003  2.012456394287E-003
   4.950000000000E+001  2.804380919958E-001  2.961439040711E-003  2.961439040711E-003
   5.000000000000E+001  2.361558955504E-001  3.975249442126E-003  3.975249442126E-003
   5.050000000000E+001  8.892186202964E-001  4.121665284540E-003  4.121665284540E-003
   5.100000000000E+001  2.256207601995E-001  2.790761467249E-003  2.790761467249E-003
   5.150000000000E+001  4.153042302005E-001  8.557971580890E-004  8.557971580890E-004
   5.200000000000E+001  1.821209920944E-001  0.000000000000E+000  0.000000000000E+000
   5.250000000000E+001  5.582342750625E-002  0.000000000000E+000  0.000000000000E+000
   5.300000000000E+001  8.705147970439E-001  0.000000000000E+000  0.000000000000E+000
   5.350000000000E+001  5.011610386887E-001  0.000000000000E+000  0.000000000000E+000
   5.400000000000E+001  8.167854465669E-001  8.900050538393E-005  8.900050538393E-005
   5.450000000000E+001  4.598530084302E-001  1.486430985882E-003  1.486430985882E-003
   5.500000000000E+001  3.780429727089E-001  4.914990146747E-003  4.914990146747E-003
   5.550000000000E+001  4.941646587122E-001  9.989532861274E-003  9.989532861274E-003
   5.600000000000E+001  7.897599456504E-001  1.471824218580E-002  1.471824218580E-002
   5.650000000000E+001  9.316280918142E-001  1.750071408338E-002  1.750071408338E-002
   5.700000000000E+001  9.937168282764E-001  1.959607205008E-002  1.959607205008E-002
   5.750000000000E+001  1.635723043716E-001  3.365221222468E-002  3.365221222468E-002
   5.800000000000E+001  3.781958819119E-001  4.302234383390E-001  4.302234383390E-001
   5.850000000000E+001  9.322673209210E-001  0.000000000000E+000  0.000000000000E+000
   5.900000000000E+001  6.383029470480E-001  0.000000000000E+000  1.294224569815E-001
   5.950000000000E+001  8.591238553755E-001  0.000000000000E+000  3.141381270669E-001
   6.000000000000E+001  1.673665871966E-001  0.000000000000E+000  1.984151349082E-001
   6.050000000000E+001  3.321345333156E-001  0.000000000000E+000  0.000000000000E+000
   6.100000000000E+001  3.379465917710E-001  1.138164466274E-002  1.138164466274E-002
   6.150000000000E+001  9.453636451419E-001  3.671064754345E-002  3.671064754345E-002
   6.200000000000E+001  1.290998021017E-001  4.754774808839E-002  4.754774808839E-002
   6.250000000000E+001  4.658584723240E-001  4.846090874242E-002  4.846090874242E-002
   6.300000000000E+001  8.565616262181E-001  4.030133715130E-002  4.030133715130E-002
   6.350000000000E+001  2.042975227187E-001  2.439461491288E-002  2.439461491288E-002
   6.400000000000E+001  3.873555701809E-002  4.533987824499E-003  4.533987824499E-003
   6.450000000000E+001  1.437379872509E-001  0.000000000000E+000  0.000000000000E+000
   6.500000000000E+001  4.263919374176E-001  0.000000000000E+000  0.000000000000E+000
   6.550000000000E+001  4.725535736266E-001  0.000000000000E+000  0.000000000000E+000
   6.600000000000E+001  2.793958139367E-001  0.000000000000E+000  0.000000000000E+000
   6.650000000000E+001  2.113250242372E-001  0.000000000000E+000  0.000000000000E+000
   6.700000000000E+001  3.927715687945E-001  3.539409527727E-003  3.539409527727E-003
   6.750000000000E+001  2.122169863612E-001  2.491176201724E-003  2.491176201724E-003
   6.800000000000E+001  3.845225696845E-001  3.119096074218E-004  3.119096074218E-004
   6.850000000000E+001  6.179497956884E-001  0.000000000000E+000  0.000000000000E+000
   6.900000000000E+001  9.105627124188E-001  1.393370548797E-004  1.393370548797E-004
   6.950000000000E+001  7.815192520754E-001  0.000000000000E+000  0.000000000000E+000
   7.000000000000E+001  6.129510757052E-002  0.000000000000E+000  0.000000000000E+000
   7.050000000000E+001  4.630740351795E-001  0.000000000000E+000  0.000000000000E+000
   7.100000000000E+001  6.920010944922E-001  9.826237424023E-005  9.826237424023E-005
   7.150000000000E+001  5.775364065033E-001  1.314072086756E-004  1.314072086756E-004
   7.200000000000E+001  6.347066894872E-001  3.185555568092E-005  3.185555568092E-005
   7.250000000000E+001  9.303304464920E-001  0.000000000000E+000  0.000000000000E+000
   7.300000000000E+001  2.140803161062E-001  5.275153583230E-005  5.275153583230E-005
   7.350000000000E+001  7.997122509291E-001  2.827893668414E-004  2.827893668414E-004
   7.400000000000E+001  8.318993005489E-001  4.518580728804E-004  4.518580728804E-004
   7.450000000000E+001  8.962765914311E-001  4.229422574695E-004  4.229422574695E-004
   7.500000000000E+001  2.428790929936E-001  2.000363787016E-004  2.000363787016E-004
   7.550000000000E+001  5.206584074795E-001  0.000000000000E+000  0.000000000000E+000
   7.600000000000E+001  4.811918842147E-001  4.736654834343E-004  4.736654834343E-004
   7.650000000000E+001  2.128859260563E-001  3.786953802499E-003  3.786953802499E-003
   7.700000000000E+001  8.891173012438E-002  1.456154727084E-002  1.456154727084E-002
   7.750000000000E+001  2.217568409859E-001  3.843118580902E-002  3.843118580902E-002
   7.800000000000E+001  6.514672983320E-001  8.125941715469E-002  8.125941715469E-002
   7.850000000000E+001  5.578675481578E-002  3.337588513576E-001  3.337588513576E-001
   7.900000000000E+001  3.007278817528E-001  0.000000000000E+000  0.000000000000E+000
   7.950000000000E+001  1.534915450247E-001  0.000000000000E+000  6.364812119149E-002
   8.000000000000E+001  2.406583206989E-001  0.000000000000E+000  3.592249755032E-002
   8.050000000000E+001  9.457737479316E-001  0.000000000000E+000  1.748808681173E-002
   8.100000000000E+001  1.189269344829E-001  0.000000000000E+000  4.052458783908E-003
   8.150000000000E+001  3.327368410689E-001  0.000000000000E+000  0.000000000000E+000
   8.200000000000E+001  4.449083725071E-001  0.000000000000E+000  7.693514347852E-004
   8.250000000000E+001  3.944976583739E-001  0.000000000000E+000  4.543561865286E-004
   8.300000000000E+001  9.792455850336E-001  0.000000000000E+000  0.000000000000E+000
   8.350000000000E+001  1.232972878405E-001  0.000000000000E+000  1.062845105889E-004
   8.400000000000E+001  4.100680257453E-001  0.000000000000E+000  9.252763997081E-004
   8.450000000000E+001  3.860481217569E-001  0.000000000000E+000  8.798543598330E-006
   8.500000000000E+001  7.812566265496E-001  0.000000000000E+000  6.634537176605E-005
   8.550000000000E+001  6.761051646755E-001  0.000000000000E+000  9.160028720040E-005
   8.600000000000E+001  5.856956028306E-002  0.000000000000E+000  0.000000000000E+000
   8.650000000000E+001  8.367399969710E-001  0.000000000000E+000  0.000000000000E+000
   8.700000000000E+001  2.299551659013E-001  0.000000000000E+000  4.563513387730E-006
   8.750000000000E+001  5.123871730421E-001  0.000000000000E+000  1.166700790316E-005
   8.800000000000E+001  4.371925667680E-001  0.000000000000E+000  2.272203927368E-005
   8.850000000000E+001  9.867542236457E-001  0.000000000000E+000  1.075150679958E-004
   8.900000000000E+001  2.996570539991E-001  0.000000000000E+000  4.216490358483E-004
   8.950000000000E+001  4.141488090170E-002  0.000000000000E+000  6.127358463087E-004
   9.000000000000E+001  1.206428097815E-001  0.000000000000E+000  0.000000000000E+000
   9.050000000000E+001  9.758736220883E-001  0.000000000000E+000  8.294517736172E-005
   9.100000000000E+001  7.995706982741E-001  0.000000000000E+000  5.538744919367E-005
   9.150000000000E+001  2.830146397726E-001  0.000000000000E+000  1.993643060313E-004
   9.200000000000E+001  2.634209540630E-001  0.000000000000E+000  9.520718238530E-004
   9.250000000000E+001  7.126211643092E-001  0.000000000000E+000  7.954289086763E-004
   9.300000000000E+001  5.756751387065E-001  0.000000000000E+000  1.666737075614E-004
   9.350000000000E+001  1.675980278504E-001  0.000000000000E+000  2.647458052242E-004
   9.400000000000E+001  3.184398953185E-001  0.000000000000E+000  4.183407573942E-004
   9.450000000000E+001  8.044330861311E-001  0.000000000000E+000  3.265283402061E-004
   9.500000000000E+001  5.683354592456E-001  0.000000000000E+000  3.680863042348E-004
   9.550000000000E+001  2.784938386977E-001  0.000000000000E+000  3.269851877325E-004
   9.600000000000E+001  3.058344526197E-001  0.000000000000E+000  2.682546636033E-004
   9.650000000000E+001  6.954434984888E-001  0.000000000000E+000  1.851151316208E-004
   9.700000000000E+001  7.873645694582E-001  0.000000000000E+000  1.027615875098E-004
   9.750000000000E+001  5.185959493186E-001  0.000000000000E+000  3.670187802386E-005
   9.800000000000E+001  7.253925817359E-001  0.000000000000E+000  7.970994540914E-006
   9.850000000000E+001  4.526625613106E-002  0.000000000000E+000  1.554262567909E-007
   9.900000000000E+001  9.221831971712E-001  0.000000000000E+000  4.245455519585E-009
   9.950000000000E+001  4.138304144962E-001  0.000000000000E+000  1.097802120948E-009
   1.000000000000E+002  4.953505541686E-001  0.000000000000E+000  3.264093575400E-009
