! 1 Hamiltonian Matrix (3x3, complex)
3 3
-7.802934562E+001  0.000000000E+000  0.000000000E+000  0.000000000E+000  0.000000000E+000  0.000000000E+000 
 0.000000000E+000  0.000000000E+000 -7.767920771E+001  0.000000000E+000  0.000000000E+000  0.000000000E+000 
 0.000000000E+000  0.000000000E+000  0.000000000E+000  0.000000000E+000 -7.750686744E+001  0.000000000E+000 

! 2 Dipole Moment Matrices (3x3x3, complex)
3 3
-2.874282760E-002  0.000000000E+000 -1.333063040E+000  0.000000000E+000  6.312371430E-003  0.000000000E+000 
-1.333063040E+000  0.000000000E+000 -4.704813960E-002  0.000000000E+000 -2.000750860E+000  0.000000000E+000 
 6.312371430E-003  0.000000000E+000 -2.000750860E+000  0.000000000E+000 -1.807172650E-002  0.000000000E+000 
3 3
 1.064893580E-002  0.000000000E+000 -8.862197230E-004  0.000000000E+000  1.117733810E-002  0.000000000E+000 
-8.862197230E-004  0.000000000E+000 -1.613820070E-002  0.000000000E+000 -1.501595870E-003  0.000000000E+000 
 1.117733810E-002  0.000000000E+000 -1.501595870E-003  0.000000000E+000 -4.289109770E-002  0.000000000E+000 
3 3
 4.163646470E-002  0.000000000E+000 -4.270741460E-001  0.000000000E+000 -9.425835990E-003  0.000000000E+000 
-4.270741460E-001  0.000000000E+000  6.320593200E-002  0.000000000E+000 -6.408059440E-001  0.000000000E+000 
-9.425835990E-003  0.000000000E+000 -6.408059440E-001  0.000000000E+000  9.992019590E-002  0.000000000E+000 
! 8 Runtime
 3.525569000E+000
