! 1 Hamiltonian Matrix (3x3, complex)
3 3
-7.802602684E+001  0.000000000E+000  0.000000000E+000  0.000000000E+000  0.000000000E+000  0.000000000E+000 
 0.000000000E+000  0.000000000E+000 -7.766347985E+001  0.000000000E+000  0.000000000E+000  0.000000000E+000 
 0.000000000E+000  0.000000000E+000  0.000000000E+000  0.000000000E+000 -7.748084579E+001  0.000000000E+000 

! 2 Dipole Moment Matrices (3x3x3, complex)
3 3
 7.283042000E-002  0.000000000E+000  1.409372400E+000  0.000000000E+000 -7.386277590E-003  0.000000000E+000 
 1.409372400E+000  0.000000000E+000  8.435795860E-002  0.000000000E+000  2.112945110E+000  0.000000000E+000 
-7.386277590E-003  0.000000000E+000  2.112945110E+000  0.000000000E+000  1.893485950E-001  0.000000000E+000 
3 3
 9.284567930E-003  0.000000000E+000  4.514052450E-002  0.000000000E+000  7.582446010E-003  0.000000000E+000 
 4.514052450E-002  0.000000000E+000 -9.123583690E-003  0.000000000E+000  6.789993750E-002  0.000000000E+000 
 7.582446010E-003  0.000000000E+000  6.789993750E-002  0.000000000E+000 -2.453134030E-002  0.000000000E+000 
3 3
-1.339660030E-001  0.000000000E+000  3.170651450E-001  0.000000000E+000  2.679571690E-002  0.000000000E+000 
 3.170651450E-001  0.000000000E+000 -1.997130720E-001  0.000000000E+000  4.761654300E-001  0.000000000E+000 
 2.679571690E-002  0.000000000E+000  4.761654300E-001  0.000000000E+000 -2.444087880E-001  0.000000000E+000 
! 8 Runtime
 3.637757000E+000
