#                    1                    2                    3                    4                    5                    6
#               Time |           Sum c**2 |  === coeff_diab ===>
#               [fs] |                 [] |                 [] |
   0.000000000000E+000  1.000000000000E+000  0.000000000000E+000  1.000000000000E+000
   5.000000000000E-001  1.000000000000E+000  2.556441813795E-006  9.999974370003E-001
   1.000000000000E+000  1.000000000000E+000  8.495726433466E-006  9.999914765358E-001
   1.500000000000E+000  1.000000000000E+000  1.557343239256E-005  9.999844431877E-001
   2.000000000000E+000  1.000000000000E+000  2.262224370497E-005  9.999773502350E-001
   2.500000000000E+000  1.000000000000E+000  2.963257611555E-005  9.999703764915E-001
   3.000000000000E+000  1.000000000000E+000  3.706646384671E-005  9.999629259109E-001
   3.500000000000E+000  1.000000000000E+000  4.477099355427E-005  9.999552369118E-001
   4.000000000000E+000  1.000000000000E+000  5.123857408762E-005  9.999487400055E-001
   4.500000000000E+000  1.000000000000E+000  5.404876355897E-005  9.999459385872E-001
   5.000000000000E+000  1.000000000000E+000  5.156932456885E-005  9.999484419823E-001
   5.500000000000E+000  1.000000000000E+000  4.427479143487E-005  9.999557137489E-001
   6.000000000000E+000  1.000000000000E+000  3.447329072515E-005  9.999655485153E-001
   6.500000000000E+000  1.000000000000E+000  2.466308251314E-005  9.999753236771E-001
   7.000000000000E+000  1.000000000000E+000  1.619314389245E-005  9.999837875366E-001
   7.500000000000E+000  1.000000000000E+000  9.216890248354E-006  9.999907612801E-001
   8.000000000000E+000  1.000000000000E+000  3.550529072527E-006  9.999964237213E-001
   8.500000000000E+000  1.000000000000E+000  1.140544014788E-007  9.999998807907E-001
   9.000000000000E+000  1.000000000000E+000  3.953527539124E-006  9.999960660934E-001
   9.500000000000E+000  1.000000000000E+000  3.313962588436E-005  9.999668598175E-001
   1.000000000000E+001  1.000000000000E+000  1.498001365690E-004  9.998502135277E-001
   1.050000000000E+001  1.000000000000E+000  5.895009962842E-004  9.994105100632E-001
   1.100000000000E+001  1.000000000000E+000  2.426395891234E-003  9.975736141205E-001
   1.150000000000E+001  1.000000000000E+000  1.063347700983E-002  9.893665313721E-001
   1.200000000000E+001  1.000000000000E+000  2.988865599036E-002  9.701113700867E-001
   1.250000000000E+001  1.000000000000E+000  4.218791425228E-002  9.578120708466E-001
   1.300000000000E+001  1.000000000000E+000  4.306978732347E-002  9.569302201271E-001
   1.350000000000E+001  1.000000000000E+000  4.130117595196E-002  9.586988091469E-001
   1.400000000000E+001  1.000000000000E+000  3.911786526442E-002  9.608821272850E-001
   1.450000000000E+001  1.000000000000E+000  3.703349456191E-002  9.629665017128E-001
   1.500000000000E+001  1.000000000000E+000  3.520259633660E-002  9.647973775864E-001
   1.550000000000E+001  1.000000000000E+000  3.369216993451E-002  9.663078188896E-001
   1.600000000000E+001  1.000000000000E+000  3.254012018442E-002  9.674598574638E-001
   1.650000000000E+001  1.000000000000E+000  3.176804259419E-002  9.682319760323E-001
   1.700000000000E+001  1.000000000000E+000  3.138451650739E-002  9.686154723167E-001
   1.750000000000E+001  1.000000000000E+000  3.138638660312E-002  9.686136245728E-001
   1.800000000000E+001  1.000000000000E+000  3.175743296742E-002  9.682425856590E-001
   1.850000000000E+001  1.000000000000E+000  3.245955333114E-002  9.675404429436E-001
   1.900000000000E+001  1.000000000000E+000  3.341557830572E-002  9.665844440460E-001
   1.950000000000E+001  1.000000000000E+000  3.451160341501E-002  9.654883742332E-001
   2.000000000000E+001  1.000000000000E+000  3.563822805882E-002  9.643617868423E-001
   2.050000000000E+001  1.000000000000E+000  3.673437982798E-002  9.632655978203E-001
   2.100000000000E+001  1.000000000000E+000  3.778107464314E-002  9.622189402580E-001
   2.150000000000E+001  1.000000000000E+000  3.876451402903E-002  9.612354636192E-001
   2.200000000000E+001  1.000000000000E+000  3.965452313423E-002  9.603454470634E-001
   2.250000000000E+001  1.000000000000E+000  4.040573909879E-002  9.595942497253E-001
   2.300000000000E+001  1.000000000000E+000  4.097374528646E-002  9.590262770653E-001
   2.350000000000E+001  1.000000000000E+000  4.132764413953E-002  9.586723446846E-001
   2.400000000000E+001  1.000000000000E+000  4.145328700542E-002  9.585466980934E-001
   2.450000000000E+001  1.000000000000E+000  4.135220497847E-002  9.586477875710E-001
   2.500000000000E+001  1.000000000000E+000  4.104086384177E-002  9.589591622353E-001
   2.550000000000E+001  1.000000000000E+000  4.054768756032E-002  9.594523310661E-001
   2.600000000000E+001  1.000000000000E+000  3.990497067571E-002  9.600950479507E-001
   2.650000000000E+001  1.000000000000E+000  3.913535550237E-002  9.608646631241E-001
   2.700000000000E+001  1.000000000000E+000  3.824293985963E-002  9.617570638657E-001
   2.750000000000E+001  1.000000000000E+000  3.721239417791E-002  9.627876281738E-001
   2.800000000000E+001  1.000000000000E+000  3.601637110114E-002  9.639836549759E-001
   2.850000000000E+001  1.000000000000E+000  3.462570160627E-002  9.653742909431E-001
   2.900000000000E+001  1.000000000000E+000  3.302500024438E-002  9.669749736786E-001
   2.950000000000E+001  1.000000000000E+000  3.123274818063E-002  9.687672257423E-001
   3.000000000000E+001  1.000000000000E+000  2.934052422643E-002  9.706594944000E-001
   3.050000000000E+001  1.000000000000E+000  2.761701680720E-002  9.723829627037E-001
   3.100000000000E+001  1.000000000000E+000  2.689174562693E-002  9.731082320213E-001
   3.150000000000E+001  1.000000000000E+000  3.008749708533E-002  9.699125289917E-001
   3.200000000000E+001  1.000000000000E+000  4.483458772302E-002  9.551653862000E-001
   3.250000000000E+001  1.000000000000E+000  7.522028684616E-002  9.247797131538E-001
   3.300000000000E+001  1.000000000000E+000  1.076873093843E-001  8.923127055168E-001
   3.350000000000E+001  1.000000000000E+000  1.310171484947E-001  8.689828515053E-001
   3.400000000000E+001  1.000000000000E+000  1.461762487888E-001  8.538237214088E-001
   3.450000000000E+001  1.000000000000E+000  1.564392894506E-001  8.435606956482E-001
   3.500000000000E+001  1.000000000000E+000  1.640257239342E-001  8.359742760658E-001
   3.550000000000E+001  1.000000000000E+000  1.701632440090E-001  8.298367261887E-001
   3.600000000000E+001  1.000000000000E+000  1.754552870989E-001  8.245447278023E-001
   3.650000000000E+001  1.000000000000E+000  1.801394075155E-001  8.198605775833E-001
   3.700000000000E+001  1.000000000000E+000  1.842446476221E-001  8.157553672791E-001
   3.750000000000E+001  1.000000000000E+000  1.876909434795E-001  8.123090267181E-001
   3.800000000000E+001  1.000000000000E+000  1.903420239687E-001  8.096579909325E-001
   3.850000000000E+001  1.000000000000E+000  1.920382529497E-001  8.079617619514E-001
   3.900000000000E+001  1.000000000000E+000  1.926205158234E-001  8.073794841766E-001
   3.950000000000E+001  1.000000000000E+000  1.919787973166E-001  8.080211877823E-001
   4.000000000000E+001  1.000000000000E+000  1.901252716780E-001  8.098747134209E-001
   4.050000000000E+001  1.000000000000E+000  1.872568428516E-001  8.127431273460E-001
   4.100000000000E+001  1.000000000000E+000  1.837394982576E-001  8.162605166435E-001
   4.150000000000E+001  1.000000000000E+000  1.799963563681E-001  8.200036287308E-001
   4.200000000000E+001  1.000000000000E+000  1.763841509819E-001  8.236158490181E-001
   4.250000000000E+001  1.000000000000E+000  1.731362491846E-001  8.268637657166E-001
   4.300000000000E+001  1.000000000000E+000  1.703723222017E-001  8.296276926994E-001
   4.350000000000E+001  1.000000000000E+000  1.681231111288E-001  8.318768739700E-001
   4.400000000000E+001  1.000000000000E+000  1.663302630186E-001  8.336697220802E-001
   4.450000000000E+001  1.000000000000E+000  1.648419052362E-001  8.351581096649E-001
   4.500000000000E+001  1.000000000000E+000  1.634162366390E-001  8.365837931633E-001
   4.550000000000E+001  1.000000000000E+000  1.617502421141E-001  8.382497429848E-001
   4.600000000000E+001  1.000000000000E+000  1.594994068146E-001  8.405005931854E-001
   4.650000000000E+001  1.000000000000E+000  1.562690585852E-001  8.437309265137E-001
   4.700000000000E+001  1.000000000000E+000  1.515568494797E-001  8.484431505203E-001
   4.750000000000E+001  1.000000000000E+000  1.446337997913E-001  8.553662300110E-001
   4.800000000000E+001  1.000000000000E+000  1.343436390162E-001  8.656563758850E-001
   4.850000000000E+001  1.000000000000E+000  1.188570186496E-001  8.811429738998E-001
   4.900000000000E+001  1.000000000000E+000  9.585884958506E-002  9.041411280632E-001
   4.950000000000E+001  1.000000000000E+000  6.502874195576E-002  9.349712729454E-001
   5.000000000000E+001  1.000000000000E+000  3.314829990268E-002  9.668517112732E-001
   5.050000000000E+001  1.000000000000E+000  1.137863378972E-002  9.886213541031E-001
   5.100000000000E+001  1.000000000000E+000  2.394185168669E-003  9.976058006287E-001
   5.150000000000E+001  1.000000000000E+000  2.244736097055E-004  9.997755289078E-001
   5.200000000000E+001  1.000000000000E+000  4.722397989099E-006  9.999952912331E-001
   5.250000000000E+001  1.000000000000E+000  1.030670027831E-004  9.998969435692E-001
   5.300000000000E+001  1.000000000000E+000  1.733305252856E-004  9.998266696930E-001
   5.350000000000E+001  1.000000000000E+000  1.749846560415E-004  9.998250007629E-001
   5.400000000000E+001  1.000000000000E+000  1.285827893298E-004  9.998714327812E-001
   5.450000000000E+001  1.000000000000E+000  6.559571920661E-005  9.999343752861E-001
   5.500000000000E+001  1.000000000000E+000  1.599117240403E-005  9.999840259552E-001
   5.550000000000E+001  1.000000000000E+000  2.101463962845E-007  9.999997615814E-001
   5.600000000000E+001  1.000000000000E+000  2.252982267237E-005  9.999774694443E-001
   5.650000000000E+001  1.000000000000E+000  6.995663716225E-005  9.999300241470E-001
   5.700000000000E+001  1.000000000000E+000  1.189891409012E-004  9.998810291290E-001
   5.750000000000E+001  1.000000000000E+000  1.475685712649E-004  9.998524188995E-001
   5.800000000000E+001  1.000000000000E+000  1.455201418139E-004  9.998545050621E-001
   5.850000000000E+001  1.000000000000E+000  1.175884899567E-004  9.998824000359E-001
   5.900000000000E+001  1.000000000000E+000  7.816561264917E-005  9.999218583107E-001
   5.950000000000E+001  1.000000000000E+000  4.230809645378E-005  9.999576807022E-001
   6.000000000000E+001  1.000000000000E+000  1.866279490059E-005  9.999813437462E-001
   6.050000000000E+001  1.000000000000E+000  7.635947440576E-006  9.999923706055E-001
   6.100000000000E+001  1.000000000000E+000  5.063692697149E-006  9.999949336052E-001
   6.150000000000E+001  1.000000000000E+000  9.490609954810E-006  9.999905228615E-001
   6.200000000000E+001  1.000000000000E+000  2.892530756071E-005  9.999710917473E-001
   6.250000000000E+001  1.000000000000E+000  8.176768460544E-005  9.999182224274E-001
   6.300000000000E+001  1.000000000000E+000  1.884784142021E-004  9.998115301132E-001
   6.350000000000E+001  1.000000000000E+000  3.544029314071E-004  9.996455907822E-001
   6.400000000000E+001  1.000000000000E+000  5.459507228807E-004  9.994540214539E-001
   6.450000000000E+001  1.000000000000E+000  6.626225076616E-004  9.993373751640E-001
   6.500000000000E+001  1.000000000000E+000  5.263477796689E-004  9.994736313820E-001
   6.550000000000E+001  1.000000000000E+000  7.510976865888E-005  9.999248981476E-001
   6.600000000000E+001  1.000000000000E+000  8.774969610386E-004  9.991225004196E-001
   6.650000000000E+001  1.000000000000E+000  1.107744127512E-002  9.889225363731E-001
   6.700000000000E+001  1.000000000000E+000  4.313324764371E-002  9.568667411804E-001
   6.750000000000E+001  1.000000000000E+000  9.165928512812E-002  9.083406925201E-001
   6.800000000000E+001  1.000000000000E+000  1.372804939747E-001  8.627194762230E-001
   6.850000000000E+001  1.000000000000E+000  1.708337217569E-001  8.291662931442E-001
   6.900000000000E+001  1.000000000000E+000  1.933112889528E-001  8.066887259483E-001
   6.950000000000E+001  1.000000000000E+000  2.078010588884E-001  7.921989560127E-001
   7.000000000000E+001  1.000000000000E+000  2.166447788477E-001  7.833552360535E-001
   7.050000000000E+001  1.000000000000E+000  2.213383764029E-001  7.786616086960E-001
   7.100000000000E+001  1.000000000000E+000  2.228735685349E-001  7.771264314651E-001
   7.150000000000E+001  1.000000000000E+000  2.219921648502E-001  7.780078649521E-001
   7.200000000000E+001  1.000000000000E+000  2.193226516247E-001  7.806773185730E-001
   7.250000000000E+001  1.000000000000E+000  2.154303789139E-001  7.845696210861E-001
   7.300000000000E+001  1.000000000000E+000  2.108130007982E-001  7.891870141029E-001
   7.350000000000E+001  1.000000000000E+000  2.058805525303E-001  7.941194772720E-001
   7.400000000000E+001  1.000000000000E+000  2.009474486113E-001  7.990525364876E-001
   7.450000000000E+001  1.000000000000E+000  1.962376683950E-001  8.037623167038E-001
   7.500000000000E+001  1.000000000000E+000  1.918942183256E-001  8.081057667732E-001
   7.550000000000E+001  1.000000000000E+000  1.879774332047E-001  8.120225667953E-001
   7.600000000000E+001  1.000000000000E+000  1.844656020403E-001  8.155344128609E-001
   7.650000000000E+001  1.000000000000E+000  1.812667250633E-001  8.187332749367E-001
   7.700000000000E+001  1.000000000000E+000  1.782437562943E-001  8.217562437057E-001
   7.750000000000E+001  1.000000000000E+000  1.752478331327E-001  8.247521519661E-001
   7.800000000000E+001  1.000000000000E+000  1.721455901861E-001  8.278543949127E-001
   7.850000000000E+001  1.000000000000E+000  1.688304692507E-001  8.311695456505E-001
   7.900000000000E+001  1.000000000000E+000  1.652249991894E-001  8.347749710083E-001
   7.950000000000E+001  1.000000000000E+000  1.612819135189E-001  8.387181162834E-001
   8.000000000000E+001  1.000000000000E+000  1.569821983576E-001  8.430178165436E-001
   8.050000000000E+001  1.000000000000E+000  1.523302346468E-001  8.476697802544E-001
   8.100000000000E+001  1.000000000000E+000  1.473581194878E-001  8.526418805122E-001
   8.150000000000E+001  1.000000000000E+000  1.421867460012E-001  8.578132390976E-001
   8.200000000000E+001  1.000000000000E+000  1.372304707766E-001  8.627695441246E-001
   8.250000000000E+001  1.000000000000E+000  1.337472498417E-001  8.662527799606E-001
   8.300000000000E+001  1.000000000000E+000  1.353279650211E-001  8.646720051765E-001
   8.350000000000E+001  1.000000000000E+000  1.520247608423E-001  8.479752540588E-001
   8.400000000000E+001  1.000000000000E+000  2.091751843691E-001  7.908248305321E-001
   8.450000000000E+001  1.000000000000E+000  3.426241874695E-001  6.573758125305E-001
   8.500000000000E+001  1.000000000000E+000  5.153462886810E-001  4.846537411213E-001
   8.550000000000E+001  1.000000000000E+000  6.318981647491E-001  3.681018650532E-001
   8.600000000000E+001  1.000000000000E+000  6.873971223831E-001  3.126028776169E-001
   8.650000000000E+001  1.000000000000E+000  7.105193734169E-001  2.894806265831E-001
   8.700000000000E+001  1.000000000000E+000  7.182822227478E-001  2.817178070545E-001
   8.750000000000E+001  1.000000000000E+000  7.183472514153E-001  2.816527485847E-001
   8.800000000000E+001  1.000000000000E+000  7.141323685646E-001  2.858676612377E-001
   8.850000000000E+001  1.000000000000E+000  7.072901725769E-001  2.927097976208E-001
   8.900000000000E+001  1.000000000000E+000  6.987618803978E-001  3.012381196022E-001
   8.950000000000E+001  1.000000000000E+000  6.892191171646E-001  3.107808828354E-001
   9.000000000000E+001  1.000000000000E+000  6.792345643044E-001  3.207654058933E-001
   9.050000000000E+001  1.000000000000E+000  6.693167686462E-001  3.306832611561E-001
   9.100000000000E+001  1.000000000000E+000  6.598800420761E-001  3.401199579239E-001
   9.150000000000E+001  1.000000000000E+000  6.512110233307E-001  3.487890064716E-001
   9.200000000000E+001  1.000000000000E+000  6.434626579285E-001  3.565373420715E-001
   9.250000000000E+001  1.000000000000E+000  6.366816759109E-001  3.633183538914E-001
   9.300000000000E+001  1.000000000000E+000  6.308110952377E-001  3.691889047623E-001
   9.350000000000E+001  1.000000000000E+000  6.256464123726E-001  3.743535876274E-001
   9.400000000000E+001  1.000000000000E+000  6.207550168037E-001  3.792449831963E-001
   9.450000000000E+001  1.000000000000E+000  6.153537631035E-001  3.846462368965E-001
   9.500000000000E+001  1.000000000000E+000  6.081543564796E-001  3.918456435204E-001
   9.550000000000E+001  1.000000000000E+000  5.971360206604E-001  4.028639793396E-001
   9.600000000000E+001  1.000000000000E+000  5.790922045708E-001  4.209077954292E-001
   9.650000000000E+001  1.000000000000E+000  5.485235452652E-001  4.514764547348E-001
   9.700000000000E+001  1.000000000000E+000  4.951654672623E-001  5.048345327377E-001
   9.750000000000E+001  1.000000000000E+000  4.007000327110E-001  5.992999672890E-001
   9.800000000000E+001  1.000000000000E+000  2.491176724434E-001  7.508823275566E-001
   9.850000000000E+001  1.000000000000E+000  8.915231376886E-002  9.108476638794E-001
   9.900000000000E+001  1.000000000000E+000  1.191119849682E-002  9.880887866020E-001
   9.950000000000E+001  1.000000000000E+000  3.392566868570E-004  9.996607303619E-001
   1.000000000000E+002  1.000000000000E+000  9.506641887128E-003  9.904933571815E-001
