#                    1                    2                    3                    4                    5                    6
#               Time |           Sum c**2 |  === coeff_diab ===>
#               [fs] |                 [] |                 [] |
   0.000000000000E+000  1.000000000000E+000  0.000000000000E+000  1.000000000000E+000
   5.000000000000E-001  1.000000000000E+000  2.200740027547E-006  9.999977946281E-001
   1.000000000000E+000  1.000000000000E+000  9.037040399562E-006  9.999909400940E-001
   1.500000000000E+000  1.000000000000E+000  2.116223913617E-005  9.999788403511E-001
   2.000000000000E+000  1.000000000000E+000  3.939251109841E-005  9.999606013298E-001
   2.500000000000E+000  1.000000000000E+000  6.393116927939E-005  9.999360442162E-001
   3.000000000000E+000  1.000000000000E+000  9.334418427898E-005  9.999066591263E-001
   3.500000000000E+000  1.000000000000E+000  1.235584059032E-004  9.998764395714E-001
   4.000000000000E+000  1.000000000000E+000  1.473516022088E-004  9.998526573181E-001
   4.500000000000E+000  1.000000000000E+000  1.553532929393E-004  9.998446702957E-001
   5.000000000000E+000  1.000000000000E+000  1.396767474944E-004  9.998603463173E-001
   5.500000000000E+000  1.000000000000E+000  1.002078570309E-004  9.998998045921E-001
   6.000000000000E+000  1.000000000000E+000  4.941694351146E-005  9.999505877495E-001
   6.500000000000E+000  1.000000000000E+000  9.466230039834E-006  9.999905228615E-001
   7.000000000000E+000  1.000000000000E+000  2.549513055783E-006  9.999974370003E-001
   7.500000000000E+000  1.000000000000E+000  5.006101491745E-005  9.999499320984E-001
   8.000000000000E+000  1.000000000000E+000  2.100998826791E-004  9.997898936272E-001
   8.500000000000E+000  1.000000000000E+000  7.508463459089E-004  9.992491602898E-001
   9.000000000000E+000  1.000000000000E+000  2.927678870037E-003  9.970723390579E-001
   9.500000000000E+000  1.000000000000E+000  1.147875189781E-002  9.885212779045E-001
   1.000000000000E+001  1.000000000000E+000  3.587528690696E-002  9.641247391701E-001
   1.050000000000E+001  1.000000000000E+000  7.935174554586E-002  9.206482768059E-001
   1.100000000000E+001  1.000000000000E+000  1.291863322258E-001  8.708136677742E-001
   1.150000000000E+001  1.000000000000E+000  1.711360961199E-001  8.288639187813E-001
   1.200000000000E+001  1.000000000000E+000  2.013975083828E-001  7.986024618149E-001
   1.250000000000E+001  1.000000000000E+000  2.221056520939E-001  7.778943181038E-001
   1.300000000000E+001  1.000000000000E+000  2.359464466572E-001  7.640535235405E-001
   1.350000000000E+001  1.000000000000E+000  2.447642683983E-001  7.552357316017E-001
   1.400000000000E+001  1.000000000000E+000  2.497046142817E-001  7.502954006195E-001
   1.450000000000E+001  1.000000000000E+000  2.515317797661E-001  7.484682202339E-001
   1.500000000000E+001  1.000000000000E+000  2.508463263512E-001  7.491536736488E-001
   1.550000000000E+001  1.000000000000E+000  2.482036501169E-001  7.517963647842E-001
   1.600000000000E+001  1.000000000000E+000  2.441698610783E-001  7.558301687241E-001
   1.650000000000E+001  1.000000000000E+000  2.393223047256E-001  7.606776952744E-001
   1.700000000000E+001  1.000000000000E+000  2.342237979174E-001  7.657762169838E-001
   1.750000000000E+001  1.000000000000E+000  2.293779850006E-001  7.706220149994E-001
   1.800000000000E+001  1.000000000000E+000  2.251616120338E-001  7.748383879662E-001
   1.850000000000E+001  1.000000000000E+000  2.217207849026E-001  7.782792448997E-001
   1.900000000000E+001  1.000000000000E+000  2.189060747623E-001  7.810939550400E-001
   1.950000000000E+001  1.000000000000E+000  2.163906991482E-001  7.836093306541E-001
   2.000000000000E+001  1.000000000000E+000  2.138959467411E-001  7.861040234566E-001
   2.050000000000E+001  1.000000000000E+000  2.112773954868E-001  7.887225747108E-001
   2.100000000000E+001  1.000000000000E+000  2.084917277098E-001  7.915082573891E-001
   2.150000000000E+001  1.000000000000E+000  2.055543065071E-001  7.944456934929E-001
   2.200000000000E+001  1.000000000000E+000  2.025170624256E-001  7.974829673767E-001
   2.250000000000E+001  1.000000000000E+000  1.994595229626E-001  8.005405068398E-001
   2.300000000000E+001  1.000000000000E+000  1.964783221483E-001  8.035216927528E-001
   2.350000000000E+001  1.000000000000E+000  1.936833709478E-001  8.063166141510E-001
   2.400000000000E+001  1.000000000000E+000  1.912077218294E-001  8.087922930717E-001
   2.450000000000E+001  1.000000000000E+000  1.892223358154E-001  8.107776641846E-001
   2.500000000000E+001  1.000000000000E+000  1.879595965147E-001  8.120403885841E-001
   2.550000000000E+001  1.000000000000E+000  1.877460330725E-001  8.122539520264E-001
   2.600000000000E+001  1.000000000000E+000  1.890645176172E-001  8.109354972839E-001
   2.650000000000E+001  1.000000000000E+000  1.926763206720E-001  8.073236942291E-001
   2.700000000000E+001  1.000000000000E+000  1.998115926981E-001  8.001884222031E-001
   2.750000000000E+001  1.000000000000E+000  2.124523967505E-001  7.875475883484E-001
   2.800000000000E+001  1.000000000000E+000  2.335908263922E-001  7.664091587067E-001
   2.850000000000E+001  1.000000000000E+000  2.671908438206E-001  7.328091263771E-001
   2.900000000000E+001  1.000000000000E+000  3.172596693039E-001  6.827403306961E-001
   2.950000000000E+001  1.000000000000E+000  3.853909671307E-001  6.146090626717E-001
   3.000000000000E+001  1.000000000000E+000  4.674013555050E-001  5.325986146927E-001
   3.050000000000E+001  1.000000000000E+000  5.529654622078E-001  4.470345675945E-001
   3.100000000000E+001  1.000000000000E+000  6.311483383179E-001  3.688516914845E-001
   3.150000000000E+001  1.000000000000E+000  6.962255835533E-001  3.037744164467E-001
   3.200000000000E+001  1.000000000000E+000  7.478502988815E-001  2.521497011185E-001
   3.250000000000E+001  1.000000000000E+000  7.880708575249E-001  2.119291424751E-001
   3.300000000000E+001  1.000000000000E+000  8.192033171654E-001  1.807967126369E-001
   3.350000000000E+001  1.000000000000E+000  8.432006835938E-001  1.567992866039E-001
   3.400000000000E+001  1.000000000000E+000  8.616945743561E-001  1.383054256439E-001
   3.450000000000E+001  1.000000000000E+000  8.761352300644E-001  1.238647401333E-001
   3.500000000000E+001  1.000000000000E+000  8.878654837608E-001  1.121345236897E-001
   3.550000000000E+001  1.000000000000E+000  8.980256915092E-001  1.019743159413E-001
   3.600000000000E+001  1.000000000000E+000  9.072828888893E-001  9.271711856127E-002
   3.650000000000E+001  1.000000000000E+000  9.156505465508E-001  8.434947580099E-002
   3.700000000000E+001  1.000000000000E+000  9.226645827293E-001  7.733540982008E-002
   3.750000000000E+001  1.000000000000E+000  9.276425838470E-001  7.235740870237E-002
   3.800000000000E+001  1.000000000000E+000  9.297685623169E-001  7.023144513369E-002
   3.850000000000E+001  1.000000000000E+000  9.280220866203E-001  7.197792828083E-002
   3.900000000000E+001  1.000000000000E+000  9.212304353714E-001  7.876954972744E-002
   3.950000000000E+001  1.000000000000E+000  9.084317088127E-001  9.156829863787E-002
   4.000000000000E+001  1.000000000000E+000  8.892639279366E-001  1.107360944152E-001
   4.050000000000E+001  1.000000000000E+000  8.639253377914E-001  1.360746324062E-001
   4.100000000000E+001  1.000000000000E+000  8.329336047173E-001  1.670663803816E-001
   4.150000000000E+001  1.000000000000E+000  7.968420982361E-001  2.031578719616E-001
   4.200000000000E+001  1.000000000000E+000  7.559309601784E-001  2.440690100193E-001
   4.250000000000E+001  1.000000000000E+000  7.103579640388E-001  2.896420061588E-001
   4.300000000000E+001  1.000000000000E+000  6.607951521873E-001  3.392048776150E-001
   4.350000000000E+001  1.000000000000E+000  6.086922287941E-001  3.913077712059E-001
   4.400000000000E+001  1.000000000000E+000  5.559752583504E-001  4.440247118473E-001
   4.450000000000E+001  1.000000000000E+000  5.046880245209E-001  4.953120052814E-001
   4.500000000000E+001  1.000000000000E+000  4.568878710270E-001  5.431120991707E-001
   4.550000000000E+001  1.000000000000E+000  4.147342145443E-001  5.852657556534E-001
   4.600000000000E+001  1.000000000000E+000  3.807181715965E-001  6.192818284035E-001
   4.650000000000E+001  1.000000000000E+000  3.581286370754E-001  6.418713927269E-001
   4.700000000000E+001  1.000000000000E+000  3.523249328136E-001  6.476750969887E-001
   4.750000000000E+001  1.000000000000E+000  3.757265806198E-001  6.242734193802E-001
   4.800000000000E+001  1.000000000000E+000  4.765633046627E-001  5.234366655350E-001
   4.850000000000E+001  1.000000000000E+000  9.036772847176E-001  9.632273763418E-002
   4.900000000000E+001  1.000000000000E+000  7.498631626368E-002  9.250136613846E-001
   4.950000000000E+001  1.000000000000E+000  1.601020246744E-001  8.398979902267E-001
   5.000000000000E+001  1.000000000000E+000  1.873663067818E-001  8.126336932182E-001
   5.050000000000E+001  1.000000000000E+000  1.909094452858E-001  8.090905547142E-001
   5.100000000000E+001  1.000000000000E+000  1.802754700184E-001  8.197245001793E-001
   5.150000000000E+001  1.000000000000E+000  1.589491218328E-001  8.410508632660E-001
   5.200000000000E+001  1.000000000000E+000  1.300733685493E-001  8.699266314507E-001
   5.250000000000E+001  1.000000000000E+000  9.894999116659E-002  9.010500311852E-001
   5.300000000000E+001  1.000000000000E+000  7.417842000723E-002  9.258216023445E-001
   5.350000000000E+001  1.000000000000E+000  6.256695836782E-002  9.374330639839E-001
   5.400000000000E+001  1.000000000000E+000  6.158499419689E-002  9.384149909019E-001
   5.450000000000E+001  1.000000000000E+000  6.676591932774E-002  9.332340955734E-001
   5.500000000000E+001  1.000000000000E+000  7.612469792366E-002  9.238752722740E-001
   5.550000000000E+001  1.000000000000E+000  8.889398723841E-002  9.111059904099E-001
   5.600000000000E+001  1.000000000000E+000  1.045873537660E-001  8.954126238823E-001
   5.650000000000E+001  1.000000000000E+000  1.230719834566E-001  8.769280314445E-001
   5.700000000000E+001  1.000000000000E+000  1.445146799088E-001  8.554853200912E-001
   5.750000000000E+001  1.000000000000E+000  1.549834907055E-001  8.450164794922E-001
   5.800000000000E+001  1.000000000000E+000  1.392275989056E-001  8.607723712921E-001
   5.850000000000E+001  1.000000000000E+000  1.094866022468E-001  8.905134201050E-001
   5.900000000000E+001  1.000000000000E+000  8.108008652925E-002  9.189199209213E-001
   5.950000000000E+001  1.000000000000E+000  5.648209899664E-002  9.435179233551E-001
   6.000000000000E+001  1.000000000000E+000  3.713170439005E-002  9.628682732582E-001
   6.050000000000E+001  1.000000000000E+000  2.300243824720E-002  9.769975543022E-001
   6.100000000000E+001  1.000000000000E+000  1.272223144770E-002  9.872777462006E-001
   6.150000000000E+001  1.000000000000E+000  5.237429868430E-003  9.947625994682E-001
   6.200000000000E+001  1.000000000000E+000  1.104990020394E-003  9.988949894905E-001
   6.250000000000E+001  1.000000000000E+000  1.221882030222E-006  9.999988079071E-001
   6.300000000000E+001  1.000000000000E+000  1.095144660212E-003  9.989048838615E-001
   6.350000000000E+001  1.000000000000E+000  4.816917236894E-003  9.951831102371E-001
   6.400000000000E+001  1.000000000000E+000  1.375490613282E-002  9.862450957298E-001
   6.450000000000E+001  1.000000000000E+000  3.301616385579E-002  9.669838547707E-001
   6.500000000000E+001  1.000000000000E+000  6.881889700890E-002  9.311810731888E-001
   6.550000000000E+001  1.000000000000E+000  1.228802725673E-001  8.771197199821E-001
   6.600000000000E+001  1.000000000000E+000  1.865890324116E-001  8.134109377861E-001
   6.650000000000E+001  1.000000000000E+000  2.460763603449E-001  7.539236545563E-001
   6.700000000000E+001  1.000000000000E+000  2.932812571526E-001  7.067187428474E-001
   6.750000000000E+001  1.000000000000E+000  3.281406164169E-001  6.718593835831E-001
   6.800000000000E+001  1.000000000000E+000  3.541480898857E-001  6.458519101143E-001
   6.850000000000E+001  1.000000000000E+000  3.748269677162E-001  6.251730322838E-001
   6.900000000000E+001  1.000000000000E+000  3.924649357796E-001  6.075350642204E-001
   6.950000000000E+001  1.000000000000E+000  4.081384539604E-001  5.918615460396E-001
   7.000000000000E+001  1.000000000000E+000  4.221439361572E-001  5.778560638428E-001
   7.050000000000E+001  1.000000000000E+000  4.345032870770E-001  5.654966831207E-001
   7.100000000000E+001  1.000000000000E+000  4.453449845314E-001  5.546550154686E-001
   7.150000000000E+001  1.000000000000E+000  4.549700915813E-001  5.450299382210E-001
   7.200000000000E+001  1.000000000000E+000  4.638699889183E-001  5.361300110817E-001
   7.250000000000E+001  1.000000000000E+000  4.726459383965E-001  5.273540616035E-001
   7.300000000000E+001  1.000000000000E+000  4.813187420368E-001  5.186812877655E-001
   7.350000000000E+001  1.000000000000E+000  4.886234402657E-001  5.113765597343E-001
   7.400000000000E+001  1.000000000000E+000  4.920847415924E-001  5.079152584076E-001
   7.450000000000E+001  1.000000000000E+000  4.888592064381E-001  5.111408233643E-001
   7.500000000000E+001  1.000000000000E+000  4.769055247307E-001  5.230944752693E-001
   7.550000000000E+001  1.000000000000E+000  4.558613598347E-001  5.441386103630E-001
   7.600000000000E+001  1.000000000000E+000  4.271578192711E-001  5.728421807289E-001
   7.650000000000E+001  1.000000000000E+000  3.930389285088E-001  6.069610714912E-001
   7.700000000000E+001  1.000000000000E+000  3.550966978073E-001  6.449033021927E-001
   7.750000000000E+001  1.000000000000E+000  3.139498531818E-001  6.860501170158E-001
   7.800000000000E+001  1.000000000000E+000  2.697980105877E-001  7.302020192146E-001
   7.850000000000E+001  1.000000000000E+000  2.228641659021E-001  7.771358489990E-001
   7.900000000000E+001  1.000000000000E+000  1.739599704742E-001  8.260400295258E-001
   7.950000000000E+001  1.000000000000E+000  1.252243220806E-001  8.747757077217E-001
   8.000000000000E+001  1.000000000000E+000  8.033008128405E-002  9.196699261665E-001
   8.050000000000E+001  1.000000000000E+000  4.352596774697E-002  9.564740061760E-001
   8.100000000000E+001  1.000000000000E+000  1.784336194396E-002  9.821566343307E-001
   8.150000000000E+001  1.000000000000E+000  3.835434326902E-003  9.961645603180E-001
   8.200000000000E+001  1.000000000000E+000  2.311540447408E-005  9.999768733978E-001
   8.250000000000E+001  1.000000000000E+000  9.954105019569E-001  4.589487332851E-003
   8.300000000000E+001  1.000000000000E+000  9.863123297691E-001  1.368767954409E-002
   8.350000000000E+001  1.000000000000E+000  9.713979363441E-001  2.860207669437E-002
   8.400000000000E+001  1.000000000000E+000  5.140862241387E-002  9.485913515091E-001
   8.450000000000E+001  1.000000000000E+000  8.962666988373E-002  9.103733301163E-001
   8.500000000000E+001  1.000000000000E+000  1.446683257818E-001  8.553316593170E-001
   8.550000000000E+001  1.000000000000E+000  2.200189679861E-001  7.799810171127E-001
   8.600000000000E+001  1.000000000000E+000  3.179121017456E-001  6.820878982544E-001
   8.650000000000E+001  1.000000000000E+000  4.377395212650E-001  5.622604489326E-001
   8.700000000000E+001  1.000000000000E+000  5.740614533424E-001  4.259385168552E-001
   8.750000000000E+001  1.000000000000E+000  7.149965763092E-001  2.850034534931E-001
   8.800000000000E+001  1.000000000000E+000  8.425753116608E-001  1.574247032404E-001
   8.850000000000E+001  1.000000000000E+000  6.233964487910E-002  9.376603364944E-001
   8.900000000000E+001  1.000000000000E+000  1.274587307125E-002  9.872541427612E-001
   8.950000000000E+001  1.000000000000E+000  1.800481404644E-004  9.998199343681E-001
   9.000000000000E+001  1.000000000000E+000  1.564010977745E-002  9.843598604202E-001
   9.050000000000E+001  1.000000000000E+000  4.924394562840E-002  9.507560729980E-001
   9.100000000000E+001  1.000000000000E+000  9.373418986797E-002  9.062657952309E-001
   9.150000000000E+001  1.000000000000E+000  1.447993367910E-001  8.552006483078E-001
   9.200000000000E+001  1.000000000000E+000  2.000793218613E-001  7.999206781387E-001
   9.250000000000E+001  1.000000000000E+000  2.582365870476E-001  7.417634129524E-001
   9.300000000000E+001  1.000000000000E+000  3.183606564999E-001  6.816393136978E-001
   9.350000000000E+001  1.000000000000E+000  3.796561062336E-001  6.203439235687E-001
   9.400000000000E+001  1.000000000000E+000  4.412047863007E-001  5.587952136993E-001
   9.450000000000E+001  1.000000000000E+000  5.017970204353E-001  4.982029795647E-001
   9.500000000000E+001  1.000000000000E+000  5.598384737968E-001  4.401615262032E-001
   9.550000000000E+001  1.000000000000E+000  6.133346557617E-001  3.866653442383E-001
   9.600000000000E+001  1.000000000000E+000  6.600451469421E-001  3.399548232555E-001
   9.650000000000E+001  1.000000000000E+000  6.978418231010E-001  3.021581768990E-001
   9.700000000000E+001  1.000000000000E+000  7.254667282104E-001  2.745332717896E-001
   9.750000000000E+001  1.000000000000E+000  7.432461977005E-001  2.567538022995E-001
   9.800000000000E+001  1.000000000000E+000  7.531850337982E-001  2.468149513006E-001
   9.850000000000E+001  1.000000000000E+000  7.584723234177E-001  2.415276914835E-001
   9.900000000000E+001  1.000000000000E+000  7.626639604568E-001  2.373360246420E-001
   9.950000000000E+001  1.000000000000E+000  7.688099741936E-001  2.311900258064E-001
   1.000000000000E+002  1.000000000000E+000  7.786824107170E-001  2.213175743818E-001
