#                    1                    2                    3                    4                    5                    6                    7                    8                    9                   10
#               Time |               Ekin |               Epot |               Etot |  Energy          1 |  Energy          2 | Spin             1 | Spin             2 | f_osc            1 | f_osc            2 |
#               [fs] |               [eV] |               [eV] |               [eV] |               [eV] |               [eV] |                 [] |                 [] |                 [] |                 [] |
   0.000000000000E+000  9.374844588834E-001  1.042404332193E+001  1.136152778081E+001  4.282296295127E-001  1.042404332193E+001  0.000000000000E+000  0.000000000000E+000  0.000000000000E+000  5.398808859479E-001
   5.000000000000E-001  8.856755365883E-001  1.047807370149E+001  1.136374923808E+001  5.244297627591E-001  1.047807370149E+001  0.000000000000E+000  0.000000000000E+000  0.000000000000E+000  5.328004496664E-001
   1.000000000000E+000  8.489282383034E-001  1.051659059901E+001  1.136551883731E+001  6.457231457458E-001  1.051659059901E+001  0.000000000000E+000  0.000000000000E+000  0.000000000000E+000  5.201088130676E-001
   1.500000000000E+000  8.542940750562E-001  1.051218534807E+001  1.136647942313E+001  7.662761069775E-001  1.051218534807E+001  0.000000000000E+000  0.000000000000E+000  0.000000000000E+000  5.020736886771E-001
   2.000000000000E+000  9.175981022449E-001  1.044895126214E+001  1.136654936439E+001  8.666466569146E-001  1.044895126214E+001  0.000000000000E+000  0.000000000000E+000  0.000000000000E+000  4.801036649685E-001
   2.500000000000E+000  1.040678995348E+000  1.032500395289E+001  1.136568294824E+001  9.398134421789E-001  1.032500395289E+001  0.000000000000E+000  0.000000000000E+000  0.000000000000E+000  4.556082161155E-001
   3.000000000000E+000  1.210498977076E+000  1.015346502172E+001  1.136396399880E+001  9.961162444095E-001  1.015346502172E+001  0.000000000000E+000  0.000000000000E+000  0.000000000000E+000  4.292117608250E-001
   3.500000000000E+000  1.401453878580E+000  9.960491411369E+000  1.136194528995E+001  1.061910649445E+000  9.960491411369E+000  0.000000000000E+000  0.000000000000E+000  0.000000000000E+000  4.008616757020E-001
   4.000000000000E+000  1.584412574711E+000  9.776189796940E+000  1.136060237165E+001  1.169361329348E+000  9.776189796940E+000  0.000000000000E+000  0.000000000000E+000  0.000000000000E+000  3.702602269455E-001
   4.500000000000E+000  1.741058522384E+000  9.619737129096E+000  1.136079565148E+001  1.340406101788E+000  9.619737129096E+000  0.000000000000E+000  0.000000000000E+000  0.000000000000E+000  3.371837230127E-001
   5.000000000000E+000  1.875016484521E+000  9.487355379300E+000  1.136237186382E+001  1.573631335372E+000  9.487355379300E+000  0.000000000000E+000  0.000000000000E+000  0.000000000000E+000  3.016567483489E-001
   5.500000000000E+000  2.008483090554E+000  9.355389691563E+000  1.136387278212E+001  1.845986538946E+000  9.355389691563E+000  0.000000000000E+000  0.000000000000E+000  0.000000000000E+000  2.640325979286E-001
   6.000000000000E+000  2.162600835687E+000  9.201238562566E+000  1.136383939825E+001  2.132249752926E+000  9.201238562566E+000  0.000000000000E+000  0.000000000000E+000  0.000000000000E+000  2.249985339218E-001
   6.500000000000E+000  2.339319673913E+000  9.023325364726E+000  1.136264503864E+001  2.424157424260E+000  9.023325364726E+000  0.000000000000E+000  0.000000000000E+000  0.000000000000E+000  1.855058826888E-001
   7.000000000000E+000  2.524878098993E+000  8.836866159671E+000  1.136174425866E+001  2.726391271540E+000  8.836866159671E+000  0.000000000000E+000  0.000000000000E+000  0.000000000000E+000  1.466345779320E-001
   7.500000000000E+000  2.706892860471E+000  8.654654379523E+000  1.136154723999E+001  3.038601084258E+000  8.654654379523E+000  0.000000000000E+000  0.000000000000E+000  0.000000000000E+000  1.094381697881E-001
   8.000000000000E+000  2.880594323246E+000  8.480796766334E+000  1.136139108958E+001  3.350789127869E+000  8.480796766334E+000  0.000000000000E+000  0.000000000000E+000  0.000000000000E+000  7.486990019990E-002
   8.500000000000E+000  3.042842674718E+000  8.318438683964E+000  1.136128135868E+001  3.652990593603E+000  8.318438683964E+000  0.000000000000E+000  0.000000000000E+000  0.000000000000E+000  4.396647991246E-002
   9.000000000000E+000  3.190426807138E+000  8.170748353836E+000  1.136117516097E+001  3.937168327123E+000  8.170748353836E+000  0.000000000000E+000  0.000000000000E+000  0.000000000000E+000  1.890385545945E-002
   9.500000000000E+000  3.311535670411E+000  8.045562110275E+000  1.135709778069E+001  4.185856429586E+000  8.045562110275E+000  0.000000000000E+000  0.000000000000E+000  0.000000000000E+000  4.119775980825E-003
   1.000000000000E+001  3.367385895545E+000  7.985550396424E+000  1.135293629197E+001  4.365240402723E+000  7.985550396424E+000  0.000000000000E+000  0.000000000000E+000  0.000000000000E+000  1.658323340911E-004
   1.050000000000E+001  3.324409728418E+000  8.030585236712E+000  1.135499496513E+001  4.442560461506E+000  8.030585236712E+000  0.000000000000E+000  0.000000000000E+000  0.000000000000E+000  3.133897652672E-003
   1.100000000000E+001  3.201374210241E+000  8.158080366194E+000  1.135945457644E+001  4.413701700467E+000  8.158080366194E+000  0.000000000000E+000  0.000000000000E+000  0.000000000000E+000  1.128919177942E-002
   1.150000000000E+001  3.044987088963E+000  8.317009814198E+000  1.136199690316E+001  4.298536321125E+000  8.317009814198E+000  0.000000000000E+000  0.000000000000E+000  0.000000000000E+000  2.255555958981E-002
   1.200000000000E+001  2.888354731602E+000  8.474543590323E+000  1.136289832193E+001  4.117999945882E+000  8.474543590323E+000  0.000000000000E+000  0.000000000000E+000  0.000000000000E+000  3.421136953957E-002
   1.250000000000E+001  2.745501707963E+000  8.617724994145E+000  1.136322670211E+001  3.884666410990E+000  8.617724994145E+000  0.000000000000E+000  0.000000000000E+000  0.000000000000E+000  4.502966540407E-002
   1.300000000000E+001  2.621280979589E+000  8.741999928462E+000  1.136328090805E+001  3.604798960673E+000  8.741999928462E+000  0.000000000000E+000  0.000000000000E+000  0.000000000000E+000  5.524804543870E-002
   1.350000000000E+001  2.515964715013E+000  8.847055190244E+000  1.136301990526E+001  3.283377278177E+000  8.847055190244E+000  0.000000000000E+000  0.000000000000E+000  0.000000000000E+000  6.579774296581E-002
   1.400000000000E+001  2.424888704564E+000  8.937434536369E+000  1.136232324093E+001  2.928900839251E+000  8.937434536369E+000  0.000000000000E+000  0.000000000000E+000  0.000000000000E+000  7.793667245039E-002
   1.450000000000E+001  2.337288652353E+000  9.023925919968E+000  1.136121457232E+001  2.556889928794E+000  9.023925919968E+000  0.000000000000E+000  0.000000000000E+000  0.000000000000E+000  9.316429825746E-002
   1.500000000000E+001  2.236673463372E+000  9.123179442597E+000  1.135985290597E+001  2.190623069355E+000  9.123179442597E+000  0.000000000000E+000  0.000000000000E+000  0.000000000000E+000  1.131928699408E-001
   1.550000000000E+001  2.103588334998E+000  9.254940228613E+000  1.135852856361E+001  1.859029771572E+000  9.254940228613E+000  0.000000000000E+000  0.000000000000E+000  0.000000000000E+000  1.397745132436E-001
   1.600000000000E+001  1.920464585162E+000  9.437198268114E+000  1.135766285328E+001  1.591849628980E+000  9.437198268114E+000  0.000000000000E+000  0.000000000000E+000  0.000000000000E+000  1.742339504737E-001
   1.650000000000E+001  1.677709216016E+000  9.679954016781E+000  1.135766323280E+001  1.412794641474E+000  9.679954016781E+000  0.000000000000E+000  0.000000000000E+000  0.000000000000E+000  2.166271285902E-001
   1.700000000000E+001  1.379904880263E+000  9.978837598481E+000  1.135874247874E+001  1.332207856058E+000  9.978837598481E+000  0.000000000000E+000  0.000000000000E+000  0.000000000000E+000  2.648160750618E-001
   1.750000000000E+001  1.049300471161E+000  1.031151717471E+001  1.136081764587E+001  1.342837166822E+000  1.031151717471E+001  0.000000000000E+000  0.000000000000E+000  0.000000000000E+000  3.141143062491E-001
   1.800000000000E+001  7.250209438823E-001  1.063876018855E+001  1.136378113243E+001  1.421058466638E+000  1.063876018855E+001  0.000000000000E+000  0.000000000000E+000  0.000000000000E+000  3.580580751265E-001
   1.850000000000E+001  4.610575807391E-001  1.090667313371E+001  1.136773071445E+001  1.528560848171E+000  1.090667313371E+001  0.000000000000E+000  0.000000000000E+000  0.000000000000E+000  3.901996209930E-001
   1.900000000000E+001  3.230440512970E-001  1.104868036632E+001  1.137172441762E+001  1.609976492338E+000  1.104868036632E+001  0.000000000000E+000  0.000000000000E+000  0.000000000000E+000  4.062823386220E-001
   1.950000000000E+001  3.690163514901E-001  1.100360498107E+001  1.137262133256E+001  1.604794628510E+000  1.100360498107E+001  0.000000000000E+000  0.000000000000E+000  0.000000000000E+000  4.055286231460E-001
   2.000000000000E+001  6.069753395331E-001  1.076110719632E+001  1.136808253586E+001  1.493631771620E+000  1.076110719632E+001  0.000000000000E+000  0.000000000000E+000  0.000000000000E+000  3.899024233108E-001
   2.050000000000E+001  9.681484556923E-001  1.039243267364E+001  1.136058112933E+001  1.335077840714E+000  1.039243267364E+001  0.000000000000E+000  0.000000000000E+000  0.000000000000E+000  3.627387002276E-001
   2.100000000000E+001  1.340695155704E+000  1.001434110734E+001  1.135503626305E+001  1.231780978557E+000  1.001434110734E+001  0.000000000000E+000  0.000000000000E+000  0.000000000000E+000  3.281932964595E-001
   2.150000000000E+001  1.635018460578E+000  9.718550099420E+000  1.135356856000E+001  1.259666116281E+000  9.718550099420E+000  0.000000000000E+000  0.000000000000E+000  0.000000000000E+000  2.907432368627E-001
   2.200000000000E+001  1.817562210739E+000  9.537556572928E+000  1.135511878367E+001  1.434505788314E+000  9.537556572928E+000  0.000000000000E+000  0.000000000000E+000  0.000000000000E+000  2.543017836638E-001
   2.250000000000E+001  1.901432808421E+000  9.456447056829E+000  1.135787986525E+001  1.725236567296E+000  9.456447056829E+000  0.000000000000E+000  0.000000000000E+000  0.000000000000E+000  2.214814347707E-001
   2.300000000000E+001  1.921573422699E+000  9.438983879123E+000  1.136055730182E+001  2.081644470248E+000  9.438983879123E+000  0.000000000000E+000  0.000000000000E+000  0.000000000000E+000  1.934383226804E-001
   2.350000000000E+001  1.914666894375E+000  9.447833837495E+000  1.136250073187E+001  2.455536231558E+000  9.447833837495E+000  0.000000000000E+000  0.000000000000E+000  0.000000000000E+000  1.701773718727E-001
   2.400000000000E+001  1.908066818798E+000  9.455445677903E+000  1.136351249670E+001  2.812063592485E+000  9.455445677903E+000  0.000000000000E+000  0.000000000000E+000  0.000000000000E+000  1.510064290371E-001
   2.450000000000E+001  1.916568024441E+000  9.447219132334E+000  1.136378715678E+001  3.132721995664E+000  9.447219132334E+000  0.000000000000E+000  0.000000000000E+000  0.000000000000E+000  1.349253231053E-001
   2.500000000000E+001  1.944613547509E+000  9.419064057682E+000  1.136367760519E+001  3.412598969965E+000  9.419064057682E+000  0.000000000000E+000  0.000000000000E+000  0.000000000000E+000  1.208538978889E-001
   2.550000000000E+001  1.990847623812E+000  9.372610687953E+000  1.136345831176E+001  3.655227913584E+000  9.372610687953E+000  0.000000000000E+000  0.000000000000E+000  0.000000000000E+000  1.077396519359E-001
   2.600000000000E+001  2.052069866026E+000  9.311182621572E+000  1.136325248760E+001  3.868095766674E+000  9.311182621572E+000  0.000000000000E+000  0.000000000000E+000  0.000000000000E+000  9.461641249568E-002
   2.650000000000E+001  2.125215210277E+000  9.237869166949E+000  1.136308437723E+001  4.060253035509E+000  9.237869166949E+000  0.000000000000E+000  0.000000000000E+000  0.000000000000E+000  8.067621432052E-002
   2.700000000000E+001  2.208181973611E+000  9.154822744546E+000  1.136300471816E+001  4.240691177657E+000  9.154822744546E+000  0.000000000000E+000  0.000000000000E+000  0.000000000000E+000  6.544363510961E-002
   2.750000000000E+001  2.300846201198E+000  9.062230296572E+000  1.136307649777E+001  4.415369758298E+000  9.062230296572E+000  0.000000000000E+000  0.000000000000E+000  0.000000000000E+000  4.910317313877E-002
   2.800000000000E+001  2.406252019449E+000  8.956967139817E+000  1.136321915927E+001  4.581770091740E+000  8.956967139817E+000  0.000000000000E+000  0.000000000000E+000  0.000000000000E+000  3.280829459815E-002
   2.850000000000E+001  2.530057353829E+000  8.833045409263E+000  1.136310276309E+001  4.723060032270E+000  8.833045409263E+000  0.000000000000E+000  0.000000000000E+000  0.000000000000E+000  1.842100463992E-002
   2.900000000000E+001  2.675749759384E+000  8.686390744405E+000  1.136214050379E+001  4.808122273989E+000  8.686390744405E+000  0.000000000000E+000  0.000000000000E+000  0.000000000000E+000  7.591186959718E-003
   2.950000000000E+001  2.835181786939E+000  8.524626414431E+000  1.135980820137E+001  4.804744797024E+000  8.524626414431E+000  0.000000000000E+000  0.000000000000E+000  0.000000000000E+000  1.316506988584E-003
   3.000000000000E+001  2.980142254771E+000  8.376373897113E+000  1.135651615188E+001  4.703779950464E+000  8.376373897113E+000  0.000000000000E+000  0.000000000000E+000  0.000000000000E+000  4.146650348521E-004
   3.050000000000E+001  3.066467206967E+000  8.287391039208E+000  1.135385824617E+001  4.535480534542E+000  8.287391039208E+000  0.000000000000E+000  0.000000000000E+000  0.000000000000E+000  5.757123131042E-003
   3.100000000000E+001  3.054369466078E+000  8.299106900529E+000  1.135347636661E+001  4.357401075147E+000  8.299106900529E+000  0.000000000000E+000  0.000000000000E+000  0.000000000000E+000  1.767393300909E-002
   3.150000000000E+001  2.932180570786E+000  8.423686058116E+000  1.135586662890E+001  4.218930233985E+000  8.423686058116E+000  0.000000000000E+000  0.000000000000E+000  0.000000000000E+000  3.518035205253E-002
   3.200000000000E+001  2.725693300042E+000  8.634157132517E+000  1.135985043256E+001  4.133539550863E+000  8.634157132517E+000  0.000000000000E+000  0.000000000000E+000  0.000000000000E+000  5.591869030152E-002
   3.250000000000E+001  2.483964204729E+000  8.879178501004E+000  1.136314270573E+001  4.083128557465E+000  8.879178501004E+000  0.000000000000E+000  0.000000000000E+000  0.000000000000E+000  7.700871175608E-002
   3.300000000000E+001  2.250270023926E+000  9.114053288678E+000  1.136432331260E+001  4.047134155237E+000  9.114053288678E+000  0.000000000000E+000  0.000000000000E+000  0.000000000000E+000  9.601116159424E-002
   3.350000000000E+001  2.043309677012E+000  9.320865248291E+000  1.136417492530E+001  4.024263803444E+000  9.320865248291E+000  0.000000000000E+000  0.000000000000E+000  0.000000000000E+000  1.113181511647E-001
   3.400000000000E+001  1.864092159274E+000  9.500304460537E+000  1.136439661981E+001  4.027663865857E+000  9.500304460537E+000  0.000000000000E+000  0.000000000000E+000  0.000000000000E+000  1.219886841413E-001
   3.450000000000E+001  1.715288098547E+000  9.650441366188E+000  1.136572946474E+001  4.068010456820E+000  9.650441366188E+000  0.000000000000E+000  0.000000000000E+000  0.000000000000E+000  1.273255669193E-001
   3.500000000000E+001  1.610776695396E+000  9.756792161956E+000  1.136756885735E+001  4.145966173530E+000  9.756792161956E+000  0.000000000000E+000  0.000000000000E+000  0.000000000000E+000  1.265089738749E-001
   3.550000000000E+001  1.568463172983E+000  9.800064520911E+000  1.136852769389E+001  4.255476755192E+000  9.800064520911E+000  0.000000000000E+000  0.000000000000E+000  0.000000000000E+000  1.187098211416E-001
   3.600000000000E+001  1.594971003103E+000  9.772761978916E+000  1.136773298202E+001  4.389709967545E+000  9.772761978916E+000  0.000000000000E+000  0.000000000000E+000  0.000000000000E+000  1.039494154319E-001
   3.650000000000E+001  1.676589908179E+000  9.689023298908E+000  1.136561320709E+001  4.546544955333E+000  9.689023298908E+000  0.000000000000E+000  0.000000000000E+000  0.000000000000E+000  8.398894766484E-002
   3.700000000000E+001  1.783479007624E+000  9.579603331154E+000  1.136308233878E+001  4.733097223321E+000  9.579603331154E+000  0.000000000000E+000  0.000000000000E+000  0.000000000000E+000  6.195024975147E-002
   3.750000000000E+001  1.880183082221E+000  9.480474164549E+000  1.136065724677E+001  4.964832633638E+000  9.480474164549E+000  0.000000000000E+000  0.000000000000E+000  0.000000000000E+000  4.099967990925E-002
   3.800000000000E+001  1.933280099481E+000  9.425173557586E+000  1.135845365707E+001  5.259507702711E+000  9.425173557586E+000  0.000000000000E+000  0.000000000000E+000  0.000000000000E+000  2.346994707616E-002
   3.850000000000E+001  1.915132713645E+000  9.441666377344E+000  1.135679909099E+001  5.627762625854E+000  9.441666377344E+000  0.000000000000E+000  0.000000000000E+000  0.000000000000E+000  1.079370009034E-002
   3.900000000000E+001  1.809675452855E+000  9.547208722897E+000  1.135688417575E+001  6.063234293067E+000  9.547208722897E+000  0.000000000000E+000  0.000000000000E+000  0.000000000000E+000  3.475310426367E-003
   3.950000000000E+001  1.625607755390E+000  9.734200998961E+000  1.135980875435E+001  6.536318895620E+000  9.734200998961E+000  0.000000000000E+000  0.000000000000E+000  0.000000000000E+000  7.419250227665E-004
   4.000000000000E+001  1.404334766892E+000  9.959690036114E+000  1.136402480301E+001  6.998496903409E+000  9.959690036114E+000  0.000000000000E+000  0.000000000000E+000  0.000000000000E+000  8.131372078979E-004
   4.050000000000E+001  1.202097268097E+000  1.016467257439E+001  1.136676984249E+001  7.398662072177E+000  1.016467257439E+001  0.000000000000E+000  0.000000000000E+000  0.000000000000E+000  2.030771973800E-003
   4.100000000000E+001  1.057119179386E+000  1.030976421736E+001  1.136688339674E+001  7.706210030612E+000  1.030976421736E+001  0.000000000000E+000  0.000000000000E+000  0.000000000000E+000  3.432528452888E-003
   4.150000000000E+001  9.731430892319E-001  1.039225226216E+001  1.136539535140E+001  7.924261108100E+000  1.039225226216E+001  0.000000000000E+000  0.000000000000E+000  0.000000000000E+000  4.548525221443E-003
   4.200000000000E+001  9.306201039140E-001  1.043342716765E+001  1.136404727157E+001  8.080348599174E+000  1.043342716765E+001  0.000000000000E+000  0.000000000000E+000  0.000000000000E+000  5.103497266244E-003
   4.250000000000E+001  9.088140510642E-001  1.045471245634E+001  1.136352650740E+001  8.205382186872E+000  1.045471245634E+001  0.000000000000E+000  0.000000000000E+000  0.000000000000E+000  4.960868369742E-003
   4.300000000000E+001  8.971428805825E-001  1.046636219399E+001  1.136350507458E+001  8.320090959192E+000  1.046636219399E+001  0.000000000000E+000  0.000000000000E+000  0.000000000000E+000  4.238884089688E-003
   4.350000000000E+001  8.934056117376E-001  1.047020797887E+001  1.136361359061E+001  8.433367052152E+000  1.047020797887E+001  0.000000000000E+000  0.000000000000E+000  0.000000000000E+000  3.273722577216E-003
   4.400000000000E+001  8.989773727131E-001  1.046481060089E+001  1.136378797360E+001  8.546782195284E+000  1.046481060089E+001  0.000000000000E+000  0.000000000000E+000  0.000000000000E+000  2.390386672763E-003
   4.450000000000E+001  9.166543874821E-001  1.044738715180E+001  1.136404153928E+001  8.658865341176E+000  1.044738715180E+001  0.000000000000E+000  0.000000000000E+000  0.000000000000E+000  1.741120447758E-003
   4.500000000000E+001  9.503982753149E-001  1.041398300120E+001  1.136438127652E+001  8.767058619744E+000  1.041398300120E+001  0.000000000000E+000  0.000000000000E+000  0.000000000000E+000  1.319062755920E-003
   4.550000000000E+001  1.005334419053E+000  1.035946363307E+001  1.136479805212E+001  8.868300478192E+000  1.035946363307E+001  0.000000000000E+000  0.000000000000E+000  0.000000000000E+000  1.046216370160E-003
   4.600000000000E+001  1.087360903024E+000  1.027784526409E+001  1.136520616712E+001  8.959334258099E+000  1.027784526409E+001  0.000000000000E+000  0.000000000000E+000  0.000000000000E+000  8.452579517825E-004
   4.650000000000E+001  1.202111003432E+000  1.016340697293E+001  1.136551797636E+001  9.037823045819E+000  1.016340697293E+001  0.000000000000E+000  0.000000000000E+000  0.000000000000E+000  6.687250666856E-004
   4.700000000000E+001  1.353533048272E+000  1.001208990956E+001  1.136562295783E+001  9.103672145736E+000  1.001208990956E+001  0.000000000000E+000  0.000000000000E+000  0.000000000000E+000  4.944979280779E-004
   4.750000000000E+001  1.542046106950E+000  9.823239095976E+000  1.136528520293E+001  9.159886510969E+000  9.823239095976E+000  0.000000000000E+000  0.000000000000E+000  0.000000000000E+000  3.044189507887E-004
   4.800000000000E+001  1.758920746826E+000  9.604042419227E+000  1.136296316605E+001  9.209955185157E+000  9.604042419227E+000  0.000000000000E+000  0.000000000000E+000  0.000000000000E+000  8.222343425318E-005
   4.850000000000E+001  1.928619519790E+000  9.409591230732E+000  1.133821075052E+001  9.221861526165E+000  9.409591230732E+000  0.000000000000E+000  0.000000000000E+000  0.000000000000E+000  2.731721999089E-004
   4.900000000000E+001  2.272556173405E+000  9.065654577117E+000  1.133821075052E+001  9.065654577117E+000  9.413199732346E+000  0.000000000000E+000  0.000000000000E+000  0.000000000000E+000  1.321280139046E-003
   4.950000000000E+001  2.509473215081E+000  8.824763896700E+000  1.133423711178E+001  8.824763896700E+000  9.494506803092E+000  0.000000000000E+000  0.000000000000E+000  0.000000000000E+000  2.705756736718E-003
   5.000000000000E+001  2.774116587189E+000  8.558274106916E+000  1.133239069410E+001  8.558274106916E+000  9.615719912497E+000  0.000000000000E+000  0.000000000000E+000  0.000000000000E+000  5.213419234714E-003
   5.050000000000E+001  3.039941607524E+000  8.289272978515E+000  1.132921458604E+001  8.289272978515E+000  9.784639747970E+000  0.000000000000E+000  0.000000000000E+000  0.000000000000E+000  9.318303875580E-003
   5.100000000000E+001  3.272758544732E+000  8.052402235836E+000  1.132516078057E+001  8.052402235836E+000  1.003344975743E+001  0.000000000000E+000  0.000000000000E+000  0.000000000000E+000  1.574929993399E-002
   5.150000000000E+001  3.442934972820E+000  7.882624697542E+000  1.132555967036E+001  7.882624697542E+000  1.040009866470E+001  0.000000000000E+000  0.000000000000E+000  0.000000000000E+000  2.622360841922E-002
   5.200000000000E+001  3.598090863546E+000  7.739198663379E+000  1.133728952693E+001  7.739198663379E+000  1.085549178604E+001  0.000000000000E+000  0.000000000000E+000  0.000000000000E+000  4.516336446731E-002
   5.250000000000E+001  3.920077516100E+000  7.432375344097E+000  1.135245286020E+001  7.432375344097E+000  1.123926400083E+001  0.000000000000E+000  0.000000000000E+000  0.000000000000E+000  8.229446674813E-002
   5.300000000000E+001  4.578848767423E+000  6.764800912884E+000  1.134364968031E+001  6.764800912884E+000  1.137707605439E+001  0.000000000000E+000  0.000000000000E+000  0.000000000000E+000  1.466225410736E-001
   5.350000000000E+001  5.452612240621E+000  5.861614809722E+000  1.131422705034E+001  5.861614809722E+000  1.126406880990E+001  0.000000000000E+000  0.000000000000E+000  0.000000000000E+000  2.183668451623E-001
   5.400000000000E+001  6.202946885157E+000  5.097330031816E+000  1.130027691697E+001  5.097330031816E+000  1.110140949751E+001  0.000000000000E+000  0.000000000000E+000  0.000000000000E+000  2.695619822145E-001
   5.450000000000E+001  6.616041681644E+000  4.687158965088E+000  1.130320064673E+001  4.687158965088E+000  1.112227654722E+001  0.000000000000E+000  0.000000000000E+000  0.000000000000E+000  3.008815315356E-001
   5.500000000000E+001  6.698527650689E+000  4.614112998368E+000  1.131264064906E+001  4.614112998368E+000  1.139480753634E+001  0.000000000000E+000  0.000000000000E+000  0.000000000000E+000  3.225315743325E-001
   5.550000000000E+001  6.566093856422E+000  4.755990160562E+000  1.132208401698E+001  4.755990160562E+000  1.187013054733E+001  0.000000000000E+000  0.000000000000E+000  0.000000000000E+000  3.424306364560E-001
   5.600000000000E+001  6.348584260144E+000  4.980775511328E+000  1.132935977147E+001  4.980775511328E+000  1.247754196939E+001  0.000000000000E+000  0.000000000000E+000  0.000000000000E+000  3.656819958712E-001
   5.650000000000E+001  6.138022552850E+000  5.189027497375E+000  1.132705005022E+001  5.189027497375E+000  1.315282892313E+001  0.000000000000E+000  0.000000000000E+000  0.000000000000E+000  3.940508464634E-001
   5.700000000000E+001  5.888396580964E+000  5.440303130329E+000  1.132869971129E+001  5.440303130329E+000  1.366561820011E+001  0.000000000000E+000  0.000000000000E+000  0.000000000000E+000  4.195369177744E-001
   5.750000000000E+001  5.755355895878E+000  5.641983839287E+000  1.139733973516E+001  5.641983839287E+000  1.396796905634E+001  0.000000000000E+000  0.000000000000E+000  0.000000000000E+000  4.362345952096E-001
   5.800000000000E+001  5.634715502489E+000  6.171356277810E+000  1.180607178030E+001  6.171356277810E+000  1.312169637886E+001  0.000000000000E+000  0.000000000000E+000  0.000000000000E+000  2.623196275798E-001
   5.850000000000E+001  5.453228560865E+000  6.327303086029E+000  1.178053164689E+001  6.327303086029E+000  1.249143093183E+001  0.000000000000E+000  0.000000000000E+000  0.000000000000E+000  1.856313133373E-001
   5.900000000000E+001  5.501210878103E+000  6.271323827152E+000  1.177253470525E+001  6.271323827152E+000  1.220249392727E+001  0.000000000000E+000  0.000000000000E+000  0.000000000000E+000  1.743033936386E-001
   5.950000000000E+001  5.632971401532E+000  6.137878112247E+000  1.177084951378E+001  6.137878112247E+000  1.207153397228E+001  0.000000000000E+000  0.000000000000E+000  0.000000000000E+000  1.865566328445E-001
   6.000000000000E+001  5.814559080133E+000  5.955761571943E+000  1.177032065208E+001  5.955761571943E+000  1.201081068074E+001  0.000000000000E+000  0.000000000000E+000  0.000000000000E+000  2.084640721675E-001
   6.050000000000E+001  6.034808826082E+000  5.732183046051E+000  1.176699187213E+001  5.732183046051E+000  1.191965308904E+001  0.000000000000E+000  0.000000000000E+000  0.000000000000E+000  2.300559027741E-001
   6.100000000000E+001  6.254625944757E+000  5.506563938483E+000  1.176118988324E+001  5.506563938483E+000  1.166128235986E+001  0.000000000000E+000  0.000000000000E+000  0.000000000000E+000  2.350411162553E-001
   6.150000000000E+001  6.420025451811E+000  5.341847989702E+000  1.176187344151E+001  5.341847989702E+000  1.116381935062E+001  0.000000000000E+000  0.000000000000E+000  0.000000000000E+000  2.070142109307E-001
   6.200000000000E+001  6.496956074079E+000  5.261314538599E+000  1.175827061268E+001  5.261314538599E+000  1.056553517093E+001  0.000000000000E+000  0.000000000000E+000  0.000000000000E+000  1.563509210550E-001
   6.250000000000E+001  6.429078545336E+000  5.322412803007E+000  1.175149134834E+001  5.322412803007E+000  1.008055728883E+001  0.000000000000E+000  0.000000000000E+000  0.000000000000E+000  1.068221454529E-001
   6.300000000000E+001  6.140529293885E+000  5.608821597891E+000  1.174935089178E+001  5.608821597891E+000  9.857112370832E+000  0.000000000000E+000  0.000000000000E+000  0.000000000000E+000  7.049694272590E-002
   6.350000000000E+001  5.630868067738E+000  6.128453177333E+000  1.175932124507E+001  6.128453177333E+000  9.911562349936E+000  0.000000000000E+000  0.000000000000E+000  0.000000000000E+000  4.696412526519E-002
   6.400000000000E+001  5.060108133915E+000  6.719202252722E+000  1.177931038664E+001  6.719202252722E+000  1.008252603245E+001  0.000000000000E+000  0.000000000000E+000  0.000000000000E+000  3.194700005217E-002
   6.450000000000E+001  4.686016275258E+000  7.102245474538E+000  1.178826174980E+001  7.102245474538E+000  1.011214616801E+001  0.000000000000E+000  0.000000000000E+000  0.000000000000E+000  2.211160681842E-002
   6.500000000000E+001  4.612853437086E+000  7.163280064308E+000  1.177613350139E+001  7.163280064308E+000  9.928682119978E+000  0.000000000000E+000  0.000000000000E+000  0.000000000000E+000  1.562000278758E-002
   6.550000000000E+001  4.684592407229E+000  7.077777814513E+000  1.176237022174E+001  7.077777814513E+000  9.750616266275E+000  0.000000000000E+000  0.000000000000E+000  0.000000000000E+000  1.152876367601E-002
   6.600000000000E+001  4.693963761203E+000  7.065270918263E+000  1.175923467947E+001  7.065270918263E+000  9.811947732243E+000  0.000000000000E+000  0.000000000000E+000  0.000000000000E+000  9.289031592470E-003
   6.650000000000E+001  4.561414967696E+000  7.201272326340E+000  1.176268729404E+001  7.201272326340E+000  1.016284696265E+001  0.000000000000E+000  0.000000000000E+000  0.000000000000E+000  8.518777365281E-003
   6.700000000000E+001  4.315980718024E+000  7.451437190604E+000  1.176741790863E+001  7.451437190604E+000  1.071909309176E+001  0.000000000000E+000  0.000000000000E+000  0.000000000000E+000  9.017936702790E-003
   6.750000000000E+001  4.022409956826E+000  7.749177077841E+000  1.177158703467E+001  7.749177077841E+000  1.136159658656E+001  0.000000000000E+000  0.000000000000E+000  0.000000000000E+000  1.080349047811E-002
   6.800000000000E+001  3.744223232167E+000  8.030772451033E+000  1.177499568320E+001  8.030772451033E+000  1.198481891111E+001  0.000000000000E+000  0.000000000000E+000  0.000000000000E+000  1.395527334266E-002
   6.850000000000E+001  3.533189977798E+000  8.244160313669E+000  1.177735029147E+001  8.244160313669E+000  1.251083183218E+001  0.000000000000E+000  0.000000000000E+000  0.000000000000E+000  1.827785874605E-002
   6.900000000000E+001  3.423260003066E+000  8.354776493857E+000  1.177803649692E+001  8.354776493857E+000  1.289433302159E+001  0.000000000000E+000  0.000000000000E+000  0.000000000000E+000  2.299276842669E-002
   6.950000000000E+001  3.423857754221E+000  8.353075782366E+000  1.177693353659E+001  8.353075782366E+000  1.312343110458E+001  0.000000000000E+000  0.000000000000E+000  0.000000000000E+000  2.670516206149E-002
   7.000000000000E+001  3.517923841997E+000  8.256573874872E+000  1.177449771687E+001  8.256573874872E+000  1.321279138438E+001  0.000000000000E+000  0.000000000000E+000  0.000000000000E+000  2.775715771344E-002
   7.050000000000E+001  3.668249048353E+000  8.103369974147E+000  1.177161902250E+001  8.103369974147E+000  1.319287455619E+001  0.000000000000E+000  0.000000000000E+000  0.000000000000E+000  2.507859046999E-002
   7.100000000000E+001  3.829830776107E+000  7.939410773951E+000  1.176924155006E+001  7.939410773951E+000  1.310157192781E+001  0.000000000000E+000  0.000000000000E+000  0.000000000000E+000  1.946392727777E-002
   7.150000000000E+001  3.964503204630E+000  7.803757671587E+000  1.176826087622E+001  7.803757671587E+000  1.297814190697E+001  0.000000000000E+000  0.000000000000E+000  0.000000000000E+000  1.377855250421E-002
   7.200000000000E+001  4.054698105619E+000  7.714615899200E+000  1.176931400482E+001  7.714615899200E+000  1.285259075875E+001  0.000000000000E+000  0.000000000000E+000  0.000000000000E+000  1.057681209783E-002
   7.250000000000E+001  4.111063443172E+000  7.661002125922E+000  1.177206556909E+001  7.661002125922E+000  1.273434586709E+001  0.000000000000E+000  0.000000000000E+000  0.000000000000E+000  1.031488786316E-002
   7.300000000000E+001  4.167416022499E+000  7.607680602907E+000  1.177509662541E+001  7.607680602907E+000  1.261053869647E+001  0.000000000000E+000  0.000000000000E+000  0.000000000000E+000  1.226271064643E-002
   7.350000000000E+001  4.262298782513E+000  7.514432904810E+000  1.177673168732E+001  7.514432904810E+000  1.245688417522E+001  0.000000000000E+000  0.000000000000E+000  0.000000000000E+000  1.565105509918E-002
   7.400000000000E+001  4.416569056919E+000  7.359462985271E+000  1.177603204219E+001  7.359462985271E+000  1.225417460384E+001  0.000000000000E+000  0.000000000000E+000  0.000000000000E+000  1.993465049910E-002
   7.450000000000E+001  4.620377935147E+000  7.152876880145E+000  1.177325481529E+001  7.152876880145E+000  1.199814269310E+001  0.000000000000E+000  0.000000000000E+000  0.000000000000E+000  2.465144485062E-002
   7.500000000000E+001  4.835225229534E+000  6.934147422857E+000  1.176937265239E+001  6.934147422857E+000  1.169729553794E+001  0.000000000000E+000  0.000000000000E+000  0.000000000000E+000  2.912057860873E-002
   7.550000000000E+001  5.007819570250E+000  6.758144464164E+000  1.176596403441E+001  6.758144464164E+000  1.136736676051E+001  0.000000000000E+000  0.000000000000E+000  0.000000000000E+000  3.207557381365E-002
   7.600000000000E+001  5.093652070168E+000  6.671708319674E+000  1.176536038984E+001  6.671708319674E+000  1.102816706460E+001  0.000000000000E+000  0.000000000000E+000  0.000000000000E+000  3.199335255096E-002
   7.650000000000E+001  5.087446000453E+000  6.681733809830E+000  1.176917981028E+001  6.681733809830E+000  1.069226103459E+001  0.000000000000E+000  0.000000000000E+000  0.000000000000E+000  2.855709684038E-002
   7.700000000000E+001  5.038671374051E+000  6.736442841308E+000  1.177511421536E+001  6.736442841308E+000  1.034214957375E+001  0.000000000000E+000  0.000000000000E+000  0.000000000000E+000  2.323311617665E-002
   7.750000000000E+001  5.017564436520E+000  6.759556734986E+000  1.177712117151E+001  6.759556734986E+000  9.942368901832E+000  0.000000000000E+000  0.000000000000E+000  0.000000000000E+000  1.777484717692E-002
   7.800000000000E+001  5.044363968645E+000  6.728334121032E+000  1.177269808968E+001  6.728334121032E+000  9.504363310554E+000  0.000000000000E+000  0.000000000000E+000  0.000000000000E+000  1.312659906455E-002
   7.850000000000E+001  5.062348940825E+000  6.704172589075E+000  1.176652152990E+001  6.704172589075E+000  9.112996670643E+000  0.000000000000E+000  0.000000000000E+000  0.000000000000E+000  9.545043303394E-003
   7.900000000000E+001  4.990022973466E+000  6.773476174172E+000  1.176349914764E+001  6.773476174172E+000  8.866476227018E+000  0.000000000000E+000  0.000000000000E+000  0.000000000000E+000  6.956964219049E-003
   7.950000000000E+001  4.782470656143E+000  6.981551286224E+000  1.176402194237E+001  6.981551286224E+000  8.812068697673E+000  0.000000000000E+000  0.000000000000E+000  0.000000000000E+000  5.169655115330E-003
   8.000000000000E+001  4.443545920961E+000  7.322711018116E+000  1.176625693908E+001  7.322711018116E+000  8.939454709506E+000  0.000000000000E+000  0.000000000000E+000  0.000000000000E+000  3.964396846945E-003
   8.050000000000E+001  4.006982036714E+000  7.762173506886E+000  1.176915554360E+001  7.762173506886E+000  9.205441088689E+000  0.000000000000E+000  0.000000000000E+000  0.000000000000E+000  3.138380853376E-003
   8.100000000000E+001  3.522851436200E+000  8.250213758123E+000  1.177306519432E+001  8.250213758123E+000  9.550180206014E+000  0.000000000000E+000  0.000000000000E+000  0.000000000000E+000  2.531901642069E-003
   8.150000000000E+001  3.059617992825E+000  8.718891477060E+000  1.177850946989E+001  8.718891477060E+000  9.895911994623E+000  0.000000000000E+000  0.000000000000E+000  0.000000000000E+000  2.045970391385E-003
   8.200000000000E+001  2.706462289732E+000  9.077978612867E+000  1.178444090260E+001  9.077978612867E+000  1.014496146426E+001  0.000000000000E+000  0.000000000000E+000  0.000000000000E+000  1.637818712369E-003
   8.250000000000E+001  1.584125224947E+000  1.020031567765E+001  1.178444090260E+001  9.234435906647E+000  1.020031567765E+001  0.000000000000E+000  0.000000000000E+000  0.000000000000E+000  1.296572853952E-003
   8.300000000000E+001  1.770617575574E+000  1.001155656643E+001  1.178217414201E+001  9.125015394666E+000  1.001155656643E+001  0.000000000000E+000  0.000000000000E+000  0.000000000000E+000  1.062016432698E-003
   8.350000000000E+001  2.190447379312E+000  9.585131868013E+000  1.177557924733E+001  8.781797665812E+000  9.585131868013E+000  0.000000000000E+000  0.000000000000E+000  0.000000000000E+000  8.509406324969E-004
   8.400000000000E+001  3.472040428709E+000  8.303538818618E+000  1.177557924733E+001  8.303538818618E+000  9.021950645613E+000  0.000000000000E+000  0.000000000000E+000  0.000000000000E+000  6.676764090807E-004
   8.450000000000E+001  4.001923482287E+000  7.766971145974E+000  1.176889462826E+001  7.766971145974E+000  8.394792466506E+000  0.000000000000E+000  0.000000000000E+000  0.000000000000E+000  5.016841219527E-004
   8.500000000000E+001  4.410020291199E+000  7.355462095503E+000  1.176548238670E+001  7.355462095503E+000  7.903220993986E+000  0.000000000000E+000  0.000000000000E+000  0.000000000000E+000  3.769344192538E-004
   8.550000000000E+001  4.642141846023E+000  7.122568840801E+000  1.176471068682E+001  7.122568840801E+000  7.601085651915E+000  0.000000000000E+000  0.000000000000E+000  0.000000000000E+000  2.845165258049E-004
   8.600000000000E+001  4.684932445311E+000  7.080492966394E+000  1.176542541170E+001  7.080492966394E+000  7.501150212006E+000  0.000000000000E+000  0.000000000000E+000  0.000000000000E+000  2.178897169606E-004
   8.650000000000E+001  4.550397649163E+000  7.216235322097E+000  1.176663297126E+001  7.216235322097E+000  7.591242750145E+000  0.000000000000E+000  0.000000000000E+000  0.000000000000E+000  1.722464483497E-004
   8.700000000000E+001  4.262720029187E+000  7.505270559750E+000  1.176799058894E+001  7.505270559750E+000  7.847855351815E+000  0.000000000000E+000  0.000000000000E+000  0.000000000000E+000  1.440743124036E-004
   8.750000000000E+001  3.857210763944E+000  7.913939013861E+000  1.177114977780E+001  7.913939013861E+000  8.238657083397E+000  0.000000000000E+000  0.000000000000E+000  0.000000000000E+000  1.313090263366E-004
   8.800000000000E+001  3.405267757830E+000  8.374408146743E+000  1.177967590457E+001  8.374408146743E+000  8.697635304558E+000  0.000000000000E+000  0.000000000000E+000  0.000000000000E+000  1.338874263288E-004
   8.850000000000E+001  2.695795414662E+000  9.083880489913E+000  1.177967590457E+001  8.743601590516E+000  9.083880489913E+000  0.000000000000E+000  0.000000000000E+000  0.000000000000E+000  1.543403954673E-004
   8.900000000000E+001  2.576951592443E+000  9.204625291401E+000  1.178157688384E+001  8.833532220921E+000  9.204625291401E+000  0.000000000000E+000  0.000000000000E+000  0.000000000000E+000  1.900873235717E-004
   8.950000000000E+001  2.725071262145E+000  9.045566045096E+000  1.177063730724E+001  8.634214548537E+000  9.045566045096E+000  0.000000000000E+000  0.000000000000E+000  0.000000000000E+000  2.386961400378E-004
   9.000000000000E+001  2.992920043125E+000  8.766441193445E+000  1.175936123657E+001  8.308580271706E+000  8.766441193445E+000  0.000000000000E+000  0.000000000000E+000  0.000000000000E+000  2.975152346188E-004
   9.050000000000E+001  3.211944442584E+000  8.544310313174E+000  1.175625475576E+001  8.037627814969E+000  8.544310313174E+000  0.000000000000E+000  0.000000000000E+000  0.000000000000E+000  3.619054623162E-004
   9.100000000000E+001  3.311891684054E+000  8.446846211147E+000  1.175873789520E+001  7.892701617213E+000  8.446846211147E+000  0.000000000000E+000  0.000000000000E+000  0.000000000000E+000  4.268978295920E-004
   9.150000000000E+001  3.307160940495E+000  8.454849895482E+000  1.176201083598E+001  7.857471854871E+000  8.454849895482E+000  0.000000000000E+000  0.000000000000E+000  0.000000000000E+000  4.884208879242E-004
   9.200000000000E+001  3.235164876066E+000  8.528625943631E+000  1.176379081970E+001  7.894207495196E+000  8.528625943631E+000  0.000000000000E+000  0.000000000000E+000  0.000000000000E+000  5.436825770646E-004
   9.250000000000E+001  3.119497035131E+000  8.644468886431E+000  1.176396592156E+001  7.980263496653E+000  8.644468886431E+000  0.000000000000E+000  0.000000000000E+000  0.000000000000E+000  5.911807304774E-004
   9.300000000000E+001  2.964312120914E+000  8.799018117974E+000  1.176333023889E+001  8.112446059120E+000  8.799018117974E+000  0.000000000000E+000  0.000000000000E+000  0.000000000000E+000  6.305565535798E-004
   9.350000000000E+001  2.765232036707E+000  8.997712105440E+000  1.176294414215E+001  8.295427649317E+000  8.997712105440E+000  0.000000000000E+000  0.000000000000E+000  0.000000000000E+000  6.625202004174E-004
   9.400000000000E+001  2.526139071563E+000  9.238039782325E+000  1.176417885389E+001  8.525029415026E+000  9.238039782325E+000  0.000000000000E+000  0.000000000000E+000  0.000000000000E+000  6.889445168043E-004
   9.450000000000E+001  2.281291829584E+000  9.487836476567E+000  1.176912830615E+001  8.766730450455E+000  9.487836476567E+000  0.000000000000E+000  0.000000000000E+000  0.000000000000E+000  7.130138940532E-004
   9.500000000000E+001  2.121971603377E+000  9.656514402838E+000  1.177848600621E+001  8.927461564184E+000  9.656514402838E+000  0.000000000000E+000  0.000000000000E+000  0.000000000000E+000  7.387420111451E-004
   9.550000000000E+001  2.188384336937E+000  9.596975350725E+000  1.178535968766E+001  8.858180836649E+000  9.596975350725E+000  0.000000000000E+000  0.000000000000E+000  0.000000000000E+000  7.699778922054E-004
   9.600000000000E+001  2.568818767355E+000  9.210986224492E+000  1.177980499185E+001  8.459698419858E+000  9.210986224492E+000  0.000000000000E+000  0.000000000000E+000  0.000000000000E+000  8.096348816675E-004
   9.650000000000E+001  3.184641449530E+000  8.580643225018E+000  1.176528467455E+001  7.814257728277E+000  8.580643225018E+000  0.000000000000E+000  0.000000000000E+000  0.000000000000E+000  8.596489872003E-004
   9.700000000000E+001  3.831480927745E+000  7.921992767142E+000  1.175347369489E+001  7.139131865929E+000  7.921992767142E+000  0.000000000000E+000  0.000000000000E+000  0.000000000000E+000  9.210931901035E-004
   9.750000000000E+001  4.324297769711E+000  7.423756410373E+000  1.174805418008E+001  6.625203248316E+000  7.423756410373E+000  0.000000000000E+000  0.000000000000E+000  0.000000000000E+000  9.937624298472E-004
   9.800000000000E+001  4.564553546191E+000  7.181717409556E+000  1.174627095575E+001  6.370598302547E+000  7.181717409556E+000  0.000000000000E+000  0.000000000000E+000  0.000000000000E+000  1.076064170242E-003
   9.850000000000E+001  4.521375892664E+000  7.225819443606E+000  1.174719533627E+001  6.406717877141E+000  7.225819443606E+000  0.000000000000E+000  0.000000000000E+000  0.000000000000E+000  1.165553514017E-003
   9.900000000000E+001  4.224104696600E+000  7.530050334348E+000  1.175415503095E+001  6.707453465627E+000  7.530050334348E+000  0.000000000000E+000  0.000000000000E+000  0.000000000000E+000  1.259747284371E-003
   9.950000000000E+001  3.797499830602E+000  7.971236936399E+000  1.176873676700E+001  7.148426458314E+000  7.971236936399E+000  0.000000000000E+000  0.000000000000E+000  0.000000000000E+000  1.355533289687E-003
   1.000000000000E+002  3.456137245446E+000  8.324670907210E+000  1.178080815266E+001  7.504159246833E+000  8.324670907210E+000  0.000000000000E+000  0.000000000000E+000  0.000000000000E+000  1.446165499136E-003
