#                    1                    2                    3                    4                    5                    6
#               Time |           Sum c**2 |  === coeff_diab ===>
#               [fs] |                 [] |                 [] |
   0.000000000000E+000  1.000000000000E+000  0.000000000000E+000  1.000000000000E+000
   5.000000000000E-001  1.000000000000E+000  4.403671596265E-007  9.999995827675E-001
   1.000000000000E+000  1.000000000000E+000  5.002360921935E-006  9.999949932098E-001
   1.500000000000E+000  1.000000000000E+000  2.145212965843E-005  9.999785423279E-001
   2.000000000000E+000  1.000000000000E+000  5.954187508905E-005  9.999404549599E-001
   2.500000000000E+000  1.000000000000E+000  1.283663150389E-004  9.998716115952E-001
   3.000000000000E+000  1.000000000000E+000  2.330878633074E-004  9.997668862343E-001
   3.500000000000E+000  1.000000000000E+000  3.711355675478E-004  9.996288418770E-001
   4.000000000000E+000  1.000000000000E+000  5.294889560901E-004  9.994705319405E-001
   4.500000000000E+000  1.000000000000E+000  6.845625466667E-004  9.993154406548E-001
   5.000000000000E+000  1.000000000000E+000  8.048054296523E-004  9.991952180862E-001
   5.500000000000E+000  1.000000000000E+000  8.555821259506E-004  9.991444349289E-001
   6.000000000000E+000  1.000000000000E+000  8.050280157477E-004  9.991949796677E-001
   6.500000000000E+000  1.000000000000E+000  6.320423563011E-004  9.993679523468E-001
   7.000000000000E+000  1.000000000000E+000  3.441939770710E-004  9.996557831764E-001
   7.500000000000E+000  1.000000000000E+000  4.447892206372E-005  9.999555349350E-001
   8.000000000000E+000  1.000000000000E+000  2.083902654704E-004  9.997916221619E-001
   8.500000000000E+000  1.000000000000E+000  2.405127510428E-003  9.975948929787E-001
   9.000000000000E+000  1.000000000000E+000  6.278591230512E-003  9.937214255333E-001
   9.500000000000E+000  1.000000000000E+000  6.606944836676E-003  9.933930635452E-001
   1.000000000000E+001  1.000000000000E+000  5.242639686912E-003  9.947573542595E-001
   1.050000000000E+001  1.000000000000E+000  4.165563732386E-003  9.958344101906E-001
   1.100000000000E+001  1.000000000000E+000  3.451491706073E-003  9.965485334396E-001
   1.150000000000E+001  1.000000000000E+000  2.990586683154E-003  9.970093965530E-001
   1.200000000000E+001  1.000000000000E+000  2.696730429307E-003  9.973032474518E-001
   1.250000000000E+001  1.000000000000E+000  2.513109473512E-003  9.974868893623E-001
   1.300000000000E+001  1.000000000000E+000  2.401795936748E-003  9.975982308388E-001
   1.350000000000E+001  1.000000000000E+000  2.335642231628E-003  9.976643323898E-001
   1.400000000000E+001  1.000000000000E+000  2.293347846717E-003  9.977066516876E-001
   1.450000000000E+001  1.000000000000E+000  2.257312880829E-003  9.977427124977E-001
   1.500000000000E+001  1.000000000000E+000  2.213918603957E-003  9.977861046791E-001
   1.550000000000E+001  1.000000000000E+000  2.154816174880E-003  9.978451728821E-001
   1.600000000000E+001  1.000000000000E+000  2.078145975247E-003  9.979218244553E-001
   1.650000000000E+001  1.000000000000E+000  1.986980438232E-003  9.980130195618E-001
   1.700000000000E+001  1.000000000000E+000  1.885984558612E-003  9.981139898300E-001
   1.750000000000E+001  1.000000000000E+000  1.778942300007E-003  9.982210397720E-001
   1.800000000000E+001  1.000000000000E+000  1.668920740485E-003  9.983310699463E-001
   1.850000000000E+001  1.000000000000E+000  1.560856006108E-003  9.984391331673E-001
   1.900000000000E+001  1.000000000000E+000  1.464579603635E-003  9.985353946686E-001
   1.950000000000E+001  1.000000000000E+000  1.395325176418E-003  9.986046552658E-001
   2.000000000000E+001  1.000000000000E+000  1.372417085804E-003  9.986276030540E-001
   2.050000000000E+001  1.000000000000E+000  1.415149890818E-003  9.985848665237E-001
   2.100000000000E+001  1.000000000000E+000  1.540429424495E-003  9.984595775604E-001
   2.150000000000E+001  1.000000000000E+000  1.760389306583E-003  9.982396364212E-001
   2.200000000000E+001  1.000000000000E+000  2.081424696371E-003  9.979185461998E-001
   2.250000000000E+001  1.000000000000E+000  2.503039548174E-003  9.974969625473E-001
   2.300000000000E+001  1.000000000000E+000  3.017924027517E-003  9.969820976257E-001
   2.350000000000E+001  1.000000000000E+000  3.612256376073E-003  9.963877201080E-001
   2.400000000000E+001  1.000000000000E+000  4.265155643225E-003  9.957348704338E-001
   2.450000000000E+001  1.000000000000E+000  4.945602733642E-003  9.950544238091E-001
   2.500000000000E+001  1.000000000000E+000  5.606595892459E-003  9.943934082985E-001
   2.550000000000E+001  1.000000000000E+000  6.178169511259E-003  9.938218593597E-001
   2.600000000000E+001  1.000000000000E+000  6.554650142789E-003  9.934453368187E-001
   2.650000000000E+001  1.000000000000E+000  6.584687624127E-003  9.934152960777E-001
   2.700000000000E+001  1.000000000000E+000  6.068541202694E-003  9.939314723015E-001
   2.750000000000E+001  1.000000000000E+000  4.815010353923E-003  9.951850175858E-001
   2.800000000000E+001  1.000000000000E+000  2.847961150110E-003  9.971520304680E-001
   2.850000000000E+001  1.000000000000E+000  7.762122550048E-004  9.992237687111E-001
   2.900000000000E+001  1.000000000000E+000  6.704999395879E-005  9.999329447746E-001
   2.950000000000E+001  1.000000000000E+000  3.096138127148E-003  9.969038367271E-001
   3.000000000000E+001  1.000000000000E+000  1.415204908699E-002  9.858479499817E-001
   3.050000000000E+001  1.000000000000E+000  5.777075514197E-002  9.422292709351E-001
   3.100000000000E+001  1.000000000000E+000  6.277867942117E-004  9.993721842766E-001
   3.150000000000E+001  1.000000000000E+000  3.409964591265E-002  9.659003615379E-001
   3.200000000000E+001  1.000000000000E+000  6.466302275658E-002  9.353369474411E-001
   3.250000000000E+001  1.000000000000E+000  9.491007030010E-002  9.050899147987E-001
   3.300000000000E+001  1.000000000000E+000  1.231345906854E-001  8.768653869629E-001
   3.350000000000E+001  1.000000000000E+000  1.463987529278E-001  8.536012768745E-001
   3.400000000000E+001  1.000000000000E+000  1.624826043844E-001  8.375173807144E-001
   3.450000000000E+001  1.000000000000E+000  1.706997156143E-001  8.293002843857E-001
   3.500000000000E+001  1.000000000000E+000  1.716977059841E-001  8.283023238182E-001
   3.550000000000E+001  1.000000000000E+000  1.668630689383E-001  8.331369161606E-001
   3.600000000000E+001  1.000000000000E+000  1.579134911299E-001  8.420864939690E-001
   3.650000000000E+001  1.000000000000E+000  1.466564834118E-001  8.533434867859E-001
   3.700000000000E+001  1.000000000000E+000  1.347325444221E-001  8.652674555779E-001
   3.750000000000E+001  1.000000000000E+000  1.233588755131E-001  8.766411542892E-001
   3.800000000000E+001  1.000000000000E+000  1.132150366902E-001  8.867849707603E-001
   3.850000000000E+001  1.000000000000E+000  1.045185402036E-001  8.954814672470E-001
   3.900000000000E+001  1.000000000000E+000  9.720084071159E-002  9.027991890907E-001
   3.950000000000E+001  1.000000000000E+000  9.108082950115E-002  9.089191555977E-001
   4.000000000000E+001  1.000000000000E+000  8.597937226295E-002  9.140205979347E-001
   4.050000000000E+001  1.000000000000E+000  8.175159990788E-002  9.182484149933E-001
   4.100000000000E+001  1.000000000000E+000  7.824731618166E-002  9.217526912689E-001
   4.150000000000E+001  1.000000000000E+000  7.521892338991E-002  9.247810840607E-001
   4.200000000000E+001  1.000000000000E+000  7.223895937204E-002  9.277610182762E-001
   4.250000000000E+001  1.000000000000E+000  6.868341565132E-002  9.313165545464E-001
   4.300000000000E+001  1.000000000000E+000  6.382263451815E-002  9.361773729324E-001
   4.350000000000E+001  1.000000000000E+000  5.699567869306E-002  9.430043101311E-001
   4.400000000000E+001  1.000000000000E+000  4.784516617656E-002  9.521548151970E-001
   4.450000000000E+001  1.000000000000E+000  3.654136508703E-002  9.634586572647E-001
   4.500000000000E+001  1.000000000000E+000  2.398280613124E-002  9.760171771049E-001
   4.550000000000E+001  1.000000000000E+000  1.191214658320E-002  9.880878329277E-001
   4.600000000000E+001  1.000000000000E+000  2.895701909438E-003  9.971042871475E-001
   4.650000000000E+001  1.000000000000E+000  1.140951135312E-004  9.998859167099E-001
   4.700000000000E+001  1.000000000000E+000  6.919954903424E-003  9.930800199509E-001
   4.750000000000E+001  1.000000000000E+000  2.618548646569E-002  9.738144874573E-001
   4.800000000000E+001  1.000000000000E+000  5.960271880031E-002  9.403972625732E-001
   4.850000000000E+001  1.000000000000E+000  1.072545275092E-001  8.927454948425E-001
   4.900000000000E+001  1.000000000000E+000  1.677912473679E-001  8.322087526321E-001
   4.950000000000E+001  1.000000000000E+000  2.393044084311E-001  7.606955766678E-001
   5.000000000000E+001  1.000000000000E+000  3.205061256886E-001  6.794939041138E-001
   5.050000000000E+001  1.000000000000E+000  4.108572900295E-001  5.891427397728E-001
   5.100000000000E+001  1.000000000000E+000  5.077759027481E-001  4.922241270542E-001
   5.150000000000E+001  1.000000000000E+000  6.020622253418E-001  3.979377746582E-001
   5.200000000000E+001  1.000000000000E+000  6.801109313965E-001  3.198890984058E-001
   5.250000000000E+001  1.000000000000E+000  7.351287603378E-001  2.648712396622E-001
   5.300000000000E+001  1.000000000000E+000  7.710959911346E-001  2.289040237665E-001
   5.350000000000E+001  1.000000000000E+000  7.958040833473E-001  2.041959464550E-001
   5.400000000000E+001  1.000000000000E+000  8.150639533997E-001  1.849360764027E-001
   5.450000000000E+001  1.000000000000E+000  8.317734599113E-001  1.682265400887E-001
   5.500000000000E+001  1.000000000000E+000  8.468814492226E-001  1.531185507774E-001
   5.550000000000E+001  1.000000000000E+000  8.603457808495E-001  1.396542042494E-001
   5.600000000000E+001  1.000000000000E+000  8.716897964478E-001  1.283102184534E-001
   5.650000000000E+001  1.000000000000E+000  8.802474737167E-001  1.197525486350E-001
   5.700000000000E+001  1.000000000000E+000  8.852618336678E-001  1.147381663322E-001
   5.750000000000E+001  1.000000000000E+000  8.859568238258E-001  1.140431761742E-001
   5.800000000000E+001  1.000000000000E+000  8.816933035851E-001  1.183066740632E-001
   5.850000000000E+001  1.000000000000E+000  8.723506331444E-001  1.276493966579E-001
   5.900000000000E+001  1.000000000000E+000  8.590191006660E-001  1.409808695316E-001
   5.950000000000E+001  1.000000000000E+000  8.447088003159E-001  1.552911847830E-001
   6.000000000000E+001  1.000000000000E+000  8.341005444527E-001  1.658994406462E-001
   6.050000000000E+001  1.000000000000E+000  8.316385149956E-001  1.683614701033E-001
   6.100000000000E+001  1.000000000000E+000  8.390688300133E-001  1.609311997890E-001
   6.150000000000E+001  1.000000000000E+000  8.545024991035E-001  1.454975157976E-001
   6.200000000000E+001  1.000000000000E+000  8.737189173698E-001  1.262810826302E-001
   6.250000000000E+001  1.000000000000E+000  8.925063610077E-001  1.074936464429E-001
   6.300000000000E+001  1.000000000000E+000  9.083967804909E-001  9.160319715738E-002
   6.350000000000E+001  1.000000000000E+000  9.210466146469E-001  7.895336300135E-002
   6.400000000000E+001  1.000000000000E+000  9.315419197083E-001  6.845809519291E-002
   6.450000000000E+001  1.000000000000E+000  9.413220286369E-001  5.867798998952E-002
   6.500000000000E+001  1.000000000000E+000  9.512208104134E-001  4.877920076251E-002
   6.550000000000E+001  1.000000000000E+000  9.610793590546E-001  3.892064467072E-002
   6.600000000000E+001  1.000000000000E+000  9.701185822487E-001  2.988141216338E-002
   6.650000000000E+001  1.000000000000E+000  9.776214957237E-001  2.237851172686E-002
   6.700000000000E+001  1.000000000000E+000  9.833191633224E-001  1.668086647987E-002
   6.750000000000E+001  1.000000000000E+000  9.873320460320E-001  1.266797631979E-002
   6.800000000000E+001  1.000000000000E+000  9.899750947952E-001  1.002491265535E-002
   6.850000000000E+001  1.000000000000E+000  9.916033148766E-001  8.396664634347E-003
   6.900000000000E+001  1.000000000000E+000  9.925335645676E-001  7.466416340321E-003
   6.950000000000E+001  1.000000000000E+000  9.930160045624E-001  6.983983796090E-003
   7.000000000000E+001  1.000000000000E+000  9.932365417480E-001  6.763446610421E-003
   7.050000000000E+001  1.000000000000E+000  9.933277964592E-001  6.672176998109E-003
   7.100000000000E+001  1.000000000000E+000  9.933740496635E-001  6.625941954553E-003
   7.150000000000E+001  1.000000000000E+000  9.934112429619E-001  6.588769610971E-003
   7.200000000000E+001  1.000000000000E+000  9.934227466583E-001  6.577246822417E-003
   7.250000000000E+001  1.000000000000E+000  9.933410286903E-001  6.658969912678E-003
   7.300000000000E+001  1.000000000000E+000  9.930587410927E-001  6.941277068108E-003
   7.350000000000E+001  1.000000000000E+000  9.924476742744E-001  7.552346680313E-003
   7.400000000000E+001  1.000000000000E+000  9.913843870163E-001  8.615612983704E-003
   7.450000000000E+001  1.000000000000E+000  9.897884130478E-001  1.021156925708E-002
   7.500000000000E+001  1.000000000000E+000  9.876720905304E-001  1.232790015638E-002
   7.550000000000E+001  1.000000000000E+000  9.851943254471E-001  1.480569783598E-002
   7.600000000000E+001  1.000000000000E+000  9.826493263245E-001  1.735066808760E-002
   7.650000000000E+001  1.000000000000E+000  9.803486466408E-001  1.965132728219E-002
   7.700000000000E+001  1.000000000000E+000  9.784465432167E-001  2.155344747007E-002
   7.750000000000E+001  1.000000000000E+000  9.768638610840E-001  2.313615567982E-002
   7.800000000000E+001  1.000000000000E+000  9.753578901291E-001  2.464210242033E-002
   7.850000000000E+001  1.000000000000E+000  9.736562967300E-001  2.634372934699E-002
   7.900000000000E+001  1.000000000000E+000  9.715223312378E-001  2.847768738866E-002
   7.950000000000E+001  1.000000000000E+000  9.687306284904E-001  3.126934915781E-002
   8.000000000000E+001  1.000000000000E+000  9.651499390602E-001  3.485004231334E-002
   8.050000000000E+001  1.000000000000E+000  9.610585570335E-001  3.894144296646E-002
   8.100000000000E+001  1.000000000000E+000  9.574954509735E-001  4.250455647707E-002
   8.150000000000E+001  1.000000000000E+000  9.562311172485E-001  4.376888647676E-002
   8.200000000000E+001  1.000000000000E+000  9.590830802917E-001  4.091691970825E-002
   8.250000000000E+001  1.000000000000E+000  9.668481945992E-001  3.315178677440E-002
   8.300000000000E+001  1.000000000000E+000  9.784338474274E-001  2.156612463295E-002
   8.350000000000E+001  1.000000000000E+000  9.906342625618E-001  9.365742094815E-003
   8.400000000000E+001  1.000000000000E+000  9.988345503807E-001  1.165452296846E-003
   8.450000000000E+001  1.000000000000E+000  9.986479878426E-001  1.352018094622E-003
   8.500000000000E+001  1.000000000000E+000  9.877444505692E-001  1.225552242249E-002
   8.550000000000E+001  1.000000000000E+000  9.664729237556E-001  3.352707251906E-002
   8.600000000000E+001  1.000000000000E+000  9.367853999138E-001  6.321458518505E-002
   8.650000000000E+001  1.000000000000E+000  9.004590511322E-001  9.954097867012E-002
   8.700000000000E+001  1.000000000000E+000  8.579554557800E-001  1.420445740223E-001
   8.750000000000E+001  1.000000000000E+000  8.084606528282E-001  1.915393620729E-001
   8.800000000000E+001  1.000000000000E+000  7.508985996246E-001  2.491013705730E-001
   8.850000000000E+001  1.000000000000E+000  6.850047707558E-001  3.149952292442E-001
   8.900000000000E+001  1.000000000000E+000  6.113002300262E-001  3.886997699738E-001
   8.950000000000E+001  1.000000000000E+000  5.300234556198E-001  4.699765145779E-001
   9.000000000000E+001  1.000000000000E+000  4.409605562687E-001  5.590394139290E-001
   9.050000000000E+001  1.000000000000E+000  3.461780548096E-001  6.538219451904E-001
   9.100000000000E+001  1.000000000000E+000  2.536907494068E-001  7.463092207909E-001
   9.150000000000E+001  1.000000000000E+000  1.755788624287E-001  8.244211077690E-001
   9.200000000000E+001  1.000000000000E+000  1.196334958076E-001  8.803665041924E-001
   9.250000000000E+001  1.000000000000E+000  8.503840863705E-002  9.149615764618E-001
   9.300000000000E+001  1.000000000000E+000  6.618094444275E-002  9.338190555573E-001
   9.350000000000E+001  1.000000000000E+000  5.730032175779E-002  9.426996707916E-001
   9.400000000000E+001  1.000000000000E+000  5.409890040755E-002  9.459010958672E-001
   9.450000000000E+001  1.000000000000E+000  5.351534113288E-002  9.464846849442E-001
   9.500000000000E+001  1.000000000000E+000  5.328953266144E-002  9.467104673386E-001
   9.550000000000E+001  1.000000000000E+000  5.184703692794E-002  9.481529593468E-001
   9.600000000000E+001  1.000000000000E+000  4.832715168595E-002  9.516728520393E-001
   9.650000000000E+001  1.000000000000E+000  4.257035255432E-002  9.574296474457E-001
   9.700000000000E+001  1.000000000000E+000  3.501726314425E-002  9.649827480316E-001
   9.750000000000E+001  1.000000000000E+000  2.656259015203E-002  9.734374284744E-001
   9.800000000000E+001  1.000000000000E+000  1.835249550641E-002  9.816474914551E-001
   9.850000000000E+001  1.000000000000E+000  1.149606425315E-002  9.885039329529E-001
   9.900000000000E+001  1.000000000000E+000  6.691177375615E-003  9.933088421822E-001
   9.950000000000E+001  1.000000000000E+000  3.928270656615E-003  9.960717558861E-001
   1.000000000000E+002  1.000000000000E+000  2.596259349957E-003  9.974037408829E-001
