#                    1                    2                    3                    4                    5                    6
#               Time |               Ekin |               Epot |               Etot |      === Energy ===>
#               [fs] |               [eV] |               [eV] |               [eV] |               [eV] |
   0.000000000000E+000  5.151325541761E-001  1.016471556838E+001  1.067984812255E+001  8.527421839898E-001  1.016471556838E+001
   5.000000000000E-001  4.508181995985E-001  1.023102726182E+001  1.068184546142E+001  9.512977346231E-001  1.023102726182E+001
   1.000000000000E+000  4.416256350727E-001  1.024109384116E+001  1.068271947624E+001  1.060150345023E+000  1.024109384116E+001
   1.500000000000E+000  4.984444696369E-001  1.018402803173E+001  1.068247250137E+001  1.163852656799E+000  1.018402803173E+001
   2.000000000000E+000  6.169468982382E-001  1.006471618172E+001  1.068166307995E+001  1.258775487688E+000  1.006471618172E+001
   2.500000000000E+000  7.848575398015E-001  9.896034717964E+000  1.068089225777E+001  1.347765692666E+000  9.896034717964E+000
   3.000000000000E+000  9.900403177784E-001  9.690341418342E+000  1.068038173612E+001  1.436248405336E+000  9.690341418342E+000
   3.500000000000E+000  1.224031744456E+000  9.456045144689E+000  1.068007688915E+001  1.530493944880E+000  9.456045144689E+000
   4.000000000000E+000  1.481450914021E+000  9.198390891245E+000  1.067984180527E+001  1.636816168694E+000  9.198390891245E+000
   4.500000000000E+000  1.758176230918E+000  8.921391248673E+000  1.067956747959E+001  1.761015455364E+000  8.921391248673E+000
   5.000000000000E+000  2.049381148046E+000  8.629740180689E+000  1.067912132873E+001  1.908122645535E+000  8.629740180689E+000
   5.500000000000E+000  2.347535568889E+000  8.330853061509E+000  1.067838863040E+001  2.082785715687E+000  8.330853061509E+000
   6.000000000000E+000  2.640715714740E+000  8.036593782382E+000  1.067730949712E+001  2.289587879202E+000  8.036593782382E+000
   6.500000000000E+000  2.912000109646E+000  7.763957485212E+000  1.067595759486E+001  2.532054098745E+000  7.763957485212E+000
   7.000000000000E+000  3.140550944864E+000  7.533961698664E+000  1.067451264353E+001  2.808931562203E+000  7.533961698664E+000
   7.500000000000E+000  3.304546697253E+000  7.368753223835E+000  1.067329992109E+001  3.106557433741E+000  7.368753223835E+000
   8.000000000000E+000  3.385953043617E+000  7.286687227593E+000  1.067264027121E+001  3.387181360529E+000  7.286687227593E+000
   8.500000000000E+000  3.374389647171E+000  7.297864847741E+000  1.067225449491E+001  3.583734356313E+000  7.297864847741E+000
   9.000000000000E+000  3.280795486264E+000  7.396179577628E+000  1.067697506389E+001  3.632460692936E+000  7.396179577628E+000
   9.500000000000E+000  3.132698817763E+000  7.544456313078E+000  1.067715513084E+001  3.532895599961E+000  7.544456313078E+000
   1.000000000000E+001  2.951241697536E+000  7.726911090883E+000  1.067815278842E+001  3.338124405593E+000  7.726911090883E+000
   1.050000000000E+001  2.749785503810E+000  7.928880240511E+000  1.067866574432E+001  3.101311078933E+000  7.928880240511E+000
   1.100000000000E+001  2.538027902422E+000  8.140872431269E+000  1.067890033369E+001  2.857265782784E+000  8.140872431269E+000
   1.150000000000E+001  2.321989505200E+000  8.357234226047E+000  1.067922373125E+001  2.624314023608E+000  8.357234226047E+000
   1.200000000000E+001  2.108133693141E+000  8.571565507362E+000  1.067969920050E+001  2.407864063946E+000  8.571565507362E+000
   1.250000000000E+001  1.904457633112E+000  8.775718370544E+000  1.068017600366E+001  2.204843738560E+000  8.775718370544E+000
   1.300000000000E+001  1.718520820867E+000  8.961933217372E+000  1.068045403824E+001  2.009178922345E+000  8.961933217372E+000
   1.350000000000E+001  1.554833698271E+000  9.125606425924E+000  1.068044012419E+001  1.816668993976E+000  9.125606425924E+000
   1.400000000000E+001  1.413609545699E+000  9.266585612450E+000  1.068019515815E+001  1.627865256088E+000  9.266585612450E+000
   1.450000000000E+001  1.291652167810E+000  9.388250158713E+000  1.067990232652E+001  1.448302504159E+000  9.388250158713E+000
   1.500000000000E+001  1.185015988525E+000  9.494772930426E+000  1.067978891895E+001  1.286223066359E+000  9.494772930426E+000
   1.550000000000E+001  1.092016672118E+000  9.587901986890E+000  1.067991865901E+001  1.148975649016E+000  9.587901986890E+000
   1.600000000000E+001  1.014157776687E+000  9.665922194580E+000  1.068007997127E+001  1.040835160531E+000  9.665922194580E+000
   1.650000000000E+001  9.531137967494E-001  9.726770114257E+000  1.067988391101E+001  9.649290052540E-001  9.726770114257E+000
   1.700000000000E+001  9.057239384760E-001  9.773510291972E+000  1.067923423045E+001  9.279220674318E-001  9.773510291972E+000
   1.750000000000E+001  8.631759139282E-001  9.815452830598E+000  1.067862874453E+001  9.408997206223E-001  9.815452830598E+000
   1.800000000000E+001  8.177863017248E-001  9.860961965307E+000  1.067874826703E+001  1.012459945783E+000  9.860961965307E+000
   1.850000000000E+001  7.722749144403E-001  9.907527445938E+000  1.067980236038E+001  1.139403228401E+000  9.907527445938E+000
   1.900000000000E+001  7.427882519755E-001  9.938538355326E+000  1.068132660730E+001  1.303788286755E+000  9.938538355326E+000
   1.950000000000E+001  7.512774217292E-001  9.930943385977E+000  1.068222080771E+001  1.480442958091E+000  9.930943385977E+000
   2.000000000000E+001  8.094498106468E-001  9.872019855366E+000  1.068146966601E+001  1.653030343881E+000  9.872019855366E+000
   2.050000000000E+001  9.057039724344E-001  9.773695329382E+000  1.067939930182E+001  1.827880356240E+000  9.773695329382E+000
   2.100000000000E+001  1.009610494368E+000  9.667864815274E+000  1.067747530964E+001  2.029468818607E+000  9.667864815274E+000
   2.150000000000E+001  1.091465107981E+000  9.585322891928E+000  1.067678799991E+001  2.280010560538E+000  9.585322891928E+000
   2.200000000000E+001  1.138141091527E+000  9.539157146526E+000  1.067729823805E+001  2.583938860692E+000  9.539157146526E+000
   2.250000000000E+001  1.154596170443E+000  9.523821354811E+000  1.067841752525E+001  2.927907623740E+000  9.523821354811E+000
   2.300000000000E+001  1.156133090576E+000  9.523460531861E+000  1.067959362244E+001  3.289643787766E+000  9.523460531861E+000
   2.350000000000E+001  1.160004676087E+000  9.520484150694E+000  1.068048882678E+001  3.646715648485E+000  9.520484150694E+000
   2.400000000000E+001  1.179906132542E+000  9.501039712129E+000  1.068094584467E+001  3.981776220799E+000  9.501039712129E+000
   2.450000000000E+001  1.223141275968E+000  9.457780142524E+000  1.068092141849E+001  4.285115938720E+000  9.457780142524E+000
   2.500000000000E+001  1.289436500013E+000  9.390993066206E+000  1.068042956622E+001  4.555514371681E+000  9.390993066206E+000
   2.550000000000E+001  1.371069186239E+000  9.308500395465E+000  1.067956958170E+001  4.799986614442E+000  9.308500395465E+000
   2.600000000000E+001  1.454884215867E+000  9.223779112386E+000  1.067866332825E+001  5.032030873967E+000  9.223779112386E+000
   2.650000000000E+001  1.527100689504E+000  9.151124173252E+000  1.067822486276E+001  5.267527985989E+000  9.151124173252E+000
   2.700000000000E+001  1.581295957894E+000  9.097624959900E+000  1.067892091779E+001  5.518600349906E+000  9.097624959900E+000
   2.750000000000E+001  1.627232019739E+000  9.053737623669E+000  1.068096964341E+001  5.787126639658E+000  9.053737623669E+000
   2.800000000000E+001  1.693448666174E+000  8.989936724616E+000  1.068338539079E+001  6.062369787402E+000  8.989936724616E+000
   2.850000000000E+001  1.816301158340E+000  8.868315444454E+000  1.068461660279E+001  6.325602918765E+000  8.868315444454E+000
   2.900000000000E+001  2.021521821038E+000  8.662750854677E+000  1.068427267572E+001  6.560623287343E+000  8.662750854677E+000
   2.950000000000E+001  2.312680862545E+000  8.369725883922E+000  1.068240674647E+001  6.766512236815E+000  8.369725883922E+000
   3.000000000000E+001  2.667739275068E+000  8.011267058968E+000  1.067900633404E+001  6.968582068562E+000  8.011267058968E+000
   3.050000000000E+001  3.039715251703E+000  7.633928703778E+000  1.067364395548E+001  7.215467688958E+000  7.633928703778E+000
   3.100000000000E+001  3.407606086531E+000  7.266037868951E+000  1.067364395548E+001  7.266037868951E+000  7.576160840641E+000
   3.150000000000E+001  3.675258824590E+000  6.994324037694E+000  1.066958286228E+001  6.994324037694E+000  8.020064771484E+000
   3.200000000000E+001  3.882341847791E+000  6.788144198528E+000  1.067048604632E+001  6.788144198528E+000  8.536264179081E+000
   3.250000000000E+001  4.041532591410E+000  6.629674895026E+000  1.067120748644E+001  6.629674895026E+000  9.017096678960E+000
   3.300000000000E+001  4.168460206352E+000  6.502688618422E+000  1.067114882477E+001  6.502688618422E+000  9.371408216900E+000
   3.350000000000E+001  4.265480299173E+000  6.405074853784E+000  1.067055515296E+001  6.405074853784E+000  9.576441096236E+000
   3.400000000000E+001  4.325554704738E+000  6.344494422010E+000  1.067004912675E+001  6.344494422010E+000  9.674506841960E+000
   3.450000000000E+001  4.343277528149E+000  6.327137912929E+000  1.067041544108E+001  6.327137912929E+000  9.724069384409E+000
   3.500000000000E+001  4.325962191636E+000  6.346100165772E+000  1.067206235741E+001  6.346100165772E+000  9.759543777092E+000
   3.550000000000E+001  4.297665777393E+000  6.376797872132E+000  1.067446364952E+001  6.376797872132E+000  9.781729762580E+000
   3.600000000000E+001  4.290667928725E+000  6.385465514233E+000  1.067613344296E+001  6.385465514233E+000  9.771092288402E+000
   3.650000000000E+001  4.325748449171E+000  6.349787852512E+000  1.067553630168E+001  6.349787852512E+000  9.712507539520E+000
   3.700000000000E+001  4.393556532476E+000  6.278991178782E+000  1.067254771126E+001  6.278991178782E+000  9.617374908863E+000
   3.750000000000E+001  4.453351793616E+000  6.215214769974E+000  1.066856656359E+001  6.215214769974E+000  9.526503853032E+000
   3.800000000000E+001  4.451370308824E+000  6.213989985587E+000  1.066536029441E+001  6.213989985587E+000  9.492529079713E+000
   3.850000000000E+001  4.345667872961E+000  6.318598436446E+000  1.066426630941E+001  6.318598436446E+000  9.556157458593E+000
   3.900000000000E+001  4.126886531243E+000  6.539357046628E+000  1.066624357787E+001  6.539357046628E+000  9.726486027409E+000
   3.950000000000E+001  3.832777893940E+000  6.838872204548E+000  1.067165009849E+001  6.838872204548E+000  9.966143215796E+000
   4.000000000000E+001  3.549326079799E+000  7.129434817177E+000  1.067876089698E+001  7.129434817177E+000  1.018768306481E+001
   4.050000000000E+001  3.381474957962E+000  7.301818389702E+000  1.068329334766E+001  7.301818389702E+000  1.028141458131E+001
   4.100000000000E+001  3.393690460169E+000  7.288029293045E+000  1.068171975321E+001  7.288029293045E+000  1.017797268248E+001
   4.150000000000E+001  3.565291232145E+000  7.110183035210E+000  1.067547426735E+001  7.110183035210E+000  9.898036387361E+000
   4.200000000000E+001  3.808623457631E+000  6.860673148955E+000  1.066929660659E+001  6.860673148955E+000  9.533673780565E+000
   4.250000000000E+001  4.030689868517E+000  6.635470375560E+000  1.066616024408E+001  6.635470375560E+000  9.182183518904E+000
   4.300000000000E+001  4.176904855457E+000  6.488888365097E+000  1.066579322055E+001  6.488888365097E+000  8.900662432789E+000
   4.350000000000E+001  4.232885040111E+000  6.433696059441E+000  1.066658109955E+001  6.433696059441E+000  8.705452318799E+000
   4.400000000000E+001  4.204599637684E+000  6.462724075288E+000  1.066732371297E+001  6.462724075288E+000  8.593225224687E+000
   4.450000000000E+001  4.101137875313E+000  6.566617410979E+000  1.066775528629E+001  6.566617410979E+000  8.558356829523E+000
   4.500000000000E+001  3.929675635951E+000  6.738688052590E+000  1.066836368854E+001  6.738688052590E+000  8.597432104632E+000
   4.550000000000E+001  3.701718127793E+000  6.968258797322E+000  1.066997692511E+001  6.968258797322E+000  8.702125727122E+000
   4.600000000000E+001  3.443017614008E+000  7.229763189469E+000  1.067278080348E+001  7.229763189469E+000  8.847788809153E+000
   4.650000000000E+001  3.194269292682E+000  7.481300323822E+000  1.067556961650E+001  7.481300323822E+000  8.991583285453E+000
   4.700000000000E+001  2.993384984996E+000  7.683003618228E+000  1.067638860322E+001  7.683003618228E+000  9.090796263121E+000
   4.750000000000E+001  2.849866383817E+000  7.824793976108E+000  1.067466035992E+001  7.824793976108E+000  9.131195916282E+000
   4.800000000000E+001  2.737775284729E+000  7.934243332156E+000  1.067201861688E+001  7.934243332156E+000  9.136340228401E+000
   4.850000000000E+001  2.617108285595E+000  8.053454500049E+000  1.067056278564E+001  8.053454500049E+000  9.146276193104E+000
   4.900000000000E+001  2.463157237933E+000  8.207981962486E+000  1.067113920042E+001  8.207981962486E+000  9.187546066321E+000
   4.950000000000E+001  2.280637453526E+000  8.392601677992E+000  1.067323913152E+001  8.392601677992E+000  9.259004520907E+000
   5.000000000000E+001  2.098111288782E+000  8.577598543278E+000  1.067570983206E+001  8.577598543278E+000  9.337909914913E+000
   5.050000000000E+001  1.952488871564E+000  8.725203429660E+000  1.067769230122E+001  8.725203429660E+000  9.396397247040E+000
   5.100000000000E+001  1.876828165309E+000  8.802376002743E+000  1.067920416805E+001  8.802376002743E+000  9.413726544738E+000
   5.150000000000E+001  1.898939278740E+000  8.781743515158E+000  1.068068279390E+001  8.781743515158E+000  9.374436843924E+000
   5.200000000000E+001  2.044990443620E+000  8.636866570008E+000  1.068185701363E+001  8.636866570008E+000  9.259000711313E+000
   5.250000000000E+001  2.333425632072E+000  8.347822080484E+000  1.068124771256E+001  8.347822080484E+000  9.046772053629E+000
   5.300000000000E+001  2.754965737197E+000  7.922670874828E+000  1.067763661202E+001  7.922670874828E+000  8.738266254482E+000
   5.350000000000E+001  3.257454874552E+000  7.414416102863E+000  1.067187097742E+001  7.414416102863E+000  8.373196695933E+000
   5.400000000000E+001  3.757550250578E+000  6.908824509037E+000  1.066637475961E+001  6.908824509037E+000  8.019405983881E+000
   5.450000000000E+001  4.173602429946E+000  6.489481029037E+000  1.066308345898E+001  6.489481029037E+000  7.740904545033E+000
   5.500000000000E+001  4.453759258503E+000  6.208630703535E+000  1.066238996204E+001  6.208630703535E+000  7.573456029085E+000
   5.550000000000E+001  4.584072223335E+000  6.079558130131E+000  1.066363035347E+001  6.079558130131E+000  7.520938330349E+000
   5.600000000000E+001  4.580537212491E+000  6.085336195380E+000  1.066587340787E+001  6.085336195380E+000  7.565059412367E+000
   5.650000000000E+001  4.475860706799E+000  6.192546326650E+000  1.066840703345E+001  6.192546326650E+000  7.676829083117E+000
   5.700000000000E+001  4.308391681426E+000  6.362453663244E+000  1.067084534467E+001  6.362453663244E+000  7.824493834544E+000
   5.750000000000E+001  4.115472558704E+000  6.557551394219E+000  1.067302395292E+001  6.557551394219E+000  7.977929032032E+000
   5.800000000000E+001  3.930229846592E+000  6.744658502323E+000  1.067488834892E+001  6.744658502323E+000  8.111314065551E+000
   5.850000000000E+001  3.779747168962E+000  6.896555168168E+000  1.067630233713E+001  6.896555168168E+000  8.205230075236E+000
   5.900000000000E+001  3.682882559140E+000  6.994156415569E+000  1.067703897471E+001  6.994156415569E+000  8.249022987965E+000
   5.950000000000E+001  3.647178854081E+000  7.029669720531E+000  1.067684857461E+001  7.029669720531E+000  8.242934440826E+000
   6.000000000000E+001  3.666320069858E+000  7.009384994433E+000  1.067570506429E+001  7.009384994433E+000  8.199149419399E+000
   6.050000000000E+001  3.720665978619E+000  6.953251447009E+000  1.067391742563E+001  6.953251447009E+000  8.140526846694E+000
   6.100000000000E+001  3.782142568631E+000  6.889903889611E+000  1.067204645824E+001  6.889903889611E+000  8.096464813379E+000
   6.150000000000E+001  3.822019620229E+000  6.848568436958E+000  1.067058805719E+001  6.848568436958E+000  8.096291476863E+000
   6.200000000000E+001  3.818122282005E+000  6.851587539998E+000  1.066970982200E+001  6.851587539998E+000  8.162587931931E+000
   6.250000000000E+001  3.758260511986E+000  6.910982371777E+000  1.066924288376E+001  6.910982371777E+000  8.307868694018E+000
   6.300000000000E+001  3.638728708884E+000  7.030152722595E+000  1.066888143148E+001  7.030152722595E+000  8.536045671668E+000
   6.350000000000E+001  3.461603433742E+000  7.207317063150E+000  1.066892049689E+001  7.207317063150E+000  8.844914198562E+000
   6.400000000000E+001  3.239061509839E+000  7.431487164527E+000  1.067054867437E+001  7.431487164527E+000  9.220902052770E+000
   6.450000000000E+001  3.006954917304E+000  7.667651227568E+000  1.067460614487E+001  7.667651227568E+000  9.623615567637E+000
   6.500000000000E+001  2.830744563596E+000  7.848705979675E+000  1.067945054327E+001  7.848705979675E+000  9.978561402935E+000
   6.550000000000E+001  2.781254703513E+000  7.900388833154E+000  1.068164353667E+001  7.900388833154E+000  1.020323028898E+001
   6.600000000000E+001  2.890172950660E+000  7.789172641952E+000  1.067934559261E+001  7.789172641952E+000  1.025520974654E+001
   6.650000000000E+001  3.125362451608E+000  7.548348357311E+000  1.067371080892E+001  7.548348357311E+000  1.015867028734E+001
   6.700000000000E+001  3.406946686731E+000  7.260792602598E+000  1.066773928933E+001  7.260792602598E+000  9.989242959555E+000
   6.750000000000E+001  3.649127998092E+000  7.015041152682E+000  1.066416915077E+001  7.015041152682E+000  9.832000889465E+000
   6.800000000000E+001  3.797811855342E+000  6.866021818566E+000  1.066383367391E+001  6.866021818566E+000  9.741759777170E+000
   6.850000000000E+001  3.842664320310E+000  6.823062118411E+000  1.066572643872E+001  6.823062118411E+000  9.728735592513E+000
   6.900000000000E+001  3.805220708211E+000  6.863191562531E+000  1.066841227074E+001  6.863191562531E+000  9.770094991183E+000
   6.950000000000E+001  3.719832436951E+000  6.951108822644E+000  1.067094125960E+001  6.951108822644E+000  9.830048744787E+000
   7.000000000000E+001  3.620830877469E+000  7.052285917999E+000  1.067311679547E+001  7.052285917999E+000  9.874293910715E+000
   7.050000000000E+001  3.539018391859E+000  7.136134259883E+000  1.067515265174E+001  7.136134259883E+000  9.874496091298E+000
   7.100000000000E+001  3.503655926923E+000  7.173508279274E+000  1.067716420620E+001  7.173508279274E+000  9.806165857401E+000
   7.150000000000E+001  3.542488330565E+000  7.136107048499E+000  1.067859537906E+001  7.136107048499E+000  9.647591517956E+000
   7.200000000000E+001  3.672934720268E+000  7.005349546206E+000  1.067828426647E+001  7.005349546206E+000  9.387856682102E+000
   7.250000000000E+001  3.887188929580E+000  6.788414951798E+000  1.067560388138E+001  6.788414951798E+000  9.041735226476E+000
   7.300000000000E+001  4.145912482934E+000  6.525563596150E+000  1.067147607908E+001  6.525563596150E+000  8.655867190902E+000
   7.350000000000E+001  4.390323219545E+000  6.277212098505E+000  1.066753531805E+001  6.277212098505E+000  8.294993899858E+000
   7.400000000000E+001  4.563642197451E+000  6.101238255993E+000  1.066488045344E+001  6.101238255993E+000  8.019343397698E+000
   7.450000000000E+001  4.627850556605E+000  6.036246042555E+000  1.066409659916E+001  6.036246042555E+000  7.868663080712E+000
   7.500000000000E+001  4.574384395552E+000  6.091392088858E+000  1.066577648441E+001  6.091392088858E+000  7.852793945872E+000
   7.550000000000E+001  4.431629429052E+000  6.237959677287E+000  1.066958910634E+001  6.237959677287E+000  7.943335471845E+000
   7.600000000000E+001  4.256311952139E+000  6.416112879533E+000  1.067242483167E+001  6.416112879533E+000  8.079654436771E+000
   7.650000000000E+001  4.090419174463E+000  6.579713433690E+000  1.067013260815E+001  6.579713433690E+000  8.212798105315E+000
   7.700000000000E+001  3.916286226595E+000  6.748930145361E+000  1.066521637196E+001  6.748930145361E+000  8.357853829258E+000
   7.750000000000E+001  3.693203126233E+000  6.973883118252E+000  1.066708624448E+001  6.973883118252E+000  8.558169343088E+000
   7.800000000000E+001  3.458220751477E+000  7.217964061313E+000  1.067618481279E+001  7.217964061313E+000  8.769711729671E+000
   7.850000000000E+001  3.314371865791E+000  7.363608095375E+000  1.067797996117E+001  7.363608095375E+000  8.868504019344E+000
   7.900000000000E+001  3.275219787277E+000  7.393633680554E+000  1.066885346783E+001  7.393633680554E+000  8.834270737879E+000
   7.950000000000E+001  3.226883696790E+000  7.435469278442E+000  1.066235297523E+001  7.435469278442E+000  8.796244461617E+000
   8.000000000000E+001  3.071340369343E+000  7.592909447406E+000  1.066424981675E+001  7.592909447406E+000  8.864294690374E+000
   8.050000000000E+001  2.811475887169E+000  7.858256631182E+000  1.066973251835E+001  7.858256631182E+000  9.038415709759E+000
   8.100000000000E+001  2.507292580634E+000  8.166667734713E+000  1.067396031535E+001  8.166667734713E+000  9.260003995036E+000
   8.150000000000E+001  2.211998066756E+000  8.463531687503E+000  1.067552975426E+001  8.463531687503E+000  9.477444721184E+000
   8.200000000000E+001  1.948113202590E+000  8.727289726461E+000  1.067540292905E+001  8.727289726461E+000  9.669316542603E+000
   8.250000000000E+001  1.718811239015E+000  8.956876798023E+000  1.067568803704E+001  8.956876798023E+000  9.833691532744E+000
   8.300000000000E+001  1.535768058680E+000  9.142399115131E+000  1.067816717381E+001  9.142399115131E+000  9.960504200719E+000
   8.350000000000E+001  1.439897066440E+000  9.242172919420E+000  1.068206998586E+001  9.242172919420E+000  1.000902400294E+001
   8.400000000000E+001  1.486144928868E+000  9.197329375160E+000  1.068347430403E+001  9.197329375160E+000  9.921649882047E+000
   8.450000000000E+001  1.692573720676E+000  8.987307016480E+000  1.067988073716E+001  8.987307016480E+000  9.678013028770E+000
   8.500000000000E+001  2.011691690604E+000  8.662798746713E+000  1.067449043732E+001  8.662798746713E+000  9.327002775920E+000
   8.550000000000E+001  2.370326260018E+000  8.301927904693E+000  1.067225416471E+001  8.301927904693E+000  8.943255867718E+000
   8.600000000000E+001  2.732808523214E+000  7.941052436739E+000  1.067386095995E+001  7.941052436739E+000  8.559286098281E+000
   8.650000000000E+001  3.112853090064E+000  7.562613653186E+000  1.067546674325E+001  7.562613653186E+000  8.154832415417E+000
   8.700000000000E+001  3.526350957699E+000  7.146630506980E+000  1.067298146468E+001  7.146630506980E+000  7.709435395941E+000
   8.750000000000E+001  3.938335884077E+000  6.727332197878E+000  1.066566808195E+001  6.727332197878E+000  7.259246451767E+000
   8.800000000000E+001  4.252988152767E+000  6.403224751795E+000  1.065621290456E+001  6.403224751795E+000  6.906371674895E+000
   8.850000000000E+001  4.356143909868E+000  6.294370508712E+000  1.065051441858E+001  6.294370508712E+000  6.774695788397E+000
   8.900000000000E+001  4.209456572960E+000  6.448875113586E+000  1.065833168655E+001  6.448875113586E+000  6.914858633407E+000
   8.950000000000E+001  3.967731147633E+000  6.713166495668E+000  1.068089764330E+001  6.713166495668E+000  7.173961620929E+000
   9.000000000000E+001  3.937361441748E+000  6.754449430350E+000  1.069181087210E+001  6.754449430350E+000  7.219194015864E+000
   9.050000000000E+001  4.249974615778E+000  6.424008534673E+000  1.067398315045E+001  6.424008534673E+000  6.904143878899E+000
   9.100000000000E+001  4.689367435435E+000  5.965278753448E+000  1.065464618888E+001  5.965278753448E+000  6.478859881689E+000
   9.150000000000E+001  4.977655359362E+000  5.674338718924E+000  1.065199407829E+001  5.674338718924E+000  6.247874961338E+000
   9.200000000000E+001  5.027517768551E+000  5.631146905665E+000  1.065866467422E+001  5.631146905665E+000  6.297111239295E+000
   9.250000000000E+001  4.898145216418E+000  5.767946967858E+000  1.066609218428E+001  5.767946967858E+000  6.560793630605E+000
   9.300000000000E+001  4.682290430029E+000  5.989642465987E+000  1.067193289602E+001  5.989642465987E+000  6.942972618870E+000
   9.350000000000E+001  4.459832058511E+000  6.216589489087E+000  1.067642154760E+001  6.216589489087E+000  7.361534860039E+000
   9.400000000000E+001  4.290941148001E+000  6.387948825124E+000  1.067888997312E+001  6.387948825124E+000  7.751674538651E+000
   9.450000000000E+001  4.205417471415E+000  6.472436090301E+000  1.067785356172E+001  6.472436090301E+000  8.076118317439E+000
   9.500000000000E+001  4.186725147614E+000  6.486894859115E+000  1.067362000673E+001  6.486894859115E+000  8.343492205084E+000
   9.550000000000E+001  4.178310139715E+000  6.490836700181E+000  1.066914683990E+001  6.490836700181E+000  8.603300511675E+000
   9.600000000000E+001  4.120168933362E+000  6.547210796238E+000  1.066737972960E+001  6.547210796238E+000  8.907645418116E+000
   9.650000000000E+001  3.986640172835E+000  6.682226607991E+000  1.066886678083E+001  6.682226607991E+000  9.272420821605E+000
   9.700000000000E+001  3.793885687935E+000  6.877642712157E+000  1.067152840009E+001  6.877642712157E+000  9.671651823565E+000
   9.750000000000E+001  3.574072405614E+000  7.098782009600E+000  1.067285441521E+001  7.098782009600E+000  1.006818808218E+001
   9.800000000000E+001  3.344567967528E+000  7.328110573016E+000  1.067267854054E+001  7.328110573016E+000  1.044948623795E+001
   9.850000000000E+001  3.104895846064E+000  7.567977833286E+000  1.067287367935E+001  7.567977833286E+000  1.082960478023E+001
   9.900000000000E+001  2.858424157645E+000  7.816017760585E+000  1.067444191823E+001  7.816017760585E+000  1.121753162911E+001
   9.950000000000E+001  2.625615306582E+000  8.050815267929E+000  1.067643057451E+001  8.050815267929E+000  1.158968975315E+001
   1.000000000000E+002  2.434816633355E+000  8.242963012779E+000  1.067777964613E+001  8.242963012779E+000  1.189402704040E+001
